{
  "ALL": [
    [
      12.5,
      6.25
    ],
    [
      12.5,
      6.25
    ],
    [
      31.25,
      6.25
    ],
    [
      31.25,
      6.25
    ],
    [
      37.5,
      6.25
    ],
    [
      37.5,
      6.25
    ],
    [
      18.75,
      6.25
    ],
    [
      18.75,
      6.25
    ],
    [
      25.0,
      6.25
    ],
    [
      25.0,
      6.25
    ],
    [
      31.25,
      6.25
    ],
    [
      31.25,
      6.25
    ],
    [
      25.0,
      6.25
    ],
    [
      25.0,
      6.25
    ],
    [
      43.75,
      6.25
    ],
    [
      43.75,
      6.25
    ],
    [
      31.25,
      6.25
    ],
    [
      31.25,
      6.25
    ],
    [
      25.0,
      6.25
    ],
    [
      25.0,
      6.25
    ],
    [
      18.75,
      6.25
    ],
    [
      18.75,
      6.25
    ],
    [
      12.5,
      6.25
    ],
    [
      12.5,
      6.25
    ],
    [
      25.0,
      6.25
    ],
    [
      25.0,
      6.25
    ],
    [
      25.0,
      6.25
    ],
    [
      25.0,
      6.25
    ],
    [
      12.5,
      6.25
    ],
    [
      12.5,
      6.25
    ],
    [
      25.0,
      6.25
    ],
    [
      25.0,
      6.25
    ],
    [
      31.25,
      6.25
    ],
    [
      31.25,
      6.25
    ],
    [
      31.25,
      6.25
    ],
    [
      31.25,
      6.25
    ],
    [
      12.5,
      6.25
    ],
    [
      12.5,
      6.25
    ],
    [
      18.75,
      6.25
    ],
    [
      18.75,
      6.25
    ],
    [
      31.25,
      6.25
    ],
    [
      31.25,
      6.25
    ],
    [
      12.5,
      6.25
    ],
    [
      12.5,
      6.25
    ],
    [
      18.75,
      6.25
    ],
    [
      18.75,
      6.25
    ],
    [
      18.75,
      6.25
    ],
    [
      18.75,
      6.25
    ],
    [
      31.25,
      6.25
    ],
    [
      31.25,
      6.25
    ],
    [
      18.75,
      6.25
    ],
    [
      18.75,
      6.25
    ],
    [
      18.75,
      6.25
    ],
    [
      18.75,
      6.25
    ],
    [
      37.5,
      6.25
    ],
    [
      37.5,
      6.25
    ],
    [
      31.25,
      6.25
    ],
    [
      31.25,
      6.25
    ],
    [
      25.0,
      6.25
    ],
    [
      25.0,
      6.25
    ],
    [
      31.25,
      6.25
    ],
    [
      31.25,
      6.25
    ],
    [
      31.25,
      6.25
    ],
    [
      31.25,
      6.25
    ],
    [
      25.0,
      6.25
    ],
    [
      25.0,
      6.25
    ],
    [
      37.5,
      6.25
    ],
    [
      37.5,
      6.25
    ],
    [
      37.5,
      6.25
    ],
    [
      37.5,
      6.25
    ],
    [
      31.25,
      6.25
    ],
    [
      31.25,
      6.25
    ],
    [
      12.5,
      6.25
    ],
    [
      12.5,
      6.25
    ],
    [
      25.0,
      6.25
    ],
    [
      25.0,
      6.25
    ],
    [
      25.0,
      6.25
    ],
    [
      25.0,
      6.25
    ],
    [
      43.75,
      6.25
    ],
    [
      43.75,
      6.25
    ],
    [
      12.5,
      6.25
    ],
    [
      12.5,
      6.25
    ],
    [
      12.5,
      6.25
    ],
    [
      12.5,
      6.25
    ],
    [
      25.0,
      6.25
    ],
    [
      25.0,
      6.25
    ],
    [
      25.0,
      6.25
    ],
    [
      25.0,
      6.25
    ],
    [
      18.75,
      6.25
    ],
    [
      18.75,
      6.25
    ],
    [
      12.5,
      6.25
    ],
    [
      12.5,
      6.25
    ],
    [
      25.0,
      6.25
    ],
    [
      25.0,
      6.25
    ],
    [
      25.0,
      6.25
    ],
    [
      25.0,
      6.25
    ],
    [
      50.0,
      6.25
    ],
    [
      50.0,
      6.25
    ],
    [
      37.5,
      6.25
    ],
    [
      37.5,
      6.25
    ],
    [
      6.25,
      6.25
    ],
    [
      6.25,
      6.25
    ],
    [
      25.0,
      6.25
    ],
    [
      25.0,
      6.25
    ],
    [
      25.0,
      6.25
    ],
    [
      25.0,
      6.25
    ],
    [
      25.0,
      6.25
    ],
    [
      25.0,
      6.25
    ],
    [
      18.75,
      6.25
    ],
    [
      18.75,
      6.25
    ],
    [
      43.75,
      6.25
    ],
    [
      43.75,
      6.25
    ],
    [
      37.5,
      6.25
    ],
    [
      37.5,
      6.25
    ],
    [
      26.666666666666668,
      6.666666666666667
    ],
    [
      26.666666666666668,
      6.666666666666667
    ],
    [
      18.75,
      6.25
    ],
    [
      18.75,
      6.25
    ]
  ],
  "PROXY-STATUS": [
    [
      6.25,
      6.25
    ],
    [
      12.5,
      6.25
    ],
    [
      6.25,
      6.25
    ],
    [
      6.25,
      6.25
    ],
    [
      12.5,
      6.25
    ],
    [
      6.25,
      6.25
    ],
    [
      6.25,
      6.25
    ],
    [
      6.25,
      6.25
    ],
    [
      18.75,
      6.25
    ],
    [
      12.5,
      6.25
    ],
    [
      12.5,
      6.25
    ],
    [
      6.25,
      6.25
    ],
    [
      12.5,
      6.25
    ],
    [
      12.5,
      6.25
    ],
    [
      6.25,
      6.25
    ],
    [
      6.25,
      6.25
    ],
    [
      6.25,
      6.25
    ],
    [
      6.25,
      6.25
    ],
    [
      12.5,
      6.25
    ],
    [
      6.25,
      6.25
    ],
    [
      6.25,
      6.25
    ],
    [
      12.5,
      6.25
    ],
    [
      12.5,
      6.25
    ],
    [
      6.25,
      6.25
    ],
    [
      12.5,
      6.25
    ],
    [
      6.25,
      6.25
    ],
    [
      12.5,
      6.25
    ],
    [
      18.75,
      6.25
    ],
    [
      12.5,
      6.25
    ],
    [
      6.25,
      6.25
    ],
    [
      6.25,
      6.25
    ],
    [
      12.5,
      6.25
    ],
    [
      6.25,
      6.25
    ],
    [
      18.75,
      6.25
    ],
    [
      31.25,
      6.25
    ],
    [
      6.25,
      6.25
    ],
    [
      6.25,
      6.25
    ],
    [
      25.0,
      6.25
    ],
    [
      12.5,
      6.25
    ],
    [
      12.5,
      6.25
    ]
  ],
  "TIMEOUT": [
    [
      6.25,
      6.25
    ],
    [
      31.25,
      6.25
    ],
    [
      25.0,
      6.25
    ],
    [
      12.5,
      6.25
    ],
    [
      18.75,
      6.25
    ],
    [
      18.75,
      6.25
    ],
    [
      18.75,
      6.25
    ],
    [
      37.5,
      6.25
    ],
    [
      25.0,
      6.25
    ],
    [
      6.25,
      6.25
    ],
    [
      18.75,
      6.25
    ],
    [
      25.0,
      6.25
    ],
    [
      12.5,
      6.25
    ],
    [
      6.25,
      6.25
    ],
    [
      12.5,
      6.25
    ],
    [
      18.75,
      6.25
    ],
    [
      25.0,
      6.25
    ],
    [
      12.5,
      6.25
    ],
    [
      12.5,
      6.25
    ],
    [
      25.0,
      6.25
    ],
    [
      6.25,
      6.25
    ],
    [
      6.25,
      6.25
    ],
    [
      12.5,
      6.25
    ],
    [
      31.25,
      6.25
    ],
    [
      18.75,
      6.25
    ],
    [
      12.5,
      6.25
    ],
    [
      25.0,
      6.25
    ],
    [
      18.75,
      6.25
    ],
    [
      18.75,
      6.25
    ],
    [
      18.75,
      6.25
    ],
    [
      31.25,
      6.25
    ],
    [
      18.75,
      6.25
    ],
    [
      37.5,
      6.25
    ],
    [
      25.0,
      6.25
    ],
    [
      12.5,
      6.25
    ],
    [
      12.5,
      6.25
    ],
    [
      25.0,
      6.25
    ],
    [
      12.5,
      6.25
    ],
    [
      37.5,
      6.25
    ],
    [
      12.5,
      6.25
    ],
    [
      6.25,
      6.25
    ],
    [
      25.0,
      6.25
    ],
    [
      12.5,
      6.25
    ],
    [
      18.75,
      6.25
    ],
    [
      12.5,
      6.25
    ],
    [
      25.0,
      6.25
    ],
    [
      18.75,
      6.25
    ],
    [
      31.25,
      6.25
    ],
    [
      6.25,
      6.25
    ],
    [
      6.25,
      6.25
    ],
    [
      18.75,
      6.25
    ],
    [
      18.75,
      6.25
    ],
    [
      25.0,
      6.25
    ],
    [
      18.75,
      6.25
    ],
    [
      18.75,
      6.25
    ],
    [
      25.0,
      6.25
    ],
    [
      26.666666666666668,
      6.666666666666667
    ],
    [
      6.25,
      6.25
    ]
  ]
}