[
  42.94610264118531,
  38.83495145631065,
  22.07432424974891,
  26.998477960804976,
  29.85431096250301,
  39.76815167573054,
  36.6947228401715,
  53.111327982367094,
  34.3147347471004,
  38.396006815291194,
  37.47160355043444,
  51.61290322580637,
  12.975932888475104,
  77.73254175694983,
  64.02048655569773,
  31.054333438141725,
  32.82482213049509,
  92.65264523302143,
  48.01402009386743,
  108.10810810810801,
  56.43539910408792,
  30.955679206296352,
  23.3918128654971,
  91.71577282003047,
  65.04065040650407,
  28.56377755958225,
  38.03257490040221,
  36.1606436594572,
  15.175456733824374,
  47.90419161676652,
  54.79752315195357,
  27.87534147293303,
  16.393005924022514,
  38.64734299516911,
  93.03731959482268,
  36.52968036529683,
  186.04651162790728,
  26.689085498485383,
  74.2686855371018,
  9.333810913325067,
  32.49905549619966,
  46.71914784274336,
  45.792787635947434,
  69.20355360247744,
  43.47826086956528,
  51.943329827158685,
  20.997375328083976,
  90.7842625480874,
  22.792022792022824,
  29.80248403704448,
  38.256278811760005,
  54.054054054054085,
  31.872509960159377,
  35.2422907488987,
  90.93079030223142,
  21.504162399434446,
  38.930198154708584,
  41.60014976053914,
  43.95604395604397,
  59.70149253731338,
  86.67952412941264,
  13.496050718158596,
  43.956043956043914,
  35.874439461883426,
  90.1042957222983,
  53.62145930801505,
  15.362634999155052,
  26.845637583892614,
  50.611769767059386,
  27.6851095638211,
  22.792022792022795,
  29.20987293705271,
  34.11121107591025,
  31.9483714317662,
  18.898813390754235,
  26.191466165536603,
  37.560272499777035,
  23.503626903426547,
  30.319338432035423,
  93.05788200260581,
  42.14541220847229,
  33.53594634248584,
  51.3841608324233,
  36.12162149958916,
  25.07632606746789,
  12.924071082390958,
  22.29176012951512
]