{
  "1048576": [
    0.164609,
    0.288,
    0.148839,
    0.208728,
    0.238908,
    0.248214,
    0.392,
    0.222571,
    0.528841,
    0.416393,
    0.283,
    0.2,
    0.435,
    0.262111,
    0.425158,
    0.150135,
    0.151506,
    0.317901,
    0.155746,
    0.170103,
    0.199749,
    0.364362,
    0.413711,
    0.201633,
    0.362,
    0.328103,
    0.398,
    0.2,
    0.375,
    0.19,
    0.194162,
    0.28972,
    0.154934,
    0.218085,
    0.200934,
    0.286365,
    0.18,
    0.404657,
    0.329,
    0.233013,
    0.179468,
    0.203508,
    0.172,
    0.372,
    0.350889,
    0.207473,
    0.347686,
    0.255101,
    0.37208,
    0.25,
    0.314741,
    0.15265,
    0.363658,
    0.339,
    0.309831,
    0.258587,
    0.14417,
    0.210098,
    0.256335,
    0.177,
    0.401248,
    0.277996,
    0.407547,
    0.378862,
    0.271,
    0.352,
    0.314,
    0.151615,
    0.343664,
    0.180873,
    0.283676,
    0.221666,
    0.358752,
    0.166,
    0.186319,
    0.45227,
    0.406,
    0.356,
    0.441988,
    0.227103,
    0.374247,
    0.347,
    0.227881,
    0.213604,
    0.42862,
    0.102242,
    0.191698,
    0.272758,
    0.469137,
    0.174397,
    0.191,
    0.364007,
    0.323,
    0.135613,
    0.396655,
    0.357895,
    0.521407,
    0.390903,
    0.180624,
    0.244777,
    0.151124,
    0.23565,
    0.228
  ],
  "51200": [
    0.240359,
    0.147406,
    0.172966,
    0.182757,
    0.187672,
    0.40245,
    0.22,
    0.201,
    0.151917,
    0.317686,
    0.224,
    0.177,
    0.283,
    0.176,
    0.412783,
    0.135874,
    0.427158,
    0.156724,
    0.299,
    0.310181,
    0.336559,
    0.154,
    0.141,
    0.240846,
    0.329,
    0.38,
    0.241,
    0.538127,
    0.353698,
    0.343542,
    0.368028,
    0.215999,
    0.334,
    0.551727,
    0.457306,
    0.526012,
    0.413288,
    0.309637,
    0.604163,
    0.280563,
    0.475724,
    0.272964,
    0.46861,
    0.497,
    0.615733,
    0.195441,
    0.221,
    0.446513,
    0.221307,
    0.386075,
    0.281273,
    0.461206,
    0.224649,
    0.215167,
    0.413411,
    0.277333,
    0.181492,
    0.244,
    0.249,
    0.178266,
    0.40441,
    0.442855,
    0.313,
    0.194249,
    0.206888,
    0.209,
    0.20854,
    0.238382,
    0.138,
    0.198,
    0.44,
    0.196004,
    0.36,
    0.238241,
    0.422,
    0.185627,
    0.329185,
    0.142,
    0.511,
    0.572,
    0.284103,
    0.154,
    0.276342,
    0.404865,
    0.142,
    0.201601,
    0.480897,
    0.311,
    0.377,
    0.184591,
    0.219,
    0.188,
    0.439643,
    0.18846,
    0.371674,
    0.313,
    0.293484,
    0.124,
    0.596486,
    0.31,
    0.49652,
    0.179131,
    0.151559,
    0.296353,
    0.287,
    0.128732,
    0.173403,
    0.378999,
    0.205935,
    0.174606,
    0.171146,
    0.250635,
    0.128,
    0.261551,
    0.352048,
    0.43546,
    0.454309,
    0.321884,
    0.397505,
    0.345492,
    0.362511,
    0.323235,
    0.202546,
    0.388579,
    0.395,
    0.508848,
    0.195766,
    0.482874,
    0.225,
    0.2903,
    0.4,
    0.211,
    0.334,
    0.43608,
    0.223286,
    0.398,
    0.281232,
    0.213595,
    0.205095,
    0.358798,
    0.469944,
    0.443755,
    0.565361,
    0.233875,
    0.361462,
    0.172377,
    0.190371,
    0.49167,
    0.174728,
    0.337,
    0.194932,
    0.268676,
    0.323855,
    0.292633,
    0.162666,
    0.270255,
    0.36056,
    0.159644,
    0.237239,
    0.266562,
    0.218114,
    0.333601,
    0.272596,
    0.178861,
    0.178,
    0.522224,
    0.222,
    0.230985,
    0.657039,
    0.18976,
    0.272459,
    0.332187,
    0.394,
    0.169284,
    0.415366,
    0.39792,
    0.203,
    0.261,
    0.448,
    0.23,
    0.559,
    0.15,
    0.356,
    0.20257,
    0.487,
    0.361333,
    0.302,
    0.431029,
    0.1683,
    0.35821,
    0.205983,
    0.285,
    0.371848,
    0.420055,
    0.177855,
    0.335183,
    0.274658,
    0.378478,
    0.422,
    0.239,
    0.494,
    0.200056,
    0.284105,
    0.399,
    0.299149,
    0.557,
    0.368,
    0.151322,
    0.361,
    0.469,
    0.145653,
    0.48972,
    0.126402,
    0.374097,
    0.296522,
    0.146684,
    0.258951,
    0.187065,
    0.189959,
    0.148897,
    0.26484,
    0.404038,
    0.346453,
    0.403884,
    0.219507,
    0.158,
    0.210892,
    0.170228,
    0.21743,
    0.20321,
    0.479,
    0.18,
    0.178592,
    0.367785,
    0.292,
    0.509029,
    0.387764,
    0.287393,
    0.440912,
    0.297,
    0.386863,
    0.137268,
    0.38144,
    0.222815,
    0.180399,
    0.158233,
    0.289,
    0.347843,
    0.380524,
    0.161869,
    0.371623,
    0.367,
    0.435,
    0.276131,
    0.411,
    0.399434,
    0.284257,
    0.184566,
    0.317182,
    0.491015,
    0.246,
    0.282797,
    0.296,
    0.420058,
    0.168638,
    0.314,
    0.317,
    0.175069,
    0.288763,
    0.34693,
    0.354166,
    0.279242,
    0.267678,
    0.451988,
    0.641886,
    0.187499,
    0.203948,
    0.196111,
    0.168,
    0.185359,
    0.409,
    0.216336,
    0.37067,
    0.235,
    0.263,
    0.181,
    0.206794,
    0.368912,
    0.416,
    0.272712,
    0.258348,
    0.146347,
    0.15733,
    0.190461,
    0.169,
    0.325407,
    0.398625,
    0.229,
    0.368502,
    0.384169,
    0.323371,
    0.319,
    0.446168,
    0.207079,
    0.192484,
    0.214836,
    0.32735,
    0.304392,
    0.254675,
    0.619607,
    0.23125,
    0.442983,
    0.269143,
    0.388737,
    0.539703,
    0.253629,
    0.358736,
    0.177111,
    0.262227,
    0.228746,
    0.139485,
    0.390333,
    0.403403,
    0.182451,
    0.279,
    0.181471,
    0.195427,
    0.383045,
    0.441819,
    0.312056,
    0.24873,
    0.449499,
    0.251904,
    0.524738,
    0.18514,
    0.21,
    0.528072,
    0.416677,
    0.218,
    0.198752,
    0.515,
    0.387135,
    0.242638,
    0.23076,
    0.111907,
    0.189677,
    0.279266,
    0.438919,
    0.317542,
    0.195488,
    0.277,
    0.229514,
    0.413587,
    0.256782,
    0.421093,
    0.367897,
    0.412889,
    0.482757,
    0.147,
    0.246857,
    0.189,
    0.361242,
    0.185,
    0.205,
    0.442,
    0.239,
    0.17,
    0.281,
    0.258711,
    0.297,
    0.209,
    0.219703,
    0.155,
    0.163162,
    0.416,
    0.28348,
    0.307713,
    0.223658,
    0.371,
    0.488,
    0.26,
    0.266,
    0.423,
    0.360767,
    0.345,
    0.141606,
    0.374,
    0.376,
    0.218,
    0.391,
    0.212,
    0.148653,
    0.118379,
    0.414393,
    0.217742,
    0.532107,
    0.280482,
    0.155,
    0.17,
    0.381,
    0.202,
    0.565,
    0.461441,
    0.157,
    0.38,
    0.44,
    0.271904,
    0.188,
    0.536124,
    0.212748,
    0.26,
    0.186,
    0.2,
    0.275648,
    0.185,
    0.342353,
    0.141,
    0.188,
    0.313,
    0.337769,
    0.323,
    0.442814,
    0.247963,
    0.427068,
    0.250942,
    0.162,
    0.447334,
    0.308724,
    0.688714,
    0.404183,
    0.398,
    0.201,
    0.392587,
    0.46987,
    0.386092,
    0.547,
    0.415181,
    0.312,
    0.33409,
    0.216,
    0.175754,
    0.90469,
    0.328,
    0.383,
    0.291386,
    0.21318,
    0.140141,
    0.158399,
    0.260348,
    0.286875,
    0.356,
    0.150369,
    0.271752,
    0.1609,
    0.21044,
    0.213709,
    0.371897,
    0.283511,
    0.139318,
    0.413,
    0.382,
    0.465774,
    0.468768,
    0.204,
    0.248,
    0.289,
    0.167379,
    0.282,
    0.325252,
    0.239,
    0.397777,
    0.198582,
    0.462499,
    0.239582,
    0.208103,
    0.147,
    0.248264,
    0.370482,
    0.154633,
    0.291,
    0.226,
    0.208227,
    0.184,
    0.188,
    0.173618,
    0.351,
    0.171928,
    0.202535,
    0.269868,
    0.378355,
    0.409096,
    0.272223,
    0.472,
    0.442144,
    0.147857,
    0.284078,
    0.38157,
    0.44839,
    0.511688,
    0.15764,
    0.178286,
    0.441,
    0.15752,
    0.417474,
    0.170116,
    0.395697,
    0.344451,
    0.517948,
    0.192784,
    0.166671,
    0.332897,
    0.151,
    0.129069,
    0.348,
    0.19,
    0.313095,
    0.254606,
    0.370404,
    0.390889,
    0.400392,
    0.212897,
    0.433565,
    0.179428,
    0.211897,
    0.514585,
    0.308844,
    0.168288,
    0.389508,
    0.52705,
    0.310145,
    0.345948,
    0.311451,
    0.413103,
    0.151236,
    0.489878,
    0.324453,
    0.212932,
    0.412862,
    0.497841,
    0.392581,
    0.204162,
    0.333,
    0.364,
    0.193,
    0.173,
    0.201771,
    0.138,
    0.190965,
    0.130354,
    0.189,
    0.142735,
    0.328366,
    0.117,
    0.122708,
    0.231423,
    0.203693,
    0.391757,
    0.211507,
    0.122,
    0.168,
    0.406459,
    0.194103,
    0.264255,
    0.172,
    0.170302,
    0.168,
    0.180703,
    0.531994,
    0.198,
    0.412,
    0.252,
    0.416,
    0.131,
    0.253,
    0.151715,
    0.207,
    0.422,
    0.48113,
    0.312,
    0.394,
    0.683442,
    0.209,
    0.176967,
    0.156539,
    0.265103,
    0.238773,
    0.200257,
    0.37939,
    0.191,
    0.251604,
    0.424225,
    0.164299,
    0.124,
    0.332103,
    0.158708
  ],
  "5242880": [
    0.294209,
    0.522069,
    0.471618,
    0.200391,
    0.434,
    0.40691,
    0.440357,
    0.177305,
    0.119753,
    0.185156,
    0.190483,
    0.229597,
    0.426,
    0.299066,
    0.2142,
    0.152,
    0.336,
    0.419877,
    0.509897,
    0.182889,
    0.183851,
    0.264222,
    0.388733,
    0.404,
    0.285351,
    0.450777,
    0.309539,
    0.388,
    0.14017,
    0.222,
    0.451758,
    0.164,
    0.161,
    0.228,
    0.435498,
    0.225,
    0.183,
    0.207794,
    0.317346,
    0.332212,
    0.514903,
    0.422346,
    0.453429,
    0.345222,
    0.220058,
    0.204103,
    0.405067,
    0.182988,
    0.316517,
    0.169,
    0.15692,
    0.328,
    0.475015,
    0.250512
  ],
  "ALL": [
    0.240359,
    0.147406,
    0.172966,
    0.182757,
    0.187672,
    0.40245,
    0.22,
    0.201,
    0.151917,
    0.317686,
    0.224,
    0.177,
    0.283,
    0.176,
    0.412783,
    0.164609,
    0.135874,
    0.427158,
    0.156724,
    0.299,
    0.310181,
    0.336559,
    0.154,
    0.141,
    0.240846,
    0.329,
    0.38,
    0.241,
    0.288,
    0.148839,
    0.208728,
    0.238908,
    0.538127,
    0.353698,
    0.343542,
    0.368028,
    0.215999,
    0.334,
    0.551727,
    0.457306,
    0.526012,
    0.413288,
    0.309637,
    0.604163,
    0.248214,
    0.392,
    0.222571,
    0.528841,
    0.280563,
    0.475724,
    0.272964,
    0.46861,
    0.497,
    0.615733,
    0.195441,
    0.221,
    0.446513,
    0.221307,
    0.386075,
    0.281273,
    0.461206,
    0.224649,
    0.416393,
    0.294209,
    0.215167,
    0.413411,
    0.277333,
    0.181492,
    0.244,
    0.249,
    0.178266,
    0.40441,
    0.442855,
    0.313,
    0.194249,
    0.206888,
    0.209,
    0.20854,
    0.238382,
    0.283,
    0.138,
    0.198,
    0.44,
    0.196004,
    0.36,
    0.238241,
    0.422,
    0.185627,
    0.329185,
    0.142,
    0.511,
    0.572,
    0.284103,
    0.2,
    0.435,
    0.522069,
    0.154,
    0.276342,
    0.404865,
    0.142,
    0.201601,
    0.480897,
    0.311,
    0.377,
    0.184591,
    0.219,
    0.188,
    0.439643,
    0.18846,
    0.371674,
    0.313,
    0.262111,
    0.293484,
    0.124,
    0.596486,
    0.31,
    0.49652,
    0.179131,
    0.151559,
    0.296353,
    0.287,
    0.128732,
    0.173403,
    0.378999,
    0.205935,
    0.174606,
    0.425158,
    0.150135,
    0.171146,
    0.250635,
    0.128,
    0.261551,
    0.352048,
    0.43546,
    0.454309,
    0.321884,
    0.397505,
    0.345492,
    0.362511,
    0.323235,
    0.202546,
    0.151506,
    0.317901,
    0.471618,
    0.388579,
    0.395,
    0.508848,
    0.195766,
    0.482874,
    0.225,
    0.2903,
    0.4,
    0.211,
    0.334,
    0.43608,
    0.223286,
    0.398,
    0.155746,
    0.170103,
    0.200391,
    0.281232,
    0.213595,
    0.205095,
    0.358798,
    0.469944,
    0.443755,
    0.565361,
    0.233875,
    0.361462,
    0.172377,
    0.190371,
    0.49167,
    0.199749,
    0.364362,
    0.413711,
    0.434,
    0.174728,
    0.337,
    0.194932,
    0.268676,
    0.323855,
    0.292633,
    0.162666,
    0.270255,
    0.36056,
    0.159644,
    0.237239,
    0.266562,
    0.201633,
    0.362,
    0.328103,
    0.40691,
    0.218114,
    0.333601,
    0.272596,
    0.178861,
    0.178,
    0.522224,
    0.222,
    0.230985,
    0.657039,
    0.18976,
    0.272459,
    0.332187,
    0.394,
    0.398,
    0.440357,
    0.177305,
    0.169284,
    0.415366,
    0.39792,
    0.203,
    0.261,
    0.448,
    0.23,
    0.559,
    0.15,
    0.356,
    0.20257,
    0.487,
    0.2,
    0.375,
    0.19,
    0.119753,
    0.361333,
    0.302,
    0.431029,
    0.1683,
    0.35821,
    0.205983,
    0.285,
    0.371848,
    0.420055,
    0.177855,
    0.335183,
    0.274658,
    0.378478,
    0.422,
    0.185156,
    0.190483,
    0.239,
    0.494,
    0.200056,
    0.284105,
    0.399,
    0.299149,
    0.557,
    0.368,
    0.151322,
    0.361,
    0.469,
    0.145653,
    0.194162,
    0.229597,
    0.426,
    0.299066,
    0.48972,
    0.126402,
    0.374097,
    0.296522,
    0.146684,
    0.258951,
    0.187065,
    0.189959,
    0.148897,
    0.26484,
    0.404038,
    0.346453,
    0.403884,
    0.219507,
    0.28972,
    0.2142,
    0.158,
    0.210892,
    0.170228,
    0.21743,
    0.20321,
    0.479,
    0.18,
    0.178592,
    0.367785,
    0.292,
    0.509029,
    0.154934,
    0.218085,
    0.200934,
    0.286365,
    0.18,
    0.387764,
    0.287393,
    0.440912,
    0.297,
    0.386863,
    0.137268,
    0.38144,
    0.222815,
    0.180399,
    0.158233,
    0.289,
    0.347843,
    0.404657,
    0.329,
    0.152,
    0.336,
    0.380524,
    0.161869,
    0.371623,
    0.367,
    0.435,
    0.276131,
    0.411,
    0.399434,
    0.284257,
    0.184566,
    0.317182,
    0.491015,
    0.233013,
    0.179468,
    0.203508,
    0.419877,
    0.246,
    0.282797,
    0.296,
    0.420058,
    0.168638,
    0.314,
    0.317,
    0.175069,
    0.288763,
    0.34693,
    0.354166,
    0.279242,
    0.267678,
    0.172,
    0.372,
    0.509897,
    0.451988,
    0.641886,
    0.187499,
    0.203948,
    0.196111,
    0.168,
    0.185359,
    0.409,
    0.216336,
    0.37067,
    0.235,
    0.263,
    0.350889,
    0.182889,
    0.183851,
    0.264222,
    0.181,
    0.206794,
    0.368912,
    0.416,
    0.272712,
    0.258348,
    0.146347,
    0.15733,
    0.190461,
    0.169,
    0.325407,
    0.398625,
    0.229,
    0.207473,
    0.347686,
    0.388733,
    0.368502,
    0.384169,
    0.323371,
    0.319,
    0.446168,
    0.207079,
    0.192484,
    0.214836,
    0.32735,
    0.304392,
    0.254675,
    0.255101,
    0.37208,
    0.25,
    0.314741,
    0.404,
    0.619607,
    0.23125,
    0.442983,
    0.269143,
    0.388737,
    0.539703,
    0.253629,
    0.358736,
    0.177111,
    0.262227,
    0.228746,
    0.139485,
    0.15265,
    0.363658,
    0.339,
    0.285351,
    0.390333,
    0.403403,
    0.182451,
    0.279,
    0.181471,
    0.195427,
    0.383045,
    0.441819,
    0.312056,
    0.24873,
    0.449499,
    0.309831,
    0.258587,
    0.14417,
    0.210098,
    0.450777,
    0.251904,
    0.524738,
    0.18514,
    0.21,
    0.528072,
    0.416677,
    0.218,
    0.198752,
    0.515,
    0.387135,
    0.242638,
    0.23076,
    0.111907,
    0.256335,
    0.177,
    0.309539,
    0.189677,
    0.279266,
    0.438919,
    0.317542,
    0.195488,
    0.277,
    0.229514,
    0.413587,
    0.256782,
    0.421093,
    0.367897,
    0.412889,
    0.482757,
    0.147,
    0.401248,
    0.277996,
    0.246857,
    0.189,
    0.361242,
    0.185,
    0.205,
    0.442,
    0.239,
    0.17,
    0.281,
    0.258711,
    0.297,
    0.209,
    0.219703,
    0.407547,
    0.378862,
    0.271,
    0.155,
    0.163162,
    0.416,
    0.28348,
    0.307713,
    0.223658,
    0.371,
    0.488,
    0.26,
    0.266,
    0.423,
    0.352,
    0.314,
    0.151615,
    0.388,
    0.14017,
    0.360767,
    0.345,
    0.141606,
    0.374,
    0.376,
    0.218,
    0.391,
    0.212,
    0.148653,
    0.118379,
    0.414393,
    0.343664,
    0.180873,
    0.283676,
    0.221666,
    0.222,
    0.217742,
    0.532107,
    0.280482,
    0.155,
    0.17,
    0.381,
    0.202,
    0.565,
    0.461441,
    0.157,
    0.38,
    0.358752,
    0.166,
    0.451758,
    0.164,
    0.161,
    0.44,
    0.271904,
    0.188,
    0.536124,
    0.212748,
    0.26,
    0.186,
    0.2,
    0.275648,
    0.185,
    0.342353,
    0.141,
    0.188,
    0.313,
    0.228,
    0.435498,
    0.337769,
    0.323,
    0.442814,
    0.247963,
    0.427068,
    0.250942,
    0.162,
    0.447334,
    0.308724,
    0.688714,
    0.404183,
    0.398,
    0.201,
    0.392587,
    0.46987,
    0.386092,
    0.547,
    0.415181,
    0.312,
    0.33409,
    0.216,
    0.175754,
    0.90469,
    0.328,
    0.383,
    0.186319,
    0.45227,
    0.406,
    0.356,
    0.441988,
    0.225,
    0.183,
    0.291386,
    0.21318,
    0.140141,
    0.158399,
    0.260348,
    0.286875,
    0.356,
    0.150369,
    0.271752,
    0.1609,
    0.21044,
    0.213709,
    0.371897,
    0.227103,
    0.374247,
    0.207794,
    0.283511,
    0.139318,
    0.413,
    0.382,
    0.465774,
    0.468768,
    0.204,
    0.248,
    0.289,
    0.167379,
    0.282,
    0.325252,
    0.239,
    0.397777,
    0.347,
    0.317346,
    0.198582,
    0.462499,
    0.239582,
    0.208103,
    0.147,
    0.248264,
    0.370482,
    0.154633,
    0.291,
    0.226,
    0.208227,
    0.184,
    0.188,
    0.173618,
    0.227881,
    0.213604,
    0.351,
    0.171928,
    0.202535,
    0.269868,
    0.378355,
    0.409096,
    0.272223,
    0.472,
    0.442144,
    0.147857,
    0.284078,
    0.38157,
    0.42862,
    0.102242,
    0.191698,
    0.332212,
    0.44839,
    0.511688,
    0.15764,
    0.178286,
    0.441,
    0.15752,
    0.417474,
    0.170116,
    0.395697,
    0.272758,
    0.469137,
    0.174397,
    0.514903,
    0.422346,
    0.453429,
    0.345222,
    0.344451,
    0.517948,
    0.192784,
    0.166671,
    0.332897,
    0.151,
    0.129069,
    0.348,
    0.19,
    0.313095,
    0.254606,
    0.370404,
    0.191,
    0.364007,
    0.323,
    0.135613,
    0.390889,
    0.400392,
    0.212897,
    0.433565,
    0.179428,
    0.211897,
    0.514585,
    0.308844,
    0.168288,
    0.389508,
    0.52705,
    0.310145,
    0.345948,
    0.311451,
    0.413103,
    0.220058,
    0.151236,
    0.489878,
    0.324453,
    0.212932,
    0.412862,
    0.497841,
    0.392581,
    0.204162,
    0.333,
    0.364,
    0.396655,
    0.357895,
    0.521407,
    0.204103,
    0.405067,
    0.182988,
    0.193,
    0.173,
    0.201771,
    0.138,
    0.190965,
    0.130354,
    0.189,
    0.142735,
    0.328366,
    0.117,
    0.122708,
    0.390903,
    0.180624,
    0.316517,
    0.169,
    0.15692,
    0.231423,
    0.203693,
    0.391757,
    0.211507,
    0.122,
    0.168,
    0.406459,
    0.194103,
    0.264255,
    0.172,
    0.170302,
    0.168,
    0.180703,
    0.244777,
    0.151124,
    0.23565,
    0.531994,
    0.198,
    0.412,
    0.252,
    0.416,
    0.131,
    0.253,
    0.151715,
    0.207,
    0.422,
    0.48113,
    0.312,
    0.394,
    0.228,
    0.328,
    0.475015,
    0.683442,
    0.209,
    0.176967,
    0.156539,
    0.265103,
    0.238773,
    0.200257,
    0.37939,
    0.191,
    0.251604,
    0.424225,
    0.164299,
    0.124,
    0.332103,
    0.158708,
    0.250512
  ]
}