{
  "ALL": [
    [
      12.5,
      6.25
    ],
    [
      12.5,
      6.25
    ],
    [
      18.75,
      6.25
    ],
    [
      18.75,
      6.25
    ],
    [
      12.5,
      6.25
    ],
    [
      12.5,
      6.25
    ],
    [
      12.5,
      6.25
    ],
    [
      12.5,
      6.25
    ],
    [
      18.75,
      6.25
    ],
    [
      18.75,
      6.25
    ],
    [
      18.75,
      6.25
    ],
    [
      18.75,
      6.25
    ],
    [
      12.5,
      6.25
    ],
    [
      12.5,
      6.25
    ],
    [
      6.25,
      6.25
    ],
    [
      6.25,
      6.25
    ],
    [
      18.75,
      6.25
    ],
    [
      18.75,
      6.25
    ],
    [
      31.25,
      6.25
    ],
    [
      31.25,
      6.25
    ],
    [
      6.25,
      6.25
    ],
    [
      6.25,
      6.25
    ],
    [
      12.5,
      6.25
    ],
    [
      12.5,
      6.25
    ],
    [
      18.75,
      6.25
    ],
    [
      18.75,
      6.25
    ],
    [
      12.5,
      6.25
    ],
    [
      12.5,
      6.25
    ],
    [
      31.25,
      6.25
    ],
    [
      31.25,
      6.25
    ],
    [
      18.75,
      6.25
    ],
    [
      18.75,
      6.25
    ],
    [
      12.5,
      6.25
    ],
    [
      12.5,
      6.25
    ],
    [
      6.25,
      6.25
    ],
    [
      6.25,
      6.25
    ],
    [
      12.5,
      6.25
    ],
    [
      12.5,
      6.25
    ],
    [
      12.5,
      6.25
    ],
    [
      12.5,
      6.25
    ],
    [
      25.0,
      6.25
    ],
    [
      25.0,
      6.25
    ],
    [
      6.25,
      6.25
    ],
    [
      6.25,
      6.25
    ],
    [
      25.0,
      6.25
    ],
    [
      25.0,
      6.25
    ],
    [
      0.0,
      6.25
    ],
    [
      0.0,
      6.25
    ],
    [
      25.0,
      6.25
    ],
    [
      25.0,
      6.25
    ],
    [
      0.0,
      6.25
    ],
    [
      0.0,
      6.25
    ],
    [
      6.25,
      6.25
    ],
    [
      6.25,
      6.25
    ],
    [
      25.0,
      6.25
    ],
    [
      25.0,
      6.25
    ],
    [
      25.0,
      6.25
    ],
    [
      25.0,
      6.25
    ],
    [
      0.0,
      6.25
    ],
    [
      0.0,
      6.25
    ],
    [
      12.5,
      6.25
    ],
    [
      12.5,
      6.25
    ],
    [
      12.5,
      6.25
    ],
    [
      12.5,
      6.25
    ],
    [
      12.5,
      6.25
    ],
    [
      12.5,
      6.25
    ],
    [
      0.0,
      6.25
    ],
    [
      0.0,
      6.25
    ],
    [
      18.75,
      6.25
    ],
    [
      18.75,
      6.25
    ],
    [
      6.25,
      6.25
    ],
    [
      6.25,
      6.25
    ],
    [
      6.25,
      6.25
    ],
    [
      6.25,
      6.25
    ],
    [
      25.0,
      6.25
    ],
    [
      25.0,
      6.25
    ],
    [
      18.75,
      6.25
    ],
    [
      18.75,
      6.25
    ],
    [
      6.25,
      6.25
    ],
    [
      6.25,
      6.25
    ],
    [
      0.0,
      6.25
    ],
    [
      0.0,
      6.25
    ],
    [
      20.0,
      6.666666666666667
    ],
    [
      20.0,
      6.666666666666667
    ],
    [
      12.5,
      6.25
    ],
    [
      12.5,
      6.25
    ],
    [
      6.25,
      6.25
    ],
    [
      6.25,
      6.25
    ],
    [
      37.5,
      6.25
    ],
    [
      37.5,
      6.25
    ],
    [
      12.5,
      6.25
    ],
    [
      12.5,
      6.25
    ],
    [
      25.0,
      6.25
    ],
    [
      25.0,
      6.25
    ],
    [
      31.25,
      6.25
    ],
    [
      31.25,
      6.25
    ],
    [
      6.25,
      6.25
    ],
    [
      6.25,
      6.25
    ],
    [
      0.0,
      6.25
    ],
    [
      0.0,
      6.25
    ]
  ],
  "PROXY-STATUS": [
    [
      12.5,
      6.25
    ],
    [
      6.25,
      6.25
    ],
    [
      6.25,
      6.25
    ],
    [
      12.5,
      6.25
    ],
    [
      6.25,
      6.25
    ],
    [
      6.25,
      6.25
    ],
    [
      6.25,
      6.25
    ],
    [
      6.25,
      6.25
    ],
    [
      6.25,
      6.25
    ],
    [
      12.5,
      6.25
    ],
    [
      6.25,
      6.25
    ],
    [
      18.75,
      6.25
    ],
    [
      6.25,
      6.25
    ],
    [
      18.75,
      6.25
    ],
    [
      6.25,
      6.25
    ],
    [
      6.25,
      6.25
    ],
    [
      6.25,
      6.25
    ],
    [
      12.5,
      6.25
    ],
    [
      6.25,
      6.25
    ],
    [
      6.25,
      6.25
    ],
    [
      6.25,
      6.25
    ],
    [
      6.666666666666667,
      6.666666666666667
    ],
    [
      12.5,
      6.25
    ],
    [
      6.25,
      6.25
    ],
    [
      6.25,
      6.25
    ],
    [
      12.5,
      6.25
    ],
    [
      12.5,
      6.25
    ]
  ],
  "TIMEOUT": [
    [
      12.5,
      6.25
    ],
    [
      6.25,
      6.25
    ],
    [
      18.75,
      6.25
    ],
    [
      18.75,
      6.25
    ],
    [
      6.25,
      6.25
    ],
    [
      12.5,
      6.25
    ],
    [
      25.0,
      6.25
    ],
    [
      12.5,
      6.25
    ],
    [
      18.75,
      6.25
    ],
    [
      31.25,
      6.25
    ],
    [
      18.75,
      6.25
    ],
    [
      12.5,
      6.25
    ],
    [
      6.25,
      6.25
    ],
    [
      6.25,
      6.25
    ],
    [
      12.5,
      6.25
    ],
    [
      6.25,
      6.25
    ],
    [
      6.25,
      6.25
    ],
    [
      25.0,
      6.25
    ],
    [
      6.25,
      6.25
    ],
    [
      18.75,
      6.25
    ],
    [
      25.0,
      6.25
    ],
    [
      6.25,
      6.25
    ],
    [
      12.5,
      6.25
    ],
    [
      6.25,
      6.25
    ],
    [
      6.25,
      6.25
    ],
    [
      6.25,
      6.25
    ],
    [
      18.75,
      6.25
    ],
    [
      12.5,
      6.25
    ],
    [
      6.25,
      6.25
    ],
    [
      13.333333333333334,
      6.666666666666667
    ],
    [
      6.25,
      6.25
    ],
    [
      31.25,
      6.25
    ],
    [
      6.25,
      6.25
    ],
    [
      12.5,
      6.25
    ],
    [
      18.75,
      6.25
    ],
    [
      6.25,
      6.25
    ]
  ]
}