[
  18.52375565610861,
  21.32161458333334,
  30.761571986774854,
  21.321614583333325,
  25.362431076141494,
  11.893659426605781,
  24.3955854046613,
  6.656504065040648,
  15.429074312075283,
  19.55476049448764,
  15.92898832684827,
  27.84863945578233,
  6.556840095587713,
  16.185116216547488,
  28.479053330179593,
  15.448113207547188,
  8.925301089241023,
  9.440478002389085,
  7.6594140396240755,
  10.358993694140509,
  7.24316510612398,
  18.194444444444454,
  29.195817910809666,
  37.90509259259256,
  26.115261200456754,
  33.832644628099175,
  18.613284713349746,
  15.928988326848241,
  15.216025750626283,
  9.799920044621802,
  19.72387775652484,
  18.476018973602145,
  27.679175118323187,
  16.107043228844933,
  12.996031746031749,
  12.637137053706487,
  12.517581947162418,
  46.73657411635766,
  6.613489499192238,
  22.1283783783784,
  20.67331242645982,
  14.99542124542125,
  35.297338311246016,
  18.5219956474724,
  74.43181818181827,
  8.899862819824381,
  28.03938356164383,
  14.189332048566936,
  15.162037037037036,
  15.08916197328457,
  16.117125984251967,
  34.692796610169474,
  26.582792207792203,
  35.91008771929821,
  24.18702069079608,
  14.886796706813282,
  15.565589353612173,
  16.18031840890407,
  19.40092318774643,
  9.487429662658858,
  36.22787610619466,
  26.22316029517271,
  10.353072981735595,
  17.522514424640885,
  16.9932130922978,
  16.91576311526893,
  17.420805814666025,
  25.939196938303542,
  16.916881549803318,
  24.810606060606055,
  25.427018633540367,
  25.583698926343963,
  28.82922535211265,
  20.80020120622112,
  22.15076861476196,
  22.89402895762611,
  19.244419999623933,
  16.293921446880322,
  18.51562888686867,
  22.11678201159394,
  19.869775614112573,
  20.127191559239705,
  13.439668813730703,
  11.67458042805606,
  12.352300432085354,
  11.540760203089201,
  12.78182459667977,
  11.729942693409743,
  41.20740852584432,
  15.164339770113235,
  9.255470194842479,
  13.46628289473685,
  34.723105761808995,
  30.421874767771957,
  31.734496124031008,
  18.95254629629628,
  14.067869415807564,
  19.310141509433944,
  14.053188421717508,
  32.507623161706306,
  21.47146753382985,
  25.691916656206846,
  22.248641304347828,
  27.025019804594656,
  21.11704322707109,
  32.26982500394136,
  16.318863110898505,
  16.856419336243114,
  11.403203342618385,
  28.191928930514415,
  17.133679320303028,
  22.033100107642618,
  19.433249310490524,
  25.36101698065284,
  14.233437059958627,
  26.128595773470266,
  39.709291610487625,
  14.429397727953644,
  11.16543250282971,
  34.66107291631392,
  18.458191491760036,
  27.087069005445542,
  16.264595922875518,
  25.746855345911946,
  25.670006772178894,
  22.312668963111527,
  27.851291959778514,
  18.277219942763022,
  997.5024366471744,
  15.390037593984962,
  9.432603686635947,
  28.232758620689673,
  22.07968372454263,
  37.21590909090909,
  23.392857142857135,
  16.58288302155824,
  27.474832214765097,
  18.865207373271883,
  15.867248062015504,
  17.94449753215217,
  17.55964380999767,
  12.293543543543537,
  16.38378170699494,
  33.832644628099175,
  18.07363225373503,
  25.27006172839504,
  14.995421245421237,
  26.93256578947368,
  18.01993141971749,
  15.21840148698884,
  13.691471571906337,
  18.034140969162987,
  27.867786710597098,
  23.671093944247517,
  22.42364321552989,
  19.401658767772524,
  26.855532813771024,
  29.66485507246374,
  21.495368814584563,
  17.49884587764592,
  19.21948356807511,
  8.91993358666853,
  31.748278322372517,
  22.748110691264724,
  15.5066287878788,
  24.41260659550362,
  11.206235799731735,
  21.72015683611263,
  19.080900688427242,
  9.46418002922192,
  8.625321309679325,
  10.337752525252528,
  10.074864704564973,
  13.691471571906348,
  13.691471571906357,
  15.5066287878788,
  22.009408602150543,
  14.967733679457409,
  25.957124378614207,
  28.32790129607717,
  31.737694496344602,
  36.8806306306306,
  17.38057027375856,
  18.73646969440387,
  29.83391391799911,
  10.730415271985716,
  30.66272685736545,
  30.734089595267243,
  25.350180818389006,
  12.333507069453276,
  27.139324591294216,
  31.96269489924186,
  18.794360429349275,
  8.997292295790306,
  13.248381877022656,
  24.14835569974931,
  17.575550718477782,
  30.33058953404804,
  19.066326364275692,
  14.900885226329661,
  26.709750241407214,
  11.371527777777782,
  11.759999770186253,
  10.578165374677003,
  13.04855736743463,
  25.891620443865403,
  19.08899727683066,
  15.162037037037036,
  35.27270377391003,
  18.692922374429216,
  20.208165703256512,
  19.816394299655357,
  12.873427672955982,
  21.959939705716693,
  16.84670781893005,
  16.05392156862746,
  16.77766393442623,
  42.64322916666663,
  13.201258936546889,
  18.194444444444446,
  18.453116125600623,
  14.256287566950132,
  16.024010083138936,
  31.982421875,
  31.798339301388058,
  22.61740331491712,
  28.037271164501327,
  21.83461429737211,
  28.07264772641556
]