[
  2.718387354676257,
  4.806636710434711,
  5.494966442953013,
  9.01750745630845,
  10.592836590212798,
  4.30015756302521,
  11.02144385962552,
  4.903616608152674,
  3.154600264466274,
  2.166749322915645,
  6.4630232187316095,
  5.70323797635535,
  7.114912683184579,
  6.844556873983243,
  3.5199914015477205,
  3.494135400467396,
  5.21066686353177,
  4.753558128976294,
  3.6551339285714253,
  3.5768082158028767,
  0.35395070810027707,
  4.098085774749687,
  4.9144657863145245,
  0.7313028525411202,
  5.19624182405066,
  6.237734043590619,
  4.579138702460854,
  0.7576743270972843,
  5.13125354879063,
  5.323472041612483,
  3.3043505634447423,
  3.993902439024396,
  4.722798411639973,
  3.917464114832536,
  4.322861668426614,
  1.2161772744557466,
  6.9034569983136596,
  8.253528225806445,
  4.870902492712234,
  5.708192327910634,
  4.93222891566265,
  7.191416851850224,
  5.898775216138336,
  4.801816215506095,
  6.054069961756761,
  4.914465786314535,
  2.5650062656641603,
  5.254311904939155,
  3.4874320403319676,
  4.259885535900095,
  1.8882610701107017,
  6.36664074650078,
  7.887764932562591,
  4.401843855106627,
  8.788209255446805,
  7.062756092301056,
  3.4450533452046552,
  5.280690891735358,
  9.79511315075442,
  5.23497442455243,
  6.394316302128812,
  4.033251231527092,
  4.590867495929203,
  4.67795661141678,
  4.296447815016869,
  4.049617270980847,
  0.43037642259448106,
  10.550902061855673,
  5.180178470197604,
  10.236422284456896,
  8.436303461692237,
  5.114355425683031,
  7.68058161350845,
  7.3102678571428505,
  7.119565217391302,
  4.068266379399443,
  7.326189236250923,
  3.805028260612948,
  4.889151368723514,
  3.217079697132819,
  4.12249201432387,
  5.631017881705637,
  3.8262385329675723,
  7.207306338028151,
  6.562379272259195,
  6.376557632398759,
  6.962159863945577,
  6.468507159402967,
  8.728678038379526,
  5.786521697954531,
  0.4964814247728313,
  7.469351710447325,
  8.849189279159882,
  6.02704533074216,
  6.593676513223598,
  5.047780517879162,
  5.091728855721403,
  7.696508910559741,
  5.415013227513226,
  4.038248315156493,
  3.39730290456432,
  4.700057405281293,
  4.7049027528924725,
  7.207306338028173,
  0.29299670770111647,
  0.474730590752138,
  7.046041308089507,
  4.64226625374358,
  4.867138271311384,
  4.9669979009694485,
  5.214576229302509,
  12.280672808378002,
  0.946098227355695,
  4.166636980703445,
  11.371527777777796,
  1.0911682210233036,
  1.1646514935988619,
  4.908885097014568,
  4.610146319709636,
  3.698057813911469,
  4.288962110457471,
  4.7096443161567665,
  4.99555814799177,
  4.5032483890058534,
  4.873680162767533,
  5.801964341392901,
  4.322268326417714,
  2.8862030505095193,
  4.239447077720001,
  3.76609935602576,
  5.0376307169032986,
  3.664950760966873,
  4.04121421520237,
  3.8766571969697,
  3.5445779105800894,
  4.59455667789002,
  5.188529784537403,
  3.8187966417910477,
  0.8085621173217462,
  3.463409475465312,
  5.56972789115646,
  3.4751697792869143,
  5.241677336747768,
  6.287967805604836,
  4.174471760431464,
  8.710106382978712,
  4.5146011160369595,
  5.130012531328321,
  4.268769551616269,
  5.613605666056467,
  7.182017543859657,
  11.34002770083106,
  7.5203128817563405,
  5.790311173974541,
  5.987658293574066,
  4.207348406988684,
  2.990321402483565,
  4.630938914027148,
  5.054012345679009,
  4.977742272416105,
  4.732658959537581,
  6.260542562513662,
  3.6534018246706257,
  7.19766299025425,
  6.100968703427726,
  4.902694610778449,
  3.858388312912347,
  4.73813657407408,
  3.3745658917220847,
  4.368996798292425,
  7.440165169394944,
  4.064392890154419,
  5.168876262626264,
  4.8446745562130245,
  4.220360824742273,
  6.081085095826755,
  4.6088643307957105,
  4.721741637831608,
  4.915616500861554,
  4.743626882966399,
  4.625706214689258,
  7.3217211208962745,
  3.1321729150726845,
  1.6242467958446278,
  3.9900097465886946,
  3.291486397065628,
  5.253691540449714,
  5.027620441828821,
  6.12836826347306,
  1.4801842424873521,
  5.035963700466105,
  6.767625169035645,
  4.075572944666787,
  4.920372596153841,
  4.841866846444085,
  1.993752462512584,
  7.441693479485919,
  6.356754658385092,
  3.2802483974358947,
  9.185154770559055,
  7.030419498154686,
  9.22277493162472,
  7.626068813919264,
  2.573793609887389,
  6.486720741819399,
  7.838048447994579,
  2.414603403418515,
  7.245575221238944,
  12.743230329121651,
  6.464952260028869,
  4.792585672407818,
  5.619809183883585,
  5.222086155651642,
  3.469000377088281,
  3.7655104537468826,
  3.4065302196156217,
  6.52142052668386,
  7.031868643405473,
  2.9686366932559873,
  6.084555818135876,
  2.3361752637916364,
  6.558478801394435,
  6.971930051636994,
  6.67153943684466,
  5.337353324641464,
  6.396484374999995,
  9.840745192307704,
  6.525017014853523,
  8.860470451751432,
  10.058353808353807,
  6.6398989194502365,
  10.815177045273822,
  4.922520282286629,
  5.823257467994315,
  12.040441176470594,
  6.656504065040629,
  6.122172771267404,
  4.986364007313137,
  10.970436432434177,
  6.473068871080977,
  4.838947990543735,
  6.386505460218409,
  4.657281001137654,
  4.804870892018777,
  3.86417547108724,
  4.160315040650406,
  6.01263405879052,
  5.696365457935603,
  4.036607780262603,
  3.5784527972027966,
  6.394266363855041,
  6.0848090466153995,
  12.423373391599885,
  6.4138217368825075,
  8.363006044857352,
  6.759802642659689,
  7.603702898833441,
  4.456160631868615,
  0.39992911424359207,
  6.344017368854161,
  4.961585962241648,
  5.195114213197968,
  5.568871724483174,
  5.97627737226277,
  4.624504366096956,
  4.57913870246085,
  5.65435082872928,
  5.366952030100819,
  4.193973381907441,
  4.433833930107069,
  4.345982109681706,
  5.140680409471275,
  0.4978136934608287,
  4.102607529656524,
  3.6721767632279065,
  0.3157154047446425,
  10.761330448749101,
  7.144415357766138,
  6.631004349128965,
  0.9236800541516248,
  3.7317684594348237,
  7.009845890410963,
  5.5171832884097105,
  4.486271871089064,
  5.409517844306306,
  8.35459183673472,
  0.8217081493376155,
  0.23516882493484062,
  6.645698051948056,
  7.058189655172413,
  0.4288564923346911,
  4.193324688042263,
  1.2217414011788412,
  5.773016620647071,
  7.269248526173736,
  3.050113883336079,
  3.9820960099762766,
  4.908573141486813,
  0.39088224378200037,
  6.777731788079469,
  10.3117128463476,
  11.276181399499787,
  6.184753214183191,
  5.685763888888884,
  6.70941571744653,
  3.8085540472777044,
  0.9099430350653981,
  0.768331618213837,
  6.1829503868733235,
  7.492701765303393,
  7.130838142385091,
  6.210160163349031,
  5.539580514208398,
  5.85658082975679,
  6.3175154320987685,
  7.0826124567474125,
  4.0585582414880585,
  4.060172374463191,
  0.45966734176243,
  7.404181972410778,
  8.075301757382917,
  5.359342700755268,
  5.494966442953013,
  7.918278529980639,
  7.232824966960895,
  4.441448820947904,
  5.539580514208384,
  6.709448706623163,
  10.431929668089461,
  9.097222222222237,
  9.059474412171484,
  0.49648010010736715,
  14.625602440845578,
  7.797619047619042,
  6.397154077067451,
  7.4518530653851744,
  4.465600558506869,
  4.359691160809372,
  5.549921843543381,
  3.8259345794392514,
  4.8650444107993,
  13.120993589743616,
  7.389440433212993,
  7.63759328358207,
  7.87259615384616,
  4.998473748473754,
  8.316894240595182,
  5.522244105109804,
  5.65317958986398,
  5.0533697566852736,
  6.726426084484742,
  5.6454537807129865,
  4.4156985837405225,
  3.3582854799015553,
  5.601415901111321,
  8.8801518438178,
  11.696428571428584,
  6.038326688408316,
  7.560995881277357,
  11.102929410456513,
  0.12207927478454556,
  4.8161764705882275,
  3.025683665927565,
  4.263021806886023,
  3.673000452199629,
  2.6129546381500632,
  1.8170217487794051,
  6.2328620084317805,
  5.78213276836158,
  4.477459307756075,
  0.3511332630394919,
  0.2599605450538375,
  5.701125254157039,
  10.652679075601181,
  6.0738130563798185,
  5.044919034826114,
  5.104725588656697,
  3.8259345794392514,
  2.669802713399977,
  6.4603510012261856,
  5.228141738035452,
  4.233453981385703,
  6.915118243243237,
  7.009845890410963,
  11.185109289617497,
  4.833234946871313,
  2.813981958895761,
  5.326166292181611,
  3.4541924509388684,
  5.85890259802526,
  3.886801159085646,
  1.6057170784362642,
  3.885119104109332,
  6.652544989485934,
  0.36126963585962185,
  9.283553455126,
  5.153805286561014,
  6.6180547809231935,
  5.117974388562239,
  4.489336899580321,
  4.474043715846994,
  5.45183474631572,
  3.8366916588566067,
  0.17420908860996617,
  2.2639630178357426,
  4.251038421599165,
  2.593903258100896,
  8.853801700795026,
  6.221504559270513,
  5.681250451030572,
  5.373849257867311,
  6.817826023235983,
  1.973622044207205,
  0.11074456407517487,
  3.95938433326628,
  7.736230218872716,
  3.4856741453446287,
  3.678122192273137,
  4.177295918367345,
  4.613258236532378,
  4.021365422396854,
  4.850414691943121,
  4.641439909297045,
  3.9822548292895505,
  3.4985428969430683,
  5.357729461328159,
  6.888958818540414,
  6.8229166666666705,
  7.827437858508609,
  6.84678913812827,
  0.3670439661961809,
  7.572338375084863,
  8.84270939535849,
  2.1223775190514975,
  6.269142419601833,
  10.390228426395936,
  4.073383084577118,
  5.091728855721391,
  3.801067780872789,
  6.76652892561983,
  5.016850490196074,
  5.53574519412801,
  6.1787976116447485,
  6.137556221889057,
  5.323472041612495,
  3.294203891002986,
  1.9376643612700966,
  4.764578883968303,
  4.218729872471995,
  3.698966683774151,
  4.759720584781459,
  4.770881163541433,
  7.14188516110349,
  0.09955031345186818,
  10.48894161294619,
  5.532139449779314,
  13.29830431392929,
  3.808139534883717,
  1.8579957927032678,
  3.8152376514445465,
  5.221619897959185,
  2.755969387617711,
  2.956721897328891,
  3.8841533186205943,
  4.173037716615699,
  3.2183569182389977,
  4.938178528347408,
  3.724977252047315,
  1.2101536137588738,
  6.539536741214054,
  4.6257062146892665,
  0.2750436710561676,
  3.6057671134661686,
  5.962064159456357,
  6.915118243243216,
  1.3664065751734726,
  8.501617773495102,
  0.9087125416204219,
  5.48173669452785,
  7.843018922869701,
  4.969488101755684,
  6.998545157391393,
  4.364627512692733
]