[
  5.308560053085595,
  10.7238605898123,
  5.099406556561983,
  2.80250305560411,
  12.599258533635275,
  11.763114402169085,
  3.355704697986577,
  12.509597206607006,
  9.02096585226139,
  1.2167813001399446,
  4.878048780487803,
  8.476417018526256,
  2.1997457093959905,
  10.903312153649471,
  6.1871616395978295,
  5.2562417871222005,
  2.760253998572945,
  17.650459132568148,
  13.439347385290976,
  9.229402569234942,
  4.182405144358328,
  10.326524711373636,
  6.855836330619282,
  6.942672616537113,
  12.882447665056352,
  14.035087719298282,
  16.427104722792606,
  20.06023084310641,
  8.658008658008663,
  10.709504685408302,
  3.033921901540891,
  2.4250191652295894,
  9.205983889528195,
  2.3121166763438414,
  14.000602025887085,
  9.163802978235957,
  9.710599848029123,
  9.929586817480557,
  4.061344579196471,
  0.1649958771655193,
  4.6551250599347345,
  9.94379271169715,
  8.032128514056208,
  3.40412929393678,
  6.785411365564067,
  3.351144667239714,
  2.1288309976952746,
  9.029345372460504,
  8.662874493357176,
  5.472061024424547,
  12.012012012012038,
  8.080808080808065,
  4.187260573748911,
  9.343873222328144,
  13.611345056104264,
  6.673468042847003,
  1.5325553060896093,
  9.840098400983981,
  9.383822992946895,
  15.414911614750563,
  12.494416557600829,
  5.961251862891213,
  13.527132045099483,
  13.559850638245235,
  5.28401585204757,
  7.0113935144609885,
  13.050570962479618,
  4.103357418331648,
  12.325156105805329,
  9.445100354191268,
  5.400019980073924,
  11.764567475676742,
  16.68728241348165,
  15.15151515151519,
  10.264477082630302,
  9.037556696547094,
  11.080332409972279,
  6.211180124223601,
  8.635252338264426,
  0.70697002632668,
  7.808504241969933,
  13.69863013698631,
  6.0292584841087615,
  9.454845431005047,
  15.65557729941294,
  14.466546112115758,
  2.6569246097641988,
  13.605442176870767,
  6.574065476048652,
  7.9522862823061615,
  9.91325898389095,
  20.304568527918775,
  3.7807808730295585,
  13.793103448275902,
  11.173184357541883,
  13.840830449827005,
  6.744520919817767,
  8.040201005025118,
  16.161616161616188,
  10.810810810810807,
  10.94635329081591,
  13.986454119185563,
  10.142489296504264,
  4.186815717306195,
  8.324661810613925,
  7.4696545284780225,
  7.344422186764974,
  7.01139351446101,
  16.949152542372865,
  10.525304806248846,
  3.615930342717878,
  13.322098363713204,
  13.942042927550153,
  0.7194244604316544,
  5.982829279966508,
  8.499688167690355,
  19.635467545026707,
  11.34248199026531,
  14.716974190106514,
  9.149214539931744,
  0.41509363474665817,
  13.582342954159625,
  4.224821778533791,
  11.878530150679152,
  10.603708912284821,
  12.289050762996379,
  2.7958156425186265,
  8.403361344537815,
  9.603841536614665,
  5.997001499250376,
  6.49464516506142,
  4.3281728888660425,
  8.056394763343416,
  13.628620102214615,
  6.538554587122974,
  2.5467090311713947,
  8.345094701177782,
  2.4858284473857313,
  3.2719287733825277,
  24.390243902438936,
  2.761181923922534,
  1.9674180810148336,
  3.7019127320347307,
  7.797270955165693,
  12.539184952978058,
  8.49256900212314,
  3.8466254276365563,
  2.314145212612091,
  4.7650076895311555
]