[
  16.70072919558849,
  18.955863640994902,
  13.535096505238082,
  16.062450808744398,
  9.591808595459476,
  9.174017348066807,
  49.068616326355404,
  22.847807895631206,
  10.97553279352004,
  35.5920967749111,
  13.11421663046596,
  15.966693477406155,
  24.754466634073264,
  21.91552660270987,
  18.341514412991273,
  21.561773132413556,
  21.98116214404257,
  33.23156167570157,
  19.558897953894785,
  17.121162184489094,
  12.474524681626752,
  19.291193329105333,
  28.446871910847527,
  26.90251202206007,
  18.606987854288672,
  17.465265952337308,
  21.063329533157653,
  14.692513246218963,
  17.705186513074153,
  16.934765167728262,
  54.043099371749015,
  25.711980818862287,
  25.295002972162848,
  17.133996418994744,
  19.554929797802018,
  22.852115391756687,
  16.278227463811465,
  22.123954988813576,
  15.872228560091267,
  15.29680583573142,
  21.99276438051881,
  8.012162462618253,
  33.802340812101214,
  29.200277402635297,
  38.662658637721236,
  25.084110156869755,
  26.816661191598282,
  28.29384573487963,
  5.536244059783135,
  19.227672466213377,
  10.415988542412608,
  37.902297352998275,
  28.33794415299653,
  18.687921062221427,
  12.513628123127836,
  5.838725639741871,
  21.21571341814314,
  15.809120676946545,
  24.613112635756703,
  31.369227571982588,
  26.842484943043598,
  21.403651462939596,
  3.9252225478521408,
  25.02839158170048,
  41.41794328848122,
  25.807533864323343,
  31.741497246425066,
  40.39791950714535,
  19.32236467098843,
  25.47511081673208,
  19.188287469328728,
  43.24487953598245,
  30.765444253014984,
  16.805804724951997,
  27.223848090927692,
  22.157595900844754,
  23.73084475874629,
  34.204990508115166,
  16.23366740868054,
  52.00275614607562,
  19.190588935186206,
  19.759917008348555,
  37.81772800544576,
  29.15664407026753,
  57.97311496793377,
  41.78549416570038,
  21.336007446266592,
  21.770840136720874,
  15.76463401416847,
  26.753436980607088,
  37.552514844978546,
  21.577882670262973,
  15.891366617800717,
  18.347024800590777,
  17.504168180047866,
  17.028667762177623,
  36.196474463387325,
  15.267029894752918,
  23.387983254204027,
  23.254799936049288,
  16.425924214892135,
  16.7714533093222,
  29.29705381502569,
  19.88422410514778,
  27.650948254706694,
  23.10849728330732,
  70.64017660044132,
  22.233895017106224,
  113.40440009072361,
  32.91896585068781,
  24.237429862937315,
  25.638560394833828,
  22.211178330774445,
  17.020045358420877,
  15.872197069198808,
  2.743456000109738,
  24.541608763808494,
  22.417001053599044,
  1.9476235341089732,
  36.193854283542706,
  19.708268357636104,
  14.10703359061034,
  15.34925306697264,
  14.657840203890554,
  25.305884883529657,
  19.045623791793226,
  18.30617535943031,
  18.20386968759884,
  30.97113877005865,
  19.0462132556883,
  20.51360949780121,
  22.59644444946587,
  27.515047291487527,
  46.43172215257458,
  8.427652814414657,
  11.378975351717012
]