{
  "ram": {
    "bytes_used_max": 762735255552,
    "gib_used_max": 710.3525619506836,
    "gib_used_per_minute": {
      "0": 6.398634147644043,
      "1": 26.254942360570876,
      "2": 55.721935208638506,
      "3": 73.42952896376788,
      "4": 86.75000646558858,
      "5": 97.38902397155762,
      "6": 104.6650258080434,
      "7": 110.72729615033683,
      "8": 129.74195855458578,
      "9": 165.59132158958306,
      "10": 190.7597749710083,
      "11": 212.1843471850379,
      "12": 221.27720086049226,
      "13": 226.80927232106527,
      "14": 234.16613103575625,
      "15": 248.3798627045195,
      "16": 269.9499925613403,
      "17": 294.02412808951686,
      "18": 311.9480441465216,
      "19": 326.307391166687,
      "20": 334.26122156778973,
      "21": 344.5804533877615,
      "22": 356.1504714448573,
      "23": 367.3258204056045,
      "24": 376.1685278941009,
      "25": 385.71301651000977,
      "26": 394.5389417874611,
      "27": 400.60455865375064,
      "28": 406.38946224081104,
      "29": 411.4897844993462,
      "30": 415.1551995528372,
      "31": 430.01341749120644,
      "32": 423.8243682098389,
      "33": 421.03253374261374,
      "34": 422.4969740549723,
      "35": 422.82796340153135,
      "36": 422.4003881257156,
      "37": 424.2862664562161,
      "38": 426.6122728768042,
      "39": 430.0843683878581,
      "40": 430.99704031216896,
      "41": 431.67052511441506,
      "42": 433.0984995567192,
      "43": 436.65538864135743,
      "44": 443.1044871443409,
      "45": 445.46405682321324,
      "46": 446.0937254587809,
      "47": 448.8308290384584,
      "48": 451.473330116272,
      "49": 452.5449310561358,
      "50": 453.8129833674027,
      "51": 455.47654575412554,
      "52": 463.3361455626407,
      "53": 470.1294319152832,
      "54": 468.36339995820646,
      "55": 467.5143554170253,
      "56": 469.1372060139974,
      "57": 471.281200732215,
      "58": 472.37718976554225,
      "59": 473.45751953125,
      "60": 475.5907715764539,
      "61": 476.91190611521404,
      "62": 478.3986687741037,
      "63": 479.23302776530636,
      "64": 480.2500278020309,
      "65": 481.38010665117685,
      "66": 483.53691787719725,
      "67": 484.324870739953,
      "68": 485.5562671661377,
      "69": 486.370201046184,
      "70": 486.90091692391087,
      "71": 487.7761536937649,
      "72": 488.4611728668213,
      "73": 489.20172888545665,
      "74": 490.1217542012533,
      "75": 491.7494887012546,
      "76": 492.49097255124883,
      "77": 494.1011935551961,
      "78": 495.4455991841979,
      "79": 496.55308157710704,
      "80": 497.38391195933025,
      "81": 498.03574907981744,
      "82": 498.7803700764974,
      "83": 500.23176206168483,
      "84": 501.5245525554075,
      "85": 501.956521097819,
      "86": 502.5700212252342,
      "87": 503.27928323260807,
      "88": 504.08546078999836,
      "89": 504.67720251568295,
      "90": 505.26209417978924,
      "91": 505.8390680733374,
      "92": 506.85164564746924,
      "93": 507.74058583577477,
      "94": 508.9927926790916,
      "95": 510.2699888865153,
      "96": 511.4927970756919,
      "97": 512.4331465252375,
      "98": 513.5780190785725,
      "99": 514.3369363687806,
      "100": 515.0890465429273,
      "101": 515.7921986262004,
      "102": 517.4763513338768,
      "103": 518.0327902971688,
      "104": 517.8150075912475,
      "105": 518.4565471067267,
      "106": 519.4013943354289,
      "107": 519.8780041064247,
      "108": 520.8525891061556,
      "109": 521.4476092656454,
      "110": 521.645985942776,
      "111": 522.3626606828076,
      "112": 523.078776105245,
      "113": 524.0704611438816,
      "114": 527.2581174033029,
      "115": 541.5858993530273,
      "116": 527.5560069181481,
      "117": 528.9238305172678,
      "118": 531.6406757957056,
      "119": 537.5349633558741,
      "120": 538.1846564156668,
      "121": 530.7475612245757,
      "122": 534.1100607247188,
      "123": 543.1431080853498,
      "124": 535.5176721981594,
      "125": 536.2465371600653,
      "126": 534.9684677770582,
      "127": 530.3968385696411,
      "128": 530.829794867564,
      "129": 531.295934232076,
      "130": 531.8102592209639,
      "131": 532.4482916492527,
      "132": 533.0572195053101,
      "133": 534.1536499826532,
      "134": 535.1651011968063,
      "135": 535.4996694791115,
      "136": 535.3237704907433,
      "137": 536.1717423756917,
      "138": 537.4294137469793,
      "139": 537.8605873743693,
      "140": 538.803197699078,
      "141": 539.7597665948383,
      "142": 540.2039805094402,
      "143": 540.7084211575783,
      "144": 541.1736577567408,
      "145": 542.1334618250529,
      "146": 543.0906134136652,
      "147": 544.135892422994,
      "148": 544.132047814838,
      "149": 542.921138634116,
      "150": 543.2511242365433,
      "151": 544.3352544752217,
      "152": 545.126237487793,
      "153": 545.575363029868,
      "154": 545.1479429471291,
      "155": 545.5700485100181,
      "156": 546.050539779663,
      "157": 547.147546412581,
      "158": 548.2112063725789,
      "159": 548.731829368462,
      "160": 549.476043636516,
      "161": 550.474761494419,
      "162": 552.5876257377759,
      "163": 566.6494549461033,
      "164": 552.4769139656654,
      "165": 554.7165045010842,
      "166": 555.1495252059677,
      "167": 555.287222070209,
      "168": 553.10444912668,
      "169": 553.6349631487313,
      "170": 555.7011825016567,
      "171": 558.8078466824123,
      "172": 559.3777638451528,
      "173": 559.8846612057444,
      "174": 554.3706129688328,
      "175": 552.7930246988932,
      "176": 553.3909154342392,
      "177": 553.9957559876523,
      "178": 554.5263491948446,
      "179": 555.1911368289236,
      "180": 555.8824881214207,
      "181": 556.6141671002921,
      "182": 557.4099409459001,
      "183": 558.0911684036255,
      "184": 559.1462180038978,
      "185": 561.3919366200765,
      "186": 560.9891947730113,
      "187": 560.0756980120126,
      "188": 558.6578350390419,
      "189": 558.9981238683065,
      "190": 559.2032101518017,
      "191": 558.8481386820475,
      "192": 558.9760742834059,
      "193": 559.4000634662176,
      "194": 559.7362756093343,
      "195": 560.035574832205,
      "196": 560.3483155568441,
      "197": 560.5835390899141,
      "198": 560.9366488699186,
      "199": 561.4208197275798,
      "200": 561.8932616670253,
      "201": 562.7532838077868,
      "202": 563.454077466329,
      "203": 563.9431028851008,
      "204": 565.4210736549506,
      "205": 567.9451609829016,
      "206": 572.6905550073694,
      "207": 565.8307931379838,
      "208": 566.5055259445967,
      "209": 566.4559333284022,
      "210": 567.237362489862,
      "211": 567.5174884160359,
      "212": 568.3356403415486,
      "213": 568.3423127643133,
      "214": 568.3758280436198,
      "215": 568.9979572619422,
      "216": 569.1991271326098,
      "217": 569.9940724690755,
      "218": 571.2598101082494,
      "219": 571.3607197131141,
      "220": 571.6990445454916,
      "221": 571.0151110503633,
      "222": 571.5715786562128,
      "223": 572.2268081277103,
      "224": 572.71098702414,
      "225": 573.8868780621027,
      "226": 574.7100919303248,
      "227": 576.2183205556062,
      "228": 586.5722751952054,
      "229": 580.6142024570041,
      "230": 575.7253099861791,
      "231": 576.2942881826627,
      "232": 577.4275675991125,
      "233": 578.1130091133764,
      "234": 577.4359706943318,
      "235": 579.572328821818,
      "236": 581.7078422934322,
      "237": 583.3120613098145,
      "238": 583.7317994435629,
      "239": 582.3778178974734,
      "240": 578.049817683333,
      "241": 578.395716603597,
      "242": 578.8235982474635,
      "243": 579.173924446106,
      "244": 579.7335752078465,
      "245": 581.0909509658813,
      "246": 581.5698288739737,
      "247": 582.4326054201288,
      "248": 583.5448155807236,
      "249": 593.7564763341632,
      "250": 604.488359191201,
      "251": 583.29241505075,
      "252": 585.3669469154487,
      "253": 585.5945967981371,
      "254": 583.9913539886475,
      "255": 584.6164500996218,
      "256": 585.0092684212377,
      "257": 586.4239294407731,
      "258": 590.4201573996709,
      "259": 592.7749302257191,
      "260": 587.7112524326031,
      "261": 588.5243574885999,
      "262": 588.354379492291,
      "263": 589.6262175349866,
      "264": 588.5770227432251,
      "265": 588.2011539653196,
      "266": 587.8947771072387,
      "267": 587.9951105619732,
      "268": 589.6441181635453,
      "269": 600.9815184494545,
      "270": 595.1154671544614,
      "271": 590.3240889856371,
      "272": 590.955467414856,
      "273": 592.4310121865108,
      "274": 591.5856519063313,
      "275": 592.2870403871698,
      "276": 594.5011444091797,
      "277": 596.4911246865482,
      "278": 597.3747435101008,
      "279": 597.9284999211629,
      "280": 594.2976850735939,
      "281": 592.5889589342021,
      "282": 592.8696373621623,
      "283": 593.1873644166074,
      "284": 593.5043791453044,
      "285": 593.8783981840489,
      "286": 594.2795975248692,
      "287": 594.5619520823161,
      "288": 594.844495999611,
      "289": 595.2074169223591,
      "290": 595.7347546895345,
      "291": 596.3334493475445,
      "292": 596.7443230311076,
      "293": 597.002238063489,
      "294": 597.2570742590952,
      "295": 597.6359900792439,
      "296": 598.0054104691845,
      "297": 598.3959145228068,
      "298": 598.8687781641039,
      "299": 599.0697346703481,
      "300": 599.4025649388631,
      "301": 599.7892368122683,
      "302": 600.4307632446289,
      "303": 600.7172642723989,
      "304": 601.0977099188443,
      "305": 602.4787381059033,
      "306": 602.7525619506836,
      "307": 602.8464277881687,
      "308": 602.608854455463,
      "309": 603.1608699162801,
      "310": 603.4372208158849,
      "311": 603.7992496167199,
      "312": 604.2213399887085,
      "313": 604.8778380054539,
      "314": 605.0504531860352,
      "315": 605.5601355870565,
      "316": 605.9315170029463,
      "317": 606.7146567005223,
      "318": 607.1935618718466,
      "319": 607.782538074558,
      "320": 608.5098642985026,
      "321": 607.2096117957163,
      "322": 607.3166062953109,
      "323": 607.6560487111409,
      "324": 607.9920334896799,
      "325": 608.381955909729,
      "326": 608.8417062921039,
      "327": 609.2784226627673,
      "328": 609.764889907837,
      "329": 610.1353865801278,
      "330": 610.5226459179894,
      "331": 611.0601564407349,
      "332": 611.4500091682046,
      "333": 611.5935334523518,
      "334": 611.9572832786431,
      "335": 612.3567272768182,
      "336": 612.8608544031779,
      "337": 613.2809456647452,
      "338": 613.7921916509079,
      "339": 614.2298268000285,
      "340": 614.616144083314,
      "341": 614.867060915629,
      "342": 615.320853993044,
      "343": 615.8929826122219,
      "344": 616.0429457346598,
      "345": 616.3720543424962,
      "346": 616.8449773152669,
      "347": 617.1660436856545,
      "348": 617.6438965231686,
      "349": 618.1983177820841,
      "350": 618.5487651501671,
      "351": 618.9843490729897,
      "352": 619.5023354212443,
      "353": 619.8774906093792,
      "354": 620.4223098119099,
      "355": 620.6847530300334,
      "356": 620.9580262394275,
      "357": 621.1934210459391,
      "358": 621.72714711852,
      "359": 622.3808583577473,
      "360": 622.8468918234615,
      "361": 623.2766822556318,
      "362": 623.6778678894043,
      "363": 624.0423064797611,
      "364": 624.3188210826809,
      "365": 624.8629569371541,
      "366": 625.2935022257142,
      "367": 625.626807975769,
      "368": 625.9627004073837,
      "369": 626.2772336410263,
      "370": 626.77980594635,
      "371": 627.2498137263929,
      "372": 627.6845376332601,
      "373": 627.9609050427453,
      "374": 628.305282269494,
      "375": 628.8404004414876,
      "376": 629.4109952894307,
      "377": 629.7857077000505,
      "378": 630.2213705698649,
      "379": 630.4929020768506,
      "380": 631.1377124150594,
      "381": 630.6604492704747,
      "382": 630.9213954472946,
      "383": 631.2555542627971,
      "384": 631.5852697986668,
      "385": 631.8697529474895,
      "386": 632.3368609153619,
      "387": 632.6620995473054,
      "388": 633.1510013580322,
      "389": 633.5632253743835,
      "390": 634.0334553400676,
      "391": 634.3066353878733,
      "392": 634.2495243913037,
      "393": 634.5913426717123,
      "394": 635.0858019166074,
      "395": 635.5597223831436,
      "396": 635.8530352274577,
      "397": 636.1619742441985,
      "398": 636.4538804372152,
      "399": 636.6956387536001,
      "400": 637.0748740374032,
      "401": 637.517531077067,
      "402": 637.9762810529288,
      "403": 638.2280614820577,
      "404": 638.3187740325927,
      "405": 638.5609046160165,
      "406": 639.0057833353678,
      "407": 639.2767722566249,
      "408": 639.6665544024969,
      "409": 639.8877517064412,
      "410": 640.241212618553,
      "411": 640.6460565470032,
      "412": 641.03984375,
      "413": 641.4884011866683,
      "414": 641.740589650472,
      "415": 641.9408654035147,
      "416": 642.2042798834332,
      "417": 642.5146987279256,
      "418": 642.9365546662929,
      "419": 643.2712945453192,
      "420": 643.6348407745361,
      "421": 644.0263758513887,
      "422": 644.3903474171956,
      "423": 644.6273748753434,
      "424": 645.065531649832,
      "425": 645.343555577596,
      "426": 645.492019265385,
      "427": 645.9308367583711,
      "428": 646.5468603769938,
      "429": 646.7747134192515,
      "430": 647.3332314809163,
      "431": 647.5695807893397,
      "432": 647.77724631358,
      "433": 648.4056512832642,
      "434": 648.970784138825,
      "435": 649.3501884977696,
      "436": 649.7615884145101,
      "437": 650.0940877623477,
      "438": 650.3953199871515,
      "439": 650.7064663569132,
      "440": 651.354286581783,
      "441": 652.0654997507731,
      "442": 652.7157273373361,
      "443": 653.1550943406962,
      "444": 653.609584871928,
      "445": 654.0791941497286,
      "446": 654.4765332755396,
      "447": 654.4808932622274,
      "448": 655.261544825667,
      "449": 655.6886674245198,
      "450": 656.2136256977664,
      "451": 656.1792738962981,
      "452": 656.2517482121785,
      "453": 656.5032738507804,
      "454": 656.996584211077,
      "455": 658.5666554133097,
      "456": 658.9607413986982,
      "457": 659.0681504071769,
      "458": 658.9501433690389,
      "459": 659.3191887807038,
      "460": 659.832632226459,
      "461": 660.6427563349406,
      "462": 661.0898026935125,
      "463": 661.5583191553752,
      "464": 661.962383076296,
      "465": 661.7657433202711,
      "466": 662.3834302266439,
      "467": 662.9046450469453,
      "468": 663.8763239585747,
      "469": 664.4900005146609,
      "470": 665.1754220962524,
      "471": 665.142739570747,
      "472": 664.2805063926568,
      "473": 664.544582303365,
      "474": 664.8161031432071,
      "475": 665.3774759292603,
      "476": 665.7569058951685,
      "477": 665.7221160500736,
      "478": 665.9204692840576,
      "479": 666.5043960829912,
      "480": 666.8757735430185,
      "481": 667.1758975982666,
      "482": 667.7646763041868,
      "483": 668.0862800468833,
      "484": 668.5992491404215,
      "485": 669.0508356902559,
      "486": 669.3090890248617,
      "487": 670.0828904620672,
      "488": 670.775546381029,
      "489": 670.9554110209148,
      "490": 670.9437383878029,
      "491": 671.4753302234715,
      "492": 671.6070404688518,
      "493": 672.2286502385543,
      "494": 672.7473689397176,
      "495": 673.3684144747459,
      "496": 673.676655850168,
      "497": 674.2896221160888,
      "498": 674.4520405268265,
      "499": 674.6984583321264,
      "500": 674.9380706787109,
      "501": 675.2260063947257,
      "502": 675.4356872558594,
      "503": 675.3926641819841,
      "504": 675.6557571281821,
      "505": 675.8572653452555,
      "506": 676.317194793184,
      "507": 676.8394332497807,
      "508": 677.381786664327,
      "509": 677.847788794566,
      "510": 678.2585175832113,
      "511": 678.5604378005205,
      "512": 678.9738498623088,
      "513": 679.3877018610636,
      "514": 679.9086632809397,
      "515": 680.0259975498005,
      "516": 680.0213070551555,
      "517": 679.9279637094271,
      "518": 680.1219903945923,
      "519": 680.5796513314974,
      "520": 681.1448050030207,
      "521": 681.7611118316651,
      "522": 683.3645502499172,
      "523": 687.4708537374224,
      "524": 687.9636985637524,
      "525": 683.0013359845694,
      "526": 683.3209011918408,
      "527": 684.0785427093506,
      "528": 684.1378542366674,
      "529": 685.1919416007349,
      "530": 685.0000296274821,
      "531": 684.4452116736051,
      "532": 686.153693885134,
      "533": 694.2703168002042,
      "534": 696.8786632364446,
      "535": 700.8532562255859,
      "536": 687.942988840739,
      "537": 688.2933467929646,
      "538": 690.2909838143041,
      "539": 689.555784710383,
      "540": 689.8888981059446,
      "541": 691.700221950725,
      "542": 695.2568093617757,
      "543": 697.1645642296743,
      "544": 698.6585357148768,
      "545": 693.7651825586955,
      "546": 692.3076418213925,
      "547": 686.4828233083089,
      "548": 686.3751946142164,
      "549": 686.5441015857762,
      "550": 686.557284228007,
      "551": 686.6195068359375,
      "552": 686.941263489804,
      "553": 687.0918373743693,
      "554": 687.6620116799564,
      "555": 687.7127128213139,
      "556": 687.9572116851807,
      "557": 688.2418816776599,
      "558": 688.5075766353284,
      "559": 688.6864130020142,
      "560": 688.6181034799349,
      "561": 688.6316255472474,
      "562": 688.5596860249838,
      "563": 688.7144157280356,
      "564": 688.9709519855047,
      "565": 689.3297436396281,
      "566": 689.5160943370754,
      "567": 689.5768264511885,
      "568": 689.8863147735595,
      "569": 690.0070814358986,
      "570": 690.3550262451172,
      "571": 690.5075295766195,
      "572": 690.8889637963247,
      "573": 691.6843371633756,
      "574": 691.3094230016072,
      "575": 691.3466372732389,
      "576": 691.7654270883334,
      "577": 692.3034741719564,
      "578": 694.1409556290199,
      "579": 697.0886435015448,
      "580": 693.1582298914592,
      "581": 693.0202866893703,
      "582": 693.2241620209257,
      "583": 693.3313131817316,
      "584": 693.0725072224935,
      "585": 693.4680871478582,
      "586": 693.706953048706,
      "587": 694.0866191023487,
      "588": 694.5456376156565,
      "589": 694.6956511179607,
      "590": 694.3874170335673,
      "591": 231.63619725457553
    }
  },
  "run_time": {
    "hours": 9.845886226388888,
    "human": "9:50:45.190415",
    "minutes": 590.7531735833333,
    "real_seconds_per_sim_second": {
      "2.0": 33.229281,
      "3.002045": 34.578228,
      "4.004003": 37.576947,
      "5.004342": 39.966695,
      "6.006063": 43.485691,
      "7.007904": 46.551665,
      "8.010294": 47.048962,
      "9.010963": 47.260997,
      "10.013744": 47.406978,
      "11.01512": 47.537425,
      "12.016998": 47.668399,
      "13.017591": 47.867093,
      "14.019623": 47.983526,
      "15.019974": 48.087478,
      "16.021306": 48.192756,
      "17.023307": 48.285179,
      "18.024023": 48.373096,
      "19.025235": 48.467272,
      "20.027238": 48.561802,
      "21.028462": 48.64925,
      "22.028554": 48.72846,
      "23.029825": 48.885765,
      "24.031497": 48.964118,
      "25.033418": 49.043749,
      "26.035109": 49.116463,
      "27.035278": 49.184485,
      "28.036414": 49.260009,
      "29.038233": 49.331395,
      "30.038756": 49.401663,
      "31.039916": 49.476639,
      "32.040296": 49.545992,
      "33.041963": 49.687407,
      "34.043327": 49.768702,
      "35.045588": 49.83029,
      "36.045957": 49.888126,
      "37.046694": 49.953995,
      "38.046897": 50.014391,
      "39.048532": 50.093941,
      "40.049984": 50.157378,
      "41.051787": 50.217875,
      "42.053675": 50.292495,
      "43.054635": 50.483257,
      "44.05464": 50.548333,
      "45.055798": 50.60224,
      "46.057746": 50.662731,
      "47.059003": 50.723138,
      "48.060712": 50.783814,
      "49.062055": 50.835432,
      "50.063565": 50.888339,
      "51.064369": 50.944891,
      "52.065273": 51.014898,
      "53.065917": 51.158526,
      "54.068222": 51.213575,
      "55.069742": 51.265313,
      "56.070438": 51.317216,
      "57.071574": 51.367292,
      "58.072335": 51.41871,
      "59.072399": 51.474176,
      "60.074118": 51.527008,
      "61.074781": 51.574401,
      "62.074991": 51.634416,
      "63.076802": 51.743111,
      "64.077929": 52.121134,
      "65.078851": 52.361594,
      "66.078891": 53.26734,
      "67.079627": 54.112769,
      "68.081432": 54.178847,
      "69.083112": 54.22904,
      "70.084126": 54.274603,
      "71.085023": 54.322933,
      "72.087595": 54.3943,
      "73.089805": 54.490376,
      "74.091356": 54.535387,
      "75.091451": 54.583153,
      "76.091479": 54.62895,
      "77.093202": 54.69593,
      "78.093837": 54.756549,
      "79.094762": 54.805901,
      "80.095101": 54.854759,
      "81.095857": 54.905864,
      "82.097876": 54.974252,
      "83.098852": 55.107625,
      "84.099307": 55.159474,
      "85.100596": 55.203614,
      "86.104872": 55.248939,
      "87.106077": 55.292704,
      "88.108939": 55.338384,
      "89.11006": 55.381934,
      "90.11023": 55.427516,
      "91.110718": 55.467263,
      "92.111007": 55.528132,
      "93.112347": 55.630515,
      "94.114237": 55.677062,
      "95.116062": 55.72197,
      "96.11728": 55.761015,
      "97.120636": 55.806447,
      "98.122565": 55.849595,
      "99.122925": 55.890149,
      "100.122949": 55.928941,
      "101.123861": 55.969209,
      "102.124883": 56.020032,
      "103.1253": 56.09038,
      "104.126065": 56.130956,
      "105.126556": 56.176799,
      "106.128501": 56.220409,
      "107.129321": 56.263988,
      "108.130542": 56.302095,
      "109.131801": 56.350102,
      "110.131963": 56.757753,
      "111.135737": 56.899623,
      "112.135741": 57.051293,
      "113.135752": 57.142175,
      "114.13685": 57.18342,
      "115.13865": 57.224593,
      "116.138758": 57.262516,
      "117.138979": 57.302926,
      "118.139065": 57.341025,
      "119.14397": 57.378711,
      "120.145966": 57.420582,
      "121.149161": 57.463115,
      "122.15109": 57.528135,
      "123.152335": 57.740704,
      "124.152532": 58.02472,
      "125.153806": 58.535888,
      "126.153894": 59.340731,
      "127.155728": 59.974062,
      "128.155926": 60.026995,
      "129.156255": 60.061503,
      "130.158544": 60.305746,
      "131.159081": 60.510777,
      "132.161074": 60.576738,
      "133.162998": 60.639922,
      "134.166414": 60.678602,
      "135.167464": 60.716988,
      "136.169827": 60.749156,
      "137.171621": 60.784037,
      "138.176376": 60.817783,
      "139.179517": 60.851898,
      "140.179851": 60.888469,
      "141.180789": 60.920784,
      "142.183014": 61.006087,
      "143.184332": 61.125538,
      "144.186819": 61.159734,
      "145.188185": 61.192722,
      "146.188473": 61.225455,
      "147.188553": 61.257503,
      "148.191904": 61.29032,
      "149.193832": 61.325003,
      "150.193915": 62.496201,
      "151.195454": 65.971343,
      "152.1962": 70.446132,
      "153.197221": 75.452262,
      "154.198253": 81.397428,
      "155.198577": 88.276695,
      "156.200063": 96.788094,
      "157.201618": 104.390465,
      "158.201789": 111.114975,
      "159.202144": 118.557281,
      "160.202588": 124.378004,
      "161.203226": 130.553835,
      "162.205179": 136.563875,
      "163.205516": 143.142601,
      "164.207225": 150.356753,
      "165.208972": 157.140702,
      "166.210278": 164.510139,
      "167.210943": 172.621245,
      "168.212472": 180.553104,
      "169.213969": 187.135113,
      "170.214716": 193.648699,
      "171.215111": 199.399929,
      "172.215967": 204.069278,
      "173.216251": 209.993026,
      "174.217106": 216.0042,
      "175.218443": 221.404398,
      "176.220156": 228.040243,
      "177.221656": 234.590743,
      "178.223402": 240.017187,
      "179.224408": 244.465733,
      "180.224682": 249.532071,
      "181.225161": 254.796244,
      "182.225421": 260.294371,
      "183.226358": 265.240136,
      "184.227436": 270.584423,
      "185.229405": 275.947949,
      "186.229766": 282.086388,
      "187.230102": 288.697641,
      "188.230545": 293.393264,
      "189.230658": 297.783575,
      "190.231053": 302.337457,
      "191.231913": 306.429137,
      "192.233067": 310.402598,
      "193.234108": 314.187388,
      "194.235602": 318.421909,
      "195.237283": 322.91173,
      "196.238871": 327.716522,
      "197.239857": 332.511985,
      "198.241667": 337.551422,
      "199.24167": 341.431495,
      "200.241941": 345.443938,
      "201.24197": 349.635472,
      "202.242928": 353.809045,
      "203.243609": 357.93466,
      "204.243721": 362.775825,
      "205.244658": 367.330527,
      "206.244697": 373.184517,
      "207.24588": 377.939601,
      "208.246617": 381.001438,
      "209.247874": 384.284199,
      "210.249332": 387.732804,
      "211.250645": 391.420419,
      "212.250764": 394.698257,
      "213.251764": 397.505079,
      "214.252712": 401.0227,
      "215.253924": 404.271404,
      "216.255224": 408.116131,
      "217.257062": 412.09404,
      "218.257399": 415.147223,
      "219.258873": 418.454647,
      "220.260009": 421.801684,
      "221.261579": 425.354998,
      "222.263463": 428.491331,
      "223.265219": 432.198904,
      "224.26711": 435.327634,
      "225.26882": 438.530349,
      "226.26885": 443.509204,
      "227.270166": 449.119053,
      "228.270543": 453.120403,
      "229.271919": 456.772436,
      "230.273054": 460.459944,
      "231.274235": 463.301607,
      "232.274651": 466.833701,
      "233.274865": 471.035241,
      "234.275835": 475.850919,
      "235.277571": 479.685689,
      "236.279096": 484.695768,
      "237.279425": 489.577024,
      "238.279498": 493.992865,
      "239.279984": 497.782728,
      "240.280225": 502.782094,
      "241.281568": 508.946898,
      "242.283086": 525.154592,
      "243.283398": 540.322318,
      "244.28353": 554.289532,
      "245.283655": 565.671449,
      "246.283813": 577.440661,
      "247.28406": 587.857678,
      "248.284318": 595.976371,
      "249.284597": 602.559358,
      "250.285238": 608.296048,
      "251.286396": 615.342933,
      "252.287364": 629.079672,
      "253.287419": 644.453657,
      "254.287533": 654.616617,
      "255.287834": 661.367477,
      "256.288721": 668.036912,
      "257.288979": 672.95054,
      "258.290906": 676.121969,
      "259.291236": 679.15304,
      "260.293211": 682.075042,
      "261.293317": 686.400152,
      "262.294731": 693.770138,
      "263.294886": 701.817046,
      "264.295685": 707.127792,
      "265.296045": 711.458752,
      "266.297265": 715.656813,
      "267.298687": 719.80645,
      "268.298946": 723.718854,
      "269.300628": 726.740212,
      "270.301256": 728.99662,
      "271.302957": 731.580389,
      "272.303954": 735.767893,
      "273.304991": 740.032933,
      "274.306119": 743.408754,
      "275.307663": 745.454058,
      "276.307885": 747.966009,
      "277.308735": 750.836887,
      "278.309304": 752.938806,
      "279.310773": 755.301299,
      "280.311922": 757.715303,
      "281.312261": 759.560519,
      "282.312572": 762.832187,
      "283.314475": 765.965475,
      "284.314881": 768.526061,
      "285.316601": 771.191367,
      "286.316894": 775.686965,
      "287.318898": 780.402418,
      "288.319353": 783.360119,
      "289.319989": 785.804139,
      "290.320227": 788.450017,
      "291.321901": 790.666063,
      "292.323721": 793.806575,
      "293.325339": 797.728991,
      "294.326727": 801.035979,
      "295.327877": 804.707631,
      "296.328467": 808.549768,
      "297.328622": 811.658142,
      "298.330179": 814.008931,
      "299.330762": 815.984186,
      "300.331244": 820.042966,
      "301.331245": 823.501099,
      "302.331583": 828.366151,
      "303.333": 833.477991,
      "304.334888": 840.750335,
      "305.335455": 848.593858,
      "306.336": 856.277637,
      "307.338": 863.785136,
      "308.339": 869.422857,
      "309.34": 874.701622,
      "310.342": 880.900339,
      "311.344": 886.982293,
      "312.346": 892.905244,
      "313.348": 898.237617,
      "314.348024": 903.858265,
      "315.348953": 909.43521,
      "316.349": 916.790114,
      "317.351": 923.474632,
      "318.353": 928.888585,
      "319.355": 933.970606,
      "320.357": 939.3752,
      "321.359": 944.760345,
      "322.361": 950.550631,
      "323.363": 956.568239,
      "324.365": 962.400647,
      "325.367": 968.136463,
      "326.369": 974.416142,
      "327.371": 980.886787,
      "328.373": 986.982012,
      "329.375": 993.340375,
      "330.377": 999.690169,
      "331.379": 1006.810071,
      "332.381": 1013.643234,
      "333.383": 1020.485201,
      "334.385": 1026.851316,
      "335.387": 1033.488725,
      "336.389": 1040.825357,
      "337.391": 1047.83702,
      "338.393": 1055.312238,
      "339.395": 1062.457648,
      "340.397": 1073.597657,
      "341.399": 1088.131003,
      "342.401": 1097.27274,
      "343.403": 1108.71392,
      "344.405": 1119.694601,
      "345.407": 1135.523207,
      "346.409": 1152.314354,
      "347.411": 1176.27689,
      "348.413": 1187.947733,
      "349.415": 1209.80731,
      "350.417": 1219.67452,
      "351.419": 1230.583697,
      "352.421": 1252.712485,
      "353.423": 1262.810943,
      "354.425": 1273.056927,
      "355.427": 1283.344621,
      "356.429": 1294.82871,
      "357.431": 1306.883381,
      "358.433": 1319.001801,
      "359.435": 1337.609078,
      "360.437": 1356.320976,
      "361.439": 1375.817341,
      "362.441": 1394.783139,
      "363.443": 1407.543135,
      "364.445": 1421.218943,
      "365.447": 1448.614317,
      "366.449": 1465.376085,
      "367.451": 1483.4335,
      "368.453": 1497.008199,
      "369.455": 1511.023387,
      "370.457": 1525.915152,
      "371.459": 1540.606989,
      "372.461": 1553.553831,
      "373.463": 1566.793253,
      "374.465": 1580.403438,
      "375.467": 1598.369245,
      "376.469": 1616.207832,
      "377.471": 1638.886097,
      "378.473": 1664.453967,
      "379.475": 1682.150373,
      "380.477": 1701.718618,
      "381.479": 1716.646779,
      "382.481": 1735.770476,
      "383.483": 1750.659856,
      "384.485": 1770.233315,
      "385.487": 1790.941199,
      "386.489": 1807.619884,
      "387.491": 1825.856522,
      "388.493": 1839.016051,
      "389.495": 1857.310201,
      "390.497": 1874.953313,
      "391.499": 1901.631417,
      "392.501": 1932.869901,
      "393.503": 1970.496894,
      "394.505": 1995.430833,
      "395.507": 2028.264216,
      "396.509": 2062.006157,
      "397.511": 2094.691078,
      "398.513": 2133.682321,
      "399.515": 2157.874088,
      "400.517": 2173.231746,
      "401.519": 2192.726352,
      "402.521": 2207.025142,
      "403.523": 2224.41835,
      "404.525": 2239.987256,
      "405.527": 2253.730305,
      "406.529": 2273.507752,
      "407.531": 2291.400945,
      "408.533": 2313.315995,
      "409.535": 2337.491328,
      "410.537": 2355.000105,
      "411.539": 2374.191384,
      "412.541": 2394.871492,
      "413.543": 2424.912747,
      "414.545": 2447.933428,
      "415.547": 2473.496894,
      "416.549": 2493.940222,
      "417.551": 2508.559392,
      "418.553": 2522.355898,
      "419.555": 2536.445367,
      "420.557": 2550.830433,
      "421.559": 2564.657972,
      "422.561": 2578.396192,
      "423.563": 2592.133097,
      "424.565": 2606.246378,
      "425.567": 2620.996309,
      "426.569": 2636.137055,
      "427.571": 2663.563335,
      "428.573": 2682.295721,
      "429.575": 2696.284355,
      "430.577": 2709.486551,
      "431.579": 2722.758426,
      "432.581": 2735.856182,
      "433.583": 2749.229012,
      "434.585": 2762.860197,
      "435.587": 2776.329239,
      "436.589": 2790.031934,
      "437.591": 2805.645889,
      "438.593": 2820.313508,
      "439.595": 2839.640773,
      "440.597": 2859.981073,
      "441.599": 2875.818778,
      "442.601": 2890.821296,
      "443.603": 2905.46108,
      "444.605": 2919.392317,
      "445.607": 2933.611323,
      "446.609": 2948.188094,
      "447.611": 2962.51472,
      "448.613": 2976.718153,
      "449.615": 2991.483916,
      "450.617": 3006.16918,
      "451.619": 3021.328576,
      "452.621": 3036.260591,
      "453.623": 3052.41228,
      "454.625": 3066.729831,
      "455.627": 3081.156382,
      "456.629": 3097.167416,
      "457.631": 3116.203315,
      "458.633": 3154.976223,
      "459.635": 3188.894789,
      "460.637": 3212.666605,
      "461.639": 3237.104252,
      "462.641": 3259.666645,
      "463.643": 3275.414893,
      "464.645": 3294.260172,
      "465.647": 3309.009057,
      "466.649": 3324.478993,
      "467.651": 3340.831472,
      "468.653": 3360.591944,
      "469.655": 3377.018656,
      "470.657": 3397.492909,
      "471.659": 3417.474055,
      "472.661": 3434.740932,
      "473.663": 3452.126887,
      "474.665": 3467.901306,
      "475.667": 3484.395942,
      "476.669": 3501.053257,
      "477.671": 3518.202951,
      "478.673": 3535.206178,
      "479.675": 3551.353787,
      "480.677": 3568.561757,
      "481.679": 3585.785161,
      "482.681": 3602.750608,
      "483.683": 3619.626654,
      "484.685": 3638.233557,
      "485.687": 3654.640987,
      "486.689": 3671.419468,
      "487.691": 3687.787878,
      "488.693": 3704.106229,
      "489.695": 3721.103828,
      "490.697": 3736.99981,
      "491.699": 3752.960471,
      "492.701": 3768.946268,
      "493.703": 3786.374179,
      "494.705": 3803.430285,
      "495.707": 3820.686441,
      "496.709": 3842.224394,
      "497.711": 3859.185156,
      "498.713": 3876.072629,
      "499.715": 3893.777923,
      "500.717": 3910.997991,
      "501.719": 3932.094137,
      "502.721": 3953.431927,
      "503.723": 3970.259881,
      "504.725": 3987.222234,
      "505.727": 4004.406347,
      "506.729": 4020.961438,
      "507.731": 4038.775146,
      "508.733": 4055.3139,
      "509.735": 4073.359051,
      "510.737": 4090.104751,
      "511.739": 4107.831269,
      "512.741": 4124.5277,
      "513.743": 4142.140718,
      "514.745": 4159.564478,
      "515.747": 4176.512936,
      "516.749": 4194.908656,
      "517.751": 4212.714295,
      "518.753": 4229.232374,
      "519.755": 4249.842928,
      "520.757": 4267.897349,
      "521.759": 4286.801341,
      "522.761": 4303.858161,
      "523.763": 4320.953232,
      "524.765": 4338.589109,
      "525.767": 4355.168076,
      "526.769": 4372.571688,
      "527.771": 4390.297329,
      "528.773": 4407.113027,
      "529.775": 4423.580301,
      "530.777": 4443.807607,
      "531.779": 4461.347908,
      "532.781": 4482.53628,
      "533.783": 4503.43415,
      "534.785": 4519.222394,
      "535.787": 4534.939062,
      "536.789": 4550.798819,
      "537.791": 4566.916696,
      "538.793": 4583.078151,
      "539.795": 4599.163041,
      "540.797": 4615.721403,
      "541.799": 4632.097416,
      "542.801": 4648.316734,
      "543.803": 4665.023567,
      "544.805": 4681.146338,
      "545.807": 4698.13524,
      "546.809": 4715.181993,
      "547.811": 4732.019349,
      "548.813": 4748.621578,
      "549.815": 4764.678698,
      "550.817": 4780.901717,
      "551.819": 4797.667867,
      "552.821": 4813.601605,
      "553.823": 4829.208603,
      "554.825": 4845.179591,
      "555.827": 4861.315093,
      "556.829": 4877.826619,
      "557.831": 4894.547254,
      "558.833": 4910.442194,
      "559.835": 4926.498081,
      "560.837": 4943.357414,
      "561.839": 4965.247681,
      "562.841": 4983.425015,
      "563.843": 5006.258358,
      "564.845": 5029.11456,
      "565.847": 5046.57289,
      "566.849": 5063.093288,
      "567.851": 5080.056602,
      "568.853": 5096.896066,
      "569.855": 5113.640084,
      "570.857": 5130.322303,
      "571.859": 5146.820308,
      "572.861": 5163.154297,
      "573.863": 5180.294567,
      "574.865": 5197.203169,
      "575.867": 5214.461241,
      "576.869": 5231.495444,
      "577.871": 5248.922808,
      "578.873": 5265.817321,
      "579.875": 5283.375843,
      "580.877": 5301.120235,
      "581.879": 5318.535119,
      "582.881": 5335.471781,
      "583.883": 5351.9871,
      "584.885": 5368.376341,
      "585.887": 5384.908179,
      "586.889": 5401.602051,
      "587.891": 5418.061449,
      "588.893": 5435.040404,
      "589.895": 5451.461324,
      "590.897": 5467.525199,
      "591.899": 5484.053826,
      "592.901": 5503.573989,
      "593.903": 5521.570448,
      "594.905": 5541.9994,
      "595.907": 5562.563697,
      "596.909": 5579.406073,
      "597.911": 5596.478402,
      "598.913": 5613.79116,
      "599.915": 5630.77834,
      "600.917": 5649.522714,
      "601.919": 5668.069544,
      "602.921": 5686.455096,
      "603.923": 5705.361312,
      "604.925": 5724.369614,
      "605.927": 5743.564314,
      "606.929": 5762.431847,
      "607.931": 5781.32222,
      "608.933": 5799.490734,
      "609.935": 5817.097974,
      "610.937": 5834.543281,
      "611.939": 5852.17031,
      "612.941": 5869.798779,
      "613.943": 5889.456589,
      "614.945": 5907.458379,
      "615.947": 5924.710378,
      "616.949": 5942.745231,
      "617.951": 5960.474201,
      "618.953": 5978.34444,
      "619.955": 5995.729678,
      "620.957": 6013.917337,
      "621.959": 6031.494334,
      "622.961": 6048.927668,
      "623.963": 6068.5374,
      "624.965": 6087.229568,
      "625.967": 6109.718166,
      "626.969": 6132.383063,
      "627.971": 6154.773871,
      "628.973": 6176.201905,
      "629.975": 6196.145962,
      "630.977": 6215.366595,
      "631.979": 6233.784509,
      "632.981": 6252.33367,
      "633.983": 6270.057261,
      "634.985": 6287.726124,
      "635.987": 6305.958441,
      "636.989": 6324.560103,
      "637.991": 6343.092645,
      "638.993": 6360.744536,
      "639.995": 6380.035038,
      "640.997": 6398.868942,
      "641.999": 6417.654493,
      "643.001": 6435.935531,
      "644.003": 6455.003533,
      "645.005": 6477.12416,
      "646.007": 6496.976193,
      "647.009": 6515.702771,
      "648.011": 6535.402937,
      "649.013": 6553.902814,
      "650.015": 6572.944647,
      "651.017": 6591.205551,
      "652.019": 6609.870555,
      "653.021": 6628.585614,
      "654.023": 6648.18671,
      "655.025": 6672.569554,
      "656.027": 6694.000249,
      "657.029": 6716.176787,
      "658.031": 6737.293793,
      "659.033": 6756.640987,
      "660.035": 6775.605558,
      "661.037": 6795.136017,
      "662.039": 6815.651173,
      "663.041": 6834.334333,
      "664.043": 6865.627405,
      "665.045": 6899.13383,
      "666.047": 6927.151962,
      "667.049": 6988.735094,
      "668.051": 7015.724242,
      "669.053": 7049.224014,
      "670.055": 7088.255818,
      "671.057": 7133.867749,
      "672.059": 7162.812441,
      "673.061": 7221.108649,
      "674.063": 7252.903517,
      "675.065": 7279.533301,
      "676.067": 7303.524034,
      "677.069": 7339.250623,
      "678.071": 7367.779233,
      "679.073": 7399.115225,
      "680.075": 7435.059887,
      "681.077": 7459.127424,
      "682.079": 7479.012659,
      "683.081": 7498.654249,
      "684.083": 7517.563228,
      "685.085": 7536.268093,
      "686.087": 7557.562932,
      "687.089": 7578.134713,
      "688.091": 7599.158183,
      "689.093": 7619.542703,
      "690.095": 7638.402474,
      "691.097": 7657.499748,
      "692.099": 7677.054667,
      "693.101": 7695.73939,
      "694.103": 7714.582866,
      "695.105": 7732.615727,
      "696.107": 7750.936243,
      "697.109": 7769.419432,
      "698.111": 7787.341852,
      "699.113": 7805.814697,
      "700.115": 7824.87489,
      "701.117": 7843.569965,
      "702.119": 7861.573656,
      "703.121": 7880.177019,
      "704.123": 7899.116046,
      "705.125": 7918.458031,
      "706.127": 7938.757705,
      "707.129": 7959.684287,
      "708.131": 7980.655575,
      "709.133": 8000.609959,
      "710.135": 8022.725366,
      "711.137": 8042.522537,
      "712.139": 8062.441937,
      "713.141": 8082.245052,
      "714.143": 8102.481699,
      "715.145": 8123.082956,
      "716.147": 8143.990803,
      "717.149": 8166.338923,
      "718.151": 8187.073036,
      "719.153": 8210.807591,
      "720.155": 8231.09897,
      "721.157": 8251.260463,
      "722.159": 8270.377855,
      "723.161": 8289.623665,
      "724.163": 8308.955219,
      "725.165": 8327.851373,
      "726.167": 8347.333846,
      "727.169": 8366.946001,
      "728.171": 8385.792726,
      "729.173": 8404.480591,
      "730.175": 8423.021319,
      "731.177": 8442.255183,
      "732.179": 8461.322913,
      "733.181": 8481.181995,
      "734.183": 8500.449665,
      "735.185": 8519.385595,
      "736.187": 8538.460173,
      "737.189": 8558.153921,
      "738.191": 8577.612156,
      "739.193": 8596.95508,
      "740.195": 8616.546583,
      "741.197": 8635.956245,
      "742.199": 8654.695434,
      "743.201": 8672.822732,
      "744.203": 8691.809454,
      "745.205": 8710.525502,
      "746.207": 8730.077054,
      "747.209": 8749.519605,
      "748.211": 8774.245619,
      "749.213": 8796.041887,
      "750.215": 8823.249142,
      "751.217": 8845.736033,
      "752.219": 8865.369415,
      "753.221": 8885.31658,
      "754.223": 8904.673638,
      "755.225": 8924.388102,
      "756.227": 8945.665757,
      "757.229": 8966.91904,
      "758.231": 8987.350278,
      "759.233": 9007.588465,
      "760.235": 9027.619153,
      "761.237": 9048.165365,
      "762.239": 9072.559242,
      "763.241": 9093.687019,
      "764.243": 9113.688846,
      "765.245": 9133.857899,
      "766.247": 9153.857734,
      "767.249": 9174.382759,
      "768.251": 9194.175795,
      "769.253": 9213.06155,
      "770.255": 9232.358289,
      "771.257": 9251.704044,
      "772.259": 9270.420156,
      "773.261": 9289.122131,
      "774.263": 9307.945824,
      "775.265": 9326.327214,
      "776.267": 9345.380586,
      "777.269": 9363.719376,
      "778.271": 9383.647163,
      "779.273": 9402.937103,
      "780.275": 9424.781822,
      "781.277": 9449.146306,
      "782.279": 9470.297455,
      "783.281": 9491.653057,
      "784.283": 9512.889836,
      "785.285": 9533.006539,
      "786.287": 9555.407654,
      "787.289": 9575.931152,
      "788.291": 9595.183364,
      "789.293": 9614.209307,
      "790.295": 9634.490707,
      "791.297": 9656.430548,
      "792.299": 9681.079527,
      "793.301": 9702.967736,
      "794.303": 9742.883836,
      "795.305": 9771.276483,
      "796.307": 9817.369319,
      "797.309": 9852.562434,
      "798.311": 9884.897673,
      "799.313": 9915.762977,
      "800.315": 9950.975314,
      "801.317": 9984.508106,
      "802.319": 10018.044696,
      "803.321": 10058.974608,
      "804.323": 10080.507069,
      "805.325": 10100.994014,
      "806.327": 10122.451187,
      "807.329": 10142.3075,
      "808.331": 10162.78772,
      "809.333": 10183.006388,
      "810.335": 10203.594682,
      "811.337": 10225.016001,
      "812.339": 10248.051085,
      "813.341": 10270.838357,
      "814.343": 10294.505836,
      "815.345": 10314.147299,
      "816.347": 10334.061835,
      "817.349": 10355.44787,
      "818.351": 10377.66954,
      "819.353": 10399.845046,
      "820.355": 10420.219184,
      "821.357": 10441.062369,
      "822.359": 10462.186675,
      "823.361": 10482.963183,
      "824.363": 10502.789591,
      "825.365": 10521.501875,
      "826.367": 10540.11297,
      "827.369": 10559.154122,
      "828.371": 10577.323093,
      "829.373": 10595.860042,
      "830.375": 10614.90186,
      "831.377": 10633.048231,
      "832.379": 10651.132932,
      "833.381": 10669.242003,
      "834.383": 10686.784758,
      "835.385": 10704.936148,
      "836.387": 10723.69872,
      "837.389": 10741.801124,
      "838.391": 10759.795831,
      "839.393": 10778.094361,
      "840.395": 10796.995801,
      "841.397": 10816.49916,
      "842.399": 10837.030894,
      "843.401": 10857.410778,
      "844.403": 10877.218954,
      "845.405": 10896.091902,
      "846.407": 10915.826142,
      "847.409": 10934.462769,
      "848.411": 10953.47583,
      "849.413": 10971.942142,
      "850.415": 10990.553532,
      "851.417": 11009.144245,
      "852.419": 11029.318411,
      "853.421": 11049.073226,
      "854.423": 11072.620192,
      "855.425": 11092.446308,
      "856.427": 11121.885707,
      "857.429": 11146.209508,
      "858.431": 11172.808021,
      "859.433": 11207.098849,
      "860.435": 11241.215677,
      "861.437": 11280.812252,
      "862.439": 11303.631908,
      "863.441": 11324.988339,
      "864.443": 11348.117383,
      "865.445": 11370.37632,
      "866.447": 11396.116434,
      "867.449": 11422.308645,
      "868.451": 11449.428773,
      "869.453": 11475.529374,
      "870.455": 11494.078961,
      "871.457": 11512.499286,
      "872.459": 11530.48376,
      "873.461": 11548.640828,
      "874.463": 11566.596733,
      "875.465": 11584.481149,
      "876.467": 11602.594915,
      "877.469": 11620.45809,
      "878.471": 11638.214734,
      "879.473": 11656.157394,
      "880.475": 11674.593673,
      "881.477": 11692.584195,
      "882.479": 11710.817871,
      "883.481": 11728.978224,
      "884.483": 11747.287823,
      "885.485": 11765.538094,
      "886.487": 11784.503082,
      "887.489": 11802.928527,
      "888.491": 11821.498634,
      "889.493": 11839.831278,
      "890.495": 11857.999626,
      "891.497": 11875.941697,
      "892.499": 11893.932011,
      "893.501": 11912.390442,
      "894.503": 11930.988182,
      "895.505": 11949.173722,
      "896.507": 11967.140896,
      "897.509": 11986.156881,
      "898.511": 12004.516068,
      "899.513": 12022.435369,
      "900.515": 12041.252302,
      "901.517": 12060.360205,
      "902.519": 12080.312256,
      "903.521": 12099.807454,
      "904.523": 12122.283213,
      "905.525": 12143.242348,
      "906.527": 12162.487379,
      "907.529": 12180.453112,
      "908.531": 12199.043857,
      "909.533": 12218.339097,
      "910.535": 12237.652853,
      "911.537": 12258.031092,
      "912.539": 12279.019722,
      "913.541": 12317.412331,
      "914.543": 12339.27781,
      "915.545": 12361.770611,
      "916.547": 12394.592653,
      "917.549": 12443.54816,
      "918.551": 12463.275246,
      "919.553": 12483.304496,
      "920.555": 12504.174497,
      "921.557": 12525.059461,
      "922.559": 12551.407883,
      "923.561": 12576.677654,
      "924.563": 12599.746802,
      "925.565": 12624.338239,
      "926.567": 12650.624175,
      "927.569": 12672.85944,
      "928.571": 12693.924841,
      "929.573": 12714.391274,
      "930.575": 12735.418441,
      "931.577": 12756.899378,
      "932.579": 12778.707415,
      "933.581": 12802.31527,
      "934.583": 12824.695608,
      "935.585": 12852.245212,
      "936.587": 12878.604134,
      "937.589": 12900.228607,
      "938.591": 12921.614703,
      "939.593": 12943.18066,
      "940.595": 12968.618468,
      "941.597": 12990.000787,
      "942.599": 13013.327703,
      "943.601": 13037.540429,
      "944.603": 13062.529808,
      "945.605": 13089.862111,
      "946.607": 13116.165088,
      "947.609": 13145.875776,
      "948.611": 13179.314553,
      "949.613": 13210.852721,
      "950.615": 13244.233781,
      "951.617": 13268.319458,
      "952.619": 13290.898828,
      "953.621": 13313.246923,
      "954.623": 13336.750842,
      "955.625": 13359.828815,
      "956.627": 13383.475384,
      "957.629": 13409.110169,
      "958.631": 13434.485036,
      "959.633": 13461.275965,
      "960.635": 13484.460591,
      "961.637": 13514.316708,
      "962.639": 13541.203941,
      "963.641": 13572.406086,
      "964.643": 13607.131243,
      "965.645": 13641.975052,
      "966.647": 13694.175565,
      "967.649": 13751.429611,
      "968.651": 13800.879777,
      "969.653": 13826.566621,
      "970.655": 13851.008576,
      "971.657": 13873.747418,
      "972.659": 13897.325425,
      "973.661": 13919.742983,
      "974.663": 13947.090745,
      "975.665": 13988.267595,
      "976.667": 14013.288868,
      "977.669": 14036.902068,
      "978.671": 14058.941692,
      "979.673": 14080.146169,
      "980.675": 14101.864617,
      "981.677": 14123.148925,
      "982.679": 14145.436936,
      "983.681": 14166.824114,
      "984.683": 14188.916425,
      "985.685": 14212.82533,
      "986.687": 14235.453922,
      "987.689": 14258.738357,
      "988.691": 14282.303257,
      "989.693": 14306.570463,
      "990.695": 14328.512341,
      "991.697": 14349.892854,
      "992.699": 14371.558775,
      "993.701": 14401.17113,
      "994.703": 14423.390385,
      "995.705": 14444.589051,
      "996.707": 14466.206985,
      "997.709": 14487.588685,
      "998.711": 14509.951082,
      "999.713": 14530.51376,
      "1000.715": 14551.10105,
      "1001.717": 14571.592707,
      "1002.719": 14592.345775,
      "1003.721": 14613.712602,
      "1004.723": 14635.831721,
      "1005.725": 14660.350727,
      "1006.727": 14682.077736,
      "1007.729": 14703.854466,
      "1008.731": 14725.047102,
      "1009.733": 14746.826457,
      "1010.735": 14767.858642,
      "1011.737": 14789.46812,
      "1012.739": 14811.216382,
      "1013.741": 14834.372523,
      "1014.743": 14857.468482,
      "1015.745": 14889.20114,
      "1016.747": 14916.816028,
      "1017.749": 14955.83976,
      "1018.751": 15017.991267,
      "1019.753": 15088.713906,
      "1020.755": 15112.599828,
      "1021.757": 15135.956652,
      "1022.759": 15158.550078,
      "1023.761": 15181.130241,
      "1024.763": 15203.889816,
      "1025.765": 15231.665063,
      "1026.767": 15257.086301,
      "1027.769": 15279.878212,
      "1028.771": 15303.646104,
      "1029.773": 15327.234044,
      "1030.775": 15348.552278,
      "1031.777": 15369.506882,
      "1032.779": 15389.941658,
      "1033.781": 15411.278643,
      "1034.783": 15433.012646,
      "1035.785": 15461.705544,
      "1036.787": 15488.70801,
      "1037.789": 15514.512987,
      "1038.791": 15544.535668,
      "1039.793": 15582.365963,
      "1040.795": 15623.921309,
      "1041.797": 15646.197608,
      "1042.799": 15668.432157,
      "1043.801": 15690.436815,
      "1044.803": 15718.788535,
      "1045.805": 15745.196218,
      "1046.807": 15768.363542,
      "1047.809": 15793.766602,
      "1048.811": 15818.308919,
      "1049.813": 15840.204888,
      "1050.815": 15861.850415,
      "1051.817": 15882.94454,
      "1052.819": 15903.913985,
      "1053.821": 15924.258814,
      "1054.823": 15944.300353,
      "1055.825": 15964.802849,
      "1056.827": 15985.050888,
      "1057.829": 16006.686665,
      "1058.831": 16028.201672,
      "1059.833": 16051.625509,
      "1060.835": 16077.496721,
      "1061.837": 16100.299652,
      "1062.839": 16136.157103,
      "1063.841": 16168.088814,
      "1064.843": 16204.769257,
      "1065.845": 16255.006093,
      "1066.847": 16282.035842,
      "1067.849": 16304.472022,
      "1068.851": 16326.112778,
      "1069.853": 16347.322199,
      "1070.855": 16369.001113,
      "1071.857": 16390.867385,
      "1072.859": 16424.344554,
      "1073.861": 16453.111019,
      "1074.863": 16473.820818,
      "1075.865": 16494.893231,
      "1076.867": 16516.636814,
      "1077.869": 16539.570721,
      "1078.871": 16562.416071,
      "1079.873": 16583.462961,
      "1080.875": 16604.819845,
      "1081.877": 16626.240777,
      "1082.879": 16647.28746,
      "1083.881": 16668.779302,
      "1084.883": 16690.186179,
      "1085.885": 16711.140785,
      "1086.887": 16732.304783,
      "1087.889": 16753.370289,
      "1088.891": 16774.891948,
      "1089.893": 16795.541575,
      "1090.895": 16817.820812,
      "1091.897": 16840.213756,
      "1092.899": 16860.14942,
      "1093.901": 16880.481917,
      "1094.903": 16900.804297,
      "1095.905": 16921.275925,
      "1096.907": 16942.671828,
      "1097.909": 16963.208229,
      "1098.911": 16983.221814,
      "1099.913": 17004.507772,
      "1100.915": 17025.46918,
      "1101.917": 17045.977442,
      "1102.919": 17066.462499,
      "1103.921": 17087.060988,
      "1104.923": 17107.321136,
      "1105.925": 17128.090513,
      "1106.927": 17148.773146,
      "1107.929": 17170.049608,
      "1108.931": 17190.248404,
      "1109.933": 17211.367299,
      "1110.935": 17231.913247,
      "1111.937": 17252.69435,
      "1112.939": 17273.068432,
      "1113.941": 17293.923596,
      "1114.943": 17314.576594,
      "1115.945": 17335.383345,
      "1116.947": 17356.285011,
      "1117.949": 17376.902904,
      "1118.951": 17397.150371,
      "1119.953": 17420.564851,
      "1120.955": 17442.012126,
      "1121.957": 17467.524275,
      "1122.959": 17492.620868,
      "1123.961": 17513.941259,
      "1124.963": 17534.793687,
      "1125.965": 17555.789541,
      "1126.967": 17576.555309,
      "1127.969": 17597.041443,
      "1128.971": 17618.02035,
      "1129.973": 17638.836665,
      "1130.975": 17659.785664,
      "1131.977": 17680.455143,
      "1132.979": 17701.070026,
      "1133.981": 17721.932305,
      "1134.983": 17742.645878,
      "1135.985": 17763.614537,
      "1136.987": 17784.401945,
      "1137.989": 17804.684011,
      "1138.991": 17825.120207,
      "1139.993": 17846.125568,
      "1140.995": 17868.486821,
      "1141.997": 17889.764012,
      "1142.999": 17910.869593,
      "1144.001": 17932.045702,
      "1145.003": 17954.434802,
      "1146.005": 17976.257286,
      "1147.007": 17997.90623,
      "1148.009": 18019.881254,
      "1149.011": 18041.432497,
      "1150.013": 18063.293069,
      "1151.015": 18086.600067,
      "1152.017": 18109.057604,
      "1153.019": 18132.487877,
      "1154.021": 18155.331878,
      "1155.023": 18176.842937,
      "1156.025": 18198.611588,
      "1157.027": 18221.601603,
      "1158.029": 18243.874964,
      "1159.031": 18266.724396,
      "1160.033": 18290.523936,
      "1161.035": 18311.422419,
      "1162.037": 18334.834129,
      "1163.039": 18356.201061,
      "1164.041": 18377.651559,
      "1165.043": 18399.116735,
      "1166.045": 18420.764337,
      "1167.047": 18444.755314,
      "1168.049": 18467.712601,
      "1169.051": 18489.378781,
      "1170.053": 18510.391222,
      "1171.055": 18530.878853,
      "1172.057": 18553.327304,
      "1173.059": 18574.376006,
      "1174.061": 18595.326533,
      "1175.063": 18615.852239,
      "1176.065": 18636.153708,
      "1177.067": 18656.967226,
      "1178.069": 18677.219828,
      "1179.071": 18697.752766,
      "1180.073": 18718.360422,
      "1181.075": 18738.771788,
      "1182.077": 18759.943511,
      "1183.079": 18780.609108,
      "1184.081": 18801.944468,
      "1185.083": 18824.293559,
      "1186.085": 18844.963874,
      "1187.087": 18865.78327,
      "1188.089": 18886.338648,
      "1189.091": 18909.874586,
      "1190.093": 18932.761544,
      "1191.095": 18953.922868,
      "1192.097": 18975.808466,
      "1193.099": 18997.29601,
      "1194.101": 19018.841772,
      "1195.103": 19040.758317,
      "1196.105": 19063.218819,
      "1197.107": 19085.65874,
      "1198.109": 19107.176931,
      "1199.111": 19129.031231,
      "1200.113": 19152.001864,
      "1201.115": 19173.898382,
      "1202.117": 19196.94606,
      "1203.119": 19221.328003,
      "1204.121": 19244.021504,
      "1205.123": 19266.831316,
      "1206.125": 19288.568216,
      "1207.127": 19310.215542,
      "1208.129": 19332.614852,
      "1209.131": 19354.470308,
      "1210.133": 19375.859135,
      "1211.135": 19399.304341,
      "1212.137": 19421.510074,
      "1213.139": 19442.717753,
      "1214.141": 19464.361809,
      "1215.143": 19486.953166,
      "1216.145": 19509.425345,
      "1217.147": 19531.207776,
      "1218.149": 19552.943868,
      "1219.151": 19574.555862,
      "1220.153": 19596.1508,
      "1221.155": 19618.246059,
      "1222.157": 19639.741498,
      "1223.159": 19662.301451,
      "1224.161": 19684.42438,
      "1225.163": 19706.913075,
      "1226.165": 19729.15805,
      "1227.167": 19751.277442,
      "1228.169": 19772.820356,
      "1229.171": 19794.471862,
      "1230.173": 19815.852788,
      "1231.175": 19837.4155,
      "1232.177": 19859.630089,
      "1233.179": 19883.503236,
      "1234.181": 19907.652962,
      "1235.183": 19929.631667,
      "1236.185": 19952.433711,
      "1237.187": 19975.101517,
      "1238.189": 19998.35156,
      "1239.191": 20021.052008,
      "1240.193": 20043.125458,
      "1241.195": 20065.700295,
      "1242.197": 20087.594583,
      "1243.199": 20109.226923,
      "1244.201": 20131.493588,
      "1245.203": 20154.019887,
      "1246.205": 20176.508812,
      "1247.207": 20199.63943,
      "1248.209": 20221.396259,
      "1249.211": 20243.885971,
      "1250.213": 20265.925308,
      "1251.215": 20287.349453,
      "1252.217": 20308.804838,
      "1253.219": 20330.971261,
      "1254.221": 20354.657707,
      "1255.223": 20377.520391,
      "1256.225": 20399.54857,
      "1257.227": 20422.303079,
      "1258.229": 20444.513924,
      "1259.231": 20466.372655,
      "1260.233": 20487.535135,
      "1261.235": 20509.156187,
      "1262.237": 20531.127156,
      "1263.239": 20552.505821,
      "1264.241": 20574.876184,
      "1265.243": 20597.860633,
      "1266.245": 20620.078294,
      "1267.247": 20642.044067,
      "1268.249": 20664.138252,
      "1269.251": 20685.934773,
      "1270.253": 20708.234204,
      "1271.255": 20730.366606,
      "1272.257": 20752.720478,
      "1273.259": 20774.476995,
      "1274.261": 20796.346522,
      "1275.263": 20821.122732,
      "1276.265": 20844.124958,
      "1277.267": 20870.063563,
      "1278.269": 20894.702472,
      "1279.271": 20916.762123,
      "1280.273": 20939.189631,
      "1281.275": 20961.179144,
      "1282.277": 20983.038754,
      "1283.279": 21003.935128,
      "1284.281": 21024.93818,
      "1285.283": 21045.958973,
      "1286.285": 21068.16817,
      "1287.287": 21090.685224,
      "1288.289": 21112.6341,
      "1289.291": 21134.953557,
      "1290.293": 21156.696856,
      "1291.295": 21178.382464,
      "1292.297": 21200.033709,
      "1293.299": 21222.285179,
      "1294.301": 21244.996791,
      "1295.303": 21267.490082,
      "1296.305": 21291.265513,
      "1297.307": 21314.677318,
      "1298.309": 21337.056678,
      "1299.311": 21359.678803,
      "1300.313": 21382.466621,
      "1301.315": 21404.622742,
      "1302.317": 21427.073773,
      "1303.319": 21449.716057,
      "1304.321": 21472.609787,
      "1305.323": 21494.779645,
      "1306.325": 21521.102408,
      "1307.327": 21544.812893,
      "1308.329": 21572.530371,
      "1309.331": 21596.885961,
      "1310.333": 21619.176037,
      "1311.335": 21641.682337,
      "1312.337": 21663.898795,
      "1313.339": 21687.443627,
      "1314.341": 21710.144176,
      "1315.343": 21733.023545,
      "1316.345": 21755.955445,
      "1317.347": 21781.24772,
      "1318.349": 21804.948599,
      "1319.351": 21828.004185,
      "1320.353": 21850.536004,
      "1321.355": 21873.370686,
      "1322.357": 21896.752271,
      "1323.359": 21919.147429,
      "1324.361": 21942.503536,
      "1325.363": 21965.631282,
      "1326.365": 21988.89112,
      "1327.367": 22013.018802,
      "1328.369": 22035.438809,
      "1329.371": 22057.4804,
      "1330.373": 22078.901724,
      "1331.375": 22100.683155,
      "1332.377": 22122.097169,
      "1333.379": 22144.000871,
      "1334.381": 22166.734533,
      "1335.383": 22189.244553,
      "1336.385": 22213.72182,
      "1337.387": 22236.553848,
      "1338.389": 22261.742197,
      "1339.391": 22287.784783,
      "1340.393": 22312.452183,
      "1341.395": 22335.449014,
      "1342.397": 22358.603381,
      "1343.399": 22381.067867,
      "1344.401": 22403.684379,
      "1345.403": 22426.754286,
      "1346.405": 22450.069262,
      "1347.407": 22473.76259,
      "1348.409": 22497.250268,
      "1349.411": 22520.446755,
      "1350.413": 22543.807026,
      "1351.415": 22567.439057,
      "1352.417": 22591.404911,
      "1353.419": 22614.586619,
      "1354.421": 22637.422526,
      "1355.423": 22660.112599,
      "1356.425": 22682.74138,
      "1357.427": 22705.189577,
      "1358.429": 22728.71642,
      "1359.431": 22753.634317,
      "1360.433": 22777.597254,
      "1361.435": 22800.805073,
      "1362.437": 22826.067581,
      "1363.439": 22852.098242,
      "1364.441": 22876.740246,
      "1365.443": 22901.472391,
      "1366.445": 22925.435878,
      "1367.447": 22948.713729,
      "1368.449": 22971.27902,
      "1369.451": 22993.924026,
      "1370.453": 23017.635009,
      "1371.455": 23040.729327,
      "1372.457": 23062.519534,
      "1373.459": 23084.593327,
      "1374.461": 23106.456456,
      "1375.463": 23128.674222,
      "1376.465": 23151.689433,
      "1377.467": 23174.674216,
      "1378.469": 23197.708862,
      "1379.471": 23222.596711,
      "1380.473": 23246.103244,
      "1381.475": 23269.758829,
      "1382.477": 23293.370632,
      "1383.479": 23316.454119,
      "1384.481": 23339.339274,
      "1385.483": 23361.882257,
      "1386.485": 23384.453515,
      "1387.487": 23407.76029,
      "1388.489": 23429.83747,
      "1389.491": 23453.697274,
      "1390.493": 23475.498472,
      "1391.495": 23497.398306,
      "1392.497": 23519.020235,
      "1393.499": 23540.364108,
      "1394.501": 23561.753209,
      "1395.503": 23582.919547,
      "1396.505": 23604.733497,
      "1397.507": 23627.385682,
      "1398.509": 23649.016194,
      "1399.511": 23671.16244,
      "1400.513": 23693.169256,
      "1401.515": 23717.679319,
      "1402.517": 23739.833093,
      "1403.519": 23761.945051,
      "1404.521": 23783.473975,
      "1405.523": 23805.096756,
      "1406.525": 23827.5095,
      "1407.527": 23849.337312,
      "1408.529": 23871.260643,
      "1409.531": 23892.637256,
      "1410.533": 23914.200516,
      "1411.535": 23935.556419,
      "1412.537": 23956.720594,
      "1413.539": 23978.669978,
      "1414.541": 24000.064927,
      "1415.543": 24022.164083,
      "1416.545": 24044.318098,
      "1417.547": 24065.820549,
      "1418.549": 24087.518805,
      "1419.551": 24109.537384,
      "1420.553": 24131.944419,
      "1421.555": 24153.342225,
      "1422.557": 24174.265988,
      "1423.559": 24198.500494,
      "1424.561": 24223.15732,
      "1425.563": 24244.995943,
      "1426.565": 24267.025389,
      "1427.567": 24290.794636,
      "1428.569": 24313.965735,
      "1429.571": 24336.84329,
      "1430.573": 24359.907122,
      "1431.575": 24381.865749,
      "1432.577": 24403.390364,
      "1433.579": 24424.744602,
      "1434.581": 24446.384519,
      "1435.583": 24468.345056,
      "1436.585": 24490.221096,
      "1437.587": 24512.279238,
      "1438.589": 24534.189564,
      "1439.591": 24555.150042,
      "1440.593": 24577.123687,
      "1441.595": 24599.038957,
      "1442.597": 24621.064149,
      "1443.599": 24643.348207,
      "1444.601": 24667.231364,
      "1445.603": 24689.834545,
      "1446.605": 24712.640062,
      "1447.607": 24734.953596,
      "1448.609": 24757.001393,
      "1449.611": 24778.741015,
      "1450.613": 24801.578541,
      "1451.615": 24824.022204,
      "1452.617": 24847.164728,
      "1453.619": 24868.93409,
      "1454.621": 24891.369746,
      "1455.623": 24912.561632,
      "1456.625": 24933.722468,
      "1457.627": 24954.928582,
      "1458.629": 24975.780506,
      "1459.631": 24996.609522,
      "1460.633": 25018.959658,
      "1461.635": 25041.056331,
      "1462.637": 25064.226086,
      "1463.639": 25087.807676,
      "1464.641": 25110.121705,
      "1465.643": 25131.688483,
      "1466.645": 25155.280992,
      "1467.647": 25177.927696,
      "1468.649": 25199.95286,
      "1469.651": 25222.266686,
      "1470.653": 25243.920609,
      "1471.655": 25265.914896,
      "1472.657": 25287.810811,
      "1473.659": 25309.41225,
      "1474.661": 25331.552298,
      "1475.663": 25354.421512,
      "1476.665": 25376.85876,
      "1477.667": 25398.883804,
      "1478.669": 25421.826514,
      "1479.671": 25444.521578,
      "1480.673": 25467.308384,
      "1481.675": 25490.321908,
      "1482.677": 25512.58076,
      "1483.679": 25534.268724,
      "1484.681": 25555.804355,
      "1485.683": 25578.726037,
      "1486.685": 25601.151334,
      "1487.687": 25624.447727,
      "1488.689": 25648.632258,
      "1489.691": 25672.456914,
      "1490.693": 25695.325702,
      "1491.695": 25721.178699,
      "1492.697": 25744.757937,
      "1493.699": 25771.76685,
      "1494.701": 25797.873618,
      "1495.703": 25821.041283,
      "1496.705": 25844.112191,
      "1497.707": 25867.221001,
      "1498.709": 25889.55603,
      "1499.711": 25912.444308,
      "1500.713": 25934.739893,
      "1501.715": 25957.309206,
      "1502.717": 25981.031765,
      "1503.719": 26004.817487,
      "1504.721": 26029.073462,
      "1505.723": 26052.398286,
      "1506.725": 26074.537524,
      "1507.727": 26097.122902,
      "1508.729": 26123.009766,
      "1509.731": 26146.656161,
      "1510.733": 26169.971844,
      "1511.735": 26192.534017,
      "1512.737": 26216.666245,
      "1513.739": 26240.422071,
      "1514.741": 26263.360393,
      "1515.743": 26287.716755,
      "1516.745": 26311.126002,
      "1517.747": 26334.418914,
      "1518.749": 26357.64739,
      "1519.751": 26381.222877,
      "1520.753": 26404.975847,
      "1521.755": 26429.215635,
      "1522.757": 26455.661311,
      "1523.759": 26481.77917,
      "1524.761": 26507.351883,
      "1525.763": 26533.094721,
      "1526.765": 26556.899623,
      "1527.767": 26580.44537,
      "1528.769": 26608.688468,
      "1529.771": 26637.089121,
      "1530.773": 26662.886918,
      "1531.775": 26688.865718,
      "1532.777": 26714.509094,
      "1533.779": 26741.008777,
      "1534.781": 26765.997428,
      "1535.783": 26791.330906,
      "1536.785": 26816.038083,
      "1537.787": 26839.505188,
      "1538.789": 26863.346064,
      "1539.791": 26886.401357,
      "1540.793": 26911.17642,
      "1541.795": 26936.411597,
      "1542.797": 26960.45736,
      "1543.799": 26985.876286,
      "1544.801": 27010.459701,
      "1545.803": 27034.545635,
      "1546.805": 27057.457284,
      "1547.807": 27082.431464,
      "1548.809": 27105.669469,
      "1549.811": 27128.997375,
      "1550.813": 27152.216125,
      "1551.815": 27176.574243,
      "1552.817": 27201.916043,
      "1553.819": 27226.211102,
      "1554.821": 27251.182029,
      "1555.823": 27278.37022,
      "1556.825": 27306.393939,
      "1557.827": 27331.700765,
      "1558.829": 27357.077804,
      "1559.831": 27381.765237,
      "1560.833": 27407.881776,
      "1561.835": 27433.911134,
      "1562.837": 27459.598433,
      "1563.839": 27485.262669,
      "1564.841": 27509.120932,
      "1565.843": 27534.436259,
      "1566.845": 27560.940351,
      "1567.847": 27586.156571,
      "1568.849": 27613.035538,
      "1569.851": 27638.557701,
      "1570.853": 27663.433732,
      "1571.855": 27690.590587,
      "1572.857": 27716.066062,
      "1573.859": 27740.356135,
      "1574.861": 27765.655983,
      "1575.863": 27790.823157,
      "1576.865": 27816.663909,
      "1577.867": 27841.237571,
      "1578.869": 27865.097891,
      "1579.871": 27888.720037,
      "1580.873": 27913.67875,
      "1581.875": 27938.494501,
      "1582.877": 27964.566793,
      "1583.879": 27988.560324,
      "1584.881": 28012.919973,
      "1585.883": 28041.197944,
      "1586.885": 28068.560762,
      "1587.887": 28094.86846,
      "1588.889": 28120.366145,
      "1589.891": 28144.737462,
      "1590.893": 28169.760419,
      "1591.895": 28195.737511,
      "1592.897": 28222.605496,
      "1593.899": 28248.940212,
      "1594.901": 28273.016665,
      "1595.903": 28298.168401,
      "1596.905": 28323.281072,
      "1597.907": 28347.636683,
      "1598.909": 28370.986325,
      "1599.911": 28395.149016,
      "1600.913": 28418.847259,
      "1601.915": 28442.3616,
      "1602.917": 28467.729737,
      "1603.919": 28491.984309,
      "1604.921": 28516.52083,
      "1605.923": 28544.657726,
      "1606.925": 28570.118618,
      "1607.927": 28595.041231,
      "1608.929": 28618.75647,
      "1609.931": 28642.767225,
      "1610.933": 28666.886546,
      "1611.935": 28691.43585,
      "1612.937": 28716.269025,
      "1613.939": 28742.133906,
      "1614.941": 28767.993433,
      "1615.943": 28792.930532,
      "1616.945": 28817.066438,
      "1617.947": 28840.097506,
      "1618.949": 28864.290219,
      "1619.951": 28889.287004,
      "1620.953": 28914.489816,
      "1621.955": 28938.623731,
      "1622.957": 28963.419091,
      "1623.959": 28989.139612,
      "1624.961": 29014.561133,
      "1625.963": 29038.476969,
      "1626.965": 29065.352629,
      "1627.967": 29091.226087,
      "1628.969": 29114.92732,
      "1629.971": 29138.662205,
      "1630.973": 29162.109962,
      "1631.975": 29186.642614,
      "1632.977": 29213.696809,
      "1633.979": 29239.782369,
      "1634.981": 29265.86129,
      "1635.983": 29290.622001,
      "1636.985": 29316.498415,
      "1637.987": 29341.493352,
      "1638.989": 29364.912834,
      "1639.991": 29389.884026,
      "1640.993": 29413.952934,
      "1641.995": 29437.045091,
      "1642.997": 29461.045823,
      "1643.999": 29486.526034,
      "1645.001": 29513.242859,
      "1646.003": 29537.605563,
      "1647.005": 29564.277742,
      "1648.007": 29590.76201,
      "1649.009": 29619.71689,
      "1650.011": 29647.097045,
      "1651.013": 29672.611439,
      "1652.015": 29698.147574,
      "1653.017": 29724.587829,
      "1654.019": 29750.986982,
      "1655.021": 29776.990031,
      "1656.023": 29803.895159,
      "1657.025": 29830.7833,
      "1658.027": 29857.25671,
      "1659.029": 29883.456744,
      "1660.031": 29907.54095,
      "1661.033": 29931.066599,
      "1662.035": 29955.419483,
      "1663.037": 29981.712663,
      "1664.039": 30006.208136,
      "1665.041": 30031.023179,
      "1666.043": 30056.915177,
      "1667.045": 30081.801852,
      "1668.047": 30107.262761,
      "1669.049": 30131.093015,
      "1670.051": 30155.295023,
      "1671.053": 30179.108754,
      "1672.055": 30202.902077,
      "1673.057": 30229.992658,
      "1674.059": 30254.158252,
      "1675.061": 30277.791683,
      "1676.063": 30301.481547,
      "1677.065": 30325.509902,
      "1678.067": 30352.856668,
      "1679.069": 30377.939826,
      "1680.071": 30407.21552,
      "1681.073": 30435.582339,
      "1682.075": 30462.627052,
      "1683.077": 30488.691524,
      "1684.079": 30513.364898,
      "1685.081": 30539.090787,
      "1686.083": 30565.75981,
      "1687.085": 30592.001648,
      "1688.087": 30616.987177,
      "1689.089": 30643.54944,
      "1690.091": 30667.866653,
      "1691.093": 30692.100509,
      "1692.095": 30716.151972,
      "1693.097": 30740.370128,
      "1694.099": 30766.352044,
      "1695.101": 30791.765842,
      "1696.103": 30818.931427,
      "1697.105": 30845.115996,
      "1698.107": 30871.261043,
      "1699.109": 30897.572419,
      "1700.111": 30922.704535,
      "1701.113": 30950.022297,
      "1702.115": 30975.324933,
      "1703.117": 30999.692257,
      "1704.119": 31023.922807,
      "1705.121": 31048.116419,
      "1706.123": 31072.825426,
      "1707.125": 31097.619464,
      "1708.127": 31122.211799,
      "1709.129": 31147.962733,
      "1710.131": 31172.769919,
      "1711.133": 31198.525361,
      "1712.135": 31225.413568,
      "1713.137": 31249.511935,
      "1714.139": 31274.048941,
      "1715.141": 31299.849653,
      "1716.143": 31327.068349,
      "1717.145": 31367.341378,
      "1718.147": 31396.102498,
      "1719.149": 31434.895558,
      "1720.151": 31477.473752,
      "1721.153": 31504.030924,
      "1722.155": 31529.058637,
      "1723.157": 31554.156763,
      "1724.159": 31586.251744,
      "1725.161": 31617.68453,
      "1726.163": 31643.927189,
      "1727.165": 31676.363668,
      "1728.167": 31701.675775,
      "1729.169": 31726.615787,
      "1730.171": 31753.642516,
      "1731.173": 31779.321592,
      "1732.175": 31804.575193,
      "1733.177": 31830.159539,
      "1734.179": 31854.474033,
      "1735.181": 31880.199141,
      "1736.183": 31910.930634,
      "1737.185": 31952.595603,
      "1738.187": 31994.622014,
      "1739.189": 32067.305244,
      "1740.191": 32133.964371,
      "1741.193": 32195.5731,
      "1742.195": 32230.202921,
      "1743.197": 32267.606661,
      "1744.199": 32321.337426,
      "1745.201": 32351.404981,
      "1746.203": 32389.429688,
      "1747.205": 32427.69207,
      "1748.207": 32456.057815,
      "1749.209": 32482.820027,
      "1750.211": 32508.638256,
      "1751.213": 32535.306057,
      "1752.215": 32560.595714,
      "1753.217": 32587.022672,
      "1754.219": 32612.87267,
      "1755.221": 32640.199453,
      "1756.223": 32665.435632,
      "1757.225": 32690.277017,
      "1758.227": 32716.090173,
      "1759.229": 32741.337802,
      "1760.231": 32766.00821,
      "1761.233": 32792.324306,
      "1762.235": 32816.517378,
      "1763.237": 32842.057033,
      "1764.239": 32866.070848,
      "1765.241": 32891.642098,
      "1766.243": 32918.745009,
      "1767.245": 32945.206169,
      "1768.247": 32970.077847,
      "1769.249": 32994.374925,
      "1770.251": 33018.916282,
      "1771.253": 33043.950267,
      "1772.255": 33068.73864,
      "1773.257": 33094.298443,
      "1774.259": 33119.87976,
      "1775.261": 33143.600164,
      "1776.263": 33167.276991,
      "1777.265": 33192.663014,
      "1778.267": 33217.124568,
      "1779.269": 33244.055671,
      "1780.271": 33269.794368,
      "1781.273": 33294.981117,
      "1782.275": 33319.310102,
      "1783.277": 33343.894896,
      "1784.279": 33368.360159,
      "1785.281": 33396.499742,
      "1786.283": 33424.697676,
      "1787.285": 33449.602604,
      "1788.287": 33475.611174,
      "1789.289": 33501.930404,
      "1790.291": 33528.406884,
      "1791.293": 33552.627703,
      "1792.295": 33578.771261,
      "1793.297": 33603.344738,
      "1794.299": 33626.922143,
      "1795.301": 33651.166444,
      "1796.303": 33675.022274,
      "1797.305": 33699.616239,
      "1798.307": 33724.942657,
      "1799.309": 33750.367091,
      "1800.311": 33775.22357,
      "1801.313": 33799.730074,
      "1802.315": 33826.92719,
      "1803.317": 33852.561646,
      "1804.319": 33880.436514,
      "1805.321": 33906.904064,
      "1806.323": 33934.06791,
      "1807.325": 33959.818621,
      "1808.327": 33985.314679,
      "1809.329": 34011.958879,
      "1810.331": 34039.426123,
      "1811.333": 34064.07351,
      "1812.335": 34088.020911,
      "1813.337": 34113.466076,
      "1814.339": 34139.660053,
      "1815.341": 34165.27249,
      "1816.343": 34190.239705,
      "1817.345": 34215.629088,
      "1818.347": 34240.60338,
      "1819.349": 34265.95571,
      "1820.351": 34291.702026,
      "1821.353": 34317.633733,
      "1822.355": 34344.466379,
      "1823.357": 34374.194403,
      "1824.359": 34402.081625,
      "1825.361": 34429.442444,
      "1826.363": 34457.677033,
      "1827.365": 34484.816357,
      "1828.367": 34511.319466,
      "1829.369": 34538.631668,
      "1830.371": 34564.923286,
      "1831.373": 34592.384813,
      "1832.375": 34620.583174,
      "1833.377": 34657.310397,
      "1834.379": 34687.186347,
      "1835.381": 34750.989241,
      "1836.383": 34806.03413,
      "1837.385": 34837.697013,
      "1838.387": 34864.638841,
      "1839.389": 34891.674637,
      "1840.391": 34919.26012,
      "1841.393": 34945.918367,
      "1842.395": 34973.617093,
      "1843.397": 35000.871062,
      "1844.399": 35031.411273,
      "1845.401": 35057.550169,
      "1846.403": 35085.134797,
      "1847.405": 35113.223445,
      "1848.407": 35140.43607,
      "1849.409": 35167.475093,
      "1850.411": 35195.603914,
      "1851.413": 35222.564819,
      "1852.415": 35250.331975,
      "1853.417": 35276.836425,
      "1854.419": 35306.146537,
      "1855.421": 35337.034492,
      "1856.423": 35364.626825,
      "1857.425": 35391.889585,
      "1858.427": 35418.582217,
      "1859.429": 35445.190415
    },
    "seconds": 35445.190415
  }
}