[
  0.434977,
  0.496884,
  0.53194,
  0.74298,
  0.569979,
  0.44898,
  0.51998,
  0.502254,
  0.64998,
  0.418362,
  0.459524,
  0.487926,
  0.38798,
  0.510028,
  0.589346,
  0.364003,
  0.74976,
  0.518978,
  0.443979,
  0.557979,
  0.4511,
  0.514981,
  0.46098,
  0.53498,
  0.56998,
  0.716817,
  0.480753,
  0.47798,
  0.665742,
  0.51998,
  0.434101,
  0.509876,
  0.163977,
  0.18998,
  0.354423,
  0.377818,
  0.254982,
  0.44286,
  0.423402,
  0.242086,
  0.307981,
  0.507835,
  0.25998,
  0.21498,
  0.166061,
  0.27398,
  0.30194,
  0.342157,
  0.39798,
  0.284413,
  0.29398,
  0.189096,
  0.33298,
  0.34298,
  0.39898,
  0.176981,
  0.28198,
  0.128247,
  0.104056,
  0.20198,
  0.285981,
  0.30598,
  0.317549,
  0.21598,
  0.33698,
  0.539747,
  0.64998,
  0.43198,
  0.69498,
  0.37798,
  0.640428,
  0.521822,
  0.605119,
  0.510738,
  0.381143,
  0.57298,
  0.385247,
  0.472844,
  0.50109,
  0.53498,
  0.565982,
  0.51398,
  0.664361,
  0.44712,
  0.556593,
  0.35798,
  0.41398,
  0.413355,
  0.396979,
  0.548017,
  0.53998,
  0.420846,
  0.48798,
  0.49098,
  0.51298,
  0.538032,
  0.253617,
  0.17898,
  0.24898,
  0.271696,
  0.19198,
  0.457981,
  0.343298,
  0.18198,
  0.323693,
  0.49698,
  0.172758,
  0.20698,
  0.30098,
  0.320711,
  0.27698,
  0.29498,
  0.366902,
  0.445979,
  0.839981,
  0.67298,
  0.41998,
  0.69598,
  0.39698,
  0.41998,
  0.54898,
  0.433981,
  0.52698,
  0.618979,
  0.62398,
  0.499981,
  0.49898,
  0.62198,
  0.494912,
  0.686994,
  0.405981,
  0.535979,
  0.559982,
  0.51198,
  0.46498,
  0.43398,
  0.378379,
  0.54698,
  0.39298,
  0.375622,
  0.45198,
  0.519556,
  0.56298,
  0.36098,
  0.403695,
  0.573964,
  0.485981,
  0.455706,
  0.520955,
  0.473974,
  0.664999,
  0.71498,
  0.512136,
  0.69898,
  0.523558,
  0.697776,
  0.66698,
  0.580985,
  0.425231,
  0.585106,
  0.408069,
  0.218016,
  0.264979,
  0.187981,
  0.26453,
  0.33109,
  0.218738,
  0.399845,
  0.261272,
  0.418216,
  0.255981,
  0.49198,
  0.247982,
  0.38698,
  0.274802,
  0.38998,
  0.48698,
  0.46098,
  0.50198,
  0.47498,
  0.61398,
  0.395557,
  0.452102,
  0.45498,
  0.467028,
  0.39769,
  0.596101,
  0.51098,
  0.41498,
  0.59798,
  0.42998,
  0.56098,
  0.196531,
  0.60898,
  0.406981,
  0.42598,
  0.224564,
  0.30098,
  0.24898,
  0.20898,
  0.26598,
  0.247124,
  0.22698,
  0.227532,
  0.28998,
  0.32098,
  0.203781,
  0.41998,
  0.429693,
  0.351861,
  0.342863,
  0.164851,
  0.358122,
  0.358839,
  0.251864,
  0.306266,
  0.286184,
  0.341009,
  0.30198,
  0.28298,
  0.219782,
  0.425951,
  0.24686,
  0.126065,
  0.201314,
  0.273591,
  0.383634,
  0.2972,
  0.21798,
  0.22798,
  0.17098,
  0.279972,
  0.244784,
  0.191981,
  0.412141,
  0.37598,
  0.321915,
  0.183986,
  0.20298,
  0.30498,
  0.399234,
  0.28998,
  0.475957,
  0.15998,
  0.22798,
  0.436833,
  0.305078,
  0.21898,
  0.31298,
  0.352979,
  0.226164,
  0.474933,
  0.265547,
  0.30098,
  0.305307,
  0.19498,
  0.426979,
  0.538016,
  0.474615,
  0.46383,
  0.75198,
  0.421917,
  0.455981,
  0.5395,
  0.622958,
  0.47298,
  0.45798,
  0.68298,
  0.493878,
  0.74198,
  0.384234,
  0.489954,
  0.570359,
  0.71898,
  0.547017,
  0.451769,
  0.66798,
  0.65198,
  0.52019,
  0.461979,
  0.556132,
  0.54098,
  0.591979,
  0.61398,
  0.502209,
  0.72798,
  0.43298,
  0.524844,
  0.470666,
  0.546738,
  0.527979,
  0.485926,
  0.409864,
  0.419283,
  0.450187,
  0.447971,
  0.454876,
  0.434156,
  0.628538,
  0.424307,
  0.614925,
  0.605008,
  0.36398,
  0.597598,
  0.538978,
  0.593915,
  0.51998,
  0.40794,
  0.42216,
  0.42198,
  0.43298,
  0.551521,
  0.576188,
  0.56398,
  0.570979,
  0.502982,
  0.49298,
  0.48898,
  0.40098,
  0.60898,
  0.418739,
  0.52498,
  0.648793,
  0.549633,
  0.608835,
  0.64877,
  0.525913,
  0.636984,
  0.800937,
  0.481978,
  0.686514,
  0.626978,
  0.585716,
  0.851188,
  0.580671,
  0.62996,
  0.514977,
  0.529891,
  0.562978,
  0.481098,
  0.403106,
  0.625438,
  0.465979,
  0.341767,
  0.42298,
  0.64898,
  0.611071,
  0.63537,
  0.432715,
  0.660056,
  0.60098,
  0.409834,
  0.503904,
  0.541365,
  0.468677,
  0.470763,
  0.577786,
  0.369978,
  0.789979,
  0.507945,
  0.592979,
  0.517359,
  0.580533,
  0.720969,
  0.537847,
  0.536899,
  0.630981,
  0.523175,
  0.499979,
  0.515851,
  0.46867,
  0.4659,
  0.338549,
  0.70093,
  0.585979,
  0.570039,
  0.60498,
  0.75698,
  0.45901,
  0.37898,
  0.324661,
  0.55093,
  0.525814,
  0.69998,
  0.518168,
  0.393979,
  0.655982,
  0.652979,
  0.67198,
  1.311627,
  0.46898,
  0.429164,
  0.61898,
  0.416866,
  0.64298,
  0.482708,
  0.40698,
  0.73998,
  0.460717,
  0.40798,
  0.333199,
  0.481051,
  0.203572,
  0.333067,
  0.352988,
  0.369991,
  0.26063,
  0.44698,
  0.25561,
  0.375785,
  0.282329,
  0.29238,
  0.40302,
  0.32366,
  0.220601,
  0.234593,
  0.322587,
  0.286468,
  0.22992,
  0.176473,
  0.136958,
  0.506552,
  0.18698,
  0.24798,
  0.230064,
  0.17798,
  0.323057,
  0.290801,
  0.186295,
  0.247871,
  0.271738,
  0.370834,
  0.524986,
  0.444981,
  0.453979,
  0.389979,
  0.43195,
  0.628927,
  0.650981,
  0.518981,
  0.486981,
  0.62798,
  0.56398,
  0.54098,
  0.60968,
  0.758582,
  0.412806,
  0.55498,
  0.432982,
  0.378405,
  0.60998,
  0.48398,
  0.441053,
  0.56798,
  0.66098,
  0.654572,
  0.61598,
  0.54198,
  0.44398,
  0.602877,
  0.461609,
  0.55498,
  0.42298,
  0.48098,
  0.312982,
  0.334206,
  0.357982,
  0.546161,
  0.40698,
  0.378979,
  0.67963,
  0.610859,
  0.523907,
  0.400574,
  0.463235,
  0.400862,
  0.50498,
  0.60185,
  0.388978,
  0.494979,
  0.196358,
  0.19398,
  0.344981,
  0.162073,
  0.29798,
  0.26498,
  0.401198,
  0.18798,
  0.310108,
  0.230438,
  0.397148,
  0.195985,
  0.26298,
  0.296606,
  0.337979,
  0.306976,
  0.41092,
  0.339842,
  0.188499,
  0.38592,
  0.213979,
  0.212377,
  0.44098,
  0.34184,
  0.37898,
  0.38898,
  0.240025,
  0.407687,
  0.43398,
  0.27598,
  0.40798,
  0.404048,
  0.489613,
  0.435982,
  0.42698,
  0.520978,
  0.463979,
  0.678979,
  0.53498,
  0.458981,
  0.585979,
  0.580978,
  0.49698,
  0.58698,
  0.442549,
  0.40598,
  0.49098,
  0.589062,
  0.602978,
  0.49398,
  0.56698,
  0.524836,
  0.40998,
  0.70398,
  0.52798,
  0.52498,
  0.48798,
  0.460429,
  0.61298,
  0.511979,
  0.53898,
  0.61198,
  0.535538,
  0.56298,
  0.491881,
  0.340292,
  0.360786,
  0.26798,
  0.281166,
  0.35898,
  0.28898,
  0.209908,
  0.40998,
  0.25298,
  0.29798,
  0.393044,
  0.23698,
  0.56898,
  0.21598,
  0.49898,
  0.562478,
  0.44998,
  0.66298,
  0.42198,
  0.686169,
  0.38498,
  0.37998,
  0.47898,
  0.735502,
  0.63498,
  0.50898,
  0.37298,
  0.43998,
  0.560839,
  0.413102,
  0.69798,
  0.411182,
  0.460941,
  0.528979,
  0.47498,
  0.790854,
  0.395979,
  0.63598,
  0.47611,
  0.482642,
  0.425343,
  0.529709,
  0.495307,
  0.677973,
  0.51498,
  0.608261,
  0.489007,
  0.52598,
  0.63898,
  0.50298,
  0.51098,
  0.40198,
  0.67998,
  0.58698,
  0.42798,
  0.618191,
  0.408896,
  0.53498,
  0.347309,
  0.556155,
  0.43098,
  0.59098,
  0.431502,
  0.212537,
  0.299722,
  0.38598,
  0.213186,
  0.138853,
  0.34798,
  0.206979,
  0.274149,
  0.25098,
  0.36398,
  0.36198,
  0.39698,
  0.227029,
  0.218564,
  0.302607,
  0.228401,
  0.463222,
  0.52498,
  0.31825,
  0.55498,
  0.585007,
  0.516104,
  0.52698,
  0.376775,
  0.50398,
  0.42798,
  0.479334,
  0.46598,
  0.472906,
  0.49098,
  0.50598,
  0.48798,
  0.539779,
  0.493649,
  0.547978,
  0.514979,
  0.482978,
  0.638948,
  0.36783,
  0.458054,
  0.412327,
  0.59898,
  0.322013,
  0.559248,
  0.61898,
  0.448227,
  0.49398,
  0.51298,
  0.153863,
  0.51398,
  0.20398,
  0.21098,
  0.429872,
  0.187134,
  0.271821,
  0.53498,
  0.29898,
  0.249928,
  0.419507,
  0.508782,
  0.13998,
  0.427981,
  0.365994,
  0.35298,
  0.228041,
  0.41898,
  0.530997,
  0.329045,
  0.497433,
  0.374038,
  0.249671,
  0.328641,
  0.314069,
  0.217602,
  0.227408,
  0.23796,
  0.414982,
  0.334093,
  0.271501,
  0.395917,
  0.443994,
  0.4682,
  0.619979,
  0.496978,
  0.580509,
  0.54898,
  0.667441,
  0.48698,
  0.520981,
  0.47098,
  0.73698,
  0.660602,
  0.45798,
  0.39193,
  0.434873,
  0.64098,
  0.471984,
  0.50098,
  0.516994,
  0.514342,
  0.506847,
  0.44698,
  0.776039,
  0.475283,
  0.48098,
  0.517844,
  0.40398,
  0.508453,
  0.586118,
  0.52498,
  0.53798,
  0.59398,
  0.46836,
  0.282333,
  0.156747,
  0.275731,
  0.22598,
  0.319693,
  0.202573,
  0.22898,
  0.227088,
  0.137787,
  0.429226,
  0.226465,
  0.163225,
  0.202912,
  0.312577,
  0.312933,
  0.523622,
  0.400939,
  0.33298,
  0.36098,
  0.53798,
  0.33398,
  0.42598,
  0.70298,
  0.586571,
  0.57498,
  0.503073,
  0.475517,
  0.473979,
  0.54298,
  0.50698,
  0.439955,
  0.331937,
  0.259364,
  0.24598,
  0.219436,
  0.48998,
  0.23098,
  0.114273,
  0.446321,
  0.28109,
  0.38698,
  0.37998,
  0.24198,
  0.348931,
  0.220058,
  0.188809,
  0.462988,
  0.423979,
  0.232883,
  0.58598,
  0.35398,
  0.36398,
  0.159333,
  0.34398,
  0.156567,
  0.29798,
  0.312531,
  0.29498,
  0.44098,
  0.122953,
  0.28098,
  0.595626,
  0.294791,
  0.162114,
  0.254981,
  0.42998,
  0.26898,
  0.270979,
  0.29998,
  0.32498,
  0.27726,
  0.26698,
  0.450514,
  0.29798,
  0.38598,
  0.495664,
  0.28698,
  0.39398,
  0.271501,
  0.276872,
  0.186952,
  0.303415,
  0.291366,
  0.265981,
  0.186358,
  0.095955,
  0.334414,
  0.17198,
  0.207941,
  0.31098,
  0.381243,
  0.225958,
  0.48598,
  0.46986,
  0.21098,
  0.27798,
  0.137679,
  0.43498,
  0.16298,
  0.17698,
  0.206816,
  0.33676,
  0.189763,
  0.26898,
  0.268483,
  0.402373,
  0.19398,
  0.378097,
  0.24904,
  0.185671,
  0.32698,
  0.47198,
  0.49998,
  0.541552,
  0.54801,
  0.42198,
  0.36698,
  0.33998,
  0.425981,
  0.498981,
  0.55298,
  0.44598,
  0.504981,
  0.66398,
  0.55798,
  0.48298,
  0.50398,
  0.161235,
  0.357919,
  0.142146,
  0.18598,
  0.21898,
  0.21198,
  0.28198,
  0.36598,
  0.333791,
  0.327096,
  0.123811,
  0.288508,
  0.26098,
  0.41898,
  0.19198,
  0.32498,
  0.449512,
  0.362981,
  0.630981,
  0.56115,
  0.371977,
  0.465979,
  0.361082,
  0.645981,
  0.543981,
  0.468448,
  0.50798,
  0.39798,
  0.380843,
  0.64898,
  0.444536,
  0.468387,
  0.346051,
  0.247189,
  0.354109,
  0.178368,
  0.46336,
  0.383565,
  0.271085,
  0.31098,
  0.327814,
  0.504979,
  0.226408,
  0.243208,
  0.389962,
  0.598879,
  0.219951,
  0.165576,
  0.39698,
  0.36698,
  0.66239,
  0.87698,
  0.49098,
  0.49598,
  0.44498,
  0.50398,
  0.596909,
  0.469615,
  0.57698,
  0.463979,
  0.591405,
  0.556979,
  0.64898,
  0.54798,
  0.52299,
  0.55298,
  0.349936,
  0.432909,
  0.434458,
  0.480117,
  0.614058,
  0.38998,
  0.42898,
  0.346009,
  0.38498,
  0.457641,
  0.444029,
  0.3891,
  0.721674,
  0.37598,
  0.618979,
  0.53898,
  0.735752,
  0.70398,
  0.51298,
  0.50198,
  0.524397,
  0.423768,
  0.56798,
  0.465826,
  0.495134,
  0.635098,
  0.56798,
  0.510323,
  0.37198,
  0.600845,
  0.424672,
  0.173979,
  0.502981,
  0.357978,
  0.305337,
  0.410979,
  0.390813,
  0.354979,
  0.140774,
  0.173944,
  0.504321,
  0.455979,
  0.352975,
  0.294928,
  0.267975,
  0.29098,
  0.236799,
  0.397352,
  0.164616,
  0.184139,
  0.451503,
  0.39798,
  0.374057,
  0.437888,
  0.22554,
  0.19898,
  0.277844,
  0.493952,
  0.241385,
  0.174145,
  0.39198,
  0.324208,
  0.714746,
  0.420846,
  0.482978,
  0.627973,
  0.515981,
  0.496248,
  0.53898,
  0.42498,
  0.484911,
  0.57598,
  0.544978,
  0.545977,
  0.49598,
  0.456083,
  0.454981,
  0.508229,
  0.28098,
  0.344974,
  0.42098,
  0.29698,
  0.257106,
  0.318948,
  0.24098,
  0.243854,
  0.55098,
  0.336422,
  0.124939,
  0.181934,
  0.419804,
  0.210398,
  0.217882,
  0.38904,
  0.326216,
  0.42849,
  0.505979,
  0.40498,
  0.37598,
  0.34598,
  0.509957,
  0.38598,
  0.618703,
  0.43598,
  0.590088,
  0.511019,
  0.44398,
  0.473599,
  0.59096,
  0.60298,
  0.226532,
  0.26622,
  0.38298,
  0.316232,
  0.17098,
  0.32498,
  0.243069,
  0.24798,
  0.277237,
  0.185315,
  0.256946,
  0.44198,
  0.240192,
  0.311341,
  0.343331,
  0.16798,
  0.438705,
  0.463886,
  0.522661,
  0.58698,
  0.448332,
  0.48698,
  0.49298,
  0.42698,
  0.38798,
  0.51398,
  0.47598,
  0.43598,
  0.489761,
  0.684981,
  0.48898,
  0.513163,
  0.41798,
  0.511978,
  0.692412,
  0.557171,
  0.50698,
  0.543981,
  0.500981,
  0.596982,
  0.56904,
  0.637808,
  0.67898,
  0.537979,
  0.451981,
  0.535979,
  0.59998,
  0.59498,
  0.397715,
  0.502457,
  0.55998,
  0.415429,
  0.658738,
  0.35398,
  0.465972,
  0.35998,
  0.678047,
  0.559129,
  0.45698,
  0.527155,
  0.51698,
  0.36198,
  0.443864,
  0.46098,
  0.552556,
  0.436485,
  0.628504,
  0.34621,
  0.478018,
  0.548984,
  0.47498,
  0.447009,
  0.436573,
  0.456705,
  0.427269,
  0.54298,
  0.472374,
  0.370473,
  0.62198,
  0.435421,
  0.191769,
  0.15298,
  0.141503,
  0.147883,
  0.251571,
  0.210484,
  0.174592,
  0.218896,
  0.262079,
  0.23798,
  0.152974,
  0.275979,
  0.17398,
  0.267582,
  0.290976,
  0.297979,
  0.37598,
  0.41384,
  0.421979,
  0.713982,
  0.435292,
  0.748861,
  0.657348,
  0.6739,
  0.382983,
  0.483976,
  0.443031,
  0.448225,
  0.448976,
  0.56616,
  0.526277,
  0.443218,
  0.26775,
  0.241981,
  0.371864,
  0.339981,
  0.366,
  0.32098,
  0.383104,
  0.178695,
  0.11798,
  0.24874,
  0.34098,
  0.41298,
  0.273717,
  0.317957,
  0.22798,
  0.388358,
  0.441798,
  0.400981,
  0.503982,
  0.539979,
  0.423501,
  0.442907,
  0.45198,
  0.311584,
  0.65998,
  0.415345,
  0.590945,
  0.377501,
  0.933863,
  0.75398,
  0.62998,
  0.612401,
  0.156312,
  0.30498,
  0.499981,
  0.12898,
  0.401988,
  0.31498,
  0.229986,
  0.328979,
  0.367978,
  0.354981,
  0.369278,
  0.326471,
  0.219337,
  0.20998,
  0.16398,
  0.192195,
  0.348981,
  0.470547,
  0.557981,
  0.59598,
  0.67498,
  0.366542,
  0.519844,
  0.638767,
  0.405983,
  0.688548,
  0.427981,
  0.473982,
  0.42298,
  0.48634,
  0.56498,
  0.40946,
  0.43298,
  0.711851,
  0.429092,
  0.56098,
  0.547889,
  0.42496,
  0.330488,
  0.54198,
  0.55898,
  0.364375,
  0.413016,
  0.42398,
  0.56098,
  0.54998,
  0.540042,
  0.427964,
  0.343568,
  0.218816,
  0.36298,
  0.17798,
  0.120564,
  0.13198,
  0.21798,
  0.30898,
  0.33398,
  0.173557,
  0.190976,
  0.32298,
  0.24298,
  0.24598,
  0.38898,
  0.166986,
  0.446129,
  0.508856,
  0.521827,
  0.38698,
  0.452881,
  0.377332,
  0.580603,
  0.765734,
  0.49298,
  0.42198,
  0.53198,
  0.634063,
  0.46798,
  0.44398,
  0.60598,
  0.358424,
  0.39998,
  0.448978,
  0.58298,
  0.617882,
  0.392836,
  0.463738,
  0.467067,
  0.337981,
  0.574979,
  0.51098,
  0.648266,
  0.68498,
  0.788979,
  0.532978,
  0.56598,
  0.556665,
  0.281919,
  0.322187,
  0.44498,
  0.287939,
  0.21833,
  0.19798,
  0.35898,
  0.40584,
  0.139919,
  0.215069,
  0.21998,
  0.335208,
  0.236963,
  0.441918,
  0.294501,
  0.265889,
  0.27,
  0.301979,
  0.28198,
  0.420614,
  0.275979,
  0.25498,
  0.16498,
  0.25498,
  0.231504,
  0.228877,
  0.25398,
  0.271945,
  0.15998,
  0.239982,
  0.24098,
  0.30898,
  0.460097,
  0.483157,
  0.492896,
  0.417811,
  0.469265,
  0.475794,
  0.551333,
  0.436213,
  0.68598,
  0.556837,
  0.52061,
  0.49658,
  0.548022,
  0.51698,
  0.422128,
  0.500271,
  0.3859,
  0.496363,
  0.528482,
  0.455802,
  0.64998,
  1.040699,
  0.427157,
  0.451165,
  0.561946,
  0.49698,
  0.52298,
  0.57098,
  0.599956,
  0.62698,
  0.589902,
  0.472987,
  0.657783,
  0.422864,
  0.429607,
  0.574978,
  0.424983,
  0.62983,
  0.582623,
  0.455092,
  0.469272,
  0.60254,
  0.53998,
  0.454141,
  0.665335,
  0.53398,
  0.627401,
  0.473701,
  0.278978,
  0.380362,
  0.320295,
  0.19898,
  0.311892,
  0.143981,
  0.30698,
  0.28898,
  0.43898,
  0.330867,
  0.231018,
  0.23694,
  0.388705,
  0.20798,
  0.26298,
  0.39098,
  0.404979,
  0.409822,
  0.75898,
  0.45198,
  0.36898,
  0.495945,
  0.50705,
  0.427105,
  0.55398,
  0.449917,
  0.697187,
  0.53398,
  0.41398,
  0.46698,
  0.617594,
  0.478979,
  0.197746,
  0.231196,
  0.285883,
  0.472982,
  0.198753,
  0.198201,
  0.232666,
  0.26698,
  0.258945,
  0.233965,
  0.325202,
  0.369218,
  0.303635,
  0.164809,
  0.27257,
  0.276603,
  0.249955,
  0.245627,
  0.213589,
  0.427991,
  0.23598,
  0.36598,
  0.19098,
  0.431595,
  0.326013,
  0.228978,
  0.39898,
  0.29598,
  0.577961,
  0.167981,
  0.17235,
  0.356123,
  0.369331,
  0.491167,
  0.477203,
  0.500718,
  0.68698,
  0.48298,
  0.434999,
  0.73498,
  0.387978,
  0.732184,
  0.49398,
  0.675979,
  0.42798,
  0.524248,
  0.52798,
  0.67298,
  0.320186,
  0.434029,
  0.277979,
  0.313732,
  0.369126,
  0.296069,
  0.261268,
  0.251782,
  0.245978,
  0.17798,
  0.26198,
  0.42298,
  0.34398,
  0.364979,
  0.264077,
  0.36859,
  0.36498,
  0.138045,
  0.169556,
  0.15898,
  0.42998,
  0.227232,
  0.377191,
  0.264981,
  0.3385,
  0.392603,
  0.29398,
  0.22791,
  0.35898,
  0.428976,
  0.49498,
  0.279911,
  0.188979,
  0.273156,
  0.397003,
  0.253935,
  0.287838,
  0.200979,
  0.240979,
  0.21898,
  0.32398,
  0.40298,
  0.24298,
  0.456173,
  0.31598,
  0.250817,
  0.358655,
  0.294726,
  0.46828,
  0.431598,
  0.602289,
  0.585028,
  0.478443,
  0.620204,
  0.505117,
  0.614981,
  0.48198,
  0.478886,
  0.69398,
  0.558672,
  0.484933,
  0.515903,
  0.459712,
  0.43298,
  0.564617,
  0.648458,
  0.755979,
  0.483832,
  0.57398,
  0.382061,
  0.554125,
  0.655325,
  0.536879,
  0.396054,
  0.62498,
  0.47247,
  0.532609,
  0.724942,
  0.43498,
  0.44798,
  0.55098,
  0.179019,
  0.251237,
  0.306697,
  0.466665,
  0.381419,
  0.254066,
  0.17498,
  0.162979,
  0.179979,
  0.298979,
  0.340731,
  0.22098,
  0.188008,
  0.252197,
  0.355109,
  0.22898,
  0.408269,
  0.20598,
  0.569979,
  0.21698,
  0.23598,
  0.309926,
  0.458074,
  0.31298,
  0.31998,
  0.213027,
  0.26498,
  0.347646,
  0.35498,
  0.480889,
  0.277097,
  0.503978,
  0.580981,
  0.403853,
  0.497268,
  0.34198,
  0.63398,
  0.46398,
  0.46798,
  0.497927,
  0.52398,
  0.51998,
  0.415903,
  0.56998,
  0.57098,
  0.49598,
  0.536848,
  0.54798,
  0.539336,
  0.40498,
  0.45998,
  0.638997,
  0.480132,
  0.477755,
  0.784531,
  0.422649,
  0.615146,
  0.418814,
  0.42452,
  0.475245,
  0.49298,
  0.422372,
  0.446205,
  0.216676,
  0.294976,
  0.20249,
  0.290032,
  0.27498,
  0.20798,
  0.225432,
  0.320552,
  0.247705,
  0.260524,
  0.36698,
  0.34998,
  0.230967,
  0.186558,
  0.36998,
  0.41298,
  0.48498,
  0.49298,
  0.49598,
  0.392021,
  0.474115,
  0.413371,
  0.606363,
  0.57198,
  0.376849,
  0.55598,
  0.732505,
  0.65198,
  0.41098,
  0.403548,
  0.61398,
  0.65398
]