{
  "1000": [
    1.429761,
    0.783133,
    0.427033,
    0.668034,
    0.492012,
    1.049735,
    0.714016,
    0.587076,
    1.412493,
    0.778025,
    1.167631,
    0.642835,
    0.88698,
    0.545466,
    0.55098,
    0.749942,
    0.510035,
    0.862036,
    0.954036,
    0.697991,
    0.976819,
    0.456416,
    0.373315,
    0.575834,
    0.541003,
    0.914076,
    0.869032,
    0.682979,
    0.34698,
    1.014024,
    1.224024,
    0.34707,
    0.625895,
    0.665036,
    1.541559,
    0.646012,
    1.261136,
    0.593069,
    1.467012,
    0.656296,
    0.696928,
    0.566037,
    0.477545,
    0.950917,
    0.551312,
    0.957025,
    0.81898,
    0.697023,
    0.739034,
    0.53698,
    0.661077,
    0.57798
  ],
  "1048576": [
    32.584964,
    2.495966,
    21.133675,
    14.353965,
    3.185622,
    3.276967,
    2.148971,
    26.000211,
    6.184093,
    4.371973,
    14.561506,
    2.45571,
    3.598047,
    3.106984,
    5.016845,
    4.926969,
    3.75994,
    2.572984,
    9.202426,
    4.230966,
    5.188966,
    12.357027,
    4.600796,
    15.921998,
    4.699432,
    6.616792,
    4.243982,
    8.867964,
    2.278848,
    3.788969,
    3.37313,
    4.276639,
    51.665964,
    2.350975,
    4.028972,
    14.681964,
    4.635627,
    3.84559,
    12.600409,
    13.367978,
    20.845964,
    2.053964,
    2.714966,
    11.938004,
    2.909963,
    4.531965,
    1.74284,
    4.392964,
    3.852852,
    2.064964,
    2.813969,
    5.794902,
    3.953846,
    24.663601,
    3.185737,
    5.510244,
    2.991699,
    3.319918,
    7.629964,
    3.264024,
    3.808986,
    2.587599,
    14.153234,
    4.083197,
    3.78872,
    2.806949,
    7.001964,
    3.202972,
    2.360036,
    3.548964,
    2.285101,
    4.109963,
    4.073831,
    3.675964,
    2.737202
  ],
  "51200": [
    0.646801,
    0.910007,
    0.859367,
    0.808974,
    1.312964,
    1.020555,
    0.656648,
    1.83296,
    0.344963,
    8.586836,
    0.363964,
    1.526964,
    0.572158,
    0.767741,
    0.475453,
    0.387022,
    0.817964,
    0.571019,
    0.838402,
    0.573434,
    0.356013,
    0.602971,
    0.614964,
    0.917973,
    0.658022,
    0.789964,
    0.486964,
    0.690966,
    0.670855,
    0.359968,
    0.451738,
    0.76097,
    0.652964,
    0.456986,
    0.558966,
    0.420964,
    0.787964,
    0.427131,
    0.995111,
    0.93129,
    0.950493,
    0.873517,
    0.879969,
    1.274969,
    0.686963,
    0.825921,
    0.678532,
    0.869014,
    1.004965,
    0.883964,
    0.841963,
    2.246889,
    0.984373,
    0.816982,
    0.925964,
    0.701964,
    0.911185,
    0.738965,
    0.900031,
    1.736846,
    0.671966,
    0.566047,
    0.623964,
    0.377964,
    0.819069,
    1.175964,
    0.757964,
    0.759028,
    0.695964,
    0.751934,
    0.755966,
    0.728072,
    0.589964,
    1.003373,
    0.981898,
    0.84142,
    0.669197,
    0.841006,
    0.923871,
    0.386805,
    0.538964,
    1.173994,
    0.879963,
    0.531609,
    0.993971,
    1.24444,
    0.930502,
    0.982012,
    0.883698,
    0.752413,
    0.906523,
    0.696963,
    0.858965,
    0.662963,
    1.020905,
    0.865964,
    0.618965,
    0.55616,
    0.917179,
    0.721966,
    0.649964,
    0.726024,
    0.932396,
    1.222964,
    0.708711,
    0.959963,
    1.513221,
    1.525966,
    0.803905,
    0.714957,
    1.848961,
    0.903148,
    0.776969,
    1.534966,
    0.620794,
    8.647225,
    0.673948,
    0.591966,
    1.2514,
    0.844004,
    1.139596,
    0.608634,
    0.519653,
    0.726708,
    1.1125,
    0.351325,
    0.676964,
    0.903964,
    0.800483,
    0.666909,
    0.721899,
    0.780008,
    0.447966,
    0.340749,
    0.439746,
    0.698735,
    0.552986,
    0.51917,
    0.989538,
    1.232901,
    1.058964,
    1.261502,
    1.107964,
    0.669964,
    0.782964,
    0.461964,
    0.562805,
    0.783964,
    0.780332,
    0.750968,
    1.460892,
    0.464964,
    0.84925,
    0.544951,
    0.586512,
    0.428966,
    0.868763,
    0.701938,
    0.804966,
    0.601549,
    0.954062,
    0.744964,
    1.475299,
    0.836963,
    0.764967,
    0.892183,
    1.420964,
    0.896973,
    0.929903,
    0.694964,
    0.620971,
    0.602518,
    0.420965,
    0.9142,
    4.968813,
    0.481753,
    0.474963,
    0.660964,
    0.449922,
    0.513964,
    0.345203,
    1.252845,
    0.649966,
    0.492044,
    0.577964,
    0.507964,
    0.672964,
    0.525964,
    0.68817,
    0.704132,
    0.317964,
    1.146964,
    0.722103,
    0.637219,
    1.012029,
    0.634964,
    0.837022,
    0.615835,
    0.583966,
    1.890648,
    0.962965,
    0.975964,
    0.696909,
    1.354965,
    0.691907,
    0.690053,
    0.757301,
    0.660525,
    0.540165,
    0.913693,
    1.113947,
    1.205286,
    0.817972,
    0.989966,
    0.735088,
    0.610026,
    0.715935,
    0.509611,
    0.713814,
    0.753732,
    0.974916,
    0.5446,
    0.416025,
    0.435863,
    1.25541,
    1.072883,
    0.825003,
    0.754706,
    1.550946,
    0.372107,
    0.692227,
    0.773568,
    0.412971,
    0.628849,
    0.592708,
    0.792964,
    0.493971,
    0.901422,
    0.717536,
    0.407444,
    0.426964,
    0.500965,
    0.449682,
    0.461965,
    0.417104,
    0.663964,
    1.293296,
    0.853899,
    0.772963,
    0.776966,
    1.368922,
    0.922083,
    0.805991,
    0.391171,
    0.777964,
    0.559964,
    0.651965,
    0.587419,
    0.671677,
    0.799966,
    0.409964,
    0.553654,
    0.509455,
    1.044169,
    0.781011,
    0.887964,
    0.785883,
    0.761008,
    0.426964,
    0.881949,
    1.258711,
    0.911966,
    0.754964,
    1.151966,
    1.282972,
    0.677966,
    0.800535,
    0.410003,
    3.99037,
    0.759808,
    0.683964,
    0.510964,
    0.620041,
    0.643964,
    0.556555,
    0.811964,
    1.235325,
    0.734923,
    0.974964,
    0.884889,
    1.813821,
    0.747868,
    0.625959,
    0.671239,
    0.475784,
    0.571003,
    0.479964,
    0.633964,
    1.320894,
    0.675751,
    0.734969,
    1.016192,
    0.790964,
    0.697964,
    0.652966,
    0.451966,
    1.002642,
    0.649574,
    0.828792,
    0.862994,
    0.532577,
    0.981964,
    1.269964,
    0.533092,
    0.444883,
    0.695454,
    0.873969,
    0.785964,
    0.744966,
    1.076964,
    0.460769,
    0.487972,
    0.451491,
    0.448965,
    0.786941,
    0.780119,
    0.664691,
    0.791964,
    0.563123,
    0.387963,
    0.705633,
    0.564966,
    0.75889,
    0.746964,
    0.879048,
    0.454966,
    1.13528,
    1.473964,
    0.362725,
    0.710688,
    0.550965,
    0.931656,
    0.670035,
    0.442964,
    0.771145,
    0.499932,
    0.744965,
    0.916478,
    0.411694,
    0.520665,
    0.688964,
    0.844281,
    0.646773,
    0.398869,
    0.712963,
    0.518308,
    0.569819,
    0.932458,
    0.942561,
    0.550964,
    0.483897,
    0.844345,
    0.321327,
    0.697466,
    0.395818,
    0.694424,
    0.938966,
    0.536964,
    0.784965,
    0.594966,
    0.596836,
    0.572966,
    0.614107,
    0.661985,
    0.98439,
    0.815964,
    1.245985,
    0.631429,
    0.967018,
    0.743957,
    0.927941,
    0.962535,
    0.670969,
    0.480964,
    0.633086,
    0.399992,
    0.89049,
    0.720066,
    0.87396,
    0.778972,
    0.568649,
    0.868423,
    0.5488,
    0.425964,
    1.054375,
    0.64597,
    0.66808,
    0.578831,
    0.573964,
    0.85711,
    0.570964,
    1.159767,
    0.91466,
    1.15195,
    0.981352,
    0.972159,
    0.639966,
    0.861988,
    0.6583,
    0.482895,
    0.710189,
    0.805964,
    4.224729,
    0.481195,
    1.043897,
    0.606361,
    0.530084,
    0.759965,
    0.437002,
    0.549744,
    0.518966,
    0.439963,
    0.769244,
    0.596852,
    1.150333,
    0.881757,
    1.087964,
    0.915718,
    1.234861,
    0.739966,
    0.75217,
    1.060436,
    0.690964,
    0.974963,
    0.60028,
    0.651965,
    0.754994,
    0.871856,
    0.588298,
    0.611064,
    0.492172,
    0.593964,
    0.65509,
    0.533974,
    0.882964,
    0.679964,
    0.512057,
    0.691747,
    3.974193,
    0.93695,
    0.978978,
    1.090686,
    0.808964,
    0.732946,
    0.538964,
    0.667943,
    0.561966,
    0.641974,
    0.586973,
    0.771964,
    0.777988,
    0.403247,
    0.617158,
    0.509021,
    0.839964,
    1.274353,
    0.692964,
    0.720046,
    0.751964,
    1.180964,
    0.678344,
    0.758964,
    0.776085,
    0.550964,
    0.523838,
    0.736964,
    0.81504,
    0.38203,
    0.420966,
    5.579905,
    0.62294,
    0.666223,
    1.175057,
    4.169963,
    0.619931,
    0.723761,
    0.963017,
    1.160022,
    0.844257,
    1.423969,
    0.60443,
    0.964965,
    0.704966,
    1.166461,
    1.602887,
    0.664972,
    0.663626,
    1.385964,
    9.25444,
    0.780964,
    0.629906,
    0.721964,
    0.646954,
    0.626698,
    0.902939,
    1.170333,
    0.576578,
    0.590965,
    1.391979,
    0.991994,
    0.627964,
    0.633412,
    0.886965,
    0.912216,
    0.863951,
    0.432105,
    0.720015,
    0.760408,
    0.731031,
    0.667964,
    0.704964,
    0.941971,
    1.054964,
    0.847851,
    0.710863,
    0.939964,
    0.985096,
    0.800964,
    0.538022,
    1.198042,
    0.477967,
    0.503964,
    0.516964,
    0.892854,
    0.761661,
    0.556964,
    0.488927,
    0.502965,
    0.445035,
    1.206964,
    0.723623,
    0.879001,
    0.753964,
    0.875644,
    0.653672,
    0.753374,
    0.38264,
    0.646964,
    0.534964,
    0.553964,
    0.875972,
    0.630399,
    0.949004,
    0.458579,
    0.642583,
    0.793245,
    0.547578,
    0.86102,
    0.525009,
    0.787974,
    1.496893,
    3.975964,
    1.008974,
    1.039527,
    0.977963,
    1.043845,
    0.554964,
    0.521964,
    0.827876,
    1.39509,
    0.700964,
    0.644379,
    1.025964,
    0.940975,
    0.780496,
    0.74461,
    1.064427,
    0.727081,
    0.709461,
    0.483985,
    0.740964,
    0.903964,
    0.725964,
    1.491228,
    0.642467,
    1.124064,
    0.624388,
    0.75034,
    1.497528,
    1.822147,
    1.003964,
    0.934982,
    0.698648,
    0.727933,
    0.73275,
    0.655964,
    1.013033,
    0.731709,
    0.689261,
    0.954613,
    1.182357,
    0.82024,
    0.690575,
    0.424945,
    0.70403,
    0.634252,
    7.097077,
    0.741966,
    1.532277,
    0.495023,
    2.051966,
    0.40274,
    0.513971
  ],
  "5242880": [
    15.169967,
    6.81597,
    29.182759,
    14.838663,
    9.869967,
    47.588393,
    8.495969,
    11.038964,
    56.225964,
    8.101805,
    8.515138,
    10.344968,
    9.493966,
    62.248357,
    6.701966,
    110.238844,
    7.268967,
    7.241969,
    5.346967,
    10.674967,
    5.847936,
    8.79833,
    11.31034,
    9.186245,
    40.584972,
    7.473967,
    15.309447,
    6.134203,
    7.912364,
    3.948975,
    7.11797,
    71.440451,
    8.041964,
    7.821964,
    5.409349,
    9.773967,
    12.302965,
    38.530582,
    9.404939,
    22.121891,
    8.986319,
    7.217966,
    10.204091
  ],
  "ALL": [
    1.429761,
    0.646801,
    0.910007,
    0.859367,
    0.808974,
    1.312964,
    0.783133,
    1.020555,
    0.656648,
    1.83296,
    0.344963,
    8.586836,
    0.363964,
    1.526964,
    0.572158,
    0.767741,
    0.475453,
    0.387022,
    0.817964,
    0.571019,
    0.838402,
    0.573434,
    0.356013,
    0.602971,
    0.614964,
    0.917973,
    0.658022,
    0.789964,
    0.486964,
    32.584964,
    15.169967,
    0.427033,
    0.690966,
    0.670855,
    0.359968,
    0.451738,
    0.76097,
    0.652964,
    0.668034,
    0.492012,
    0.456986,
    0.558966,
    0.420964,
    0.787964,
    0.427131,
    2.495966,
    21.133675,
    6.81597,
    0.995111,
    0.93129,
    0.950493,
    0.873517,
    0.879969,
    1.274969,
    29.182759,
    14.838663,
    1.049735,
    0.686963,
    0.825921,
    0.678532,
    0.869014,
    1.004965,
    0.883964,
    0.841963,
    2.246889,
    14.353965,
    0.714016,
    0.984373,
    0.816982,
    0.925964,
    0.701964,
    0.587076,
    0.911185,
    0.738965,
    0.900031,
    1.736846,
    0.671966,
    0.566047,
    0.623964,
    0.377964,
    0.819069,
    1.412493,
    1.175964,
    0.757964,
    0.759028,
    0.778025,
    0.695964,
    0.751934,
    0.755966,
    0.728072,
    0.589964,
    1.003373,
    0.981898,
    3.185622,
    3.276967,
    9.869967,
    0.84142,
    0.669197,
    0.841006,
    0.923871,
    0.386805,
    0.538964,
    1.173994,
    0.879963,
    0.531609,
    2.148971,
    0.993971,
    1.24444,
    0.930502,
    0.982012,
    0.883698,
    0.752413,
    47.588393,
    0.906523,
    0.696963,
    0.858965,
    0.662963,
    1.020905,
    26.000211,
    0.865964,
    0.618965,
    0.55616,
    0.917179,
    0.721966,
    6.184093,
    4.371973,
    8.495969,
    0.649964,
    0.726024,
    0.932396,
    1.222964,
    0.708711,
    0.959963,
    1.513221,
    14.561506,
    1.167631,
    0.642835,
    0.88698,
    1.525966,
    0.803905,
    0.714957,
    1.848961,
    0.903148,
    0.776969,
    1.534966,
    11.038964,
    56.225964,
    0.620794,
    8.647225,
    0.673948,
    0.591966,
    1.2514,
    0.844004,
    1.139596,
    0.608634,
    0.519653,
    2.45571,
    0.545466,
    0.55098,
    0.726708,
    1.1125,
    0.351325,
    0.676964,
    0.903964,
    0.800483,
    3.598047,
    0.666909,
    0.721899,
    0.780008,
    8.101805,
    0.447966,
    0.340749,
    0.439746,
    0.698735,
    0.552986,
    0.51917,
    0.989538,
    1.232901,
    1.058964,
    1.261502,
    1.107964,
    0.669964,
    0.782964,
    0.461964,
    0.562805,
    0.783964,
    0.780332,
    0.750968,
    3.106984,
    1.460892,
    0.464964,
    0.84925,
    0.544951,
    0.586512,
    0.428966,
    0.868763,
    0.701938,
    0.804966,
    0.601549,
    0.954062,
    0.744964,
    1.475299,
    5.016845,
    0.836963,
    0.764967,
    0.892183,
    1.420964,
    0.896973,
    4.926969,
    0.929903,
    0.694964,
    0.620971,
    0.602518,
    0.420965,
    0.9142,
    4.968813,
    0.481753,
    3.75994,
    8.515138,
    0.749942,
    0.474963,
    0.660964,
    0.449922,
    0.513964,
    0.345203,
    1.252845,
    0.649966,
    0.492044,
    0.577964,
    0.507964,
    0.672964,
    0.525964,
    0.68817,
    0.510035,
    0.704132,
    0.317964,
    1.146964,
    0.722103,
    2.572984,
    9.202426,
    10.344968,
    0.637219,
    1.012029,
    0.634964,
    0.837022,
    0.615835,
    0.583966,
    0.862036,
    1.890648,
    0.962965,
    0.975964,
    0.696909,
    1.354965,
    4.230966,
    5.188966,
    0.954036,
    0.691907,
    0.690053,
    0.757301,
    0.660525,
    0.540165,
    0.913693,
    1.113947,
    1.205286,
    0.697991,
    0.976819,
    0.817972,
    0.989966,
    0.735088,
    0.610026,
    0.715935,
    12.357027,
    4.600796,
    0.456416,
    0.509611,
    0.713814,
    0.753732,
    0.974916,
    0.5446,
    0.416025,
    0.435863,
    1.25541,
    1.072883,
    0.825003,
    0.754706,
    1.550946,
    9.493966,
    62.248357,
    0.373315,
    0.575834,
    0.372107,
    0.692227,
    0.773568,
    0.412971,
    0.628849,
    0.592708,
    0.792964,
    15.921998,
    0.493971,
    0.901422,
    0.717536,
    6.701966,
    0.541003,
    0.407444,
    0.426964,
    0.500965,
    0.449682,
    0.461965,
    0.417104,
    0.663964,
    4.699432,
    0.914076,
    0.869032,
    1.293296,
    0.853899,
    0.772963,
    0.776966,
    1.368922,
    0.922083,
    6.616792,
    0.682979,
    0.805991,
    0.391171,
    0.777964,
    0.559964,
    4.243982,
    0.34698,
    1.014024,
    0.651965,
    0.587419,
    0.671677,
    0.799966,
    0.409964,
    110.238844,
    0.553654,
    0.509455,
    1.044169,
    0.781011,
    0.887964,
    0.785883,
    0.761008,
    0.426964,
    8.867964,
    2.278848,
    1.224024,
    0.881949,
    1.258711,
    3.788969,
    3.37313,
    7.268967,
    7.241969,
    0.911966,
    0.754964,
    1.151966,
    1.282972,
    0.34707,
    0.677966,
    0.800535,
    0.410003,
    3.99037,
    0.759808,
    0.683964,
    4.276639,
    51.665964,
    2.350975,
    0.510964,
    0.620041,
    0.643964,
    0.556555,
    5.346967,
    0.811964,
    1.235325,
    0.734923,
    0.974964,
    0.884889,
    1.813821,
    4.028972,
    14.681964,
    0.625895,
    0.665036,
    0.747868,
    0.625959,
    0.671239,
    0.475784,
    0.571003,
    0.479964,
    10.674967,
    5.847936,
    0.633964,
    1.320894,
    0.675751,
    0.734969,
    4.635627,
    3.84559,
    1.016192,
    0.790964,
    0.697964,
    0.652966,
    0.451966,
    12.600409,
    8.79833,
    1.541559,
    1.002642,
    0.649574,
    0.828792,
    0.862994,
    0.532577,
    0.981964,
    1.269964,
    0.533092,
    0.646012,
    0.444883,
    0.695454,
    0.873969,
    0.785964,
    0.744966,
    1.076964,
    0.460769,
    0.487972,
    0.451491,
    0.448965,
    0.786941,
    0.780119,
    0.664691,
    0.791964,
    0.563123,
    13.367978,
    20.845964,
    11.31034,
    0.387963,
    0.705633,
    0.564966,
    0.75889,
    0.746964,
    2.053964,
    2.714966,
    9.186245,
    0.879048,
    0.454966,
    1.13528,
    1.473964,
    11.938004,
    0.362725,
    0.710688,
    0.550965,
    0.931656,
    0.670035,
    0.442964,
    40.584972,
    1.261136,
    0.771145,
    0.499932,
    0.744965,
    0.916478,
    0.411694,
    0.520665,
    0.688964,
    2.909963,
    4.531965,
    0.844281,
    0.646773,
    0.398869,
    0.712963,
    0.518308,
    0.569819,
    0.932458,
    0.942561,
    7.473967,
    0.550964,
    0.483897,
    0.844345,
    0.321327,
    0.697466,
    0.395818,
    1.74284,
    0.593069,
    0.694424,
    0.938966,
    0.536964,
    0.784965,
    0.594966,
    0.596836,
    0.572966,
    0.614107,
    0.661985,
    4.392964,
    1.467012,
    0.98439,
    0.815964,
    1.245985,
    0.631429,
    3.852852,
    0.656296,
    0.967018,
    0.743957,
    0.927941,
    0.962535,
    0.670969,
    0.480964,
    0.633086,
    0.399992,
    2.064964,
    0.89049,
    0.720066,
    0.87396,
    0.778972,
    0.568649,
    0.868423,
    0.5488,
    2.813969,
    0.425964,
    1.054375,
    0.64597,
    0.66808,
    0.578831,
    0.573964,
    5.794902,
    0.85711,
    0.570964,
    1.159767,
    0.91466,
    1.15195,
    0.981352,
    0.972159,
    0.639966,
    0.861988,
    0.6583,
    3.953846,
    0.696928,
    0.482895,
    0.710189,
    0.805964,
    4.224729,
    0.481195,
    1.043897,
    0.606361,
    0.530084,
    15.309447,
    6.134203,
    0.759965,
    0.437002,
    0.549744,
    0.518966,
    0.439963,
    0.769244,
    24.663601,
    7.912364,
    0.596852,
    1.150333,
    0.881757,
    1.087964,
    0.915718,
    1.234861,
    0.739966,
    0.75217,
    1.060436,
    0.690964,
    3.185737,
    0.566037,
    0.974963,
    0.60028,
    0.651965,
    0.754994,
    0.871856,
    0.588298,
    5.510244,
    0.611064,
    0.492172,
    0.593964,
    0.65509,
    0.533974,
    0.882964,
    0.679964,
    0.512057,
    0.691747,
    3.974193,
    0.93695,
    0.978978,
    1.090686,
    0.808964,
    0.732946,
    0.477545,
    0.538964,
    0.667943,
    0.561966,
    0.641974,
    0.586973,
    0.771964,
    0.777988,
    0.403247,
    0.617158,
    0.509021,
    0.839964,
    1.274353,
    0.692964,
    0.720046,
    0.751964,
    1.180964,
    0.678344,
    2.991699,
    3.948975,
    0.758964,
    0.776085,
    0.550964,
    0.523838,
    3.319918,
    0.736964,
    0.81504,
    0.38203,
    0.420966,
    5.579905,
    0.62294,
    0.666223,
    7.11797,
    0.950917,
    1.175057,
    4.169963,
    0.619931,
    0.723761,
    0.963017,
    1.160022,
    0.844257,
    1.423969,
    7.629964,
    0.551312,
    0.60443,
    0.964965,
    0.704966,
    1.166461,
    1.602887,
    71.440451,
    8.041964,
    0.664972,
    0.663626,
    1.385964,
    9.25444,
    0.780964,
    0.629906,
    0.721964,
    0.646954,
    0.626698,
    3.264024,
    0.902939,
    1.170333,
    0.576578,
    0.590965,
    1.391979,
    0.991994,
    0.627964,
    0.633412,
    0.886965,
    0.912216,
    3.808986,
    0.863951,
    0.432105,
    0.720015,
    0.760408,
    0.731031,
    0.667964,
    0.704964,
    2.587599,
    0.957025,
    0.941971,
    1.054964,
    0.847851,
    14.153234,
    4.083197,
    0.710863,
    0.939964,
    0.985096,
    0.800964,
    0.538022,
    1.198042,
    3.78872,
    7.821964,
    0.477967,
    0.503964,
    0.516964,
    0.892854,
    0.761661,
    0.556964,
    0.488927,
    0.502965,
    0.445035,
    2.806949,
    5.409349,
    9.773967,
    0.81898,
    1.206964,
    0.723623,
    0.879001,
    0.753964,
    0.875644,
    0.653672,
    7.001964,
    3.202972,
    12.302965,
    0.697023,
    0.753374,
    0.38264,
    0.646964,
    0.534964,
    0.553964,
    0.875972,
    0.630399,
    2.360036,
    3.548964,
    0.739034,
    0.53698,
    0.949004,
    0.458579,
    0.642583,
    0.793245,
    0.547578,
    38.530582,
    0.86102,
    0.525009,
    0.787974,
    1.496893,
    3.975964,
    1.008974,
    1.039527,
    0.977963,
    1.043845,
    0.554964,
    0.521964,
    2.285101,
    4.109963,
    9.404939,
    0.827876,
    1.39509,
    0.700964,
    0.644379,
    1.025964,
    0.940975,
    4.073831,
    22.121891,
    0.780496,
    0.74461,
    1.064427,
    0.727081,
    0.709461,
    8.986319,
    0.661077,
    0.57798,
    0.483985,
    0.740964,
    0.903964,
    0.725964,
    7.217966,
    1.491228,
    0.642467,
    1.124064,
    0.624388,
    0.75034,
    1.497528,
    1.822147,
    1.003964,
    0.934982,
    0.698648,
    0.727933,
    0.73275,
    0.655964,
    1.013033,
    0.731709,
    0.689261,
    0.954613,
    10.204091,
    1.182357,
    0.82024,
    0.690575,
    0.424945,
    0.70403,
    0.634252,
    7.097077,
    0.741966,
    1.532277,
    0.495023,
    2.051966,
    0.40274,
    0.513971,
    3.675964,
    2.737202
  ]
}