{
  "ALL": [
    [
      68.75,
      6.25
    ],
    [
      68.75,
      6.25
    ],
    [
      42.857142857142854,
      7.142857142857143
    ],
    [
      42.857142857142854,
      7.142857142857143
    ],
    [
      60.0,
      6.666666666666667
    ],
    [
      60.0,
      6.666666666666667
    ],
    [
      43.75,
      6.25
    ],
    [
      43.75,
      6.25
    ],
    [
      46.666666666666664,
      6.666666666666667
    ],
    [
      46.666666666666664,
      6.666666666666667
    ],
    [
      40.0,
      6.666666666666667
    ],
    [
      40.0,
      6.666666666666667
    ],
    [
      64.70588235294117,
      5.882352941176471
    ],
    [
      64.70588235294117,
      5.882352941176471
    ],
    [
      31.25,
      6.25
    ],
    [
      31.25,
      6.25
    ],
    [
      56.25,
      6.25
    ],
    [
      56.25,
      6.25
    ],
    [
      40.0,
      6.666666666666667
    ],
    [
      40.0,
      6.666666666666667
    ],
    [
      31.25,
      6.25
    ],
    [
      31.25,
      6.25
    ],
    [
      35.294117647058826,
      5.882352941176471
    ],
    [
      35.294117647058826,
      5.882352941176471
    ],
    [
      43.75,
      6.25
    ],
    [
      43.75,
      6.25
    ],
    [
      46.666666666666664,
      6.666666666666667
    ],
    [
      46.666666666666664,
      6.666666666666667
    ],
    [
      53.333333333333336,
      6.666666666666667
    ],
    [
      53.333333333333336,
      6.666666666666667
    ],
    [
      50.0,
      6.25
    ],
    [
      50.0,
      6.25
    ],
    [
      40.0,
      6.666666666666667
    ],
    [
      40.0,
      6.666666666666667
    ],
    [
      56.25,
      6.25
    ],
    [
      56.25,
      6.25
    ],
    [
      56.25,
      6.25
    ],
    [
      56.25,
      6.25
    ],
    [
      50.0,
      6.25
    ],
    [
      50.0,
      6.25
    ],
    [
      46.666666666666664,
      6.666666666666667
    ],
    [
      46.666666666666664,
      6.666666666666667
    ],
    [
      56.25,
      6.25
    ],
    [
      56.25,
      6.25
    ],
    [
      53.333333333333336,
      6.666666666666667
    ],
    [
      53.333333333333336,
      6.666666666666667
    ],
    [
      46.666666666666664,
      6.666666666666667
    ],
    [
      46.666666666666664,
      6.666666666666667
    ],
    [
      33.333333333333336,
      6.666666666666667
    ],
    [
      33.333333333333336,
      6.666666666666667
    ],
    [
      37.5,
      6.25
    ],
    [
      37.5,
      6.25
    ],
    [
      43.75,
      6.25
    ],
    [
      43.75,
      6.25
    ],
    [
      50.0,
      6.25
    ],
    [
      50.0,
      6.25
    ],
    [
      26.666666666666668,
      6.666666666666667
    ],
    [
      26.666666666666668,
      6.666666666666667
    ],
    [
      40.0,
      6.666666666666667
    ],
    [
      40.0,
      6.666666666666667
    ],
    [
      37.5,
      6.25
    ],
    [
      37.5,
      6.25
    ],
    [
      50.0,
      6.25
    ],
    [
      50.0,
      6.25
    ],
    [
      50.0,
      6.25
    ],
    [
      50.0,
      6.25
    ],
    [
      62.5,
      6.25
    ],
    [
      62.5,
      6.25
    ],
    [
      64.70588235294117,
      5.882352941176471
    ],
    [
      64.70588235294117,
      5.882352941176471
    ],
    [
      56.25,
      6.25
    ],
    [
      56.25,
      6.25
    ],
    [
      56.25,
      6.25
    ],
    [
      56.25,
      6.25
    ],
    [
      37.5,
      6.25
    ],
    [
      37.5,
      6.25
    ],
    [
      53.333333333333336,
      6.666666666666667
    ],
    [
      53.333333333333336,
      6.666666666666667
    ],
    [
      56.25,
      6.25
    ],
    [
      56.25,
      6.25
    ],
    [
      50.0,
      6.25
    ],
    [
      50.0,
      6.25
    ],
    [
      43.75,
      6.25
    ],
    [
      43.75,
      6.25
    ],
    [
      53.333333333333336,
      6.666666666666667
    ],
    [
      53.333333333333336,
      6.666666666666667
    ],
    [
      60.0,
      6.666666666666667
    ],
    [
      60.0,
      6.666666666666667
    ],
    [
      66.66666666666667,
      6.666666666666667
    ],
    [
      66.66666666666667,
      6.666666666666667
    ],
    [
      40.0,
      6.666666666666667
    ],
    [
      40.0,
      6.666666666666667
    ]
  ],
  "PROXY-STATUS": [
    [
      6.25,
      6.25
    ],
    [
      6.666666666666667,
      6.666666666666667
    ],
    [
      6.666666666666667,
      6.666666666666667
    ],
    [
      6.25,
      6.25
    ],
    [
      6.25,
      6.25
    ],
    [
      18.75,
      6.25
    ],
    [
      6.25,
      6.25
    ],
    [
      6.25,
      6.25
    ],
    [
      6.25,
      6.25
    ],
    [
      6.666666666666667,
      6.666666666666667
    ]
  ],
  "TIMEOUT": [
    [
      68.75,
      6.25
    ],
    [
      42.857142857142854,
      7.142857142857143
    ],
    [
      60.0,
      6.666666666666667
    ],
    [
      37.5,
      6.25
    ],
    [
      46.666666666666664,
      6.666666666666667
    ],
    [
      40.0,
      6.666666666666667
    ],
    [
      64.70588235294117,
      5.882352941176471
    ],
    [
      31.25,
      6.25
    ],
    [
      56.25,
      6.25
    ],
    [
      40.0,
      6.666666666666667
    ],
    [
      31.25,
      6.25
    ],
    [
      35.294117647058826,
      5.882352941176471
    ],
    [
      43.75,
      6.25
    ],
    [
      40.0,
      6.666666666666667
    ],
    [
      53.333333333333336,
      6.666666666666667
    ],
    [
      50.0,
      6.25
    ],
    [
      33.333333333333336,
      6.666666666666667
    ],
    [
      56.25,
      6.25
    ],
    [
      56.25,
      6.25
    ],
    [
      43.75,
      6.25
    ],
    [
      46.666666666666664,
      6.666666666666667
    ],
    [
      56.25,
      6.25
    ],
    [
      53.333333333333336,
      6.666666666666667
    ],
    [
      46.666666666666664,
      6.666666666666667
    ],
    [
      33.333333333333336,
      6.666666666666667
    ],
    [
      37.5,
      6.25
    ],
    [
      37.5,
      6.25
    ],
    [
      50.0,
      6.25
    ],
    [
      26.666666666666668,
      6.666666666666667
    ],
    [
      40.0,
      6.666666666666667
    ],
    [
      37.5,
      6.25
    ],
    [
      50.0,
      6.25
    ],
    [
      31.25,
      6.25
    ],
    [
      56.25,
      6.25
    ],
    [
      64.70588235294117,
      5.882352941176471
    ],
    [
      50.0,
      6.25
    ],
    [
      50.0,
      6.25
    ],
    [
      37.5,
      6.25
    ],
    [
      53.333333333333336,
      6.666666666666667
    ],
    [
      56.25,
      6.25
    ],
    [
      50.0,
      6.25
    ],
    [
      43.75,
      6.25
    ],
    [
      53.333333333333336,
      6.666666666666667
    ],
    [
      60.0,
      6.666666666666667
    ],
    [
      60.0,
      6.666666666666667
    ],
    [
      40.0,
      6.666666666666667
    ]
  ]
}