[
  6.230964640845294,
  7.009593833098468,
  10.950569630241894,
  9.776166095121646,
  11.37064339440265,
  10.285106286759444,
  10.912999898700708,
  13.219504319044162,
  13.882624634176944,
  10.244491435292352,
  14.995476173905399,
  8.31692803406613,
  14.463196794867258,
  10.158213792093779,
  7.581734571228027,
  11.504080348009852,
  8.094478255883391,
  9.233300553941646,
  5.155655131852535,
  11.875442382891812,
  11.934052607490282,
  10.74387648249093,
  10.24151845912524,
  9.722740108633431,
  10.972877058210187,
  7.559906778847218,
  10.032225653090235,
  11.502108661386345,
  11.029996200966197,
  12.039343471624639,
  14.147943860958751,
  13.515855852881453,
  17.720557361579484,
  11.786307585559602,
  9.23113522386982,
  10.311608951043311,
  8.710310241303521,
  11.02868873437126,
  10.553377209603282,
  13.421383070451817,
  12.443046939352397,
  10.903350041815594,
  10.923628659332218,
  6.921302988650328,
  13.206667612976487,
  10.86552625641979,
  12.035025415033825,
  8.40840563278452,
  10.489425378067716,
  10.254319651722602,
  6.447185444282931,
  9.911531635793132,
  10.008140973298588,
  10.50932522109695,
  13.161955959090632,
  13.121456205186718,
  14.065984283893222,
  10.311375194263158,
  11.466283873678309,
  11.563383583737968,
  7.693081066047272,
  8.730074105667212,
  11.466155410344816,
  14.278663708912335,
  21.034472127879322,
  3.3831721944773405,
  10.914105489911691,
  11.166985820826307,
  11.153659626408595,
  8.155530321141127,
  14.285739211758713,
  9.649222051728083,
  12.467071703744299,
  9.400244320243221,
  5.881588097030578,
  11.852440553224875,
  16.24781212667241,
  11.403552755098346,
  8.476339753438157,
  12.794168203269052,
  7.326792390695446,
  11.461243847674298,
  9.927058098903201,
  8.105986202745191,
  9.725396380430189,
  9.479696371837976,
  12.994711648340488,
  10.550902061855666,
  13.593272678974637,
  6.8566743600995546,
  9.677095275804607,
  12.961467831813572,
  10.80051077346828,
  11.063262267215443,
  12.960852289816529,
  8.09187027706564,
  11.46577003761473,
  14.553485726474454,
  8.463704533754537,
  15.02949912071695,
  12.913223140495855,
  10.235833606288898,
  8.15592027668866,
  9.22019919008644,
  6.845415264837095,
  8.882078541983075,
  12.110826450192882,
  7.84232778487645,
  10.80230625115445,
  9.588583875954464,
  11.14907280565822,
  12.672814626324163,
  13.78255629174747,
  10.798972267579739,
  11.268793939694236,
  11.032612064388681,
  9.157642311159629,
  8.345190723919176,
  13.368743836090625,
  10.523021479173744,
  10.999559345897342,
  13.112042099464144,
  11.335317735013144,
  12.252224480206394,
  9.6869646288251,
  15.503927345992757,
  9.117686362725232,
  9.826666602655816,
  9.98675344825062,
  15.017479888040674,
  8.872607240697715,
  10.887459242671664,
  9.566982313790012,
  7.99557423603814,
  9.145408362728956,
  11.19229559963364,
  11.214923827552482,
  9.705360085158233,
  12.915586095494108,
  9.695361383864084,
  9.859516194292986,
  10.13136435294147,
  8.06210206448894,
  9.861059923929826,
  12.147445883592232,
  12.4793091149636,
  8.997134103726104,
  12.444370812611712,
  12.848296727784021,
  8.586479349451617,
  9.399402571102534,
  12.441534286209222,
  12.914689700426523,
  8.51208273900369,
  9.60901997971984,
  9.911627625446407,
  10.854233117773223,
  11.374624203255332,
  10.33770031464487,
  11.199215405196167,
  11.451369269070469,
  13.246881421198259,
  9.332419943509652,
  13.573081615872264,
  13.41720417420489,
  12.285795744425446,
  12.875290136309022,
  10.08091822236012,
  8.992509445567176,
  12.440097606335284,
  13.409073787164633,
  10.579532239307401,
  7.480489057243664,
  5.6309636633484965,
  11.276771572205773,
  12.813349984819595,
  10.578602732929527,
  10.363189444798858,
  10.107226095715887,
  7.025231628858404,
  10.32851945483078,
  5.895920706977603,
  11.936209978161289,
  10.524752933433426,
  6.914744473271714,
  12.71228546320075,
  12.040370350762638,
  10.853254717106193,
  9.96116514303928,
  10.773820176223518,
  10.83005510596589,
  9.727429986265768,
  14.017867537786177,
  11.403012763017891,
  8.751592656251335,
  10.38959555763101,
  10.604498509217974,
  8.841238885685343,
  7.02149628407409,
  13.290533082267387,
  10.66091834289941,
  11.123957914415842,
  10.973994815583268,
  11.2157841528333,
  12.040724487635,
  3.641747255846144,
  9.011691259182298,
  10.543374961689722,
  14.636426691836855,
  11.40294923789999,
  8.171141374967315,
  11.972339691285447,
  6.578281347167747,
  2.5170173429027636,
  13.655164362314247,
  8.702163344521708,
  12.095761497436802,
  9.272786989218087,
  7.909695668723105,
  16.793424976719958,
  2.612846236033439,
  9.803604613291952,
  13.55461080263162,
  13.521346800457136,
  14.292123141805787,
  6.563031555456515,
  10.687665618024463,
  13.277041380585269,
  4.112998834545674,
  14.414764944700106,
  8.004250684821692,
  10.233940057547564,
  8.891705274315216,
  13.05017963422837,
  7.5059726915524205,
  10.24720963006165,
  10.182773793799921,
  11.62944297986454,
  13.35387315329188,
  9.827964113976774,
  12.99945699978089,
  8.075843389299541,
  10.466308394011286,
  4.278482018095301,
  10.975407045172439
]