[
  7.256716317724441,
  18.431905628643186,
  18.63355483971648,
  19.18313418842154,
  8.839407848068264,
  13.98620959733703,
  20.5628039439458,
  20.67001865469184,
  29.174294529090446,
  33.397344911079585,
  55.08048636069453,
  29.930598424902282,
  26.142082216848557,
  20.312043772454313,
  22.92105986980841,
  26.838342598152867,
  21.053407230792704,
  16.998310792864952,
  22.15888474333085,
  14.971740839166067,
  24.214834007312863,
  19.404853153773754,
  15.814964910546614,
  8.529621242168739,
  24.856222289195923,
  19.702443841878054,
  20.3731858314679,
  9.569332204152134,
  18.059261466502313,
  6.76230824629679,
  43.23553095934244,
  37.033779436068095,
  33.68718918304356,
  41.29756963802694,
  16.972453707632496,
  47.73554508025548,
  26.46439050854633,
  9.496360519830775,
  17.273096288875283,
  12.15713091710356,
  19.048208635029184,
  19.321804656554924,
  20.72350952633828,
  13.411589960754343,
  5.978930249799705,
  16.836717513553573,
  17.702953295183452,
  6.578952778744061,
  33.41380491349998,
  21.21858323519738,
  31.76430882849259,
  37.381256103658195,
  37.94346423828509,
  20.459468514156665,
  21.740311973476807,
  12.634258740143299,
  23.458759500797598,
  27.871262637875674,
  23.415776379335547,
  18.433731885978148,
  25.143158860763503,
  17.39720426927395,
  7.042241122814928,
  16.325597720946554,
  15.443001810691959,
  7.647408580010056,
  15.563142587567,
  28.21232596521423,
  24.042940692076048,
  12.80768461076646,
  19.695992357954964,
  13.51221250656608,
  30.427853657237854,
  17.61986463538994,
  22.44643718925711,
  27.3007726118649,
  20.10616052758565
]