[
  7.42922837652191,
  9.406119175960745,
  4.673049219550836,
  1.9482701264929998,
  1.022885653190104,
  7.376843873097572,
  7.742843957224499,
  7.852075057685774,
  7.959167405471833,
  6.8453923716201475,
  7.2103148672949775,
  6.833428757905908,
  9.220178423825283,
  8.681770561613803,
  1.6778716042440376,
  6.51876209205487,
  7.532046269532716,
  6.723222482620225,
  11.283423049466533,
  4.538560720537747,
  7.922032684734548,
  8.958740009979081,
  4.237402170999039,
  5.285674997643635,
  8.63700424914237,
  7.7388041361840445,
  7.45078161542955,
  2.0938226924091983,
  7.841817022034672,
  1.353747934862692,
  0.6000815891083965,
  10.493485387941751,
  4.568759339799633,
  9.959832224725472,
  9.936334642401185,
  6.487748753163637,
  4.435217386593863,
  4.674078970954777,
  4.768730408162554,
  4.44567882732902,
  4.799035445162927,
  5.849016436539868,
  5.570061337005206,
  1.6118382456585199,
  5.109134227174415,
  4.948666836709411,
  0.15993003903171957,
  5.490677081796511,
  6.887649088685168,
  3.7521779817842376,
  6.799899008522814,
  0.5700774344447506,
  7.169502359915587,
  9.056888877089591,
  7.0034540393784495,
  5.615615492034227,
  5.864685674336782,
  4.612987920310107,
  9.327656801471013,
  7.226925915072268,
  6.410035590866309,
  8.40823293090205,
  5.0299493165412414,
  6.903259097125376,
  5.058821348689499,
  4.730843190821555,
  10.915968044711786,
  7.948288314875504,
  7.873383492195355,
  2.8813256314986013,
  4.387243423287671,
  9.448474511333563,
  5.632272941150581,
  5.072725064806965,
  6.399374092363582,
  0.13241081713007677,
  8.072387750675368,
  12.026575242661417,
  8.744619722521872,
  6.358541764067233,
  7.353852565472874,
  6.75506206819169,
  0.20026139278808522,
  7.905235655678354,
  9.699565222542079,
  0.1162306544279159,
  9.058432003398789,
  7.333512472569302,
  6.055520711914752,
  9.076125273253728,
  3.6259225897080922,
  6.002231547215841,
  6.880171157650258,
  7.797143793140209,
  9.984999634137417,
  6.055601329532701,
  6.973961039514149,
  0.18161999042155577,
  6.526025990919758,
  7.860442700132871,
  6.1264239492855515,
  3.454510166280609,
  8.85171498937253,
  5.814680194364788,
  1.433387360000728,
  7.074045273889759,
  5.5964614642188755,
  3.2483273345902144,
  4.359672589254143,
  9.38935639760642,
  9.483803112193257,
  9.888762742161447,
  7.104589977300022,
  5.1897334869811385,
  6.728493474902218,
  3.7718178065733565,
  4.781602670572544,
  8.671766106448514,
  9.056928951641803,
  7.873065509674593,
  7.443168285148573,
  1.6916091640072664,
  3.661574376358419,
  5.254878452655712,
  4.63948312049793,
  7.244831504022613,
  5.553935068987503,
  0.39036478164460225,
  0.21649703435421216,
  7.245139230559568,
  6.091989601020256,
  6.811586727410068,
  5.267292158280608,
  4.478963232840443,
  6.135835980017594,
  8.352341818122479,
  0.21753811839079343,
  5.962524396283016,
  7.856083271124368,
  5.7958528947055425,
  3.104879904193362,
  2.3205436775210972,
  8.398159431171504,
  3.7868591478029083,
  11.06314267569285,
  7.767481220483572,
  5.933108593822466,
  3.783397872517393,
  6.04235515690566,
  6.86823557439841,
  7.87206630322959,
  9.863721023248868,
  6.317486184477532,
  9.654228286682525,
  7.797084390403705,
  5.164298815948489,
  7.690768635378202,
  4.370797361559829,
  8.784211486261766,
  5.856287596472292,
  9.601943022803074,
  9.014251049231278,
  8.99669910423094,
  2.212839033967045,
  7.738745619042926,
  10.132242000633614,
  6.317525181366016,
  4.662404872704249,
  6.880113342251935,
  0.9789620312191739,
  3.2132995081640345,
  9.81632237102401,
  5.510707093550448,
  9.499163493510991,
  10.811920778167758,
  5.8863748127144335,
  6.5847781643528505
]