[
  0.210023,
  0.274629,
  0.513975,
  0.367945,
  0.44798,
  0.215,
  0.25861,
  0.402979,
  0.481694,
  0.422996,
  0.35754,
  0.369275,
  0.30598,
  0.287977,
  0.41798,
  0.464105,
  0.17398,
  0.242159,
  0.446805,
  0.28998,
  0.254599,
  0.296835,
  0.318626,
  0.526301,
  0.373677,
  0.372852,
  0.143707,
  0.445862,
  0.22798,
  0.441254,
  0.33098,
  0.16898,
  0.411641,
  0.151797,
  0.162754,
  0.435359,
  0.193394,
  0.360331,
  0.183012,
  0.18426,
  0.33098,
  0.258844,
  0.28298,
  0.154016,
  0.305969,
  0.34498,
  0.194809,
  0.400415,
  0.427394,
  0.230849,
  0.163046,
  0.20598,
  0.412617,
  0.334978,
  0.301594,
  0.17098,
  0.195238,
  0.371311,
  0.40798,
  0.344961,
  0.340369,
  0.230402,
  0.187419,
  0.145189,
  0.290492,
  0.502996,
  0.182482,
  0.29398,
  0.333527,
  0.22498,
  0.34898,
  0.319149,
  0.17898,
  0.379951,
  0.319427,
  0.145887,
  0.43098,
  0.202071,
  0.20598,
  0.215002,
  0.210098,
  0.230077,
  0.401668,
  0.17998,
  0.16198,
  0.12455,
  0.25898,
  0.161979,
  0.15398,
  0.197722,
  0.35998,
  0.33198,
  0.39398,
  0.326981,
  0.36598,
  0.40298,
  0.305997,
  0.193116,
  0.296054,
  0.187736,
  0.240593,
  0.43698,
  0.40998,
  0.198695,
  0.271729,
  0.372374,
  0.449742,
  0.437666,
  0.47198,
  0.23098,
  0.162113,
  0.161025,
  0.49898,
  0.235904,
  0.55898,
  0.449951,
  0.459051,
  0.24698,
  0.293853,
  0.190962,
  0.484742,
  0.347981,
  0.304676,
  0.383017,
  0.28998,
  0.49795,
  0.24898,
  0.64098,
  0.525059,
  0.256975,
  0.198644,
  0.193202,
  0.338004,
  0.339342,
  0.224982,
  0.297511,
  0.268953,
  0.612002,
  0.322717,
  0.402797,
  0.213242,
  0.29898,
  0.51947,
  0.409096,
  0.154918,
  0.376885,
  0.25189,
  0.353707,
  0.26498,
  0.442247,
  0.28198,
  0.445715,
  0.56198,
  0.372238,
  0.25898,
  0.22998,
  0.147815,
  0.29998,
  0.171189,
  0.209664,
  0.16798,
  0.429813,
  0.200985,
  0.325807,
  0.484766,
  0.31898,
  0.23016,
  0.275459,
  0.303561,
  0.27698,
  0.327391,
  0.392083,
  0.33998,
  0.46898,
  0.393499,
  0.327976,
  0.413112,
  0.236593,
  0.18098,
  0.15998,
  0.69698,
  0.353111,
  0.45798,
  0.247,
  0.348871,
  0.472065,
  0.473979,
  0.452879,
  0.274284,
  0.27698,
  0.23498,
  0.165696,
  0.39198,
  0.179733,
  0.159863,
  0.241964,
  0.38898,
  0.174796,
  0.419978,
  0.296981,
  0.408965,
  0.236054,
  0.402383,
  0.174881,
  0.460577,
  0.163834,
  0.24598,
  0.347471,
  0.206179,
  0.428982,
  0.492975,
  0.132235,
  0.36998,
  0.27498,
  0.35498,
  0.21598,
  0.31798,
  0.24298,
  0.32898,
  0.223532,
  0.38598,
  0.330163,
  0.349911,
  0.130083,
  0.181978,
  0.22498,
  0.26098,
  0.448669,
  0.343956,
  0.25156,
  0.253977,
  0.175862,
  0.43498,
  0.203868,
  0.17598,
  0.157521,
  0.110869,
  0.24598,
  0.399102,
  0.318857,
  0.163963,
  0.259968,
  0.275869,
  0.456723,
  0.192971,
  0.17198,
  0.447484,
  0.192976,
  0.19798,
  0.26287,
  0.211678,
  0.303745,
  0.28987,
  0.288997,
  0.357685,
  0.23204,
  0.247978,
  0.21498,
  0.328442,
  0.29598,
  0.496958,
  0.443452,
  0.258976,
  0.287954,
  0.186712,
  0.200199,
  0.551941,
  0.233785,
  0.212384,
  0.243938,
  0.151025,
  0.14219,
  0.14798,
  0.185243,
  0.30398,
  0.36298,
  0.23698,
  0.33932,
  0.247975,
  0.393981,
  0.44698,
  0.358742,
  0.41798,
  0.28598,
  0.268979,
  0.15998,
  0.46654,
  0.16798,
  0.24298,
  0.251973,
  0.35498,
  0.18975,
  0.227035,
  0.20098,
  0.201991,
  0.22098,
  0.182568,
  0.31798,
  0.29898,
  0.45998,
  0.132474,
  0.18598,
  0.34698,
  0.293935,
  0.400678,
  0.229204,
  0.189582,
  0.21898,
  0.228733,
  0.208966,
  0.38998,
  0.369341,
  0.34998,
  0.41194,
  0.417109,
  0.26298,
  0.248019,
  0.19398,
  0.41798,
  0.275126,
  0.22998,
  0.241957,
  0.265838,
  0.312437,
  0.168057,
  0.53098,
  0.376637,
  0.305838,
  0.240001,
  0.393557,
  0.412393,
  0.211106,
  0.29898,
  0.213839,
  0.272899,
  0.148106,
  0.406981,
  0.364009,
  0.189807,
  0.48767,
  0.23798,
  0.38698,
  0.312238,
  0.189322,
  0.46598,
  0.159957,
  0.144096,
  0.204345,
  0.362535,
  0.491336,
  0.42898,
  0.20236,
  0.193808,
  0.435813,
  0.198532,
  0.427403,
  0.225282,
  0.225951,
  0.164204,
  0.380141,
  0.437674,
  0.168361,
  0.39159,
  0.178814,
  0.424968,
  0.373158,
  0.453454,
  0.224149,
  0.448136,
  0.22598,
  0.362025,
  0.421073,
  0.22998,
  0.401077,
  0.212844,
  0.21098,
  0.175597,
  0.30298,
  0.383985,
  0.245738,
  0.298031,
  0.31598,
  0.16798,
  0.500718,
  0.180795,
  0.413912,
  0.247979,
  0.184979,
  0.435981,
  0.396979,
  0.259084,
  0.299661,
  0.24542,
  0.439033,
  0.198424,
  0.309838,
  13.30098,
  0.425956,
  0.403084,
  0.182982,
  0.194121,
  0.52998,
  0.15898,
  0.278261,
  0.185979,
  0.197564,
  0.275979,
  0.241563,
  0.25498,
  0.33498,
  0.422908,
  0.31598,
  0.353981,
  14.59285,
  0.354548,
  0.353906,
  0.325813,
  0.123944,
  0.20598,
  0.215998,
  0.205305,
  0.450344,
  0.148207,
  0.47198,
  0.22798,
  0.301471,
  0.162854,
  0.20098,
  0.141969,
  0.384628,
  0.359705,
  0.156875,
  0.206024,
  0.441897,
  0.183036,
  0.48598,
  0.203539,
  0.25898,
  0.15898,
  0.219979,
  0.44798,
  0.282994,
  0.43798,
  0.263844,
  0.220915,
  0.22498,
  0.435837,
  0.35697,
  0.430563,
  0.221968,
  0.151091,
  0.445457,
  0.206402,
  0.18598,
  0.425776,
  0.353687,
  0.407204,
  0.293637,
  0.221519,
  0.16358,
  0.21998,
  0.22098,
  0.263564,
  0.544931,
  0.383243,
  0.328127,
  0.276607,
  0.520266,
  0.288154,
  0.400477,
  0.21998,
  0.373983,
  0.303069,
  0.217327,
  0.238311,
  0.254726,
  0.473935,
  0.320839,
  0.56298,
  0.302435,
  0.34498,
  0.12698,
  0.199094,
  0.37598,
  0.222775,
  0.203981,
  0.14595,
  0.23698,
  0.28598,
  0.51198,
  0.288386,
  0.29498,
  0.354455,
  0.22798,
  0.334738,
  0.57298,
  0.365406,
  0.418169,
  0.16398,
  0.210528,
  0.15098,
  0.32798,
  0.246832,
  0.186672,
  0.47598,
  0.399311,
  0.262057,
  0.28298,
  0.475704,
  0.42198,
  0.21298,
  0.284622,
  0.230981,
  0.180323,
  0.252222,
  0.208542,
  0.252641,
  0.38807,
  0.479656,
  0.28398,
  0.29398,
  0.119166,
  0.564094,
  0.369981,
  0.16698,
  0.386478,
  0.29398,
  0.161904,
  0.32698,
  0.257264,
  0.484502,
  0.368458,
  0.409727,
  0.371417,
  0.37573,
  0.21898,
  0.232847,
  0.18855,
  0.341828,
  0.181454,
  0.373312,
  0.224775,
  0.367956,
  0.181579,
  0.213982,
  0.27269,
  0.444501,
  0.43698,
  0.407371,
  0.13998,
  0.25898,
  0.342098,
  0.158024,
  0.14998,
  0.203935,
  0.34798,
  0.20598,
  0.193239,
  0.55198,
  0.432978,
  0.333032,
  0.345846,
  0.19098,
  0.193985,
  0.40698,
  0.51198,
  0.14298,
  0.19198,
  0.23898,
  0.23598,
  0.408986,
  0.35398,
  3.58498,
  0.246893,
  0.28198,
  0.21765,
  0.27698,
  0.33398,
  0.28398,
  0.211979,
  0.411268,
  0.32897,
  0.25198,
  0.27998,
  0.26187,
  0.177852,
  0.178979,
  0.278981,
  0.508433,
  0.23098,
  0.43398,
  0.265046,
  0.186415,
  0.246374,
  0.463901,
  0.256577,
  0.387564,
  0.243822,
  0.144912,
  0.40798,
  0.500754,
  0.25983,
  0.572161,
  0.183014,
  0.415576,
  0.45898,
  0.260528,
  0.690291,
  0.531303,
  0.45798,
  0.195979,
  0.222979,
  0.34098,
  0.45398,
  0.30298,
  0.44198,
  0.469413,
  0.49998,
  0.16198,
  0.30298,
  0.162732,
  0.229979,
  11.586022,
  0.157038,
  0.15798,
  0.197847,
  0.308981,
  0.166357,
  0.330979,
  0.398977,
  0.20698,
  0.415728,
  0.371979,
  0.38498,
  0.38798,
  0.344382,
  0.22298,
  0.327022,
  0.177727,
  0.14198,
  0.243866,
  0.24098,
  0.20098,
  0.28198,
  0.169907,
  0.41598,
  0.29898,
  0.401997,
  0.446806,
  0.406403,
  0.420184,
  0.345955,
  0.580699,
  0.26898,
  0.25398,
  0.44794,
  0.183892,
  0.140963,
  0.19901,
  0.24598,
  0.266255,
  0.169993,
  0.19398,
  0.229979,
  0.286915,
  0.51998,
  0.40098,
  0.229191,
  0.281052,
  0.407855,
  0.25198,
  0.581976,
  0.168981,
  0.454981,
  0.313981,
  0.436291,
  0.34207,
  0.26398,
  0.15698,
  0.269353,
  0.23698,
  0.26198,
  0.33198,
  0.44498,
  0.236164,
  0.353979,
  0.25998,
  0.423539,
  0.287979,
  0.304807,
  0.198792,
  0.569788,
  0.329622,
  0.511358,
  0.515709,
  0.202981,
  0.255792,
  0.635513,
  0.189473,
  0.384953,
  0.405326,
  0.249408,
  0.25498,
  0.467958,
  0.24827,
  0.204999,
  0.30898,
  0.230981,
  0.505908,
  0.320863,
  0.390728,
  0.42898,
  0.24898,
  0.21298,
  0.31498,
  0.175,
  0.422226,
  0.52868,
  0.19498,
  0.350134,
  0.200981,
  0.160216,
  0.412706,
  0.370436,
  0.26198,
  0.278978,
  0.23498,
  0.17698,
  0.390978,
  0.274985,
  0.410999,
  0.45098,
  0.385925,
  0.403926,
  0.156327,
  0.138319,
  0.23291,
  0.33298,
  0.283908,
  0.27798,
  0.38898,
  0.33898,
  0.36098,
  0.315933,
  0.44898,
  0.22998,
  0.27839,
  0.251883,
  0.466904,
  0.153051,
  0.317359,
  0.26596,
  0.213981,
  0.271977,
  0.31398,
  0.32798,
  0.21898,
  0.189741,
  0.328147,
  0.29498,
  0.37998,
  0.502693,
  0.38398,
  0.316734,
  0.26498,
  0.415246,
  0.28533
]