{
  "1048576": [
    0.602536,
    0.513781,
    0.363622,
    0.630696,
    0.591655,
    0.36207,
    0.586831,
    0.335,
    0.381794,
    0.462415,
    0.38458,
    0.474163,
    0.616,
    0.530488,
    0.561149,
    0.395364,
    0.338609,
    0.67618,
    0.991732,
    0.530282,
    0.559236,
    0.45953,
    0.827289,
    0.402564,
    0.242198,
    0.45193,
    0.454308,
    0.410914,
    0.61,
    0.359572,
    0.395244,
    0.451712,
    1.023,
    0.392592,
    0.408897,
    0.357865,
    0.402675,
    0.682417,
    0.413878,
    0.526672,
    0.46121,
    0.671,
    0.491399,
    0.749966,
    0.527135,
    0.631499,
    0.915826,
    1.151546,
    0.444924,
    0.284292,
    0.365565,
    0.489932,
    0.768868,
    0.445573,
    0.541191,
    0.695,
    0.628,
    0.56022,
    0.352781,
    0.534801,
    0.542111,
    0.79452,
    0.385464,
    0.420427,
    0.371331,
    0.297,
    0.433008,
    0.556,
    0.74371,
    0.631,
    0.319455,
    0.559082,
    0.613882,
    0.38874,
    0.823989,
    0.476537,
    0.376676,
    0.586,
    0.525111,
    0.367062,
    1.105876,
    1.21368,
    0.608433,
    0.61292,
    0.384175,
    0.526196,
    0.539195,
    0.299356,
    0.488592,
    0.589243,
    1.238312,
    0.662062,
    0.669,
    0.653245,
    0.828,
    0.704
  ],
  "51200": [
    0.403763,
    0.527104,
    0.456809,
    0.384258,
    0.955002,
    0.468,
    0.347617,
    0.621869,
    0.511887,
    0.548401,
    0.59872,
    0.803319,
    0.375902,
    0.324052,
    0.818577,
    0.449343,
    0.322874,
    0.489095,
    0.477178,
    0.569344,
    0.344958,
    0.986927,
    0.353181,
    0.50063,
    0.454111,
    0.690927,
    0.66015,
    0.523897,
    0.434,
    0.648,
    0.543091,
    0.310834,
    0.490555,
    0.6782,
    0.549812,
    0.764303,
    0.626942,
    0.513083,
    0.630452,
    0.888762,
    0.527298,
    0.663612,
    0.421917,
    0.387673,
    0.513314,
    0.523207,
    0.48125,
    0.563942,
    0.579326,
    0.619728,
    0.444,
    0.672191,
    0.694441,
    0.54866,
    0.687954,
    0.601167,
    1.12246,
    0.79512,
    0.393909,
    0.404752,
    0.383409,
    0.594097,
    0.480079,
    0.547,
    0.327442,
    0.601,
    0.478823,
    0.738947,
    0.401819,
    0.584147,
    0.354,
    0.370807,
    0.684129,
    0.464419,
    0.429,
    0.481681,
    0.616977,
    0.953291,
    0.597417,
    0.708333,
    0.787889,
    0.509803,
    0.881716,
    0.6329,
    0.683,
    0.738215,
    0.352565,
    0.593406,
    0.668819,
    0.722374,
    0.768169,
    0.473829,
    0.484906,
    0.577435,
    0.626,
    0.483,
    0.745,
    0.485,
    0.397253,
    0.332903,
    0.694,
    0.754002,
    0.709066,
    0.320265,
    0.566,
    0.474197,
    0.427,
    0.533,
    0.48941,
    0.364989,
    0.419,
    0.37141,
    0.62,
    0.323,
    0.527419,
    0.577103,
    0.740461,
    0.390377,
    0.349,
    0.724965,
    0.48449,
    0.48,
    0.386567,
    0.367111,
    0.35838,
    0.60786,
    0.644811,
    0.549119,
    0.579703,
    0.652081,
    0.358124,
    1.193969,
    0.424251,
    0.329431,
    0.686119,
    0.59,
    0.431485,
    0.50737,
    0.453912,
    0.875,
    0.704331,
    0.439592,
    0.337557,
    0.403,
    0.52682,
    0.576712,
    0.801001,
    0.581908,
    0.521214,
    0.403906,
    0.841188,
    0.396332,
    0.705137,
    0.385956,
    0.706982,
    0.546381,
    0.429171,
    0.67463,
    0.501992,
    0.496,
    0.44965,
    0.30659,
    0.412,
    0.528879,
    0.334,
    0.359971,
    0.347934,
    0.348626,
    0.694,
    0.530723,
    0.406043,
    0.51003,
    0.326835,
    0.518042,
    0.397158,
    0.506,
    0.348694,
    0.886417,
    0.332715,
    0.570052,
    0.554233,
    0.806639,
    0.521011,
    0.557827,
    0.359,
    0.496,
    0.345168,
    0.295029,
    0.567,
    0.3508,
    0.589239,
    0.344,
    0.455692,
    0.528,
    0.349805,
    0.669206,
    0.592982,
    0.699583,
    0.566034,
    0.378,
    0.733,
    0.628794,
    0.465028,
    0.727583,
    0.54977,
    0.641124,
    0.522404,
    0.650543,
    0.811173,
    0.386345,
    0.516942,
    0.799142,
    0.629325,
    0.237095,
    0.36075,
    0.536081,
    0.558936,
    0.593589,
    0.64128,
    0.353343,
    0.563486,
    0.600465,
    0.352,
    0.972358,
    0.681103,
    0.6692,
    0.513198,
    0.680504,
    0.885,
    0.572186,
    0.628289,
    0.646099,
    0.798,
    0.58059,
    0.397,
    0.392,
    0.778248,
    0.357442,
    0.646056,
    0.564,
    0.81961,
    0.598,
    0.427336,
    0.706284,
    0.428938,
    0.498896,
    0.588065,
    0.417359,
    0.653357,
    0.564222,
    0.399214,
    0.572954,
    0.374263,
    0.704328,
    0.396,
    0.95,
    0.627,
    0.412,
    0.419938,
    0.354,
    0.599608,
    0.454616,
    0.36317,
    0.500249,
    0.373,
    0.828,
    0.792122,
    0.546,
    0.532897,
    0.307,
    0.662016,
    1.016,
    0.766,
    1.122,
    1.658,
    1.117967,
    0.950024,
    0.658,
    0.8696,
    1.114679,
    0.401,
    0.407996,
    1.1627,
    0.820768,
    0.428827,
    0.620584,
    0.576144,
    0.515189,
    0.313611,
    0.515922,
    0.744296,
    0.36208,
    0.286656,
    0.351763,
    0.542295,
    0.523051,
    0.380778,
    0.771649,
    0.636694,
    0.541,
    0.588236,
    0.37,
    0.602248,
    0.469853,
    0.375469,
    0.987103,
    0.717094,
    0.734659,
    0.631903,
    0.814161,
    0.517438,
    0.360481,
    0.564221,
    0.38232,
    0.424899,
    0.610582,
    0.819,
    0.402,
    0.688796,
    0.302,
    0.469,
    0.640597,
    0.357111,
    0.808008,
    0.989384,
    0.919733,
    0.545186,
    0.821691,
    0.574094,
    0.404031,
    0.392842,
    0.615095,
    0.964162,
    0.515629,
    0.827,
    0.659155,
    0.77093,
    0.783929,
    0.739502,
    0.451103,
    0.87,
    0.533028,
    0.570342,
    0.911584,
    0.71399,
    0.492,
    0.477761,
    0.292009,
    0.52682,
    0.541032,
    0.362,
    0.406126,
    0.477006,
    0.483,
    0.426598,
    0.537286,
    0.566539,
    0.649417,
    0.78324,
    0.388612,
    0.393371,
    0.445276,
    0.512897,
    0.589717,
    0.420264,
    0.358045,
    0.373661,
    0.428754,
    0.404673,
    0.415309,
    0.625187,
    0.415114,
    0.41,
    0.74002,
    0.465,
    0.471558,
    0.416558,
    0.391735,
    0.803308,
    0.411,
    0.527,
    0.51289,
    0.408288,
    0.459,
    0.527105,
    0.59588,
    0.403652,
    0.36,
    0.48,
    0.398028,
    0.576612,
    0.296662,
    0.653405,
    0.676902,
    0.579397,
    0.853223,
    0.85912,
    0.549578,
    0.614763,
    0.442333,
    0.530185,
    0.392392,
    0.459965,
    0.420103,
    0.299877,
    0.285657,
    0.387,
    0.340868,
    0.417348,
    0.769371,
    0.678794,
    0.439,
    0.373384,
    0.530103,
    0.916897,
    0.511794,
    0.306,
    0.544329,
    0.593844,
    0.815768,
    0.633268,
    0.644904,
    0.354856,
    0.375425,
    0.742883,
    0.682968,
    0.651013,
    0.680855,
    0.658902,
    0.571443,
    0.73474,
    0.538,
    0.364,
    0.28694,
    0.35113,
    0.319569,
    0.341,
    0.626297,
    0.365,
    0.410326,
    0.480131,
    0.344,
    0.707716,
    0.404,
    0.616889,
    0.600874,
    0.272449,
    0.346207,
    0.461341,
    0.543103,
    0.34578,
    0.538641,
    0.617,
    0.453704,
    0.443357,
    0.313968,
    0.372,
    0.35,
    0.439,
    0.572641,
    0.459202,
    0.667484,
    0.419751,
    0.441,
    0.298,
    0.314211,
    0.519418,
    0.320237,
    0.677206,
    0.42,
    0.324425,
    0.445,
    0.640476,
    0.273,
    0.381387,
    0.683,
    0.34449,
    0.713937,
    0.660625,
    0.905699,
    0.734,
    0.643747,
    0.575736,
    0.421818,
    0.703623,
    0.447255,
    0.319461,
    0.37,
    0.32857,
    0.331749,
    0.662385,
    0.432589,
    0.60928,
    0.300574,
    0.495612,
    0.879495,
    0.47059,
    0.54253,
    0.317562,
    0.34885,
    0.658292,
    0.28743,
    0.299071,
    0.335736,
    0.50705,
    0.332732,
    0.370506,
    0.628991,
    0.572806,
    0.755662,
    0.813,
    0.722446,
    0.795746,
    0.652034,
    0.681246,
    0.764846,
    0.660489,
    0.700977,
    0.679999,
    0.676796,
    0.59132,
    0.746694,
    0.745413,
    0.391888,
    0.791352,
    0.820617,
    0.573,
    0.644512,
    0.496,
    0.780723,
    0.69346,
    0.350621,
    0.821997,
    0.447571,
    0.981076,
    0.505687,
    0.627276,
    0.658359,
    0.411142,
    0.647578,
    0.347707,
    0.898103,
    0.601111,
    0.765,
    0.417173,
    0.805,
    0.67,
    0.498,
    0.866069
  ],
  "5242880": [
    0.596019,
    0.775992,
    0.536393,
    0.486271,
    0.375127,
    0.359,
    0.454477,
    0.641194,
    0.730909,
    0.691,
    0.495891,
    0.355,
    0.921376,
    0.613719,
    0.369919,
    0.780995,
    0.569,
    0.575716,
    0.476,
    0.504029,
    0.465921,
    0.385795,
    0.60525,
    0.969518,
    0.679716,
    1.083329,
    0.539652,
    0.596092,
    0.414434,
    0.411564,
    0.456103,
    0.433326,
    0.625709,
    0.526816,
    0.882818,
    0.506716,
    0.448589,
    0.525378,
    0.787479,
    0.625215,
    0.807223,
    0.539475,
    0.449897,
    0.338799,
    0.477,
    0.581693,
    0.598495,
    0.339805,
    0.292,
    0.319206,
    0.436868,
    0.598,
    0.491903,
    1.16024,
    0.921,
    0.630054,
    0.597931,
    0.706,
    0.581,
    0.534952
  ],
  "ALL": [
    0.403763,
    0.527104,
    0.456809,
    0.384258,
    0.955002,
    0.468,
    0.347617,
    0.621869,
    0.511887,
    0.548401,
    0.59872,
    0.602536,
    0.513781,
    0.596019,
    0.803319,
    0.375902,
    0.324052,
    0.818577,
    0.449343,
    0.322874,
    0.489095,
    0.477178,
    0.569344,
    0.363622,
    0.630696,
    0.591655,
    0.36207,
    0.586831,
    0.775992,
    0.344958,
    0.986927,
    0.353181,
    0.50063,
    0.454111,
    0.690927,
    0.66015,
    0.523897,
    0.434,
    0.648,
    0.543091,
    0.310834,
    0.335,
    0.381794,
    0.462415,
    0.38458,
    0.490555,
    0.6782,
    0.549812,
    0.764303,
    0.626942,
    0.513083,
    0.630452,
    0.888762,
    0.527298,
    0.474163,
    0.616,
    0.530488,
    0.536393,
    0.663612,
    0.421917,
    0.387673,
    0.513314,
    0.523207,
    0.48125,
    0.563942,
    0.579326,
    0.619728,
    0.444,
    0.672191,
    0.694441,
    0.561149,
    0.395364,
    0.486271,
    0.375127,
    0.54866,
    0.687954,
    0.601167,
    1.12246,
    0.79512,
    0.393909,
    0.404752,
    0.338609,
    0.67618,
    0.359,
    0.454477,
    0.641194,
    0.383409,
    0.594097,
    0.480079,
    0.547,
    0.327442,
    0.601,
    0.478823,
    0.738947,
    0.401819,
    0.584147,
    0.354,
    0.370807,
    0.991732,
    0.684129,
    0.464419,
    0.429,
    0.481681,
    0.616977,
    0.953291,
    0.597417,
    0.708333,
    0.787889,
    0.509803,
    0.881716,
    0.530282,
    0.559236,
    0.45953,
    0.6329,
    0.683,
    0.738215,
    0.352565,
    0.593406,
    0.668819,
    0.722374,
    0.768169,
    0.473829,
    0.484906,
    0.577435,
    0.827289,
    0.402564,
    0.730909,
    0.691,
    0.626,
    0.483,
    0.745,
    0.485,
    0.397253,
    0.332903,
    0.694,
    0.754002,
    0.709066,
    0.320265,
    0.566,
    0.474197,
    0.427,
    0.533,
    0.495891,
    0.48941,
    0.364989,
    0.419,
    0.37141,
    0.62,
    0.323,
    0.527419,
    0.577103,
    0.740461,
    0.390377,
    0.349,
    0.242198,
    0.45193,
    0.355,
    0.724965,
    0.48449,
    0.48,
    0.386567,
    0.367111,
    0.35838,
    0.60786,
    0.644811,
    0.549119,
    0.579703,
    0.652081,
    0.358124,
    0.454308,
    0.921376,
    0.613719,
    1.193969,
    0.424251,
    0.329431,
    0.686119,
    0.59,
    0.431485,
    0.50737,
    0.453912,
    0.875,
    0.704331,
    0.439592,
    0.337557,
    0.403,
    0.410914,
    0.61,
    0.52682,
    0.576712,
    0.801001,
    0.581908,
    0.521214,
    0.403906,
    0.841188,
    0.396332,
    0.705137,
    0.385956,
    0.706982,
    0.546381,
    0.429171,
    0.369919,
    0.780995,
    0.67463,
    0.501992,
    0.496,
    0.44965,
    0.30659,
    0.412,
    0.528879,
    0.334,
    0.359971,
    0.347934,
    0.348626,
    0.694,
    0.359572,
    0.530723,
    0.406043,
    0.51003,
    0.326835,
    0.518042,
    0.397158,
    0.506,
    0.348694,
    0.395244,
    0.451712,
    1.023,
    0.392592,
    0.408897,
    0.886417,
    0.332715,
    0.570052,
    0.554233,
    0.806639,
    0.521011,
    0.557827,
    0.359,
    0.357865,
    0.402675,
    0.569,
    0.575716,
    0.496,
    0.345168,
    0.295029,
    0.567,
    0.3508,
    0.589239,
    0.344,
    0.455692,
    0.528,
    0.349805,
    0.669206,
    0.682417,
    0.413878,
    0.476,
    0.504029,
    0.592982,
    0.699583,
    0.566034,
    0.378,
    0.733,
    0.628794,
    0.465028,
    0.727583,
    0.54977,
    0.641124,
    0.522404,
    0.650543,
    0.811173,
    0.386345,
    0.516942,
    0.799142,
    0.629325,
    0.237095,
    0.36075,
    0.536081,
    0.558936,
    0.593589,
    0.64128,
    0.353343,
    0.563486,
    0.600465,
    0.352,
    0.526672,
    0.465921,
    0.385795,
    0.60525,
    0.972358,
    0.681103,
    0.6692,
    0.513198,
    0.680504,
    0.885,
    0.572186,
    0.628289,
    0.646099,
    0.798,
    0.58059,
    0.397,
    0.46121,
    0.671,
    0.969518,
    0.392,
    0.778248,
    0.357442,
    0.646056,
    0.564,
    0.81961,
    0.598,
    0.427336,
    0.706284,
    0.679716,
    0.428938,
    0.498896,
    0.588065,
    0.417359,
    0.653357,
    0.564222,
    0.399214,
    0.572954,
    0.374263,
    0.704328,
    0.396,
    0.95,
    0.627,
    0.412,
    0.491399,
    0.749966,
    0.419938,
    0.354,
    0.599608,
    0.454616,
    0.36317,
    0.500249,
    0.373,
    0.828,
    0.792122,
    0.546,
    0.532897,
    0.307,
    0.662016,
    1.016,
    0.527135,
    0.631499,
    0.766,
    1.122,
    1.658,
    1.117967,
    0.950024,
    0.658,
    0.8696,
    1.114679,
    0.401,
    0.407996,
    1.1627,
    0.915826,
    1.083329,
    0.820768,
    0.428827,
    0.620584,
    0.576144,
    0.515189,
    0.313611,
    0.515922,
    0.744296,
    0.36208,
    0.286656,
    1.151546,
    0.444924,
    0.284292,
    0.539652,
    0.596092,
    0.351763,
    0.542295,
    0.523051,
    0.380778,
    0.771649,
    0.636694,
    0.541,
    0.588236,
    0.37,
    0.602248,
    0.469853,
    0.365565,
    0.489932,
    0.768868,
    0.414434,
    0.375469,
    0.987103,
    0.717094,
    0.734659,
    0.631903,
    0.814161,
    0.445573,
    0.541191,
    0.411564,
    0.456103,
    0.433326,
    0.625709,
    0.526816,
    0.517438,
    0.360481,
    0.564221,
    0.38232,
    0.424899,
    0.610582,
    0.819,
    0.402,
    0.688796,
    0.302,
    0.469,
    0.640597,
    0.695,
    0.882818,
    0.506716,
    0.448589,
    0.357111,
    0.808008,
    0.989384,
    0.919733,
    0.545186,
    0.821691,
    0.574094,
    0.404031,
    0.392842,
    0.628,
    0.56022,
    0.352781,
    0.525378,
    0.787479,
    0.615095,
    0.964162,
    0.515629,
    0.827,
    0.659155,
    0.77093,
    0.783929,
    0.739502,
    0.451103,
    0.87,
    0.533028,
    0.570342,
    0.911584,
    0.71399,
    0.534801,
    0.492,
    0.477761,
    0.292009,
    0.52682,
    0.541032,
    0.362,
    0.406126,
    0.477006,
    0.483,
    0.426598,
    0.537286,
    0.566539,
    0.649417,
    0.542111,
    0.625215,
    0.78324,
    0.388612,
    0.393371,
    0.445276,
    0.512897,
    0.589717,
    0.420264,
    0.358045,
    0.373661,
    0.428754,
    0.404673,
    0.79452,
    0.415309,
    0.625187,
    0.415114,
    0.41,
    0.74002,
    0.465,
    0.471558,
    0.416558,
    0.391735,
    0.803308,
    0.411,
    0.527,
    0.51289,
    0.408288,
    0.385464,
    0.807223,
    0.459,
    0.527105,
    0.59588,
    0.403652,
    0.36,
    0.48,
    0.398028,
    0.576612,
    0.296662,
    0.420427,
    0.371331,
    0.297,
    0.433008,
    0.556,
    0.539475,
    0.653405,
    0.676902,
    0.579397,
    0.853223,
    0.85912,
    0.549578,
    0.614763,
    0.442333,
    0.530185,
    0.392392,
    0.459965,
    0.420103,
    0.299877,
    0.74371,
    0.285657,
    0.387,
    0.340868,
    0.417348,
    0.769371,
    0.678794,
    0.439,
    0.373384,
    0.530103,
    0.916897,
    0.511794,
    0.306,
    0.631,
    0.449897,
    0.544329,
    0.593844,
    0.815768,
    0.633268,
    0.644904,
    0.354856,
    0.375425,
    0.742883,
    0.682968,
    0.651013,
    0.680855,
    0.658902,
    0.571443,
    0.73474,
    0.319455,
    0.338799,
    0.538,
    0.364,
    0.28694,
    0.35113,
    0.319569,
    0.341,
    0.626297,
    0.365,
    0.410326,
    0.480131,
    0.344,
    0.559082,
    0.613882,
    0.477,
    0.581693,
    0.707716,
    0.404,
    0.616889,
    0.600874,
    0.272449,
    0.346207,
    0.461341,
    0.543103,
    0.34578,
    0.538641,
    0.617,
    0.453704,
    0.38874,
    0.823989,
    0.476537,
    0.598495,
    0.443357,
    0.313968,
    0.372,
    0.35,
    0.439,
    0.572641,
    0.459202,
    0.667484,
    0.419751,
    0.441,
    0.298,
    0.314211,
    0.376676,
    0.586,
    0.519418,
    0.320237,
    0.677206,
    0.42,
    0.324425,
    0.445,
    0.640476,
    0.273,
    0.381387,
    0.683,
    0.34449,
    0.525111,
    0.367062,
    0.339805,
    0.292,
    0.713937,
    0.660625,
    0.905699,
    0.734,
    0.643747,
    0.575736,
    0.421818,
    1.105876,
    1.21368,
    0.608433,
    0.61292,
    0.384175,
    0.703623,
    0.447255,
    0.319461,
    0.37,
    0.32857,
    0.331749,
    0.662385,
    0.432589,
    0.60928,
    0.300574,
    0.495612,
    0.879495,
    0.526196,
    0.319206,
    0.436868,
    0.47059,
    0.54253,
    0.317562,
    0.34885,
    0.658292,
    0.28743,
    0.299071,
    0.335736,
    0.50705,
    0.332732,
    0.370506,
    0.628991,
    0.539195,
    0.299356,
    0.598,
    0.491903,
    0.572806,
    0.755662,
    0.813,
    0.722446,
    0.795746,
    0.652034,
    0.681246,
    0.764846,
    0.660489,
    0.700977,
    0.679999,
    0.676796,
    0.488592,
    0.589243,
    1.238312,
    0.59132,
    0.746694,
    0.745413,
    0.391888,
    0.791352,
    0.820617,
    0.573,
    0.644512,
    0.662062,
    0.669,
    1.16024,
    0.921,
    0.630054,
    0.496,
    0.780723,
    0.69346,
    0.350621,
    0.821997,
    0.447571,
    0.981076,
    0.505687,
    0.627276,
    0.658359,
    0.411142,
    0.647578,
    0.653245,
    0.597931,
    0.347707,
    0.898103,
    0.601111,
    0.765,
    0.417173,
    0.805,
    0.67,
    0.498,
    0.866069,
    0.828,
    0.704,
    0.706,
    0.581,
    0.534952
  ]
}