{
  "1048576": [
    0.205202,
    0.213186,
    0.336395,
    0.338704,
    0.324,
    0.201,
    0.194056,
    0.245929,
    0.46125,
    0.394152,
    0.255,
    0.509,
    0.143385,
    0.475,
    0.477,
    0.162,
    0.437246,
    0.249223,
    0.426539,
    0.273,
    0.174653,
    0.164168,
    0.523795,
    0.283,
    0.354,
    0.349,
    0.277,
    0.326064,
    0.351845,
    0.431861,
    0.581245,
    0.238,
    0.339804,
    0.329744,
    0.229117,
    0.395592,
    0.158,
    0.45,
    0.38059,
    0.237308,
    0.255878,
    0.477763,
    0.270671,
    0.126,
    0.624031,
    0.382886,
    0.351,
    0.367,
    0.109,
    0.376889,
    0.22838,
    0.470777,
    0.129,
    0.361219,
    0.402141,
    0.495,
    0.316,
    0.277689,
    0.252461,
    0.443,
    0.16,
    0.266,
    0.448885,
    0.373633,
    0.235135,
    0.474206,
    0.29688,
    0.167635,
    0.168909,
    0.240224,
    0.332804,
    0.238,
    0.398519,
    0.160072,
    0.228418,
    0.396166,
    0.204736,
    0.229,
    0.391,
    0.405,
    0.382871,
    0.286148,
    0.283347,
    0.51161,
    0.176,
    0.160008,
    0.414799,
    0.274797,
    0.475579,
    0.377352,
    0.15026,
    0.282043,
    0.450963,
    0.355,
    0.473276,
    0.646643,
    0.330305,
    0.366164,
    0.208189,
    0.655,
    0.43723,
    0.186965,
    0.273127,
    0.230017
  ],
  "51200": [
    0.14201,
    0.159378,
    0.394897,
    0.313,
    0.247431,
    0.398,
    0.323232,
    0.512,
    0.225474,
    0.222915,
    0.502,
    0.164476,
    0.401,
    0.221887,
    0.339195,
    0.245672,
    0.439889,
    0.534805,
    0.211162,
    0.34,
    0.393699,
    0.420578,
    0.268275,
    0.458,
    0.203058,
    0.184036,
    0.388646,
    0.244688,
    0.32969,
    0.417528,
    0.181889,
    0.470071,
    0.189863,
    0.539614,
    0.391701,
    0.204472,
    0.270064,
    0.323541,
    0.177358,
    0.440897,
    0.484801,
    0.369526,
    0.18069,
    0.17083,
    0.224621,
    0.18438,
    0.397276,
    0.172503,
    0.116629,
    0.472522,
    0.412003,
    0.243485,
    0.543,
    0.252255,
    0.261289,
    0.348952,
    0.385844,
    0.434277,
    0.581224,
    0.194842,
    0.3,
    0.221,
    0.288486,
    0.238213,
    0.28116,
    0.555397,
    0.333385,
    0.179159,
    0.335848,
    0.47959,
    0.16671,
    0.417281,
    0.36684,
    0.293787,
    0.248507,
    0.196188,
    0.313527,
    0.308386,
    0.46277,
    0.294,
    0.35,
    0.529,
    0.333,
    0.45,
    0.297,
    0.337,
    0.145672,
    0.559,
    0.389,
    0.413941,
    0.384948,
    0.174578,
    0.512,
    0.225327,
    0.370751,
    0.340605,
    0.413,
    0.200111,
    0.492476,
    0.43,
    0.193,
    0.283127,
    0.176974,
    0.527679,
    0.319751,
    0.167,
    0.157413,
    0.353,
    0.165684,
    0.462,
    0.302,
    0.193132,
    0.224,
    0.359584,
    0.144887,
    0.19761,
    0.504812,
    0.13,
    0.141054,
    0.45,
    0.159388,
    0.370918,
    0.42,
    0.413,
    0.147204,
    0.41,
    0.137498,
    0.488189,
    0.176,
    0.362249,
    0.275178,
    0.336625,
    0.198084,
    0.116328,
    0.232243,
    0.164475,
    0.16453,
    0.536303,
    0.192332,
    0.447868,
    0.413621,
    0.422,
    0.173,
    0.406906,
    0.12276,
    0.422815,
    0.266013,
    0.528479,
    0.335462,
    0.222,
    0.430387,
    0.347,
    0.168425,
    0.293676,
    0.477,
    0.233,
    0.232672,
    0.4,
    0.53348,
    0.373708,
    0.25798,
    0.510322,
    0.185953,
    0.212458,
    0.202858,
    0.287,
    0.187205,
    0.22,
    0.171645,
    0.222223,
    0.502353,
    0.589918,
    0.268,
    0.269634,
    0.459355,
    0.626043,
    0.222295,
    0.43,
    0.158855,
    0.259485,
    0.250046,
    0.525726,
    0.15211,
    0.468504,
    0.321751,
    0.175311,
    0.412828,
    0.261889,
    0.2124,
    0.19866,
    0.254052,
    0.309527,
    0.425956,
    0.53,
    0.433111,
    0.184832,
    0.308,
    0.273,
    0.156914,
    0.180216,
    0.511479,
    0.37,
    0.178,
    0.496388,
    0.342095,
    0.158019,
    0.237037,
    0.172701,
    0.46,
    0.283,
    0.481103,
    0.383052,
    0.522384,
    0.178,
    0.444,
    0.186,
    0.454866,
    0.435,
    0.32439,
    0.428822,
    0.369381,
    0.667411,
    0.401,
    0.162,
    0.179966,
    0.207687,
    0.465,
    0.2515,
    0.365752,
    0.157206,
    0.14,
    0.298323,
    0.27,
    0.37661,
    0.16971,
    0.165555,
    0.406,
    0.238,
    0.202,
    0.368,
    0.230059,
    0.358544,
    0.427446,
    0.422,
    0.427472,
    0.360726,
    0.121279,
    0.212582,
    0.279557,
    0.236922,
    0.128,
    0.16106,
    0.260866,
    0.417434,
    0.56668,
    0.225909,
    0.269149,
    0.302767,
    0.253521,
    0.247855,
    0.404132,
    0.268,
    0.357596,
    0.149865,
    0.433,
    0.553123,
    0.382803,
    0.350941,
    0.131,
    0.463,
    0.19555,
    0.175359,
    0.292726,
    0.249282,
    0.162351,
    0.390394,
    0.30272,
    0.508653,
    0.106011,
    0.322182,
    0.504936,
    0.207454,
    0.250909,
    0.460263,
    0.489,
    0.20417,
    0.150229,
    0.243,
    0.165002,
    0.307891,
    0.272156,
    0.209706,
    0.198905,
    0.503407,
    0.518544,
    0.481,
    0.324344,
    0.200006,
    0.287708,
    0.160118,
    0.199647,
    0.36303,
    0.197831,
    0.172926,
    0.34,
    0.502632,
    0.207218,
    0.481789,
    0.26,
    0.287376,
    0.210568,
    0.285695,
    0.342696,
    0.205044,
    0.24474,
    0.277158,
    0.186284,
    0.401278,
    0.443039,
    0.332055,
    0.156,
    0.341533,
    0.469,
    0.405,
    0.309249,
    0.240623,
    0.180982,
    0.400564,
    0.482905,
    0.365224,
    0.329164,
    0.147103,
    0.19869,
    0.243,
    0.324095,
    0.448951,
    0.650572,
    0.19,
    0.467,
    0.45293,
    0.354,
    0.462,
    0.449,
    0.180111,
    0.232,
    0.180897,
    0.301818,
    0.288103,
    0.346103,
    0.450432,
    0.278489,
    0.442029,
    0.392,
    0.133994,
    0.154739,
    0.365,
    0.40124,
    0.308,
    0.279877,
    0.34023,
    0.434484,
    0.386,
    0.114,
    0.238,
    0.119888,
    0.343875,
    0.462986,
    0.250172,
    0.355561,
    0.468,
    0.647315,
    0.224919,
    0.419363,
    0.386909,
    0.23856,
    0.251513,
    0.323,
    0.201267,
    0.199042,
    0.368402,
    0.463136,
    0.207778,
    0.409799,
    0.36577,
    0.145946,
    0.18509,
    0.436,
    0.191887,
    0.358108,
    0.318885,
    0.254,
    0.269,
    0.219266,
    0.135158,
    0.264937,
    0.414167,
    0.426,
    0.228845,
    0.37,
    0.419555,
    0.182223,
    0.275,
    0.215283,
    0.189259,
    0.172608,
    0.462403,
    0.173058,
    0.401233,
    0.221594,
    0.299777,
    0.251912,
    0.332539,
    0.309281,
    0.311856,
    0.166298,
    0.161788,
    0.410125,
    0.397937,
    0.396,
    0.39,
    0.172194,
    0.192,
    0.37063,
    0.428134,
    0.267723,
    0.336,
    0.187,
    0.506436,
    0.319,
    0.307,
    0.189341,
    0.441,
    0.484553,
    0.141732,
    0.223624,
    0.222,
    0.217,
    0.358891,
    0.164,
    0.479445,
    0.262103,
    0.178801,
    0.198405,
    0.268,
    0.264,
    0.244404,
    0.318398,
    0.47256,
    0.161401,
    0.253103,
    0.155063,
    0.329938,
    0.279761,
    0.352755,
    0.166897,
    0.41048,
    0.222357,
    0.16,
    0.234,
    0.448,
    0.339934,
    0.369072,
    0.188,
    0.194565,
    0.233194,
    0.345342,
    0.372103,
    0.471419,
    0.515757,
    0.349806,
    0.454552,
    0.374892,
    0.217709,
    0.264432,
    0.425,
    0.470652,
    0.217787,
    0.401876,
    0.408719,
    0.359898,
    0.290053,
    0.42447,
    0.356539,
    0.284,
    0.401422,
    0.375,
    0.317241,
    0.138595,
    0.4,
    0.419,
    0.343,
    0.324,
    0.349461,
    0.294885,
    0.137,
    0.421319,
    0.338,
    0.589,
    0.334,
    0.202,
    0.170124,
    0.402143,
    0.252155,
    0.432886,
    0.147,
    0.210474,
    0.291101,
    0.434222,
    0.354,
    0.332743,
    0.418858,
    0.400139,
    0.160521,
    0.444182,
    0.251731,
    0.550506,
    0.185403,
    0.186343,
    0.328645,
    0.643,
    0.157105,
    0.275127,
    0.503237,
    0.432,
    0.207338,
    0.243235,
    0.357,
    0.239531,
    0.414,
    0.501424,
    0.153618,
    0.27546,
    0.474,
    0.257595,
    0.389,
    0.277,
    0.333,
    0.458,
    0.384618,
    0.203,
    0.271,
    0.179455,
    0.49,
    0.42161,
    0.194344,
    0.188,
    0.207,
    0.411,
    0.411875,
    0.191698,
    0.272267,
    0.208588,
    0.538897,
    0.286206,
    0.171746,
    0.172,
    0.196,
    0.310791,
    0.165745,
    0.204,
    0.137848,
    0.119381,
    0.484604,
    0.332723,
    0.573918,
    0.362,
    0.305249,
    0.399297,
    0.466165,
    0.301121,
    0.266,
    0.423,
    0.242592,
    0.220027,
    0.519716,
    0.248,
    0.240079,
    0.282,
    0.216719,
    0.164913,
    0.191,
    0.325197,
    0.158587,
    0.223669,
    0.2328,
    0.189799,
    0.255,
    0.158754,
    0.425883,
    0.327605,
    0.205356,
    0.325972,
    0.208826,
    0.356905,
    0.53268,
    0.247378,
    0.416953,
    0.373247,
    0.376954,
    0.293105,
    0.164936,
    0.332625,
    0.371,
    0.344,
    0.434036,
    0.113714,
    0.210032,
    0.444,
    0.343349,
    0.292,
    0.306177,
    0.182838,
    0.360524,
    0.382445,
    0.168554,
    0.382,
    0.563853,
    0.613734,
    0.266466,
    0.472207,
    0.443141,
    0.259103,
    0.209681,
    0.530872,
    0.435667,
    0.373245,
    0.479689,
    0.494797,
    0.181523,
    0.388,
    0.207848,
    0.640821,
    0.245558,
    0.228702,
    0.581103,
    0.327298,
    0.175,
    0.384029,
    0.211,
    0.21483,
    0.215,
    0.473,
    0.449,
    0.505538,
    0.232453,
    0.277906,
    0.413528,
    0.482192,
    0.318725,
    0.321099,
    0.181,
    0.447208,
    0.118747,
    0.314328,
    0.229048,
    0.294749,
    0.582117,
    0.244429,
    0.232929,
    0.362725,
    0.446152,
    0.410643,
    0.357977,
    0.398725,
    0.408251,
    0.607179,
    0.535442,
    0.463391,
    0.325308,
    0.473591,
    0.296234,
    0.390614,
    0.329223,
    0.302856,
    0.288976,
    0.304037,
    0.22084,
    0.198281,
    0.206373,
    0.185989,
    0.390676,
    0.176687
  ],
  "5242880": [
    0.287,
    0.478,
    0.224897,
    0.392295,
    0.192484,
    0.430415,
    0.305889,
    0.254459,
    0.535123,
    0.31852,
    0.517329,
    0.296,
    0.134959,
    0.160897,
    0.429285,
    0.422448,
    0.15557,
    0.28459,
    0.542293,
    0.271438,
    0.209,
    0.160528,
    0.338,
    0.337551,
    0.172731,
    0.164,
    0.149684,
    0.258852,
    0.209,
    0.401194,
    0.435265,
    0.426,
    0.454,
    0.166508,
    0.51,
    0.224308,
    0.20994,
    0.295758,
    0.209,
    0.157,
    0.155963,
    0.348047,
    0.468,
    0.31,
    0.172393,
    0.162153,
    0.443577,
    0.194078,
    0.285273,
    0.187305,
    0.173985,
    0.279554,
    0.154351,
    0.195629,
    0.329,
    0.227282,
    0.475785,
    0.394852,
    0.413058,
    0.363691,
    0.416064,
    0.395474
  ],
  "ALL": [
    0.14201,
    0.159378,
    0.394897,
    0.313,
    0.247431,
    0.398,
    0.323232,
    0.512,
    0.225474,
    0.222915,
    0.502,
    0.164476,
    0.401,
    0.287,
    0.478,
    0.224897,
    0.221887,
    0.339195,
    0.245672,
    0.439889,
    0.534805,
    0.211162,
    0.34,
    0.393699,
    0.420578,
    0.268275,
    0.458,
    0.203058,
    0.184036,
    0.205202,
    0.213186,
    0.336395,
    0.388646,
    0.244688,
    0.32969,
    0.417528,
    0.181889,
    0.470071,
    0.189863,
    0.539614,
    0.391701,
    0.204472,
    0.270064,
    0.323541,
    0.177358,
    0.440897,
    0.484801,
    0.338704,
    0.369526,
    0.18069,
    0.17083,
    0.224621,
    0.18438,
    0.397276,
    0.172503,
    0.116629,
    0.472522,
    0.412003,
    0.243485,
    0.543,
    0.252255,
    0.261289,
    0.392295,
    0.192484,
    0.348952,
    0.385844,
    0.434277,
    0.581224,
    0.194842,
    0.3,
    0.221,
    0.288486,
    0.238213,
    0.28116,
    0.555397,
    0.324,
    0.201,
    0.194056,
    0.430415,
    0.305889,
    0.333385,
    0.179159,
    0.335848,
    0.47959,
    0.16671,
    0.417281,
    0.36684,
    0.293787,
    0.248507,
    0.196188,
    0.313527,
    0.308386,
    0.245929,
    0.46125,
    0.394152,
    0.254459,
    0.46277,
    0.294,
    0.35,
    0.529,
    0.333,
    0.45,
    0.297,
    0.337,
    0.145672,
    0.559,
    0.389,
    0.255,
    0.509,
    0.143385,
    0.475,
    0.477,
    0.413941,
    0.384948,
    0.174578,
    0.512,
    0.225327,
    0.370751,
    0.340605,
    0.413,
    0.200111,
    0.492476,
    0.43,
    0.193,
    0.283127,
    0.176974,
    0.535123,
    0.31852,
    0.527679,
    0.319751,
    0.167,
    0.157413,
    0.353,
    0.165684,
    0.462,
    0.302,
    0.193132,
    0.224,
    0.359584,
    0.144887,
    0.19761,
    0.162,
    0.517329,
    0.296,
    0.504812,
    0.13,
    0.141054,
    0.45,
    0.159388,
    0.370918,
    0.42,
    0.413,
    0.147204,
    0.41,
    0.437246,
    0.249223,
    0.426539,
    0.273,
    0.174653,
    0.134959,
    0.137498,
    0.488189,
    0.176,
    0.362249,
    0.275178,
    0.336625,
    0.198084,
    0.116328,
    0.232243,
    0.164475,
    0.16453,
    0.536303,
    0.192332,
    0.447868,
    0.160897,
    0.429285,
    0.413621,
    0.422,
    0.173,
    0.406906,
    0.12276,
    0.422815,
    0.266013,
    0.528479,
    0.335462,
    0.222,
    0.430387,
    0.347,
    0.168425,
    0.164168,
    0.422448,
    0.15557,
    0.293676,
    0.477,
    0.233,
    0.232672,
    0.4,
    0.53348,
    0.373708,
    0.25798,
    0.510322,
    0.185953,
    0.212458,
    0.202858,
    0.287,
    0.523795,
    0.283,
    0.28459,
    0.187205,
    0.22,
    0.171645,
    0.222223,
    0.502353,
    0.589918,
    0.268,
    0.269634,
    0.459355,
    0.626043,
    0.222295,
    0.43,
    0.354,
    0.349,
    0.277,
    0.542293,
    0.158855,
    0.259485,
    0.250046,
    0.525726,
    0.15211,
    0.468504,
    0.321751,
    0.175311,
    0.412828,
    0.261889,
    0.2124,
    0.19866,
    0.326064,
    0.351845,
    0.431861,
    0.581245,
    0.254052,
    0.309527,
    0.425956,
    0.53,
    0.433111,
    0.184832,
    0.308,
    0.273,
    0.156914,
    0.180216,
    0.511479,
    0.37,
    0.238,
    0.339804,
    0.329744,
    0.271438,
    0.178,
    0.496388,
    0.342095,
    0.158019,
    0.237037,
    0.172701,
    0.46,
    0.283,
    0.481103,
    0.383052,
    0.522384,
    0.178,
    0.229117,
    0.395592,
    0.158,
    0.45,
    0.444,
    0.186,
    0.454866,
    0.435,
    0.32439,
    0.428822,
    0.369381,
    0.667411,
    0.401,
    0.162,
    0.179966,
    0.207687,
    0.465,
    0.2515,
    0.38059,
    0.209,
    0.365752,
    0.157206,
    0.14,
    0.298323,
    0.27,
    0.37661,
    0.16971,
    0.165555,
    0.406,
    0.238,
    0.202,
    0.368,
    0.230059,
    0.237308,
    0.160528,
    0.338,
    0.358544,
    0.427446,
    0.422,
    0.427472,
    0.360726,
    0.121279,
    0.212582,
    0.279557,
    0.236922,
    0.128,
    0.16106,
    0.260866,
    0.255878,
    0.477763,
    0.270671,
    0.337551,
    0.417434,
    0.56668,
    0.225909,
    0.269149,
    0.302767,
    0.253521,
    0.247855,
    0.404132,
    0.268,
    0.357596,
    0.149865,
    0.433,
    0.553123,
    0.126,
    0.624031,
    0.382886,
    0.382803,
    0.350941,
    0.131,
    0.463,
    0.19555,
    0.175359,
    0.292726,
    0.249282,
    0.162351,
    0.390394,
    0.30272,
    0.508653,
    0.106011,
    0.322182,
    0.351,
    0.172731,
    0.504936,
    0.207454,
    0.250909,
    0.460263,
    0.489,
    0.20417,
    0.150229,
    0.243,
    0.165002,
    0.307891,
    0.272156,
    0.367,
    0.109,
    0.376889,
    0.22838,
    0.164,
    0.209706,
    0.198905,
    0.503407,
    0.518544,
    0.481,
    0.324344,
    0.200006,
    0.287708,
    0.160118,
    0.199647,
    0.36303,
    0.197831,
    0.172926,
    0.34,
    0.502632,
    0.207218,
    0.481789,
    0.26,
    0.287376,
    0.210568,
    0.285695,
    0.342696,
    0.205044,
    0.24474,
    0.277158,
    0.186284,
    0.401278,
    0.443039,
    0.470777,
    0.129,
    0.361219,
    0.149684,
    0.332055,
    0.156,
    0.341533,
    0.469,
    0.405,
    0.309249,
    0.240623,
    0.180982,
    0.400564,
    0.482905,
    0.365224,
    0.329164,
    0.402141,
    0.495,
    0.258852,
    0.209,
    0.147103,
    0.19869,
    0.243,
    0.324095,
    0.448951,
    0.650572,
    0.19,
    0.467,
    0.45293,
    0.354,
    0.462,
    0.449,
    0.316,
    0.277689,
    0.252461,
    0.401194,
    0.180111,
    0.232,
    0.180897,
    0.301818,
    0.288103,
    0.346103,
    0.450432,
    0.278489,
    0.442029,
    0.392,
    0.133994,
    0.154739,
    0.365,
    0.40124,
    0.308,
    0.435265,
    0.279877,
    0.34023,
    0.434484,
    0.386,
    0.114,
    0.238,
    0.119888,
    0.343875,
    0.462986,
    0.250172,
    0.355561,
    0.468,
    0.647315,
    0.443,
    0.16,
    0.266,
    0.224919,
    0.419363,
    0.386909,
    0.23856,
    0.251513,
    0.323,
    0.201267,
    0.199042,
    0.368402,
    0.463136,
    0.207778,
    0.409799,
    0.36577,
    0.145946,
    0.18509,
    0.448885,
    0.436,
    0.191887,
    0.358108,
    0.318885,
    0.254,
    0.269,
    0.219266,
    0.135158,
    0.264937,
    0.414167,
    0.426,
    0.228845,
    0.37,
    0.426,
    0.454,
    0.166508,
    0.419555,
    0.182223,
    0.275,
    0.215283,
    0.189259,
    0.172608,
    0.462403,
    0.173058,
    0.401233,
    0.221594,
    0.299777,
    0.251912,
    0.332539,
    0.309281,
    0.373633,
    0.235135,
    0.311856,
    0.166298,
    0.161788,
    0.410125,
    0.397937,
    0.396,
    0.39,
    0.172194,
    0.192,
    0.37063,
    0.428134,
    0.267723,
    0.336,
    0.187,
    0.474206,
    0.51,
    0.506436,
    0.319,
    0.307,
    0.189341,
    0.441,
    0.484553,
    0.141732,
    0.223624,
    0.222,
    0.217,
    0.358891,
    0.164,
    0.479445,
    0.262103,
    0.224308,
    0.20994,
    0.178801,
    0.198405,
    0.268,
    0.264,
    0.244404,
    0.318398,
    0.47256,
    0.161401,
    0.253103,
    0.155063,
    0.329938,
    0.279761,
    0.352755,
    0.166897,
    0.29688,
    0.167635,
    0.41048,
    0.222357,
    0.16,
    0.234,
    0.448,
    0.339934,
    0.369072,
    0.188,
    0.194565,
    0.233194,
    0.345342,
    0.372103,
    0.168909,
    0.295758,
    0.209,
    0.157,
    0.471419,
    0.515757,
    0.349806,
    0.454552,
    0.374892,
    0.217709,
    0.264432,
    0.425,
    0.470652,
    0.217787,
    0.401876,
    0.408719,
    0.359898,
    0.290053,
    0.240224,
    0.332804,
    0.42447,
    0.356539,
    0.284,
    0.401422,
    0.375,
    0.317241,
    0.138595,
    0.4,
    0.419,
    0.343,
    0.324,
    0.349461,
    0.294885,
    0.137,
    0.421319,
    0.338,
    0.589,
    0.334,
    0.202,
    0.170124,
    0.402143,
    0.252155,
    0.432886,
    0.147,
    0.210474,
    0.291101,
    0.434222,
    0.354,
    0.332743,
    0.418858,
    0.238,
    0.155963,
    0.400139,
    0.160521,
    0.444182,
    0.251731,
    0.550506,
    0.185403,
    0.186343,
    0.328645,
    0.643,
    0.157105,
    0.275127,
    0.503237,
    0.398519,
    0.160072,
    0.228418,
    0.348047,
    0.432,
    0.207338,
    0.243235,
    0.357,
    0.239531,
    0.414,
    0.501424,
    0.153618,
    0.27546,
    0.474,
    0.257595,
    0.389,
    0.277,
    0.333,
    0.458,
    0.396166,
    0.384618,
    0.203,
    0.271,
    0.179455,
    0.49,
    0.42161,
    0.194344,
    0.188,
    0.207,
    0.411,
    0.411875,
    0.204736,
    0.229,
    0.391,
    0.468,
    0.31,
    0.191698,
    0.272267,
    0.208588,
    0.538897,
    0.286206,
    0.171746,
    0.172,
    0.196,
    0.310791,
    0.165745,
    0.204,
    0.137848,
    0.119381,
    0.405,
    0.382871,
    0.172393,
    0.484604,
    0.332723,
    0.573918,
    0.362,
    0.305249,
    0.399297,
    0.466165,
    0.301121,
    0.266,
    0.423,
    0.242592,
    0.220027,
    0.519716,
    0.248,
    0.286148,
    0.283347,
    0.240079,
    0.282,
    0.216719,
    0.164913,
    0.191,
    0.325197,
    0.158587,
    0.223669,
    0.51161,
    0.176,
    0.160008,
    0.414799,
    0.162153,
    0.443577,
    0.194078,
    0.285273,
    0.2328,
    0.189799,
    0.255,
    0.158754,
    0.425883,
    0.327605,
    0.205356,
    0.325972,
    0.208826,
    0.356905,
    0.53268,
    0.247378,
    0.416953,
    0.373247,
    0.274797,
    0.187305,
    0.376954,
    0.293105,
    0.164936,
    0.332625,
    0.371,
    0.344,
    0.434036,
    0.113714,
    0.210032,
    0.444,
    0.343349,
    0.475579,
    0.377352,
    0.15026,
    0.173985,
    0.279554,
    0.292,
    0.306177,
    0.182838,
    0.360524,
    0.382445,
    0.168554,
    0.382,
    0.563853,
    0.613734,
    0.266466,
    0.472207,
    0.443141,
    0.259103,
    0.282043,
    0.450963,
    0.355,
    0.209681,
    0.530872,
    0.435667,
    0.373245,
    0.479689,
    0.494797,
    0.181523,
    0.388,
    0.207848,
    0.640821,
    0.245558,
    0.228702,
    0.473276,
    0.646643,
    0.154351,
    0.195629,
    0.581103,
    0.327298,
    0.175,
    0.384029,
    0.211,
    0.21483,
    0.215,
    0.473,
    0.449,
    0.505538,
    0.232453,
    0.330305,
    0.366164,
    0.208189,
    0.655,
    0.329,
    0.277906,
    0.413528,
    0.482192,
    0.318725,
    0.321099,
    0.181,
    0.447208,
    0.118747,
    0.314328,
    0.229048,
    0.294749,
    0.43723,
    0.227282,
    0.475785,
    0.394852,
    0.413058,
    0.582117,
    0.244429,
    0.232929,
    0.362725,
    0.446152,
    0.410643,
    0.357977,
    0.398725,
    0.408251,
    0.607179,
    0.535442,
    0.463391,
    0.325308,
    0.473591,
    0.186965,
    0.363691,
    0.296234,
    0.390614,
    0.329223,
    0.302856,
    0.288976,
    0.304037,
    0.22084,
    0.198281,
    0.206373,
    0.185989,
    0.390676,
    0.176687,
    0.273127,
    0.230017,
    0.416064,
    0.395474
  ]
}