[
  9.591808595459476,
  9.174017348066807,
  49.068616326355404,
  35.5920967749111,
  19.558897953894785,
  16.934765167728262,
  54.043099371749015,
  25.711980818862287,
  25.295002972162848,
  22.123954988813576,
  15.872228560091267,
  21.99276438051881,
  8.012162462618253,
  33.802340812101214,
  25.084110156869755,
  26.816661191598282,
  28.29384573487963,
  37.902297352998275,
  28.33794415299653,
  18.687921062221427,
  12.513628123127836,
  5.838725639741871,
  31.369227571982588,
  26.842484943043598,
  21.403651462939596,
  25.807533864323343,
  31.741497246425066,
  40.39791950714535,
  19.32236467098843,
  25.47511081673208,
  19.188287469328728,
  43.24487953598245,
  30.765444253014984,
  27.223848090927692,
  22.157595900844754,
  37.81772800544576,
  29.15664407026753,
  41.78549416570038,
  26.753436980607088,
  37.552514844978546,
  15.267029894752918,
  23.254799936049288,
  16.7714533093222,
  29.29705381502569,
  19.88422410514778,
  70.64017660044132,
  22.233895017106224,
  113.40440009072361,
  32.91896585068781,
  15.872197069198808,
  2.743456000109738,
  24.541608763808494,
  36.193854283542706,
  19.708268357636104,
  25.305884883529657,
  19.045623791793226,
  18.30617535943031,
  18.20386968759884,
  30.97113877005865,
  19.0462132556883,
  27.515047291487527,
  46.43172215257458
]