[
  0.316725,
  0.269026,
  0.193869,
  0.244712,
  0.27285,
  0.326022,
  0.194161,
  0.362209,
  0.442964,
  0.19699,
  0.210972,
  0.329129,
  0.433215,
  0.204852,
  0.316184,
  0.48693,
  0.492777,
  0.328768,
  0.372908,
  0.325745,
  0.428897,
  0.307724,
  0.477877,
  0.202706,
  0.394859,
  0.347833,
  0.389695,
  0.224668,
  0.263448,
  0.212001,
  0.352808,
  0.044008,
  0.358636,
  0.446897,
  0.393765,
  0.229961,
  0.399911,
  0.511608,
  0.238583,
  0.438181,
  0.262408,
  0.384396,
  0.24221,
  0.320675,
  0.447581,
  1.035843,
  0.250944,
  0.319862,
  0.391997,
  0.452003,
  0.55624,
  0.369657,
  0.421469,
  0.403389,
  0.413881,
  0.341026,
  0.376026,
  0.309623,
  0.412274,
  0.279365,
  0.329862,
  0.406865,
  0.434849,
  0.275624,
  0.389714,
  0.24499,
  0.249016,
  0.257007,
  0.331983,
  0.334023,
  0.345999,
  0.3146,
  0.326593,
  0.335616,
  0.235082,
  0.348066,
  0.473861,
  0.270592,
  0.285599,
  0.038888,
  0.247737,
  0.327026,
  0.229981,
  0.377555,
  0.247254,
  0.292537,
  0.362183,
  0.286026,
  0.330945,
  0.224628,
  0.409483,
  0.368026,
  0.039054,
  0.347295,
  0.454465,
  0.304447,
  0.327454,
  0.208428,
  0.462436,
  0.232243,
  0.331418,
  0.338604,
  0.268232,
  0.324681,
  0.226591,
  0.237399,
  0.406275,
  0.421176,
  0.294651,
  0.303779,
  0.295623,
  0.42714,
  0.267677,
  0.387026,
  0.305104,
  0.309588,
  0.269569,
  0.231812,
  0.275095,
  0.283559,
  0.038596,
  0.218534,
  0.302603,
  0.283661,
  0.331516,
  0.232293,
  0.396411,
  0.389028,
  0.253479,
  0.292474,
  0.234893,
  0.275725,
  0.279447,
  0.38209,
  0.285426,
  0.306942,
  0.368989,
  0.39441,
  0.056995,
  0.335673,
  0.406686,
  1.345521,
  0.360008,
  0.370022,
  0.382996,
  0.54972,
  0.304662,
  0.411661,
  0.212787,
  0.331801,
  0.384006,
  0.420648,
  1.005636,
  0.24869,
  0.280683,
  0.387684,
  0.400726,
  0.403459,
  0.291099,
  0.32363,
  0.397631,
  0.255964,
  0.313988,
  0.347059,
  0.41898,
  0.321598,
  0.408747,
  0.430598,
  0.432608,
  0.389022,
  0.414022,
  0.333588,
  0.368604,
  0.49793,
  0.530978,
  0.339926,
  0.415578,
  0.428927,
  0.442892,
  0.588892,
  0.252225,
  0.234315,
  0.351579,
  0.286561,
  0.400096,
  0.077999,
  0.467536,
  0.48555,
  0.286525,
  0.338525,
  0.437506,
  0.477626,
  0.058992,
  0.45348,
  0.524157,
  0.265463,
  0.436479,
  0.466444,
  0.57385,
  0.460434,
  0.48399,
  0.400085,
  0.509423,
  0.224626,
  0.294681,
  0.053003,
  0.388122,
  0.406771,
  0.245111,
  0.273646,
  0.318093,
  0.34162,
  0.36207,
  0.437615,
  0.208053,
  0.263026,
  0.294032,
  0.304577,
  0.296553,
  0.297019,
  0.045017,
  0.220006,
  0.344026,
  0.323977,
  0.325523,
  0.386595,
  0.458963,
  0.359952,
  0.523482,
  0.264927,
  0.474469,
  0.271916,
  0.295446,
  0.237898,
  0.272429,
  0.223877,
  0.282411,
  0.375778,
  0.478639,
  0.354118,
  0.38222,
  0.277189,
  0.29177,
  0.267626,
  0.392256,
  0.288766,
  0.291616,
  0.299468,
  0.383476,
  0.339576,
  0.384571,
  0.389559,
  0.427551,
  0.344537,
  0.361397,
  0.039137,
  0.244526,
  0.257072,
  0.372712,
  0.404328,
  0.297491,
  0.355484,
  0.299562,
  0.30556,
  0.292451,
  0.320446,
  0.262253,
  0.28282,
  0.261708,
  0.292714,
  0.230681,
  0.285689,
  0.22289,
  0.250898,
  0.330705,
  0.342664,
  0.382643,
  0.563028,
  0.232848,
  0.331634,
  0.260616,
  0.343609,
  0.273937,
  0.310067,
  0.237573,
  0.264581,
  0.261556,
  0.270615,
  0.312546,
  0.483538,
  0.238728,
  0.278648,
  0.377044,
  0.434126,
  0.495501,
  0.296615,
  0.398489,
  0.268472,
  0.27973,
  0.342938,
  0.526033,
  0.263973,
  0.297018,
  0.313361,
  0.323532,
  0.279684,
  0.290267,
  0.262976,
  0.265754,
  0.230213,
  0.246979,
  0.108311,
  0.234725,
  0.381476,
  0.314561,
  0.388202,
  0.454459,
  0.226447,
  0.282685,
  0.021138,
  0.234918,
  0.340025,
  0.284141,
  0.421411,
  0.201742,
  0.255393,
  0.369375,
  0.469978,
  0.09472,
  0.203133,
  0.276356,
  0.354332,
  0.397594,
  0.423596,
  0.467785,
  0.28711,
  0.293234,
  0.167991,
  0.274713,
  0.210261,
  0.280005,
  0.277517,
  0.334452,
  0.224585,
  0.302423,
  0.305177,
  0.337964,
  0.349951,
  0.318161,
  0.31547,
  0.484956,
  0.284767,
  0.389574,
  0.055869,
  0.309781,
  0.429051,
  0.300137,
  0.470433,
  0.305125,
  0.30788,
  0.359716,
  0.379866,
  0.398847,
  0.430049,
  0.395229,
  0.404297,
  0.429066,
  0.508812,
  0.055815,
  0.277589,
  0.308035,
  0.308988,
  0.482772,
  0.311201,
  0.428475,
  0.365743,
  0.329596,
  0.345722,
  0.364133,
  0.059908,
  0.223379,
  0.249981,
  0.422455,
  0.330986,
  0.33793,
  0.410168,
  0.461434,
  0.509991,
  0.29308,
  0.247907,
  0.302456,
  0.225017,
  0.245051,
  0.262003,
  0.224704,
  0.338739,
  0.290626,
  0.319049,
  0.38261,
  0.452802,
  0.282625,
  0.388685,
  0.227721,
  0.23973,
  0.318494,
  0.38696,
  0.420527,
  0.352269,
  0.23561,
  0.284921,
  0.358594,
  0.498387,
  0.277323,
  0.323976,
  0.391967,
  0.316026,
  0.291591,
  0.326398,
  0.375373,
  0.450755,
  0.248562,
  0.336026,
  0.259595,
  0.304818,
  0.068995,
  0.248937,
  0.401744,
  0.291501,
  0.302391,
  0.38149,
  0.484026,
  0.277464,
  0.409371,
  0.478444,
  0.327738,
  0.377436,
  0.475229,
  0.332411,
  0.508218,
  0.77053,
  0.198561,
  0.282554,
  0.39253,
  0.412079,
  0.33251,
  0.561062,
  0.334067,
  0.450486,
  0.20146,
  0.404028,
  0.341005,
  0.364454,
  0.211436,
  0.323987,
  0.070951,
  0.230418,
  0.355969,
  0.200395,
  0.335518,
  0.328383,
  0.445934,
  0.188367,
  0.313917,
  0.29534,
  0.327349,
  0.404328,
  0.548115,
  0.281109,
  0.443868,
  0.253285,
  0.52711,
  0.340268,
  0.543136,
  0.272673,
  0.360133,
  0.478912,
  0.388985,
  0.432017,
  0.500797,
  0.594002,
  0.318714,
  0.360669,
  0.335003,
  0.38001,
  0.485011,
  0.492026,
  0.359649,
  0.444931,
  0.393518,
  0.461516,
  0.52123,
  0.561023,
  0.267631,
  0.328632,
  0.278008,
  0.517151,
  0.491614,
  0.531614,
  0.311591,
  0.387605,
  0.253224,
  0.411457,
  0.435559,
  0.54056,
  0.398542,
  0.422541,
  0.460523,
  0.510524,
  0.067145,
  0.250504,
  0.377506,
  0.38448,
  0.420645,
  0.364478,
  0.452462,
  0.379057,
  0.29117,
  0.338436,
  0.419107,
  0.396025,
  0.516857,
  0.06728,
  0.287116,
  0.868546,
  0.203653,
  0.28896,
  0.864007,
  0.825049,
  0.522824,
  0.864442,
  0.461641,
  0.943364,
  0.469078,
  0.831806,
  0.257067,
  0.931364,
  0.338743,
  0.770359,
  0.384027,
  0.948282,
  0.154297,
  0.291009,
  0.945739,
  0.624991,
  0.98189,
  0.368041,
  0.872156,
  0.266955,
  0.824683,
  0.037144,
  0.445494,
  0.92828,
  0.769919,
  0.848144,
  0.190908,
  0.88728,
  0.350883,
  0.846436,
  0.395865,
  0.696519,
  0.299845,
  0.881747,
  0.039358,
  0.564675,
  0.801772,
  1.031573,
  0.743219,
  0.3001,
  0.769667,
  0.998557,
  0.842964,
  0.390997,
  0.228656,
  0.837933,
  0.993757,
  0.346011,
  0.937185,
  0.358637,
  0.780679,
  0.290002,
  0.84423,
  0.895017,
  0.305824,
  0.79248,
  0.254963,
  0.719987,
  0.86027,
  0.844935,
  0.2466,
  0.323616,
  0.765912,
  0.860335,
  0.232002,
  0.824418,
  0.368591,
  0.808644,
  0.397637,
  0.856665,
  0.292,
  0.859134,
  0.891736,
  0.34358,
  0.849309,
  0.422554,
  0.636496,
  0.038982,
  0.572537,
  0.84799,
  0.295526,
  0.823627,
  0.445501,
  0.632482,
  0.864647,
  0.187472,
  0.807151,
  0.365528,
  0.870755,
  0.274807,
  0.854325,
  0.245664,
  0.829637,
  0.309106,
  0.311847,
  0.268225,
  0.269061,
  0.281872,
  0.363216,
  0.416825,
  1.128928,
  0.29783,
  0.288026,
  0.274062,
  0.377878,
  0.336026,
  0.32431,
  0.223956,
  0.343809,
  0.302115,
  0.315932,
  0.326106,
  0.262148,
  0.255631,
  0.268026,
  0.332559,
  0.36171,
  0.371624,
  0.383742,
  0.497959,
  0.269026,
  0.277771,
  0.292613,
  0.383588,
  0.472762,
  0.346577,
  0.317026,
  0.051837,
  0.408826,
  0.419676,
  0.301873,
  0.335544,
  0.230519,
  0.341534,
  0.356505,
  0.396665,
  0.270483,
  0.270654,
  0.260945,
  0.428612,
  0.379454,
  0.427971,
  0.296596,
  0.429436,
  0.308578,
  0.330418,
  0.270003,
  0.91156,
  0.31897,
  0.864981,
  0.318949,
  0.897805,
  0.321933,
  0.821543,
  0.606008,
  0.929769,
  0.34689,
  0.907541,
  0.347932,
  0.278598,
  0.81252,
  0.424867,
  0.660807,
  0.356841,
  0.818486,
  0.571858,
  0.868677,
  0.337801,
  0.83296,
  0.323789,
  0.884562,
  0.296765,
  0.711069,
  0.076918,
  0.332755,
  0.860039,
  0.348733,
  0.811247,
  0.337494,
  0.37444,
  0.876557,
  0.30719,
  0.300409,
  0.303528,
  0.353179,
  0.314266,
  0.399329,
  0.339501,
  0.343143,
  0.36468,
  0.491123,
  0.378598,
  0.40877,
  0.048036,
  0.358707,
  0.301317,
  0.285064,
  0.392877,
  0.327053,
  0.362046,
  0.386028,
  0.466035,
  0.047527,
  0.361069,
  0.369363,
  0.248026,
  0.300999,
  0.269981,
  0.281974,
  0.289956,
  0.36633,
  0.232424,
  0.298707,
  0.301558,
  0.313927,
  0.218833,
  0.767779,
  0.657787,
  0.138601,
  0.234091,
  0.784324,
  0.213015,
  0.428984,
  0.217819,
  0.664596,
  0.329002,
  0.651665,
  0.198981,
  0.752894,
  0.234795,
  0.654638,
  0.222004,
  0.239657,
  0.627641,
  0.813191,
  0.189965,
  0.666443,
  0.170263,
  0.205336,
  0.728756,
  0.749012,
  0.281765,
  0.284824,
  0.796991,
  0.806417,
  0.211754,
  0.803866,
  0.259514,
  0.289531,
  0.768169,
  0.254009,
  0.287921,
  0.337072,
  0.690699,
  0.702048,
  0.456945,
  0.754583,
  0.187091,
  0.318967,
  0.743755,
  0.322698,
  0.685359,
  0.305682,
  0.765407,
  0.260664,
  0.822894,
  0.230644,
  0.81728,
  0.134989,
  0.366624,
  0.715164,
  0.208606,
  0.761407,
  0.194326,
  0.730369,
  0.390574,
  0.776224,
  0.443675,
  0.456085,
  0.321613,
  0.468963,
  0.238667,
  0.33196,
  0.421301,
  0.489524,
  0.279635,
  0.379352,
  0.350608,
  0.435106,
  0.289329,
  0.294617,
  0.470304,
  0.238738,
  0.247691,
  0.369026,
  0.044012,
  0.210536,
  0.346253,
  0.272818,
  0.286026,
  0.379508,
  0.465801,
  0.202487,
  0.471092,
  0.248574,
  0.296269,
  0.342454,
  0.436747,
  0.255729,
  0.296436,
  0.055999,
  0.256418,
  0.373711,
  0.281849,
  0.394363,
  0.258491,
  0.231412,
  0.28294,
  0.378786,
  0.447255,
  0.283026,
  0.300837,
  0.268741,
  0.250538,
  0.284997,
  0.38451,
  0.299024,
  0.301819,
  0.330337,
  0.249,
  0.324534,
  0.342515,
  0.3585,
  0.368967,
  0.376983,
  0.2678,
  0.331316,
  0.201995,
  0.256977,
  0.311509,
  0.368492,
  0.330027,
  0.330956,
  0.342775,
  0.403308,
  0.061998,
  0.258764,
  0.420368,
  0.255364,
  0.31027,
  0.265728,
  0.351245,
  0.288227,
  0.41371,
  0.265696,
  0.434212,
  0.286677,
  0.345194,
  0.293183,
  0.435652,
  0.362156,
  0.312026,
  0.152508,
  0.254613,
  0.379144,
  0.219861,
  0.463119,
  0.175571,
  0.348782,
  0.190015,
  0.259161,
  0.220376,
  0.275658,
  0.265764,
  0.282649,
  0.256625,
  0.342632,
  0.421615,
  0.425605,
  0.244969,
  0.232273,
  0.410905,
  0.485912,
  0.0549,
  0.278673,
  0.295782,
  0.21585,
  0.270701,
  0.438526,
  0.485519,
  0.337478,
  0.351653,
  0.216629,
  0.328485,
  0.262465,
  0.319504,
  0.349036,
  0.290026,
  0.308179,
  0.315426,
  0.27906,
  0.292937,
  0.310577,
  0.332675,
  0.284103,
  0.341606,
  0.261905,
  0.288801,
  0.31134,
  0.394242,
  0.493791,
  0.7138,
  0.361802,
  0.255275,
  0.359654,
  0.436392,
  0.252232,
  0.255818,
  0.266017,
  0.267583,
  0.271546,
  0.275096,
  0.27515,
  0.275616,
  0.276608,
  0.279865,
  0.280237,
  0.280556,
  0.281639,
  0.282085,
  0.281538,
  0.289698,
  0.291969,
  0.291146,
  0.291662,
  0.294273,
  0.293013,
  0.295031,
  0.300232,
  0.300728,
  0.303427,
  0.306261,
  0.306054,
  0.307455,
  0.309332,
  0.310257,
  0.312461,
  0.312195,
  0.312758,
  0.314259,
  0.314998,
  0.315536,
  0.315444,
  0.315346,
  0.317344,
  0.316715,
  0.31755,
  0.31849,
  0.319045,
  0.319735,
  0.319488,
  0.319215,
  0.319256,
  0.320962,
  0.32068,
  0.320816,
  0.322989,
  0.323601,
  0.324514,
  0.325507,
  0.326256,
  0.326752,
  0.327941,
  0.327206,
  0.329118,
  0.330061,
  0.330673,
  0.331351,
  0.332743,
  0.333589,
  0.333771,
  0.333236,
  0.333695,
  0.335588,
  0.335832,
  0.336127,
  0.336689,
  0.338875,
  0.339434,
  0.339778,
  0.341219,
  0.341232,
  0.341994,
  0.341379,
  0.341961,
  0.341234,
  0.34308,
  0.343029,
  0.34196,
  0.342097,
  0.342529,
  0.343487,
  0.344671,
  0.345549,
  0.345081,
  0.346173,
  0.345947,
  0.345647,
  0.346852,
  0.347298,
  0.349697,
  0.349011,
  0.350499,
  0.349898,
  0.350037,
  0.349911,
  0.350576,
  0.350835,
  0.351877,
  0.351993,
  0.352641,
  0.35529,
  0.35519,
  0.355665,
  0.356808,
  0.357432,
  0.364753,
  0.364037,
  0.365253,
  0.369915,
  0.373212,
  0.374062,
  0.379903,
  0.380107,
  0.381072,
  0.387103,
  0.388142,
  0.392945,
  0.39471,
  0.39666,
  0.396006,
  0.398271,
  0.398823,
  0.400237,
  0.402406,
  0.406204,
  0.407033,
  0.407135,
  0.408023,
  0.407781,
  0.40844,
  0.409674,
  0.411815,
  0.412195,
  0.413375,
  0.412867,
  0.414121,
  0.417557,
  0.422805,
  0.424086,
  0.427298,
  0.429327,
  0.432955,
  0.434462,
  0.436337,
  0.436891,
  0.439676,
  0.444914,
  0.444175,
  0.444751,
  0.445611,
  0.609677,
  0.618635,
  0.62003,
  0.622702,
  0.651997,
  0.668922,
  0.684834,
  0.692743,
  0.701969,
  0.71553,
  0.212784,
  0.758384,
  0.307534,
  0.790228,
  0.379019,
  0.368081,
  0.258316,
  0.38404,
  0.330405,
  0.420091,
  0.416104,
  0.45302,
  0.431575,
  0.458494,
  0.477486,
  0.499213,
  0.343549,
  0.592217,
  0.692918,
  0.689942,
  0.252064,
  0.276417,
  0.214708,
  0.214645,
  0.277301,
  0.260787,
  0.296799,
  0.402051,
  0.552919,
  0.799255,
  0.813153,
  0.556737,
  0.252659,
  0.315627,
  0.333931,
  0.184524,
  0.192509,
  0.218533,
  0.269493,
  0.325584,
  0.340205,
  0.344868,
  0.402818,
  0.383944,
  0.433136,
  0.235379,
  0.265131,
  0.322509,
  0.408414,
  0.53119,
  0.318537,
  0.217151,
  0.224884,
  0.231936,
  0.241803,
  0.241321,
  0.245243,
  0.245417,
  0.250778,
  0.257139,
  0.257801,
  0.259003,
  0.267985,
  0.269266,
  0.270595,
  0.272054,
  0.274828,
  0.276862,
  0.281019,
  0.281227,
  0.281227,
  0.281951,
  0.28362,
  0.283654,
  0.283604,
  0.283527,
  0.283623,
  0.284696,
  0.284718,
  0.285157,
  0.285011,
  0.286893,
  0.287119,
  0.289542,
  0.289227,
  0.288548,
  0.290392,
  0.289466,
  0.293537,
  0.293471,
  0.293826,
  0.293415,
  0.296478,
  0.296065,
  0.296666,
  0.297065,
  0.297257,
  0.298794,
  0.299554,
  0.299493,
  0.3004,
  0.301503,
  0.302703,
  0.30331,
  0.30308,
  0.306643,
  0.306736,
  0.306662,
  0.306737,
  0.308059,
  0.311794,
  0.314304,
  0.313164,
  0.31692,
  0.316688,
  0.317861,
  0.318192,
  0.319563,
  0.31986,
  0.32002,
  0.320013,
  0.319863,
  0.321996,
  0.324055,
  0.326348,
  0.326114,
  0.325672,
  0.325943,
  0.327131,
  0.327013,
  0.327429,
  0.328469,
  0.328781,
  0.328219,
  0.329603,
  0.32939,
  0.330174,
  0.330401,
  0.332399,
  0.334929,
  0.336297,
  0.336214,
  0.335624,
  0.335183,
  0.337604,
  0.339051,
  0.339856,
  0.339667,
  0.340732,
  0.342324,
  0.344086,
  0.343984,
  0.345065,
  0.34649,
  0.348176,
  0.349343,
  0.35021,
  0.350854,
  0.353538,
  0.355295,
  0.356511,
  0.35615,
  0.359312,
  0.361247,
  0.361939,
  0.362978,
  0.362485,
  0.36289,
  0.364473,
  0.364476,
  0.364376,
  0.367876,
  0.370348,
  0.370586,
  0.372658,
  0.373818,
  0.375617,
  0.375983,
  0.376527,
  0.376795,
  0.380283,
  0.383268,
  0.388614,
  0.390817,
  0.392298,
  0.393414,
  0.460502,
  0.472734,
  0.473485,
  0.482446,
  0.527481,
  0.554276,
  0.557736,
  0.574371,
  0.586227,
  0.589358,
  0.593742,
  0.600989,
  0.609908,
  0.646327,
  0.647994,
  0.652587,
  0.660505,
  0.670931,
  0.263464,
  0.318226,
  0.73276,
  0.740546,
  0.772234,
  0.365017,
  0.778828,
  0.348499,
  0.367383,
  0.387325,
  0.817677,
  0.404652,
  0.409733,
  0.429704,
  0.44098,
  0.440054,
  0.411018,
  0.421509,
  0.865511,
  0.440271,
  0.49049,
  0.503019,
  0.494179,
  0.542702,
  0.239016,
  0.322656,
  0.28459,
  0.756884,
  0.275384,
  0.332622,
  0.402087,
  0.230716,
  0.274436,
  0.314046,
  0.404091,
  0.406735,
  0.529471,
  0.25087,
  0.291564,
  0.284964,
  0.584656,
  0.318593,
  0.299262,
  0.300895,
  0.310938,
  0.317953,
  0.327961,
  0.333924,
  0.351289,
  0.659644,
  0.381491,
  0.452546,
  0.502553,
  0.223748,
  0.337458,
  0.362062,
  0.534756,
  0.313486,
  0.319326,
  0.179007,
  0.179681,
  0.206804,
  0.210884,
  0.219174,
  0.221243,
  0.221559,
  0.223368,
  0.225007,
  0.223851,
  0.229626,
  0.232843,
  0.235774,
  0.235545,
  0.237122,
  0.242956,
  0.243404,
  0.244941,
  0.245403,
  0.245145,
  0.248477,
  0.248998,
  0.249334,
  0.249224,
  0.250375,
  0.254894,
  0.254055,
  0.254421,
  0.25753,
  0.258438,
  0.259952,
  0.260003,
  0.260766,
  0.262187,
  0.26215,
  0.262167,
  0.264613,
  0.265849,
  0.267729,
  0.26943,
  0.269443,
  0.27253,
  0.272929,
  0.274447,
  0.27526,
  0.275088,
  0.275267,
  0.276731,
  0.277091,
  0.277412,
  0.281882,
  0.282598,
  0.283315,
  0.287349,
  0.288015,
  0.289656,
  0.290635,
  0.291506,
  0.293762,
  0.29794,
  0.304002,
  0.303785,
  0.304016,
  0.306839,
  0.307913,
  0.30971,
  0.311596,
  0.312255,
  0.313316,
  0.314326,
  0.316152,
  0.315807,
  0.31837,
  0.319504,
  0.323333,
  0.324116,
  0.323905,
  0.324522,
  0.330129,
  0.330272,
  0.332769,
  0.334276,
  0.335323,
  0.33561,
  0.335419,
  0.336187,
  0.337736,
  0.33681,
  0.337201,
  0.338312,
  0.339258,
  0.339909,
  0.341926,
  0.341593,
  0.341821,
  0.343949,
  0.344192,
  0.345481,
  0.347978,
  0.349331,
  0.348574,
  0.350458,
  0.354394,
  0.35459,
  0.356634,
  0.358649,
  0.360513,
  0.363131,
  0.369176,
  0.371067,
  0.371103,
  0.371225,
  0.374559,
  0.375249,
  0.375253,
  0.377497,
  0.379312,
  0.380612,
  0.382848,
  0.383012,
  0.382122,
  0.385443,
  0.388476,
  0.388051,
  0.388483,
  0.390659,
  0.390357,
  0.391365,
  0.394647,
  0.395472,
  0.395327,
  0.396358,
  0.39782,
  0.400976,
  0.403561,
  0.403243,
  0.406241,
  0.553056,
  0.559848,
  0.585134,
  0.586722,
  0.594816,
  0.598128,
  0.599646,
  0.689751,
  0.689867,
  0.276227,
  0.697764,
  0.702619,
  0.705818,
  0.356055,
  0.791266,
  0.377555,
  0.849043,
  0.433588,
  0.435556,
  0.451435,
  0.448867,
  0.447683,
  0.392054,
  0.459901,
  0.504213,
  0.456692,
  0.525212,
  0.475159,
  0.518595,
  0.499697,
  0.50377,
  0.718064,
  0.281713,
  0.318216,
  0.264611,
  0.243537,
  0.334936,
  0.181708,
  0.274687,
  0.320414,
  0.363777,
  0.367474,
  0.057063,
  0.201071,
  0.242956,
  0.254942,
  0.332663,
  0.370701,
  0.667379,
  0.471474,
  0.275513,
  0.323577,
  0.337864,
  0.435812,
  0.269987,
  0.280538,
  0.282028,
  0.305971,
  0.308995,
  0.33825,
  0.372279,
  0.407007,
  0.351669,
  0.291586,
  0.333493,
  0.195646,
  0.254654,
  0.294668,
  0.323251,
  0.327245,
  0.375137,
  0.216686,
  0.171109,
  0.178294,
  0.181508,
  0.184527,
  0.191731,
  0.191884,
  0.193357,
  0.192788,
  0.196654,
  0.197446,
  0.199933,
  0.199261,
  0.20084,
  0.20162,
  0.202583,
  0.203102,
  0.205464,
  0.210557,
  0.214752,
  0.214551,
  0.218111,
  0.224027,
  0.227217,
  0.227267,
  0.228408,
  0.228105,
  0.236361,
  0.243212,
  0.242214,
  0.242452,
  0.244085,
  0.251065,
  0.252775,
  0.254741,
  0.254224,
  0.255164,
  0.254413,
  0.264558,
  0.264484,
  0.266343,
  0.266994,
  0.26705,
  0.266869,
  0.269636,
  0.2735,
  0.277249,
  0.278536,
  0.279903,
  0.282023,
  0.288834,
  0.292382,
  0.291811,
  0.292433,
  0.293588,
  0.29894,
  0.300057,
  0.301363,
  0.301188,
  0.301687,
  0.303677,
  0.304643,
  0.307011,
  0.307572,
  0.310985,
  0.312918,
  0.3171,
  0.319182,
  0.320146,
  0.320422,
  0.320923,
  0.323802,
  0.323253,
  0.325177,
  0.327062,
  0.327305,
  0.328734,
  0.330783,
  0.331435,
  0.332649,
  0.332281,
  0.332599,
  0.33371,
  0.336341,
  0.336441,
  0.336988,
  0.336802,
  0.337675,
  0.338887,
  0.339684,
  0.339767,
  0.339061,
  0.340713,
  0.340582,
  0.342163,
  0.341748,
  0.344926,
  0.347452,
  0.347118,
  0.34773,
  0.348464,
  0.352525,
  0.353421,
  0.354302,
  0.353836,
  0.354793,
  0.354401,
  0.354576,
  0.357978,
  0.360935,
  0.362062,
  0.363473,
  0.365622,
  0.365694,
  0.367013,
  0.366787,
  0.367632,
  0.368981,
  0.37033,
  0.37109,
  0.372999,
  0.374082,
  0.376525,
  0.378155,
  0.382365,
  0.382566,
  0.478779,
  0.481491,
  0.490942,
  0.492042,
  0.492181,
  0.497186,
  0.501443,
  0.511468,
  0.517865,
  0.541844,
  0.545371,
  0.55893,
  0.611612,
  0.622941,
  0.624193,
  0.643336,
  0.650166,
  0.653746,
  0.293021,
  0.343996,
  0.350337,
  0.347009,
  0.361298,
  0.408019,
  0.453295,
  0.444925,
  0.42395,
  0.458847,
  0.442806,
  0.4643,
  0.433236,
  0.488002,
  0.554019,
  0.571872,
  0.599549,
  0.72602,
  0.39123,
  0.28066,
  0.430512,
  0.284235,
  0.291956,
  0.327405,
  0.23799,
  0.322975,
  0.354283,
  0.400662,
  0.54754,
  0.828502,
  0.342557,
  0.293255,
  0.306635,
  0.409193,
  0.451102,
  0.512969,
  0.585241,
  0.258952,
  0.533463,
  0.548755,
  0.210108,
  0.274029,
  0.325303,
  0.384313,
  0.340946,
  0.163374,
  0.260291,
  0.264073,
  0.275392,
  0.344619,
  0.360646,
  0.364653,
  0.796425,
  0.413441,
  0.468798,
  0.241738,
  0.31177,
  0.341723,
  0.350045,
  0.358032,
  0.368514,
  0.383796,
  0.601088,
  0.507232,
  0.207392,
  0.224976,
  0.23153,
  0.235156,
  0.235217,
  0.235529,
  0.235362,
  0.236657,
  0.250091,
  0.251747,
  0.252215,
  0.257953,
  0.26074,
  0.266106,
  0.265929,
  0.268725,
  0.268645,
  0.26898,
  0.271784,
  0.272614,
  0.272394,
  0.277233,
  0.277893,
  0.278722,
  0.281718,
  0.281878,
  0.281397,
  0.281325,
  0.284689,
  0.284988,
  0.284624,
  0.286553,
  0.288482,
  0.287953,
  0.288605,
  0.292253,
  0.291476,
  0.293205,
  0.293247,
  0.293922,
  0.293798,
  0.294796,
  0.298007,
  0.297679,
  0.298022,
  0.300319,
  0.300169,
  0.301912,
  0.305302,
  0.306051,
  0.306846,
  0.30682,
  0.312034,
  0.313631,
  0.318344,
  0.326176,
  0.329495,
  0.330452,
  0.332784,
  0.336065,
  0.335583,
  0.336093,
  0.336701,
  0.337868,
  0.337671,
  0.341682,
  0.341661,
  0.342911,
  0.342405,
  0.343418,
  0.346177,
  0.346449,
  0.346937,
  0.347682,
  0.347943,
  0.349789,
  0.350487,
  0.350767,
  0.350943,
  0.350731,
  0.35098,
  0.352872,
  0.356594,
  0.356938,
  0.359257,
  0.359363,
  0.360019,
  0.361802,
  0.362975,
  0.363858,
  0.365376,
  0.367911,
  0.368338,
  0.370005,
  0.371784,
  0.371936,
  0.377217,
  0.377143,
  0.380881,
  0.382264,
  0.388979,
  0.390105,
  0.390374,
  0.390137,
  0.391035,
  0.39288,
  0.392683,
  0.401405,
  0.401694,
  0.402593,
  0.402338,
  0.406238,
  0.406009,
  0.405988,
  0.409715,
  0.565766,
  0.569969,
  0.574263,
  0.582104,
  0.592513,
  0.600055,
  0.603771,
  0.637595,
  0.658187,
  0.658821,
  0.660584,
  0.675685,
  0.684427,
  0.695995,
  0.736089,
  0.297224,
  0.330063,
  0.812262,
  0.836514,
  0.415527,
  0.422588,
  0.400859,
  0.429019,
  0.467926,
  0.388033,
  0.460046,
  0.530012,
  0.482823,
  0.523432,
  0.544016,
  0.467017,
  0.595019,
  0.594019,
  0.58779,
  0.582019,
  1.247158,
  0.293297,
  0.334973,
  0.264973,
  0.316691,
  0.364312,
  0.237967,
  0.250995,
  0.302981,
  0.313337,
  0.345689,
  0.367881,
  0.624353,
  0.751003,
  0.496181,
  0.343693,
  0.255002,
  0.263696,
  0.295788,
  0.702252,
  0.434034,
  0.437124,
  0.238731,
  0.399524,
  0.236996,
  0.249971,
  0.259897,
  0.304702,
  0.32335,
  0.595705,
  0.322615,
  0.219386,
  0.24059,
  0.252704,
  0.271421,
  0.2794,
  0.321269,
  0.366714,
  0.385667,
  0.382678,
  0.827445,
  0.292819,
  0.67481,
  0.676853,
  0.826829,
  0.283667,
  0.716567,
  0.235505,
  0.238915,
  0.240634,
  0.242964,
  0.245191,
  0.245495,
  0.247853,
  0.248186,
  0.248858,
  0.249707,
  0.250714,
  0.252096,
  0.253519,
  0.253778,
  0.25414,
  0.25679,
  0.259513,
  0.259767,
  0.26391,
  0.264935,
  0.266522,
  0.267306,
  0.270539,
  0.271828,
  0.274941,
  0.274869,
  0.27366,
  0.278323,
  0.280005,
  0.280703,
  0.28501,
  0.2836,
  0.284354,
  0.290812,
  0.294724,
  0.295297,
  0.300999,
  0.300613,
  0.306659,
  0.310414,
  0.31253,
  0.315904,
  0.318931,
  0.321891,
  0.321228,
  0.321626,
  0.324358,
  0.324884,
  0.329325,
  0.328913,
  0.333686,
  0.333791,
  0.332999,
  0.335997,
  0.337321,
  0.339872,
  0.340261,
  0.340924,
  0.344731,
  0.345592,
  0.350015,
  0.35258,
  0.356959,
  0.363733,
  0.364511,
  0.369777,
  0.372981,
  0.37393,
  0.376484,
  0.378769,
  0.379869,
  0.384136,
  0.387027,
  0.401213,
  0.404436,
  0.40671,
  0.423921,
  0.426554,
  0.434478,
  0.437748,
  0.445837,
  0.45898,
  0.477149,
  0.499639,
  0.503797,
  0.531464,
  0.536689,
  0.575371,
  0.61416,
  0.61794,
  0.623345,
  0.624756,
  0.630084,
  0.637981,
  0.647279,
  0.648396,
  0.665985,
  0.682081,
  0.684799,
  0.685962,
  0.688233,
  0.696326,
  0.72548,
  0.731919,
  0.731556,
  0.732269,
  0.732623,
  0.732706,
  0.734795,
  0.739801,
  0.739825,
  0.748614,
  0.760613,
  0.763881,
  0.763435,
  0.764215,
  0.764816,
  0.764395,
  0.768943,
  0.772592,
  0.772703,
  0.773513,
  0.774736,
  0.777167,
  0.780508,
  0.783962,
  0.785053,
  0.818689,
  0.827822,
  0.827948,
  0.829209,
  0.829778,
  0.831802,
  0.832221,
  0.837884,
  0.838709,
  0.848916,
  0.848673,
  0.851511,
  0.853861,
  0.852965,
  0.853633,
  0.856862,
  0.857496,
  0.865328,
  0.867271,
  0.86771,
  0.869247,
  0.87015,
  0.872355,
  0.873077,
  0.882465,
  0.890915,
  0.897201,
  0.901723,
  0.9239,
  0.925788,
  0.927074,
  0.92577,
  0.92837,
  0.934048,
  0.948642,
  0.971511,
  0.97652,
  0.976132,
  0.979562,
  0.994139,
  0.999451,
  1.054517,
  0.747435,
  0.734952,
  0.763748,
  0.776689,
  0.775058,
  0.770912,
  0.79131,
  0.795184,
  0.798007,
  0.803661,
  0.823694,
  0.827383,
  0.842612,
  0.844796,
  0.851316,
  0.880747,
  0.884673,
  0.890679,
  0.872833,
  0.382089,
  0.368339,
  0.839083,
  0.254645,
  0.907711,
  0.784206,
  3.169943,
  0.313965,
  0.57584,
  0.300627,
  0.706749,
  0.267609,
  0.748895,
  0.942055,
  0.369585,
  0.700444,
  0.393977,
  0.870731,
  0.205637,
  0.768961,
  1.206005,
  0.361913,
  1.354133,
  0.282567,
  0.794655,
  0.436911,
  0.779998,
  0.294001,
  0.814213,
  0.720097,
  0.453548,
  0.934336,
  0.330866,
  0.766899,
  0.268172,
  0.287537,
  0.870682,
  0.261965,
  0.274264,
  0.80391,
  0.833329,
  0.298523,
  0.822668,
  0.233163,
  0.31118,
  0.886742,
  0.865767,
  0.431767,
  0.600496,
  0.22625,
  0.829161,
  0.397962,
  0.279483,
  0.850372,
  0.293131,
  0.34198,
  0.806196,
  0.846458,
  0.405463,
  0.741555,
  0.155297,
  0.328454,
  0.772301,
  0.393945,
  0.730445,
  0.426418,
  0.850147,
  0.273022,
  0.335346,
  0.360627,
  0.386154,
  0.443798,
  0.50465,
  0.386238,
  0.41997,
  0.317952,
  0.319425,
  0.356404,
  0.325026,
  0.429393,
  0.491323,
  0.328921,
  0.262917,
  0.32435,
  0.361877,
  0.381852,
  0.440341,
  0.349841,
  0.406313,
  0.054868,
  0.400279,
  0.503954,
  0.357828,
  0.343737,
  0.361354,
  0.375119,
  0.367271,
  0.373765,
  0.338081,
  0.441745,
  0.36914,
  0.342278,
  0.387014,
  0.378311,
  0.193004,
  0.306023,
  0.270661,
  0.319667,
  0.07897,
  0.178367,
  0.287027,
  0.307631,
  0.245605,
  0.252027,
  0.22159,
  0.240535,
  0.239572,
  0.25887,
  0.198549,
  0.261559,
  0.257714,
  0.319664,
  0.266524,
  0.303517,
  0.071233,
  0.251498,
  0.250027,
  0.411489,
  0.432608,
  0.188469,
  0.482866,
  0.332581,
  0.412451,
  0.256738,
  0.478433,
  0.296408,
  0.301415,
  0.251752,
  0.297543,
  1.328864,
  0.263281,
  0.20334,
  0.291495,
  0.325419,
  0.619951,
  0.438905,
  0.255906,
  0.584095,
  0.321349,
  0.358853,
  0.23276,
  0.289051,
  0.293676,
  0.321368,
  0.365015,
  0.475667,
  0.37559,
  0.412136,
  0.047283,
  0.223761,
  0.360292,
  0.374555,
  0.376078,
  0.452823,
  0.408457,
  0.326919,
  0.399108,
  0.467563,
  0.484609,
  0.228,
  0.294937,
  0.405244,
  0.4286,
  0.244893,
  0.303776,
  0.275659,
  0.420128,
  0.253537,
  0.287053,
  0.353514,
  0.26523,
  0.287508,
  0.341576,
  0.320936,
  0.328323,
  0.250532,
  0.303401,
  0.431749,
  0.288131,
  0.193651,
  0.373013,
  0.370905,
  0.28756,
  0.304586,
  0.380883,
  0.421685,
  0.049983,
  0.378245,
  0.502026,
  0.394949,
  0.399652,
  0.255631,
  0.267785,
  0.406613,
  0.412671,
  0.239171,
  0.263596,
  0.313151,
  0.423577,
  0.324268,
  0.436554,
  0.276143,
  0.516536,
  0.183848,
  0.311515,
  0.338105,
  0.266619,
  0.265141,
  0.22349,
  0.262065,
  0.251054,
  0.266465,
  0.183355,
  0.223945,
  0.410016,
  0.604605,
  0.099995,
  0.378418,
  0.386993,
  0.363543,
  0.386121,
  0.039232,
  0.28767,
  0.315663,
  0.282651,
  0.343026,
  0.217627,
  0.279634,
  0.281678,
  0.239486,
  0.428591,
  0.465598,
  0.273581,
  0.348572,
  0.271555,
  0.29285,
  0.208101,
  0.303509,
  0.368037,
  0.215349,
  0.38093,
  0.345178,
  0.366113,
  0.250483,
  0.32149,
  0.233472,
  0.288465,
  0.233454,
  0.311447,
  0.046873,
  0.179436,
  0.264026,
  0.272016,
  0.294937,
  0.147937,
  0.360687,
  0.010335,
  0.217917,
  0.274656,
  0.220942,
  0.388774,
  0.138881,
  0.310631,
  0.121863,
  0.301613,
  0.31909,
  0.452598,
  0.229827,
  0.302577,
  0.008985,
  0.187854,
  0.369552,
  0.279849,
  0.388936,
  0.156783,
  0.333519,
  0.21851,
  0.319503,
  0.390864,
  0.394744,
  0.139448,
  0.334466,
  0.157708,
  0.342444,
  0.370635,
  0.431426,
  0.171286,
  0.400415,
  0.260681,
  0.282487,
  0.449925,
  0.31902,
  0.294928,
  0.309668,
  0.302215,
  0.406023,
  0.388096,
  0.481293,
  0.276815,
  0.277207,
  0.295008,
  0.371703,
  0.371996,
  0.468791,
  0.288431,
  0.321624,
  0.509341,
  0.349026,
  0.303627,
  0.314063,
  0.269719,
  0.287707,
  0.046215,
  0.311376,
  0.323799,
  0.424795,
  0.482026,
  0.253347,
  0.302538,
  0.238518,
  0.388027,
  0.038259,
  0.215763,
  0.348308,
  0.374719,
  0.444115,
  0.285591,
  0.380263,
  0.262238,
  0.425108,
  0.329229,
  0.36746,
  0.403218,
  0.235617,
  0.357679,
  0.465793,
  0.046984,
  0.277855,
  0.310967,
  0.324854,
  0.328836,
  0.49395,
  2.608924,
  0.412128,
  0.508858,
  0.380783,
  0.602249,
  0.431997,
  0.431807,
  0.331982,
  0.435987,
  0.462876,
  0.536861,
  0.273757,
  0.364652,
  0.287008,
  0.341999,
  0.360111,
  0.408135,
  0.251634,
  0.336746,
  0.265864,
  0.270649,
  0.286975,
  0.316882,
  0.318839,
  0.318962,
  0.279615,
  0.362725,
  0.427588,
  0.398501,
  0.330989,
  0.353972,
  0.361101,
  0.404026,
  0.373715,
  0.400587,
  0.231663,
  0.468026,
  0.308845,
  0.316699,
  0.29456,
  0.352672,
  0.091849,
  0.383573,
  0.422026,
  0.320516,
  0.349643,
  0.268497,
  0.395625,
  0.438599,
  0.401025,
  0.235438,
  0.339592,
  0.273455,
  0.289026,
  0.293946,
  0.295026,
  0.203887,
  0.275945,
  0.432058,
  0.254894,
  0.347583,
  0.197663,
  0.39097,
  0.315801,
  0.274945,
  0.186159,
  0.282634,
  0.391927,
  0.446905,
  0.506613,
  0.426981,
  0.472005,
  0.47688,
  0.522573,
  0.394862,
  0.280027,
  0.255544,
  0.391837,
  0.258515,
  0.328911,
  0.348797,
  0.395026,
  0.309487,
  0.343705,
  0.335508,
  0.289472,
  0.347102,
  0.321734,
  0.336812,
  0.272426,
  0.326733,
  0.292944,
  0.332237,
  0.237748,
  0.872558,
  0.332995,
  0.350471,
  0.538609,
  0.873452,
  0.891037,
  0.792661,
  0.27145,
  0.847307,
  0.560359,
  0.779091,
  0.874079,
  0.290366,
  0.861903,
  0.290336,
  1.248118,
  0.301083,
  0.384098,
  0.487667,
  0.9137,
  0.915538,
  0.911302,
  0.29653,
  0.848456,
  0.360524,
  0.378995,
  0.897222,
  0.263146,
  0.517859,
  0.76449,
  0.859199,
  0.240987,
  0.879539,
  0.892687,
  0.855017,
  0.226399,
  0.889714,
  0.2777,
  0.729495,
  0.240632,
  0.249612,
  0.286147,
  0.297736,
  0.828413,
  0.850522,
  0.906039,
  0.242349,
  0.83551,
  0.350713,
  0.899294,
  0.309958,
  0.898293,
  0.403323,
  0.800745,
  0.462466,
  0.837986,
  0.466301,
  0.251274,
  0.892778,
  0.153176,
  0.375255,
  0.8895,
  0.287937,
  0.800029,
  0.559219,
  0.866957,
  0.408671,
  0.679796,
  0.063025,
  1.329015,
  0.351055,
  0.416929,
  0.381999,
  1.018808,
  0.279777,
  0.28372,
  0.221522,
  0.297752,
  0.360086,
  0.680959,
  0.344949,
  0.418291,
  0.635639,
  0.232967,
  0.264973,
  0.375981,
  0.386987,
  0.296987,
  0.339627,
  0.580621,
  0.352979,
  0.471577,
  0.269331,
  0.343337,
  0.223598,
  0.24697,
  0.280907,
  0.390026,
  0.319967,
  0.330991,
  0.365984,
  0.386088,
  0.335595,
  0.309026,
  0.411004,
  0.431425,
  0.340917,
  0.394891,
  0.468868,
  0.229217,
  0.42957,
  0.370422,
  0.329933,
  0.377004,
  0.225262,
  0.336559,
  0.302541,
  0.374534,
  0.249756,
  0.370541,
  0.403519,
  0.316508,
  0.3325,
  0.296483,
  0.38649,
  0.275946,
  0.290935,
  0.361102,
  0.292969,
  0.306429,
  0.320436,
  0.217411,
  0.281418,
  0.286673,
  0.319687,
  0.283654,
  0.244041,
  0.381891,
  0.342026,
  0.251629,
  0.340026,
  0.227611,
  0.238609,
  0.236945,
  0.263527,
  0.269408,
  0.32258,
  0.266562,
  0.267547,
  0.24453,
  0.291542,
  0.039055,
  0.264516,
  0.307098,
  0.270508,
  0.289496,
  0.44549,
  0.34803,
  0.302467,
  0.368872,
  0.28695,
  0.343938,
  0.288425,
  0.370423,
  0.141547,
  0.333592,
  0.346026,
  0.407118,
  0.511687,
  0.443764,
  0.496876,
  0.499019,
  0.529157,
  0.353677,
  0.288047,
  0.420409,
  0.528076,
  0.256641,
  0.325787,
  0.26503,
  0.426436,
  0.3586,
  0.526637,
  0.442094,
  0.546615,
  0.070761,
  0.325586,
  0.420733,
  0.320816,
  0.377586,
  0.39456,
  0.493564,
  0.338155,
  0.410606,
  0.382381,
  0.413381,
  0.068125,
  0.242521,
  0.423513,
  0.273645,
  0.382533,
  0.238713,
  0.424614,
  0.430783,
  0.484618,
  0.306202,
  0.367434,
  0.307669,
  0.345463,
  0.041862,
  0.276792,
  0.28973,
  0.210861,
  0.303897,
  0.14899,
  0.204001,
  0.249904,
  0.485573,
  1.981011,
  0.374869,
  0.394733,
  0.142187,
  0.24259,
  0.246879,
  0.272016,
  0.220512,
  0.247698,
  0.461861,
  0.232869,
  0.235829,
  0.309813,
  0.328047,
  0.432994,
  0.443003,
  0.407843,
  0.466679,
  0.203976,
  0.220377,
  0.293116,
  0.357142,
  0.359126,
  0.235014,
  0.323912,
  0.450654,
  0.452828,
  0.373051,
  0.243384,
  0.265584,
  0.329071,
  0.335088,
  0.327669,
  0.435803,
  0.195579,
  0.274856,
  0.286627,
  0.343786,
  0.019367,
  0.248609,
  0.404774,
  0.226755,
  0.282033,
  0.140859,
  0.267352,
  0.312576,
  0.428026,
  0.360704,
  0.24102,
  0.327684,
  0.131053,
  0.252948,
  0.282097,
  0.202375,
  0.420509,
  0.26963,
  0.354378,
  0.047065,
  0.463031,
  0.471333,
  0.288007,
  0.322531,
  0.381223,
  0.42551,
  0.482626,
  0.415348,
  0.430016,
  0.306321,
  0.321775,
  0.297304,
  0.28015,
  0.28182,
  0.325273,
  0.407257,
  0.526033,
  0.425813,
  0.467616,
  0.32716,
  0.342181,
  0.37218,
  0.526631,
  0.307293,
  0.343746,
  0.310452,
  0.331353,
  0.350337,
  0.355329,
  0.380887,
  0.405026,
  0.241266,
  0.287452,
  0.308708,
  0.318257,
  0.441798,
  0.456778,
  0.500264,
  0.502249,
  0.258612,
  0.321256,
  0.324595,
  0.464238,
  0.052005,
  0.331675,
  0.418024,
  0.348212,
  0.469026,
  0.0475,
  0.451551,
  0.536026,
  0.432165,
  0.449618,
  0.425184,
  0.469599,
  0.320521,
  0.39459,
  0.438564,
  0.462112,
  0.292543,
  0.550089,
  0.319529,
  0.339679,
  0.232843,
  0.750548,
  0.316829,
  0.363484,
  1.741472,
  0.901153,
  0.862214,
  0.793041,
  0.204001,
  0.769992,
  0.232449,
  0.775232,
  0.297191,
  0.76576,
  0.403319,
  0.868709,
  0.228901,
  0.386915,
  0.40693,
  0.775581,
  0.87422,
  1.234311,
  0.824476,
  0.354296,
  0.755685,
  0.810779,
  0.729947,
  0.418967,
  1.427085,
  0.767234,
  0.770799,
  0.259278,
  0.325263,
  0.647344,
  0.767207,
  0.880126,
  0.860211,
  0.69991,
  0.772565,
  0.144503,
  0.268265,
  0.831215,
  0.362021,
  0.641004,
  0.811521,
  0.346508,
  0.320102,
  0.367763,
  0.367826,
  0.823049,
  0.861588,
  0.903574,
  0.385255,
  0.88214,
  0.260139,
  0.804054,
  0.708004,
  0.83539,
  0.772277,
  0.828744,
  0.324026,
  0.392042,
  0.74536,
  0.903778,
  0.360726,
  0.76975,
  0.747255,
  0.749475,
  0.293005,
  0.804676,
  0.280194,
  0.840018,
  0.356762,
  0.775866,
  0.52156,
  0.901066,
  0.206812,
  0.787678,
  0.485129,
  0.89069,
  0.268334,
  0.224524,
  0.809249,
  0.224214,
  0.825748,
  0.281514,
  0.321873,
  0.365644,
  0.433026,
  0.275668,
  0.264844,
  0.442649,
  0.428669,
  0.248546,
  0.280622,
  0.322606,
  0.367027,
  0.283597,
  0.31783,
  0.402572,
  0.344042,
  0.327935,
  0.357558,
  0.280306,
  0.312574,
  0.039615,
  0.251519,
  0.449526,
  0.283508,
  0.3055,
  0.258486,
  0.262825,
  0.323025,
  0.356469,
  0.406433,
  0.485444,
  0.305426,
  0.330026,
  0.217991,
  0.363415,
  0.413026,
  0.306695,
  0.576679,
  0.045988,
  0.328789,
  0.547663,
  0.28577,
  0.421657,
  0.34098,
  0.380633,
  0.333622,
  0.359605,
  0.259595,
  0.442595,
  0.42558,
  0.506578,
  0.401706,
  0.423567,
  0.424591,
  0.297552,
  0.357571,
  0.24844,
  0.408637,
  0.244506,
  0.562021,
  0.321541,
  0.518498,
  0.307472,
  0.334473,
  0.257454,
  0.303454,
  0.363429,
  0.385444,
  0.457886,
  0.548371,
  0.332065,
  0.914288,
  0.272986,
  0.433943,
  0.318007,
  0.860652,
  0.846649,
  0.366412,
  0.839461,
  0.249199,
  0.276821,
  0.828449,
  0.804289,
  0.85872,
  0.282987,
  0.387004,
  0.809217,
  0.875392,
  0.234271,
  0.871012,
  0.342968,
  0.439977,
  0.784015,
  0.811352,
  0.371245,
  0.40523,
  0.797808,
  0.876234,
  0.340037,
  0.430387,
  0.450207,
  0.842746,
  0.386196,
  0.796969,
  0.42127,
  0.863337,
  0.05373,
  0.442529,
  0.364959,
  0.779554,
  0.368271,
  0.816486,
  0.322109,
  0.861638,
  0.441164,
  0.898883,
  0.162002,
  0.270073,
  0.90347,
  0.376048,
  0.87323,
  0.280675,
  0.280939,
  0.160739,
  0.290667,
  0.293448,
  0.300642,
  0.338907,
  0.210308,
  0.329882,
  0.26335,
  0.401613,
  0.384845,
  0.41927,
  0.28158,
  0.315831,
  0.41182,
  0.429555,
  0.058927,
  0.395571,
  0.435792,
  0.245811,
  0.632774,
  0.436505,
  0.452756,
  0.364487,
  0.473235,
  0.271782,
  0.290462,
  0.398444,
  0.406419,
  0.327002,
  0.59282,
  0.239411,
  0.308676
]