[
  1.003188,
  0.626187,
  1.724534,
  0.317982,
  0.584898,
  0.34906,
  1.41298,
  0.511251,
  0.783133,
  0.750351,
  0.465528,
  0.37306,
  0.742293,
  0.536109,
  0.622714,
  0.51645,
  0.340986,
  0.597025,
  0.536796,
  0.79605,
  0.621987,
  0.644039,
  0.777569,
  1.03198,
  0.467987,
  0.643981,
  0.537892,
  0.427033,
  0.354985,
  0.435005,
  0.751005,
  0.6189,
  0.528056,
  0.668034,
  0.486982,
  0.412372,
  0.54298,
  0.405989,
  0.492012,
  0.634982,
  0.754861,
  0.370983,
  0.895868,
  0.723175,
  0.821045,
  1.089385,
  0.63998,
  0.55298,
  0.543407,
  0.370028,
  0.809409,
  0.587076,
  0.714555,
  0.598974,
  0.830526,
  0.441075,
  0.913762,
  0.376318,
  0.520499,
  1.141979,
  0.838136,
  0.457039,
  0.609982,
  0.648671,
  0.662778,
  0.582984,
  0.427278,
  1.234517,
  0.672797,
  1.054563,
  0.597506,
  0.501174,
  0.655078,
  0.76498,
  0.340081,
  0.545466,
  0.6613,
  0.886039,
  0.55098,
  0.6331,
  0.768031,
  0.435987,
  0.323698,
  0.425692,
  0.683045,
  0.452947,
  0.504105,
  0.966458,
  0.457185,
  0.575117,
  0.556008,
  0.764133,
  0.760295,
  0.68898,
  1.346912,
  0.445132,
  0.834978,
  0.53044,
  0.499818,
  0.398112,
  0.780921,
  0.856995,
  0.611405,
  0.614985,
  0.692737,
  0.569544,
  0.400007,
  0.890101,
  0.699971,
  0.67498,
  0.471743,
  0.456865,
  0.749942,
  0.629984,
  0.43501,
  0.487104,
  0.323986,
  0.9495,
  0.636979,
  0.484981,
  0.570352,
  0.48498,
  0.61298,
  0.345026,
  0.679226,
  0.510035,
  0.691569,
  0.307987,
  0.487993,
  1.05698,
  0.703983,
  0.72298,
  0.707346,
  0.646922,
  0.954036,
  0.62898,
  0.685321,
  0.631337,
  0.479248,
  0.88398,
  1.008223,
  1.147981,
  0.490323,
  0.61298,
  0.732749,
  0.957976,
  0.456416,
  0.516586,
  0.403639,
  0.398908,
  0.5587,
  0.366156,
  0.678891,
  0.682714,
  0.373315,
  0.575834,
  0.388982,
  0.586847,
  0.746985,
  0.581592,
  0.767985,
  0.479006,
  0.766218,
  0.68272,
  0.529982,
  0.381018,
  0.41098,
  0.693501,
  0.392981,
  0.40875,
  0.39598,
  0.392982,
  0.541003,
  0.58698,
  0.743424,
  0.364206,
  0.682979,
  0.835717,
  0.73298,
  0.547027,
  0.34698,
  0.635107,
  1.014024,
  0.566556,
  0.62098,
  0.52086,
  0.592982,
  0.392009,
  0.537337,
  0.485424,
  1.025221,
  0.722024,
  0.76604,
  0.595991,
  0.770899,
  0.752981,
  0.358042,
  0.34898,
  0.841965,
  0.673107,
  0.492979,
  0.79214,
  0.370087,
  0.398982,
  0.784844,
  0.720365,
  0.665122,
  0.34707,
  0.43198,
  0.500982,
  0.613079,
  0.633987,
  0.535462,
  0.625895,
  0.665036,
  0.711347,
  0.610013,
  0.647253,
  0.559009,
  0.466294,
  0.54102,
  0.495975,
  0.429278,
  0.443345,
  0.628229,
  0.974714,
  0.760985,
  0.631748,
  0.63598,
  0.440984,
  0.401936,
  0.681542,
  0.843984,
  0.770981,
  0.680988,
  0.646012,
  1.018134,
  0.450627,
  0.470982,
  0.438532,
  0.458025,
  0.431992,
  0.660948,
  0.575982,
  0.750135,
  0.595754,
  0.742608,
  0.552515,
  0.834382,
  0.376982,
  0.70064,
  0.552989,
  0.37914,
  0.715898,
  0.488422,
  0.497984,
  0.709064,
  0.500981,
  0.679058,
  0.429982,
  1.08798,
  1.424982,
  0.356019,
  0.698792,
  0.525981,
  0.85898,
  0.649095,
  0.507811,
  0.41315,
  0.493088,
  0.66804,
  0.398019,
  1.261136,
  0.488179,
  0.731979,
  0.866816,
  0.389843,
  0.500021,
  0.668028,
  0.751692,
  0.544097,
  0.337929,
  0.59932,
  0.509989,
  0.455064,
  0.335684,
  0.538001,
  0.422034,
  0.784319,
  0.30274,
  0.615838,
  0.390121,
  0.660469,
  0.814979,
  0.496496,
  0.599981,
  0.593069,
  0.583984,
  0.57498,
  0.57287,
  0.551982,
  0.557126,
  0.585105,
  0.46698,
  0.619982,
  0.366518,
  0.340667,
  0.828035,
  0.622012,
  0.856228,
  0.756982,
  0.511954,
  0.847985,
  0.520513,
  0.522799,
  0.411979,
  0.919982,
  0.511073,
  0.65698,
  0.435878,
  0.963957,
  0.565864,
  0.451335,
  0.696928,
  0.699717,
  0.688041,
  1.023768,
  0.610318,
  0.451111,
  1.011906,
  0.568452,
  0.391586,
  0.475122,
  0.669003,
  0.331429,
  0.42598,
  0.526768,
  0.508979,
  0.49276,
  0.404067,
  0.7119,
  0.544982,
  0.485071,
  0.58498,
  0.643113,
  0.523985,
  0.619997,
  0.673003,
  0.47798,
  0.676746,
  0.523115,
  0.582271,
  0.550982,
  0.635992,
  0.570991,
  0.477545,
  0.633149,
  0.762978,
  0.580718,
  0.388983,
  0.59866,
  0.501018,
  0.347989,
  0.782024,
  0.579979,
  0.667031,
  0.704854,
  0.69298,
  1.000985,
  0.661958,
  0.73698,
  0.768644,
  0.540984,
  0.515989,
  0.486954,
  0.71347,
  0.659103,
  0.368027,
  0.408981,
  0.829925,
  0.610888,
  0.403309,
  0.613991,
  0.561178,
  0.65498,
  0.649359,
  1.354982,
  0.796156,
  0.753987,
  0.600474,
  0.687337,
  0.626328,
  0.598714,
  0.840009,
  0.420177,
  0.69,
  0.723125,
  0.696979,
  0.64598,
  0.690992,
  0.49298,
  0.467511,
  0.430987,
  0.527623,
  0.491981,
  0.503983,
  0.865712,
  0.699158,
  0.529982,
  0.416928,
  0.468981,
  0.482184,
  0.41598,
  0.665238,
  0.367654,
  0.53298,
  0.697023,
  0.456064,
  0.420994,
  0.543984,
  0.841982,
  0.553416,
  0.632987,
  0.598817,
  0.438117,
  0.6321,
  0.560984,
  0.535868,
  0.680837,
  0.739034,
  0.53698,
  0.752002,
  0.44998,
  0.77301,
  1.116978,
  0.777982,
  0.862836,
  1.030524,
  0.932029,
  0.55897,
  0.840859,
  0.53398,
  0.413145,
  0.80498,
  0.435987,
  0.61398,
  0.661077,
  0.45698,
  0.724982,
  0.572984,
  0.57798,
  0.67298,
  1.15888,
  0.807596,
  0.678514,
  0.402975,
  0.638275,
  0.588981,
  0.748989,
  0.674861,
  1.087149,
  0.48298,
  1.422186,
  0.382846,
  0.704002,
  0.508001,
  0.369981
]