[
  11.598758352918324,
  14.705882352941211,
  8.3629258950683,
  9.756097560975606,
  11.145305527653592,
  5.573483594451045,
  9.818625441531307,
  4.035270279881303,
  6.262098570128072,
  12.480499219968832,
  9.673518742442585,
  10.658282151374268,
  4.4518642181413455,
  10.062893081760985,
  12.558869701726836,
  8.079004585844993,
  10.157014751794305,
  7.048458149779748,
  11.862273078422994,
  14.108401906045094,
  3.909453155466246,
  1.8670418798497879,
  8.46166864105602,
  12.213740458015247,
  11.283497884344124,
  8.465608465608463,
  7.771517388770165,
  13.466675868895184,
  1.1393081978209305,
  6.261196780805675,
  12.395375285480974,
  13.090504475316234,
  11.527377521613818,
  13.675213675213655,
  9.272029763215544,
  9.744380537548736,
  8.762322015334078,
  4.073319755600817,
  10.643945391238159,
  14.414414414414422,
  8.869179600886907,
  6.199363790291014,
  9.658336351563438,
  13.062141505444444,
  12.698412698412719,
  3.7293846608544245,
  9.603841536614665,
  9.138554189341715,
  4.548550661188697,
  14.015195976237221,
  8.600837291510329,
  10.125082740910495,
  12.49999999999999,
  9.289752010070067,
  10.230179028132993,
  10.958513806357548,
  10.791575556541801,
  0.5026978852945223,
  15.892787257163182,
  6.560157050159779,
  10.554089709762495,
  8.121827411167517,
  9.324009324009337,
  6.855184233076275,
  10.675605707178796,
  11.315417256011331,
  8.429926238145402,
  5.895357406042744,
  6.8728522336769675,
  4.35895326275824,
  14.08450704225353,
  12.195121951219534,
  14.378222743832271,
  8.324661810613941,
  5.563282336578572,
  10.41339892039087,
  10.296010296010282,
  11.23765964500235,
  4.679917071869488,
  5.146730057225205,
  4.885558837701128,
  8.665032585938164,
  2.165087956698241,
  8.958566629339298,
  9.153318077803217,
  1.7815967293447228,
  4.6120860868928615,
  6.978367062107468,
  12.443789071553333
]