[
  0.953013,
  1.068158,
  1.119785,
  1.072927,
  1.064364,
  1.241518,
  1.10209,
  0.786332,
  0.923352,
  0.282785,
  1.025904,
  1.096923,
  0.981987,
  0.950248,
  0.976765,
  0.941488,
  1.294455,
  0.91641,
  1.082574,
  0.944358,
  0.949255,
  0.951085,
  0.998,
  0.96571,
  0.980897,
  0.720303,
  1.084352,
  1.193103,
  1.099897,
  1.035224,
  1.075044,
  1.053426,
  0.877427,
  1.080464,
  0.975189,
  1.068761,
  0.965632,
  0.732541,
  1.015352,
  0.93203,
  0.955301,
  0.879927,
  1.06066,
  0.842149,
  1.042319,
  1.119352,
  1.004325,
  0.165527,
  0.802121,
  0.981455,
  1.082363,
  1.121541,
  0.847708,
  0.996352,
  0.947196,
  1.048352,
  0.795778,
  0.946455,
  0.85274,
  0.971352,
  0.86844,
  1.039455,
  0.923849,
  1.013352,
  0.273134,
  1.012433,
  0.937361,
  0.977,
  0.996361,
  1.015,
  0.959438,
  0.964689,
  1.013356,
  0.923713,
  0.950455,
  0.974103,
  1.014639,
  0.968555,
  1.029348,
  0.972107,
  1.276352,
  1.2951,
  1.276639,
  0.954713,
  0.956352,
  0.937113,
  1.004752,
  1.728046,
  1.038713,
  1.201541,
  1.314474,
  1.269262,
  1.319755,
  0.957396,
  0.992713,
  1.299352,
  1.047835,
  1.024142,
  1.053413,
  0.281107,
  1.104936,
  1.149,
  0.962713,
  1.025999,
  1.008733,
  1.107272,
  0.966713,
  0.967455,
  1.004763,
  0.993,
  1.090713,
  1.121476,
  0.996926,
  1.002676,
  0.944212,
  0.971646,
  0.974713,
  1.004352,
  0.955964,
  1.003713,
  1.091103,
  1.095361,
  0.954713,
  0.971,
  0.924654,
  1.028878,
  0.172776,
  0.896,
  0.937224,
  1.077887,
  1.134,
  1.024358,
  0.916693,
  1.138878,
  1.878654,
  0.993224,
  1.228862,
  1.131776,
  1.228,
  1.055,
  0.849776,
  1.110024,
  0.969878,
  0.997678,
  1.121,
  0.989878,
  1.702654,
  1.276,
  3.312224,
  0.99,
  1.043654,
  1.209142,
  1.079437,
  1.228804,
  1.175776,
  1.212,
  0.281,
  1.06664,
  1.162558,
  0.899445,
  1.218,
  1.002309,
  0.801759,
  1.059276,
  0.904358,
  1.057878,
  1.021746,
  1.074224,
  1.009654,
  1.022878,
  0.95186,
  1.134878,
  1.012803,
  1.175,
  0.913878,
  1.201654,
  1.264,
  1.126,
  1.239878,
  1.030624,
  0.299,
  0.891654,
  1.210878,
  1.051878,
  1.162654,
  0.29,
  0.947355,
  1.212878,
  1.102878,
  1.243654,
  1.013885,
  1.081712,
  1.411,
  1.276268,
  1.025025,
  1.431961,
  1.036798,
  0.987127,
  1.342337,
  0.997689,
  1.0548,
  0.281416,
  1.034364,
  1.028313,
  1.046945,
  1.169429,
  1.199379,
  1.044635,
  1.028269,
  1.152839,
  1.273352,
  0.989222,
  1.044338,
  1.034636,
  1.127636,
  1.079689,
  1.261989,
  1.341378,
  1.343499,
  0.283236,
  1.115375,
  0.983752,
  1.115174,
  0.977394,
  1.008041,
  0.998905,
  1.047733,
  1.048,
  1.139352,
  1.142607,
  0.965936,
  1.028487,
  0.981352,
  1.040347,
  1.02124,
  0.973051,
  1.081622,
  1.165013,
  0.982104,
  1.034001,
  0.29075,
  1.028181,
  1.037873,
  1.110352,
  0.959352,
  0.969254,
  0.993058,
  1.052089,
  0.944352,
  1.093179,
  0.993988,
  1.021352,
  1.019363,
  1.14621,
  1.22762,
  0.942893,
  1.063814,
  1.027808,
  1.075209,
  1.203142,
  1.049254,
  1.178417,
  1.094164,
  1.248851,
  1.356212,
  1.253497,
  1.134944,
  1.136147,
  1.140892,
  1.170189,
  1.035677,
  1.004742,
  0.914251,
  1.15164,
  1.035498,
  1.092168,
  1.11927,
  1.061376,
  1.081875,
  1.100076,
  1.111087,
  1.180427,
  1.061164,
  1.189197,
  0.909503,
  1.218805,
  1.043319,
  1.107554,
  0.220949,
  1.216145,
  0.902407,
  1.139233,
  1.011014,
  1.051299,
  1.040122,
  1.050188,
  1.158602,
  1.190675,
  1.052417,
  1.062787,
  0.223259,
  1.204227,
  1.251117,
  1.088489,
  1.177543,
  0.910319,
  1.153505,
  1.011066,
  1.13964,
  0.90564,
  1.127805,
  1.046276,
  1.061531,
  0.855208,
  1.248862,
  0.804721,
  0.791437,
  0.926111,
  1.149657,
  1.242657,
  0.759776,
  1.300189,
  0.685747,
  0.834208,
  1.273754,
  0.708448,
  0.331835,
  0.8351,
  0.801977,
  0.918364,
  0.777208,
  1.094754,
  1.101885,
  1.28647,
  0.979424,
  1.221754,
  1.051641,
  1.094934,
  0.727,
  0.779208,
  1.143328,
  1.238076,
  1.338225,
  1.049158,
  1.75,
  0.914716,
  1.195754,
  0.823623,
  0.969044,
  0.992192,
  1.062618,
  0.727883,
  0.732208,
  1.048,
  0.897061,
  1.242424,
  0.79354,
  1.164754,
  0.74587,
  1.102754,
  0.840739,
  1.248981,
  0.332976,
  0.782549,
  1.106668,
  0.801319,
  1.112754,
  0.844208,
  1.234754,
  0.72787,
  1.117754,
  0.33298,
  0.741208,
  1.182754,
  1.038992,
  1.248388,
  1.160817,
  1.213397,
  0.945505,
  1.114887,
  0.242794,
  0.984391,
  1.063957,
  1.033325,
  1.191685,
  0.999664,
  1.032039,
  1.109881,
  1.197317,
  1.060731,
  1.111563,
  1.166781,
  1.118776,
  1.259801,
  1.052129,
  1.094235,
  1.133845,
  1.143745,
  1.123546,
  1.119645,
  0.951747,
  1.043325,
  1.180685,
  0.98412,
  1.102927,
  0.954793,
  1.092129,
  1.123351,
  1.252875,
  1.037825,
  1.188552,
  1.049,
  0.994496,
  1.100357,
  1.031317,
  1.077042,
  0.927325,
  1.090884,
  0.242794,
  1.099399,
  1.100602,
  0.932996,
  1.040994,
  0.866454,
  1.212828,
  1.029691,
  1.119317,
  1.015578,
  1.112167,
  1.055346,
  1.071504,
  1.046943,
  1.052538,
  1.025325,
  1.137397,
  0.223398,
  1.018325,
  1.049265,
  0.904245,
  1.309352,
  0.897672,
  1.126,
  0.881077,
  1.034667,
  0.878203,
  0.897386,
  1.012352,
  0.853025,
  0.951,
  1.307424,
  1.165352,
  1.209796,
  0.846395,
  1.015172,
  1.087294,
  1.317294,
  1.061384,
  0.906453,
  0.986352,
  1.007343,
  1.260179,
  1.084612,
  0.90823,
  0.97759,
  1.307345,
  0.993005,
  0.901588,
  1.054528,
  1.331352,
  1.012266,
  1.148466,
  1.085,
  0.905258,
  1.04538,
  0.285957,
  1.12823,
  1.080878,
  1.131,
  0.92723,
  1.029,
  0.950352,
  0.911745,
  1.003932,
  1.171352,
  1.0156,
  1.135352,
  0.282583,
  0.971352,
  0.958889,
  1.00123,
  1.16959,
  0.93823,
  1.098352,
  0.92723,
  1.038352,
  0.907453,
  1.059352,
  0.926754,
  0.938148,
  1.311219,
  1.389222,
  0.990719,
  1.094541,
  0.974007,
  0.950553,
  1.265944,
  0.976278,
  0.98218,
  1.011227,
  1.253455,
  1.028907,
  1.161592,
  1.178602,
  1.411998,
  1.11561,
  1.135986,
  0.994984,
  0.905847,
  1.055258,
  0.94461,
  1.019455,
  0.281879,
  1.09,
  1.230742,
  1.07669,
  1.110335,
  0.972613,
  0.97961,
  1.020586,
  0.961,
  0.985464,
  1.034636,
  0.962813,
  1.076187,
  0.97061,
  1.054352,
  0.96161,
  0.974558,
  0.969378,
  1.059159,
  1.017463,
  0.941,
  0.991577,
  1.019935,
  0.282593,
  0.983685,
  1.069258,
  0.980821,
  1.001994,
  1.090352,
  1.14661,
  0.972333,
  0.99961,
  0.994117,
  1.06661,
  1.166484,
  1.24843,
  0.919,
  1.028102,
  0.982594,
  1.30903,
  1.21039,
  1.009386,
  1.012946,
  1.088257,
  1.140119,
  0.988069,
  0.992981,
  1.025943,
  0.995138,
  0.960452,
  1.591119,
  1.030934,
  1.268407,
  0.987335,
  1.103119,
  1.254211,
  0.969333,
  0.979,
  1.071555,
  0.97159,
  1.103119,
  1.303643,
  0.97903,
  1.025688,
  1.737529,
  0.997777,
  1.147257,
  1.249119,
  1.019477,
  1.041537,
  1.058245,
  1.181367,
  0.944615,
  0.961555,
  1.066119,
  1.005737,
  1.004404,
  1.011257,
  1.021119,
  1.083257,
  1.220229,
  0.258217,
  0.977876,
  0.948833,
  0.949731,
  1.025103,
  1.043392,
  1.071119,
  0.955041,
  1.029119,
  1.042119,
  1.061763,
  0.252226,
  1.010862,
  1.014,
  0.999257,
  1.085473,
  0.92161,
  0.945126,
  1.105835,
  0.282164,
  1.007582,
  1.091546,
  1.005479,
  0.905958,
  0.874119,
  0.976929,
  1.032192,
  0.959388,
  0.976582,
  1.114111,
  0.97161,
  1.352192,
  1.14008,
  1.268498,
  0.951418,
  1.263418,
  0.980588,
  1.22461,
  1.029846,
  1.11,
  1.240418,
  1.088803,
  1.339192,
  2.17561,
  0.268,
  0.920526,
  1.006892,
  0.883,
  1.032192,
  1.20261,
  0.953418,
  1.088418,
  1.003582,
  1.010626,
  0.938014,
  0.930192,
  1.00461,
  1.031222,
  1.056418,
  0.93061,
  1.053,
  0.95561,
  0.996192,
  1.13661,
  1.063406,
  1.025905,
  0.906959,
  0.97461,
  0.986372,
  1.01961,
  0.945438,
  0.282608,
  0.965192,
  1.02461,
  1.094664,
  1.11961,
  0.96461,
  1.060192,
  0.907599,
  1.094937,
  1.51771,
  0.916134,
  0.821,
  1.260416,
  1.104239,
  1.119573,
  1.15179,
  0.835865,
  1.003222,
  0.972,
  0.806746,
  1.033858,
  0.957184,
  1.139119,
  1.248865,
  0.852479,
  1.334578,
  0.904579,
  1.0415,
  1.178865,
  0.791746,
  1.057992,
  0.830865,
  0.991039,
  1.205254,
  0.748476,
  1.026,
  1.034201,
  0.225149,
  0.732865,
  0.978921,
  0.857,
  1.058957,
  0.837188,
  0.772,
  1.025118,
  0.947865,
  1.095709,
  0.878,
  1.132905,
  0.832281,
  1.019356,
  0.911865,
  1.128008,
  0.798,
  1.048254,
  0.819865,
  1.008417,
  0.847751,
  1.04268,
  1.103119,
  1.103897,
  0.889865,
  1.120998,
  0.222746,
  0.849185,
  1.147985,
  0.749865,
  1.041119,
  0.767874,
  1.023119,
  1.123325,
  1.170397,
  1.108829,
  1.359606,
  1.009773,
  1.036716,
  0.941674,
  0.953397,
  1.032325,
  0.962394,
  1.073053,
  1.07465,
  1.114374,
  0.222853,
  1.110254,
  1.111644,
  0.946701,
  1.035454,
  1.057969,
  1.614187,
  1.057631,
  1.003041,
  1.018312,
  1.236262,
  0.941345,
  0.967325,
  0.972944,
  1.037607,
  1.447397,
  1.649692,
  1.05553,
  1.05795,
  1.103231,
  1.010325,
  1.159223,
  1.075503,
  1.107429,
  0.982053,
  1.054454,
  1.134584,
  1.143044,
  1.239235,
  1.043438,
  1.078518,
  0.989582,
  1.04637,
  1.035247,
  1.099397,
  1.049916,
  1.21151,
  0.992738,
  0.998668,
  1.167798,
  1.203397,
  1.116454,
  1.232503,
  1.012041,
  1.096828,
  0.933538,
  1.088408,
  0.247576,
  0.976016,
  1.086801,
  0.978578,
  1.181352,
  1.02641,
  0.972874,
  1.166226,
  1.082426,
  1.319163,
  0.982058,
  0.928578,
  1.008352,
  0.906226,
  0.997,
  0.873651,
  1.301026,
  1.292226,
  0.967255,
  1.015578,
  0.93434,
  0.943302,
  0.992578,
  1.096352,
  1.129,
  0.90691,
  0.285794,
  1.166352,
  1.316578,
  0.983,
  1.259226,
  0.966897,
  2.097473,
  1.095774,
  1.00105,
  1.094725,
  0.860696,
  0.98647,
  0.971774,
  0.893,
  0.956311,
  1.002578,
  1.172352,
  1.066578,
  1.081463,
  1.094496,
  1.1322,
  1.018848,
  1.242,
  1.007226,
  1.096,
  0.991352,
  1.21944,
  1.135578,
  1.166187,
  1.072009,
  1.100172,
  1.154973,
  1.231528,
  1.041578,
  1.145352,
  0.282345,
  1.135406,
  1.236578,
  0.983352,
  1.242771,
  1.004478,
  1.134342,
  1.081165,
  1.297112,
  0.93108,
  1.161851,
  0.926453,
  1.218119,
  0.971888,
  1.791,
  0.912135,
  0.91511,
  0.84089,
  0.798637,
  1.487119,
  1.190888,
  1.006371,
  1.138896,
  1.075,
  1.186663,
  1.059112,
  1.110267,
  0.997762,
  0.827976,
  1.084007,
  1.176119,
  1.106702,
  0.99082,
  0.239888,
  0.951007,
  1.199267,
  0.982,
  0.825243,
  1.111757,
  1.023119,
  1.126007,
  0.849419,
  1.041556,
  0.856007,
  1.010119,
  0.876007,
  1.033119,
  1.192119,
  0.950129,
  0.876229,
  0.967119,
  0.886087,
  1.059119,
  0.236888,
  0.981781,
  1.169097,
  0.811007,
  1.019119,
  0.879007,
  1.070119,
  1.112007,
  1.157286,
  0.242554,
  1.117371,
  1.307456,
  1.27633,
  1.264237,
  1.122939,
  1.351618,
  1.146588,
  1.297472,
  0.945205,
  1.029469,
  1.201103,
  1.0176,
  1.057954,
  1.180427,
  1.331099,
  1.12996,
  1.102114,
  1.057905,
  1.290612,
  1.346457,
  0.934905,
  1.243231,
  1.165131,
  1.577778,
  1.010402,
  1.072808,
  1.075754,
  1.161472,
  0.988295,
  1.260577,
  0.956012,
  1.005426,
  1.142364,
  1.301885,
  0.945406,
  1.139785,
  1.254713,
  1.199472,
  1.06,
  0.334932,
  1.154808,
  1.224472,
  0.992173,
  1.163443,
  0.990905,
  1.160875,
  1.033433,
  1.123805,
  1.033308,
  1.098686,
  1.129905,
  1.227274,
  1.048267,
  1.201472,
  1.102905,
  1.189,
  0.982568,
  1.094472,
  0.28851,
  0.939559,
  1.113,
  1.032911,
  1.09262,
  1.147074,
  1.167634,
  0.927564,
  0.971463,
  1.195988,
  0.960069,
  1.01232,
  1.02122,
  0.899115,
  1.005058,
  1.034101,
  1.034657,
  1.116187,
  0.846052,
  0.951054,
  0.916417,
  0.946637,
  1.055555,
  0.227426,
  2.096137,
  1.037719,
  1.322455,
  0.936368,
  1.234832,
  0.925528,
  1.035879,
  1.050181,
  0.952372,
  1.050055,
  1.176433,
  1.218341,
  1.136225,
  1.175697,
  1.029875,
  1.021034,
  1.117107,
  0.951407,
  0.965447,
  0.906426,
  1.110965,
  1.031176,
  1.035372,
  0.904327,
  1.058254,
  0.944577,
  1.017462,
  0.971838,
  1.069623,
  0.948721,
  1.150207,
  0.956149,
  1.115126,
  0.942841,
  1.142504,
  0.275197,
  0.939708,
  1.043758,
  0.922774,
  1.063043,
  0.899767,
  0.993011,
  0.939949,
  1.016312,
  0.988229,
  0.915665,
  0.940219,
  0.97629,
  1.535015,
  1.174914,
  0.998683,
  0.876562,
  1.038312,
  0.995098,
  0.805366,
  0.983,
  0.940757,
  0.985243,
  0.982466,
  0.968541,
  1.245764,
  0.869,
  0.854778,
  1.368312,
  0.954399,
  0.793973,
  0.855778,
  0.942036,
  1.052312,
  1.076032,
  1.02128,
  1.113939,
  1.06892,
  0.877928,
  0.926358,
  1.241312,
  0.961555,
  0.969266,
  0.900541,
  1.126,
  1.015896,
  0.877296,
  1.059312,
  0.288324,
  1.028893,
  1.138105,
  0.922594,
  1.106094,
  0.873778,
  0.992312,
  0.868739,
  1.022965,
  1.05003,
  1.146,
  0.959313,
  1.087312,
  0.932589,
  0.964398,
  0.973919,
  1.035986,
  0.924531,
  1.051312,
  0.844759,
  0.99811,
  1.12919,
  1.247314,
  1.07728,
  1.032708,
  1.01649,
  1.101892,
  1.075627,
  1.152397,
  1.187706,
  1.059609,
  1.063267,
  1.068709,
  1.051634,
  0.966527,
  1.081739,
  1.136591,
  1.062944,
  1.114313,
  1.184602,
  1.033908,
  1.040446,
  1.044629,
  1.065604,
  1.06035,
  1.061958,
  1.082314,
  1.102319,
  1.115935,
  1.187124,
  1.111082,
  1.08462,
  1.162552,
  1.030083,
  1.159115,
  1.054604,
  1.082218,
  1.19519,
  1.161349,
  1.009184,
  1.00379,
  0.889594,
  1.064434,
  1.009328,
  1.062545,
  1.105095,
  1.024362,
  0.299797,
  1.169906,
  1.170488,
  1.095232,
  1.105682,
  1.115927,
  1.15319,
  0.998516,
  1.025164,
  1.073314,
  1.112883,
  1.003037,
  1.05589,
  0.95619,
  1.247291,
  0.303405,
  1.087455,
  1.324086,
  0.976544,
  1.218853,
  1.282971,
  1.124993,
  1.268415,
  1.259896,
  0.989352,
  1.074228,
  1.24278,
  0.957056,
  1.154319,
  1.426802,
  0.969394,
  0.984122,
  0.987352,
  1.251904,
  1.07886,
  0.962741,
  1.229352,
  1.373766,
  1.195412,
  1.262997,
  1.06343,
  0.957014,
  1.336677,
  1.190795,
  1.137598,
  1.046772,
  1.280882,
  0.929445,
  1.250876,
  0.981,
  1.041,
  0.941302,
  0.965352,
  1.235066,
  1.085814,
  1.290481,
  1.046611,
  1.186949,
  1.263103,
  1.283,
  0.281037,
  0.992352,
  1.139973,
  1.143047,
  1.233929,
  0.959455,
  1.162219,
  0.994352,
  1.239197,
  1.136352,
  1.302364,
  0.989718,
  1.16034,
  0.957352,
  1.243843,
  1.075352,
  1.257599,
  1.016296,
  1.379945,
  1.062965,
  0.917811,
  1.305632,
  1.375296,
  1.009494,
  1.144435,
  1.09,
  1.013143,
  0.996615,
  0.946,
  1.069914,
  1.084945,
  1.062298,
  1.088413,
  0.956418,
  0.973712,
  2.141918,
  2.271708,
  1.311415,
  1.08833,
  1.105299,
  1.195801,
  1.363299,
  1.472945,
  1.274363,
  0.976996,
  1.343215,
  1.098866,
  1.106262,
  1.119378,
  1.031792,
  1.041,
  1.003028,
  1.366834,
  0.294,
  1.110062,
  1.111299,
  1.06871,
  1.191308,
  1.161705,
  1.232646,
  0.934723,
  1.029383,
  1.115323,
  1.197561,
  1.112299,
  1.311764,
  0.948299,
  1.081945,
  0.30308,
  1.124299,
  1.196937,
  1.216299,
  1.225945,
  1.159489,
  1.210904,
  0.979639,
  1.056299,
  0.766595,
  0.788389,
  0.799216,
  0.759666,
  0.738255,
  0.836658,
  0.763072,
  0.762208,
  1.046805,
  0.757829,
  0.758283,
  0.761541,
  0.782343,
  0.784343,
  0.764657,
  0.766577,
  0.854319,
  0.907971,
  0.793756,
  0.792,
  0.745013,
  1.044865,
  0.92257,
  0.87169,
  0.764865,
  0.782865,
  0.79932,
  0.923833,
  1.539,
  0.798641,
  0.693,
  0.752865,
  0.830208,
  0.783113,
  0.78577,
  0.796231,
  0.812,
  0.919,
  0.769865,
  0.917993,
  0.889865,
  0.91828,
  0.227,
  0.815276,
  0.972,
  0.814486,
  0.860865,
  0.694451,
  0.802865,
  0.818269,
  0.963,
  0.702208,
  0.846874,
  0.924208,
  0.958899,
  0.802319,
  0.765546,
  0.737208,
  0.814865,
  0.996548,
  1.428352,
  0.936963,
  1.024881,
  0.995995,
  1.210005,
  0.9535,
  0.986352,
  1.017788,
  0.973791,
  1.082346,
  1.023654,
  1.085059,
  0.982744,
  1.030256,
  1.03481,
  0.974836,
  0.981352,
  1.068933,
  0.964008,
  0.840572,
  1.279352,
  0.962463,
  1.506291,
  1.208181,
  0.971015,
  1.120844,
  1.281897,
  1.056338,
  0.947352,
  1.009163,
  0.899018,
  1.030921,
  1.106,
  1.051982,
  1.167876,
  1.059352,
  1.067757,
  0.982185,
  1.092838,
  0.92379,
  0.989048,
  0.23759,
  1.071698,
  1.175352,
  0.921665,
  1.017,
  1.064725,
  1.09,
  1.074757,
  1.007,
  1.09606,
  1.060111,
  0.980078,
  1.036446,
  1.137891,
  1.112,
  1.19586,
  1.158386,
  0.992548,
  0.964,
  0.940523,
  1.005352,
  1.074209,
  1.229352,
  1.006017,
  0.977532,
  0.97894,
  1.120754,
  0.263373,
  1.08831,
  1.034897,
  2.114577,
  0.939353,
  1.036209,
  0.9917,
  0.86408,
  1.009718,
  1.108214,
  0.997312,
  1.078352,
  0.878291,
  1.002288,
  0.971897,
  0.994209,
  1.306352,
  0.947612,
  1.230243,
  1.07704,
  0.99067,
  1.516817,
  1.692037,
  1.098897,
  0.990754,
  1.321897,
  0.934693,
  0.888426,
  1.005352,
  0.957294,
  0.979903,
  0.98124,
  0.88097,
  0.967759,
  0.957747,
  1.009993,
  0.263127,
  0.845806,
  1.022054,
  0.984539,
  0.93,
  1.066414,
  1.088352,
  1.029352,
  1.037209,
  0.972369,
  0.991209,
  1.088352,
  1.024409,
  1.021209,
  1.079352,
  1.149606,
  1.142,
  0.262346,
  1.023533,
  1.075548,
  1.030915,
  1.006516,
  0.868476,
  1.011883,
  0.98109,
  1.196293,
  1.008244,
  0.879795,
  0.839577,
  1.117836,
  1.043856,
  0.957801,
  0.805717,
  1.042011,
  1.044072,
  1.352125,
  0.884667,
  2.042196,
  0.891166,
  0.855727,
  1.042044,
  0.770304,
  0.86547,
  0.975896,
  0.834278,
  0.998912,
  0.982632,
  1.03005,
  1.20413,
  1.010954,
  0.965178,
  0.218396,
  0.819615,
  1.079322,
  1.036001,
  1.038965,
  1.155608,
  0.947065,
  0.876582,
  1.13583,
  1.074963,
  0.89188,
  1.026756,
  0.898261,
  1.062564,
  0.980249,
  1.130625,
  0.891174,
  1.022292,
  0.891454,
  1.024157,
  0.884105,
  1.000159,
  0.2199,
  0.928768,
  1.026451,
  0.864008,
  1.067737,
  0.860806,
  1.03865,
  0.883632,
  1.015769,
  1.002441,
  1.100298,
  0.865005,
  1.744352,
  1.147167,
  1.010039,
  0.876985,
  1.052925,
  0.868984,
  1.440622,
  1.005299,
  1.250265,
  0.99306,
  1.009308,
  0.925235,
  1.011984,
  1.107352,
  0.89898,
  1.752121,
  1.077479,
  0.957097,
  1.041986,
  1.118504,
  1.085772,
  1.072877,
  1.320234,
  1.011165,
  1.092984,
  0.926799,
  1.089632,
  1.029,
  1.083471,
  0.284,
  1.083953,
  1.194984,
  0.927583,
  1.023688,
  0.98321,
  0.956695,
  0.984915,
  0.93433,
  1.017893,
  1.136984,
  1.149488,
  0.936984,
  0.947352,
  1.187084,
  0.947267,
  0.821494,
  0.977352,
  0.964425,
  1.190984,
  0.281411,
  0.868864,
  1.040472,
  0.943287,
  0.906956,
  0.900984,
  0.939289,
  1.08678,
  1.08119,
  0.817229,
  0.901142,
  0.2009,
  0.932939,
  0.728668,
  0.808029,
  1.646663,
  0.89329,
  0.934825,
  0.691904,
  0.735,
  0.703096,
  0.731208,
  0.796909,
  0.971587,
  1.247827,
  1.02033,
  0.87029,
  1.003294,
  0.726737,
  1.009903,
  0.664938,
  0.778889,
  0.64529,
  0.712346,
  0.822788,
  1.560057,
  0.775556,
  0.795598,
  0.70175,
  0.801858,
  0.799601,
  0.67367,
  0.756206,
  0.209304,
  0.745208,
  0.769659,
  0.722345,
  0.737275,
  0.699208,
  0.94829,
  0.923015,
  0.918918,
  0.808204,
  0.853208,
  0.708018,
  0.81229,
  0.206587,
  0.83329,
  0.925567,
  0.68229,
  0.958947,
  0.811512,
  0.845548,
  0.78726,
  0.851566,
  0.77229,
  0.784413,
  0.73805,
  0.804208,
  0.970549,
  1.117935,
  1.105973,
  1.028506,
  1.664892,
  0.989272,
  1.93864,
  0.984614,
  1.134549,
  1.226935,
  1.306961,
  1.18762,
  1.237039,
  1.003687,
  1.140644,
  1.023719,
  1.136488,
  1.425662,
  1.399892,
  1.032009,
  1.094935,
  1.103549,
  1.012737,
  1.187964,
  1.114097,
  0.958662,
  1.484935,
  1.050008,
  1.036775,
  1.329047,
  1.155493,
  1.118935,
  1.04,
  1.09804,
  1.325493,
  1.283904,
  1.125549,
  1.154335,
  1.16706,
  1.266115,
  1.064713,
  1.325,
  1.094669,
  1.303,
  0.344,
  1.013549,
  1.179935,
  1.033549,
  1.076935,
  1.183619,
  1.233935,
  1.003167,
  1.140935,
  1.154549,
  1.197935,
  1.006549,
  1.203907,
  1.04431,
  1.223617,
  1.082759,
  1.167935,
  0.972364,
  0.992648,
  0.99249,
  0.87657,
  0.993949,
  0.937511,
  1.222582,
  0.887816,
  0.969602,
  1.023351,
  0.929684,
  0.971675,
  0.99801,
  1.121206,
  0.963233,
  1.06617,
  0.934657,
  0.962981,
  1.019322,
  0.999956,
  1.103631,
  1.116817,
  0.999578,
  1.055409,
  0.991876,
  0.959325,
  0.986751,
  0.95964,
  1.064455,
  0.97955,
  1.038965,
  0.22199,
  1.124545,
  0.970932,
  0.908013,
  0.999851,
  1.027274,
  1.19946,
  1.027672,
  0.864224,
  0.980082,
  0.890602,
  0.97653,
  0.941514,
  0.968759,
  0.938602,
  1.002284,
  1.082465,
  0.965991,
  1.002274,
  1.109799,
  0.271224,
  1.059116,
  1.109381,
  0.899377,
  1.008183,
  1.079723,
  1.174,
  0.994674,
  1.141325,
  1.009198,
  1.004388,
  0.273277,
  0.931882,
  1.047549,
  1.081813,
  0.970477,
  1.112493,
  1.126023,
  1.293,
  1.067673,
  1.181783,
  1.206549,
  1.223346,
  1.298189,
  1.005588,
  0.968418,
  1.103919,
  1.39979,
  0.97897,
  1.097605,
  1.033698,
  1.100549,
  1.585397,
  0.98379,
  1.25258,
  1.007884,
  0.961519,
  1.009962,
  1.104638,
  1.304519,
  1.27238,
  1.228,
  1.299593,
  1.206733,
  1.293778,
  1.253577,
  1.22397,
  1.192448,
  1.08203,
  1.111969,
  1.232519,
  0.958377,
  0.984493,
  0.296832,
  1.128519,
  1.202549,
  1.153476,
  1.268195,
  1.046519,
  1.091551,
  1.094519,
  1.241549,
  0.949519,
  1.123883,
  1.087074,
  1.143298,
  1.264489,
  0.995735,
  0.999519,
  1.00599,
  0.830551,
  1.024878,
  0.820587,
  0.862069,
  0.988184,
  0.94441,
  1.292841,
  0.868135,
  0.899551,
  1.056352,
  0.908118,
  0.934,
  0.981528,
  0.911472,
  0.885784,
  0.979352,
  0.842231,
  1.009282,
  0.983,
  1.051,
  1.046551,
  1.198678,
  1.066457,
  1.143628,
  1.016,
  0.848491,
  0.945352,
  0.91141,
  1.221274,
  0.898,
  0.836096,
  0.280704,
  1.054284,
  1.220352,
  0.943496,
  1.307887,
  0.908487,
  1.149641,
  1.011818,
  0.941551,
  1.024352,
  1.019985,
  1.099786,
  0.969255,
  0.902,
  0.958758,
  1.083352,
  0.909775,
  1.127576,
  0.979801,
  1.000278,
  1.096073,
  1.135551,
  0.943544,
  0.953352,
  0.928551,
  0.960352,
  0.954551,
  1.024352,
  0.901535,
  1.008352,
  0.284,
  0.929551,
  1.072927,
  0.961352,
  0.914,
  0.898595,
  1.106397,
  1.089,
  2.105189,
  1.056267,
  1.27389,
  1.564102,
  0.948565,
  1.112397,
  0.999123,
  1.472,
  1.379774,
  0.942586,
  1.130113,
  0.920539,
  1.061542,
  1.11523,
  1.074033,
  1.927436,
  1.144976,
  0.950897,
  1.073819,
  2.548468,
  1.502233,
  1.086908,
  1.214022,
  1.127684,
  1.116423,
  1.116364,
  1.032445,
  1.113684,
  1.224012,
  1.207186,
  0.93569,
  0.973626,
  1.121017,
  0.965713,
  1.034397,
  1.099655,
  1.299785,
  0.948068,
  1.066397,
  1.058668,
  1.199444,
  0.274,
  0.975436,
  1.054461,
  0.985743,
  1.023822,
  0.997844,
  1.151108,
  0.914532,
  1.092475,
  0.972469,
  1.12376,
  1.012713,
  1.125708,
  0.950713,
  0.994231,
  0.243794,
  0.828198,
  0.963983,
  0.270072,
  0.896376,
  0.732545,
  1.106684,
  0.80694,
  0.703377,
  0.974072,
  0.68601,
  0.946648,
  0.725449,
  1.031006,
  1.023722,
  0.883176,
  1.069594,
  1.057626,
  0.869296,
  0.670826,
  0.995763,
  0.832554,
  0.892285,
  1.386,
  0.877334,
  0.903763,
  0.976763,
  1.26029,
  2.299953,
  1.193494,
  0.766434,
  1.079,
  0.68929,
  0.918699,
  1.040473,
  0.962527,
  0.86846,
  0.267526,
  0.952265,
  1.072763,
  0.703491,
  1.002763,
  0.933,
  1.000413,
  1.018085,
  1.049361,
  0.717321,
  0.941444,
  0.880893,
  1.029763,
  0.202527,
  0.851899,
  0.906717,
  0.88829,
  1.079582,
  0.86729,
  1.064763,
  0.735878,
  0.994025,
  0.81729,
  0.904822,
  0.873703,
  0.897522,
  0.270721,
  0.862558,
  1.367659,
  0.897651,
  1.037793,
  0.867955,
  0.995982,
  0.896094,
  1.073659,
  0.284,
  1.116597,
  1.027503,
  1.108407,
  0.956652,
  1.72737,
  0.955931,
  0.985931,
  1.061496,
  1.273496,
  0.98516,
  0.819953,
  1.311659,
  0.995429,
  1.074741,
  0.902403,
  1.249055,
  0.983939,
  1.154917,
  0.819908,
  0.812339,
  0.815094,
  0.97223,
  0.927649,
  1.042104,
  1.138925,
  1.115429,
  0.968115,
  0.866164,
  1.078736,
  0.804094,
  1.022659,
  1.000981,
  1.034259,
  1.11345,
  1.107989,
  0.797524,
  0.972438,
  0.924264,
  1.152307,
  0.997659,
  1.179543,
  0.834094,
  1.029659,
  0.224188,
  0.993728,
  1.10315,
  0.859094,
  1.018698,
  0.939094,
  1.051021,
  0.871468,
  0.952379,
  0.94389,
  1.012641,
  1.285357,
  0.968197,
  0.901565,
  0.957901,
  0.939356,
  0.943477,
  0.926697,
  0.893217,
  0.993833,
  1.100817,
  0.938219,
  0.986821,
  0.911646,
  0.928633,
  1.004,
  0.927983,
  0.970327,
  1.06356,
  1.156076,
  0.883774,
  1.039384,
  1.141419,
  0.992663,
  1.01881,
  1.877896,
  0.967118,
  0.953719,
  1.119379,
  1.188992,
  0.907888,
  0.976911,
  1.030977,
  0.954573,
  1.009766,
  0.873907,
  0.962854,
  0.265582,
  1.036408,
  1.038435,
  0.903662,
  0.962762,
  0.954425,
  0.954987,
  1.097087,
  1.101,
  0.949564,
  1.008818,
  0.953732,
  0.977561,
  0.946379,
  0.996356,
  0.977443,
  0.983433,
  0.273977,
  0.936828,
  0.984133,
  0.922356,
  0.958987,
  0.928454,
  0.939531,
  0.867301,
  0.982549,
  1.067637,
  1.371664,
  1.060701,
  1.171491,
  1.38817,
  1.523123,
  0.987793,
  1.03437,
  0.950386,
  1.015201,
  1.80149,
  1.284307,
  1.252741,
  1.038145,
  1.376215,
  1.134602,
  1.207303,
  1.004722,
  1.124931,
  1.383626,
  1.080227,
  1.150467,
  1.823693,
  1.493437,
  0.979962,
  1.001549,
  0.966545,
  1.046319,
  1.206429,
  1.037583,
  0.951507,
  1.085071,
  1.141879,
  0.919178,
  1.071761,
  0.91813,
  1.156502,
  0.929259,
  1.052971,
  0.987336,
  1.190927,
  0.294805,
  1.063883,
  1.189549,
  0.977405,
  1.009,
  0.924994,
  1.088379,
  1.061298,
  1.184007,
  1.067728,
  1.20517,
  0.921602,
  1.001058,
  1.087602,
  1.142081,
  0.94932,
  1.088549,
  0.986446,
  1.034549,
  1.201519,
  1.482536,
  0.975537,
  0.972908,
  1.232806,
  1.275512,
  0.931291,
  0.982539,
  0.920581,
  1.085046,
  1.088936,
  1.326191,
  0.99233,
  0.99467,
  0.962,
  1.176713,
  1.380074,
  0.969708,
  0.976921,
  1.073391,
  1.012436,
  1.067644,
  0.917824,
  0.97863,
  0.973806,
  1.148038,
  0.923469,
  1.001519,
  0.967703,
  0.949376,
  1.288818,
  1.409806,
  0.988519,
  0.998713,
  1.122855,
  1.06988,
  1.141,
  0.898976,
  0.963537,
  0.940543,
  1.050519,
  0.278731,
  0.914713,
  0.925519,
  0.929,
  0.954301,
  0.966519,
  1.008541,
  0.907828,
  0.966519,
  0.272091,
  0.959517,
  0.97578,
  0.960519,
  0.983658,
  0.952408,
  0.968519,
  0.969519,
  0.908,
  1.109379,
  1.083983,
  0.964767,
  0.989,
  0.883423,
  1.135632,
  0.829571,
  0.93289,
  1.015061,
  0.990586,
  0.830865,
  1.054298,
  0.224233,
  0.753573,
  0.965125,
  0.82713,
  0.87404,
  0.79196,
  0.995136,
  1.106865,
  0.789211,
  1.335013,
  0.723619,
  1.352865,
  1.619672,
  1.054949,
  0.944144,
  0.811664,
  0.775622,
  0.889865,
  1.140736,
  0.793072,
  0.950009,
  0.868914,
  1.057681,
  0.763506,
  0.954217,
  0.771619,
  0.73094,
  0.825909,
  0.785057,
  0.999059,
  0.887328,
  1.04659,
  0.932056,
  1.105975,
  0.22173,
  0.760739,
  0.995221,
  0.79231,
  1.00353,
  0.791507,
  0.956626,
  0.833751,
  0.9811,
  1.003677,
  0.977551,
  1.048949,
  0.720745,
  0.999155,
  0.283715,
  0.805507,
  1.005672,
  1.074792,
  1.127531,
  1.092467,
  1.152025,
  1.639396,
  1.199577,
  1.172853,
  1.19277,
  1.090201,
  1.233033,
  1.243975,
  1.246005,
  1.104451,
  1.427307,
  1.103761,
  1.185853,
  1.352725,
  1.275135,
  1.063873,
  1.255853,
  1.402531,
  1.559,
  1.129726,
  1.158,
  1.102531,
  1.133262,
  1.096573,
  1.151,
  1.140942,
  1.17462,
  1.116531,
  1.142853,
  1.189891,
  1.081011,
  1.125322,
  0.304389,
  1.098531,
  1.165853,
  1.101322,
  1.140755,
  1.171531,
  1.276848,
  1.208797,
  1.246,
  1.210642,
  1.273423,
  1.075786,
  1.140853,
  1.054853,
  1.115222,
  1.159531,
  1.330853,
  1.157853,
  1.169123,
  1.168019,
  1.168531,
  1.239531,
  1.263853,
  1.109593,
  1.141853,
  0.933005,
  0.988558,
  1.508052,
  1.02039,
  0.986311,
  0.953991,
  1.110942,
  1.173687,
  0.927378,
  0.838542,
  0.856095,
  1.079291,
  1.465,
  0.945554,
  0.923209,
  0.992352,
  1.045794,
  1.410165,
  0.955817,
  1.046857,
  1.199209,
  1.516352,
  1.251908,
  0.921,
  0.940209,
  1.041766,
  0.877419,
  1.093143,
  0.867415,
  0.966352,
  0.932861,
  0.860857,
  0.912816,
  0.982352,
  1.002209,
  1.0193,
  1.073096,
  0.96672,
  0.90176,
  1.068857,
  1.074364,
  0.941209,
  0.963352,
  0.263063,
  0.946329,
  0.958978,
  0.950453,
  0.971858,
  0.890312,
  1.012352,
  0.986455,
  0.905813,
  0.907209,
  0.975,
  0.875209,
  1.00749,
  1.054209,
  1.092352,
  1.075104,
  1.432134,
  1.02,
  1.160702,
  1.167694,
  1.084,
  0.973998,
  1.099676,
  1.152564,
  1.053517,
  1.025928,
  1.017382,
  0.973944,
  1.070692,
  1.132387,
  1.18596,
  1.129218,
  1.017119,
  1.070087,
  1.315589,
  1.039809,
  1.470659,
  1.075058,
  1.146089,
  0.972119,
  1.037515,
  1.131,
  0.908172,
  0.990537,
  0.298393,
  1.040119,
  1.062758,
  1.028301,
  1.162106,
  1.146026,
  1.141,
  1.00426,
  1.013634,
  1.066215,
  1.095902,
  1.107881,
  1.200161,
  1.21186,
  0.966119,
  1.070226,
  1.146634,
  1.15,
  1.081729,
  1.106119,
  0.979296,
  0.999119,
  0.9839,
  1.124119,
  0.295551,
  1.004999,
  1.11286,
  0.890062,
  0.953938,
  1.004403,
  1.043658,
  1.067072,
  1.129389,
  1.153743,
  0.975053,
  1.069301,
  1.193125,
  0.984352,
  1.040119,
  1.099087,
  1.024053,
  0.998431,
  1.014767,
  0.983352,
  0.989017,
  0.986935,
  1.298086,
  1.3,
  1.43713,
  1.017255,
  1.035119,
  1.003955,
  1.065577,
  1.232767,
  0.979218,
  1.014476,
  1.073644,
  1.039546,
  1.026628,
  1.015233,
  1.103352,
  1.528237,
  0.963954,
  1.001,
  1.036469,
  1.006297,
  1.008526,
  1.089498,
  1.207071,
  1.046767,
  0.968222,
  0.295129,
  0.962119,
  1.043352,
  1.006039,
  1.021352,
  0.999352,
  1.049019,
  0.973742,
  1.030606,
  1.021742,
  1.071022,
  0.284788,
  0.998119,
  1.026352,
  0.950676,
  0.994352,
  1.008352,
  1.099141,
  1.192119,
  1.097015,
  1.129286,
  1.179904,
  0.991098,
  1.049,
  1.032,
  1.280716,
  1.319615,
  1.13224,
  0.978401,
  1.054661,
  1.268159,
  0.954297,
  1.093956,
  1.029221,
  1.217252,
  0.98859,
  1.024121,
  1.077137,
  1.149777,
  1.146461,
  0.969352,
  0.997352,
  0.991681,
  1.260578,
  0.989897,
  1.087103,
  1.09847,
  1.187352,
  1.060794,
  0.995529,
  0.964191,
  1.003397,
  1.248352,
  1.304055,
  0.963422,
  1.029578,
  1.083534,
  0.973352,
  1.089764,
  0.988352,
  1.008528,
  0.281111,
  1.148352,
  1.17398,
  1.002828,
  1.015103,
  1.098739,
  1.112811,
  0.96798,
  1.017352,
  1.050877,
  1.201352,
  1.128212,
  1.130352,
  1.020358,
  1.025352,
  1.139352,
  1.148352,
  0.979463,
  1.012352,
  1.160956,
  1.189754,
  1.164711,
  1.447877,
  1.397748,
  1.228169,
  1.249754,
  1.343343,
  0.347,
  1.108,
  1.247942,
  1.293933,
  1.115,
  1.649553,
  1.13,
  1.193754,
  1.202754,
  1.494,
  2.33,
  1.174741,
  1.197,
  1.142754,
  1.214478,
  1.171897,
  1.244,
  1.054754,
  1.21417,
  1.412842,
  1.195437,
  1.188024,
  1.571,
  1.172158,
  1.384705,
  1.448754,
  1.157424,
  1.21255,
  1.1754,
  1.230754,
  1.111602,
  1.113754,
  1.146154,
  1.149022,
  1.206022,
  1.329,
  1.23,
  1.176732,
  1.27378,
  1.102982,
  1.14036,
  1.054754,
  1.102189,
  0.334,
  1.263786,
  1.142,
  1.108754,
  1.170754,
  1.18076,
  1.218,
  1.106134,
  1.240332,
  0.333184,
  1.192754,
  1.197913,
  0.988944,
  1.044878,
  0.985406,
  1.026521,
  1.408532,
  0.989251,
  1.180007,
  1.05684,
  0.95084,
  0.981248,
  0.989092,
  1.054509,
  0.999553,
  1.029725,
  1.619,
  1.095817,
  1.265878,
  1.029989,
  1.057576,
  0.98285,
  0.998037,
  1.259298,
  1.164171,
  1.246,
  0.994933,
  0.828041,
  1.019325,
  1.081878,
  1.510878,
  1.023077,
  1.006878,
  1.139984,
  1.090673,
  1.052491,
  1.147956,
  1.108618,
  1.123,
  1.129878,
  1.169454,
  0.966976,
  0.978716,
  1.017,
  1.045977,
  0.991817,
  1.062,
  0.305,
  0.995841,
  1.014878,
  1.130032,
  1.191878,
  0.969878,
  1.018152,
  1.104386,
  1.23,
  0.99494,
  1.049878,
  0.952438,
  1.118878,
  0.221777,
  0.989131,
  1.048878,
  0.703537,
  1.218623,
  1.708091,
  0.923189,
  0.886889,
  1.104259,
  0.750055,
  0.724383,
  0.74187,
  1.031578,
  0.703632,
  0.897916,
  0.75388,
  1.02111,
  0.909844,
  0.958663,
  1.022578,
  1.02566,
  0.742087,
  0.886848,
  0.939923,
  0.944099,
  1.013931,
  1.549561,
  0.97041,
  0.98,
  0.869548,
  1.045578,
  0.73963,
  1.205812,
  0.693395,
  0.874989,
  0.207678,
  0.824695,
  0.87772,
  1.022743,
  0.75813,
  0.72531,
  0.795858,
  0.876578,
  0.735967,
  0.847337,
  0.790011,
  1.106578,
  0.866848,
  0.989402,
  0.740338,
  0.922578,
  0.927319,
  1.001578,
  0.262,
  0.788753,
  0.92,
  0.912633,
  1.001578,
  0.729472,
  0.961578,
  0.75453,
  0.986578,
  0.953578,
  1.043208,
  0.751208,
  0.945578,
  0.261,
  1.138543,
  1.144291,
  1.092286,
  1.018344,
  1.042357,
  1.127959,
  0.947977,
  1.088912,
  1.028429,
  1.128763,
  1.110787,
  0.931977,
  0.990682,
  0.238791,
  0.999,
  1.038025,
  1.002209,
  1.097087,
  1.128491,
  1.089475,
  1.145325,
  1.016901,
  1.424645,
  1.021522,
  0.946878,
  1.001884,
  1.015119,
  1.028004,
  1.332,
  0.992559,
  0.960753,
  1.012081,
  1.045011,
  1.053,
  0.929,
  1.043272,
  1.083339,
  1.048578,
  1.000576,
  1.186119,
  1.200723,
  0.943568,
  1.144731,
  1.04426,
  1.097116,
  0.998357,
  0.980662,
  1.056166,
  1.182222,
  0.960384,
  1.095,
  1.106316,
  1.155405,
  0.296867,
  1.129469,
  0.99778,
  1.023119,
  1.051174,
  1.044119,
  1.181847
]