{
  "1048576": [
    0.651,
    1.141162,
    0.72565,
    0.745878,
    0.681998,
    0.563694,
    0.657114,
    0.795869,
    0.820871,
    0.526724,
    0.827118,
    0.838425,
    0.905915,
    1.109836,
    0.573001,
    0.68618,
    0.925816,
    1.194315,
    0.656897,
    0.568572,
    0.800273,
    0.957162,
    0.947181,
    1.013865,
    0.899541,
    0.570119,
    1.155568,
    0.683686,
    1.375777,
    0.522157,
    0.672426,
    0.672,
    0.671199,
    0.889,
    1.027546,
    1.140282,
    0.679264,
    0.829697,
    0.715161,
    0.727,
    0.653896,
    0.67909,
    0.795,
    0.669,
    0.770251,
    0.774375,
    0.556528,
    0.86156,
    0.792,
    0.555103,
    0.773933,
    0.62907,
    0.726106,
    0.607672,
    0.705795,
    0.784613,
    0.730693,
    0.515091,
    0.835985,
    0.695755,
    0.759303,
    0.766554,
    0.744415,
    0.807284,
    0.698784,
    0.85308,
    0.510845,
    0.784756,
    0.482718,
    1.119703,
    0.640451,
    0.678062,
    0.607,
    0.557347,
    0.861,
    0.671553,
    0.719,
    1.087171,
    0.704828,
    0.946077,
    0.96871,
    0.665821,
    0.839251,
    0.722358,
    0.851868,
    0.809338,
    0.896206,
    0.651953,
    0.739,
    0.947,
    0.794751,
    0.619,
    0.561076,
    0.97,
    0.834912,
    0.838,
    1.122398,
    0.82011,
    0.837389,
    0.9232,
    0.928193,
    1.332453,
    0.780415,
    0.583539,
    0.968,
    0.86445
  ],
  "51200": [
    0.594074,
    0.91817,
    0.950032,
    0.86213,
    0.994028,
    0.646624,
    0.603069,
    0.896,
    0.716,
    0.711339,
    0.972851,
    0.844,
    0.540676,
    0.746092,
    0.548,
    0.692,
    0.535539,
    0.559884,
    0.910782,
    0.791,
    0.83,
    0.78369,
    0.67163,
    0.69965,
    0.772023,
    0.64302,
    0.675426,
    0.597267,
    0.694892,
    0.768103,
    0.690765,
    0.568441,
    0.817248,
    0.995,
    0.756,
    0.781069,
    0.815549,
    0.876984,
    0.849907,
    0.745,
    0.629,
    0.829,
    0.704733,
    0.813,
    0.566033,
    0.944189,
    0.946086,
    0.592298,
    0.627483,
    0.920724,
    0.854088,
    0.777525,
    0.6,
    0.674,
    1.013491,
    0.52671,
    0.706562,
    0.781,
    0.576194,
    0.557138,
    0.523074,
    0.980811,
    0.572494,
    0.700859,
    0.743,
    0.776633,
    0.766864,
    0.624196,
    0.609655,
    0.681762,
    0.517754,
    0.598967,
    0.904158,
    0.794776,
    0.950487,
    0.790689,
    0.754178,
    0.724026,
    1.166704,
    0.818623,
    0.620093,
    1.093443,
    0.645566,
    0.681193,
    0.709569,
    0.738872,
    0.58611,
    0.813161,
    0.623978,
    0.607577,
    0.74871,
    0.695444,
    0.836035,
    0.864965,
    0.887884,
    1.170296,
    0.806033,
    0.70304,
    0.607104,
    0.645789,
    0.781,
    0.796771,
    0.846467,
    0.731413,
    0.81545,
    0.578965,
    0.662103,
    0.727723,
    0.554221,
    0.738354,
    0.678,
    1.235499,
    0.559687,
    0.699442,
    0.990314,
    0.513766,
    0.668703,
    0.691862,
    0.744778,
    0.469342,
    0.689479,
    0.768117,
    0.538593,
    0.549242,
    0.617021,
    0.713299,
    0.828332,
    0.644013,
    0.797266,
    0.649605,
    0.763046,
    0.829066,
    0.615462,
    0.891,
    0.943356,
    0.811176,
    0.829876,
    0.906943,
    0.683992,
    0.735652,
    0.826371,
    0.58943,
    0.826167,
    0.890311,
    0.792853,
    0.806233,
    0.499631,
    0.641,
    0.6663,
    0.581428,
    0.830451,
    0.852887,
    0.771047,
    0.8,
    0.625,
    0.658743,
    0.548459,
    1.019281,
    0.7,
    0.667758,
    0.906132,
    0.733,
    0.661,
    0.784885,
    0.649,
    1.237754,
    0.697495,
    0.621126,
    0.819372,
    0.545549,
    0.658346,
    0.706974,
    0.584064,
    0.699103,
    0.619678,
    0.496204,
    0.809631,
    0.598785,
    0.933312,
    0.625,
    0.551567,
    0.94027,
    0.949986,
    0.683,
    0.606482,
    0.797,
    0.613,
    0.712,
    0.685,
    0.62925,
    0.662911,
    0.908102,
    0.716357,
    0.766697,
    0.703727,
    0.81057,
    1.238504,
    0.541653,
    0.824,
    0.629415,
    0.792314,
    0.744874,
    1.363,
    0.578652,
    0.666343,
    0.794486,
    0.829953,
    0.914869,
    0.554609,
    0.88907,
    0.571306,
    0.867194,
    0.905646,
    0.781581,
    0.808556,
    0.84,
    0.903224,
    0.499807,
    0.646899,
    0.660713,
    0.895539,
    1.025679,
    0.748,
    0.752773,
    0.583763,
    1.178667,
    0.719018,
    0.581485,
    0.82,
    0.631255,
    0.65763,
    0.862989,
    0.784752,
    0.584,
    0.571,
    0.673582,
    0.552774,
    0.822222,
    0.572355,
    0.712078,
    1.053623,
    0.655739,
    0.676194,
    0.55,
    0.634111,
    0.597101,
    0.976355,
    0.767687,
    0.791162,
    0.560248,
    0.698103,
    0.557795,
    0.633,
    0.59241,
    0.627,
    0.618103,
    0.633648,
    0.816778,
    0.788,
    0.813,
    0.76,
    0.600962,
    0.655782,
    0.627437,
    0.745,
    0.816673,
    0.835167,
    0.815946,
    0.692537,
    0.568713,
    0.886629,
    0.774093,
    0.830458,
    0.857526,
    0.910256,
    0.656525,
    0.700897,
    0.76241,
    0.90709,
    0.838443,
    0.985419,
    0.823267,
    0.778833,
    0.666777,
    0.873765,
    0.648813,
    0.591441,
    0.734439,
    0.655,
    0.558981,
    0.655583,
    0.636943,
    0.597,
    0.552592,
    0.558,
    0.578553,
    0.793,
    0.788,
    0.591304,
    0.825434,
    1.106,
    0.56,
    0.895661,
    0.680855,
    0.804461,
    0.595809,
    0.841427,
    0.627053,
    0.555357,
    0.506112,
    0.647,
    0.658095,
    0.77987,
    0.638,
    0.652203,
    0.716,
    0.882,
    0.726,
    0.889586,
    0.647281,
    0.853398,
    0.609633,
    0.907154,
    0.859,
    0.594064,
    1.137,
    0.698534,
    0.871891,
    0.666703,
    0.968733,
    0.567119,
    0.715212,
    0.711834,
    0.755898,
    1.103733,
    0.724649,
    0.651,
    1.012554,
    0.718264,
    0.649495,
    0.699641,
    0.704,
    0.561492,
    0.692173,
    0.535988,
    0.794568,
    0.626494,
    0.649,
    0.628555,
    0.60422,
    0.910923,
    0.695436,
    0.592796,
    1.146,
    0.758539,
    0.525763,
    0.589382,
    0.779692,
    0.654,
    0.74008,
    0.656084,
    0.759,
    0.442,
    0.616748,
    0.692487,
    0.734555,
    0.587551,
    0.6,
    0.542,
    0.68698,
    0.62744,
    0.764906,
    0.449079,
    0.950708,
    0.713989,
    0.636,
    0.701,
    0.790198,
    0.677705,
    0.86,
    0.764256,
    0.765,
    0.955388,
    0.889,
    0.823,
    0.928,
    0.756,
    0.743,
    0.671002,
    0.824343,
    1.005772,
    0.637963,
    0.633965,
    0.650417,
    0.726751,
    0.783,
    0.514063,
    0.625,
    0.692601,
    0.725722,
    0.78943,
    1.06989,
    0.841073,
    0.642501,
    0.547813,
    0.930168,
    0.528,
    0.774666,
    0.942271,
    0.557822,
    0.724975,
    0.56113,
    0.628896,
    0.861,
    0.67769,
    0.946697,
    0.959303,
    0.654094,
    0.706839,
    0.811211,
    0.615,
    0.737,
    1.036,
    0.52626,
    0.636173,
    0.628,
    0.584123,
    0.513701,
    0.69733,
    0.616903,
    0.746889,
    0.592274,
    0.965571,
    0.751048,
    0.919851,
    0.671689,
    0.518873
  ],
  "5242880": [
    0.677166,
    0.930589,
    0.79994,
    0.770281,
    0.777519,
    0.642,
    0.599244,
    0.830672,
    0.715648,
    0.87861,
    0.776124,
    0.669058,
    0.632916,
    0.994513,
    0.626206,
    0.706806,
    0.928316,
    0.983822,
    0.569337,
    0.638411,
    0.677975,
    0.640188,
    0.811504,
    0.788021,
    0.742872,
    0.498351,
    0.892436,
    0.70533,
    0.793567,
    0.611692,
    0.625294,
    0.597103,
    0.807139,
    0.834958,
    0.636241,
    0.557172,
    0.601425,
    0.859177,
    0.707501,
    0.693,
    0.67354,
    0.898575,
    0.804,
    0.558614,
    0.72815,
    1.295,
    0.919174,
    0.534356,
    0.635549,
    0.799,
    0.685761,
    0.63487,
    0.793,
    0.771343,
    0.895856,
    0.730441,
    0.875,
    0.871986,
    0.604345,
    0.559103
  ],
  "ALL": [
    0.594074,
    0.91817,
    0.950032,
    0.86213,
    0.994028,
    0.646624,
    0.651,
    1.141162,
    0.72565,
    0.745878,
    0.677166,
    0.603069,
    0.896,
    0.716,
    0.711339,
    0.972851,
    0.844,
    0.540676,
    0.746092,
    0.548,
    0.692,
    0.681998,
    0.535539,
    0.559884,
    0.910782,
    0.791,
    0.83,
    0.78369,
    0.67163,
    0.563694,
    0.657114,
    0.795869,
    0.820871,
    0.930589,
    0.79994,
    0.69965,
    0.772023,
    0.64302,
    0.675426,
    0.597267,
    0.694892,
    0.768103,
    0.690765,
    0.568441,
    0.526724,
    0.827118,
    0.770281,
    0.817248,
    0.995,
    0.756,
    0.781069,
    0.815549,
    0.876984,
    0.849907,
    0.745,
    0.838425,
    0.905915,
    1.109836,
    0.629,
    0.829,
    0.704733,
    0.813,
    0.566033,
    0.573001,
    0.68618,
    0.777519,
    0.642,
    0.599244,
    0.944189,
    0.946086,
    0.592298,
    0.627483,
    0.920724,
    0.854088,
    0.777525,
    0.6,
    0.674,
    1.013491,
    0.925816,
    1.194315,
    0.830672,
    0.52671,
    0.706562,
    0.781,
    0.576194,
    0.557138,
    0.523074,
    0.980811,
    0.572494,
    0.700859,
    0.743,
    0.656897,
    0.568572,
    0.800273,
    0.715648,
    0.87861,
    0.776633,
    0.766864,
    0.624196,
    0.609655,
    0.681762,
    0.517754,
    0.598967,
    0.904158,
    0.957162,
    0.776124,
    0.794776,
    0.950487,
    0.790689,
    0.754178,
    0.724026,
    1.166704,
    0.818623,
    0.620093,
    1.093443,
    0.669058,
    0.632916,
    0.994513,
    0.645566,
    0.681193,
    0.709569,
    0.738872,
    0.58611,
    0.813161,
    0.623978,
    0.607577,
    0.74871,
    0.695444,
    0.836035,
    0.947181,
    0.626206,
    0.706806,
    0.864965,
    0.887884,
    1.170296,
    0.806033,
    1.013865,
    0.899541,
    0.570119,
    1.155568,
    0.928316,
    0.983822,
    0.70304,
    0.607104,
    0.645789,
    0.781,
    0.796771,
    0.846467,
    0.731413,
    0.81545,
    0.578965,
    0.569337,
    0.638411,
    0.677975,
    0.662103,
    0.727723,
    0.554221,
    0.738354,
    0.678,
    1.235499,
    0.559687,
    0.699442,
    0.990314,
    0.513766,
    0.683686,
    1.375777,
    0.522157,
    0.668703,
    0.691862,
    0.744778,
    0.469342,
    0.689479,
    0.768117,
    0.538593,
    0.549242,
    0.617021,
    0.713299,
    0.672426,
    0.672,
    0.640188,
    0.828332,
    0.644013,
    0.797266,
    0.649605,
    0.763046,
    0.829066,
    0.671199,
    0.889,
    0.811504,
    0.788021,
    0.615462,
    0.891,
    0.943356,
    0.811176,
    0.829876,
    0.906943,
    0.683992,
    1.027546,
    1.140282,
    0.735652,
    0.826371,
    0.58943,
    0.826167,
    0.890311,
    0.792853,
    0.806233,
    0.499631,
    0.641,
    0.6663,
    0.581428,
    0.679264,
    0.829697,
    0.715161,
    0.742872,
    0.830451,
    0.852887,
    0.771047,
    0.8,
    0.727,
    0.653896,
    0.498351,
    0.892436,
    0.625,
    0.658743,
    0.548459,
    1.019281,
    0.7,
    0.667758,
    0.906132,
    0.733,
    0.661,
    0.784885,
    0.70533,
    0.649,
    1.237754,
    0.697495,
    0.621126,
    0.819372,
    0.67909,
    0.795,
    0.669,
    0.770251,
    0.793567,
    0.611692,
    0.545549,
    0.658346,
    0.706974,
    0.584064,
    0.699103,
    0.619678,
    0.496204,
    0.774375,
    0.556528,
    0.625294,
    0.809631,
    0.598785,
    0.933312,
    0.625,
    0.551567,
    0.94027,
    0.949986,
    0.683,
    0.606482,
    0.797,
    0.613,
    0.86156,
    0.792,
    0.597103,
    0.712,
    0.685,
    0.62925,
    0.662911,
    0.908102,
    0.716357,
    0.766697,
    0.703727,
    0.81057,
    0.555103,
    0.773933,
    0.62907,
    0.807139,
    1.238504,
    0.541653,
    0.824,
    0.629415,
    0.792314,
    0.744874,
    1.363,
    0.726106,
    0.607672,
    0.705795,
    0.784613,
    0.834958,
    0.636241,
    0.578652,
    0.666343,
    0.794486,
    0.829953,
    0.914869,
    0.554609,
    0.88907,
    0.571306,
    0.867194,
    0.730693,
    0.557172,
    0.905646,
    0.781581,
    0.808556,
    0.84,
    0.903224,
    0.499807,
    0.515091,
    0.835985,
    0.646899,
    0.660713,
    0.895539,
    1.025679,
    0.748,
    0.752773,
    0.583763,
    1.178667,
    0.719018,
    0.695755,
    0.601425,
    0.859177,
    0.581485,
    0.82,
    0.631255,
    0.65763,
    0.862989,
    0.784752,
    0.584,
    0.571,
    0.673582,
    0.759303,
    0.766554,
    0.744415,
    0.552774,
    0.822222,
    0.572355,
    0.712078,
    1.053623,
    0.655739,
    0.676194,
    0.807284,
    0.698784,
    0.707501,
    0.55,
    0.634111,
    0.597101,
    0.976355,
    0.767687,
    0.791162,
    0.560248,
    0.698103,
    0.85308,
    0.510845,
    0.784756,
    0.482718,
    1.119703,
    0.693,
    0.557795,
    0.633,
    0.59241,
    0.627,
    0.618103,
    0.633648,
    0.816778,
    0.788,
    0.813,
    0.76,
    0.600962,
    0.640451,
    0.678062,
    0.607,
    0.557347,
    0.861,
    0.655782,
    0.627437,
    0.745,
    0.816673,
    0.835167,
    0.815946,
    0.692537,
    0.568713,
    0.671553,
    0.719,
    1.087171,
    0.886629,
    0.774093,
    0.830458,
    0.857526,
    0.910256,
    0.656525,
    0.700897,
    0.76241,
    0.90709,
    0.704828,
    0.946077,
    0.67354,
    0.838443,
    0.985419,
    0.823267,
    0.778833,
    0.666777,
    0.873765,
    0.648813,
    0.591441,
    0.734439,
    0.655,
    0.558981,
    0.898575,
    0.655583,
    0.636943,
    0.597,
    0.552592,
    0.558,
    0.578553,
    0.793,
    0.788,
    0.591304,
    0.804,
    0.825434,
    1.106,
    0.56,
    0.895661,
    0.680855,
    0.804461,
    0.595809,
    0.841427,
    0.558614,
    0.72815,
    0.627053,
    0.555357,
    0.506112,
    0.647,
    0.658095,
    0.77987,
    0.638,
    0.652203,
    0.716,
    0.882,
    0.726,
    0.96871,
    0.889586,
    0.647281,
    0.853398,
    0.609633,
    0.907154,
    0.859,
    0.594064,
    1.137,
    0.698534,
    0.665821,
    0.839251,
    0.722358,
    0.871891,
    0.666703,
    0.968733,
    0.567119,
    0.715212,
    0.711834,
    0.755898,
    1.103733,
    0.724649,
    0.651,
    0.851868,
    1.012554,
    0.718264,
    0.649495,
    0.699641,
    0.704,
    0.561492,
    0.809338,
    0.896206,
    0.651953,
    1.295,
    0.919174,
    0.534356,
    0.692173,
    0.535988,
    0.794568,
    0.626494,
    0.649,
    0.628555,
    0.60422,
    0.910923,
    0.695436,
    0.592796,
    0.739,
    0.947,
    0.635549,
    1.146,
    0.758539,
    0.525763,
    0.589382,
    0.779692,
    0.654,
    0.74008,
    0.656084,
    0.794751,
    0.619,
    0.759,
    0.442,
    0.616748,
    0.692487,
    0.734555,
    0.587551,
    0.6,
    0.542,
    0.68698,
    0.561076,
    0.97,
    0.834912,
    0.838,
    1.122398,
    0.62744,
    0.764906,
    0.449079,
    0.950708,
    0.713989,
    0.636,
    0.701,
    0.82011,
    0.837389,
    0.799,
    0.685761,
    0.63487,
    0.790198,
    0.677705,
    0.86,
    0.764256,
    0.765,
    0.955388,
    0.889,
    0.823,
    0.928,
    0.756,
    0.743,
    0.793,
    0.671002,
    0.824343,
    1.005772,
    0.637963,
    0.633965,
    0.650417,
    0.726751,
    0.783,
    0.9232,
    0.771343,
    0.895856,
    0.514063,
    0.625,
    0.692601,
    0.725722,
    0.78943,
    1.06989,
    0.841073,
    0.642501,
    0.547813,
    0.930168,
    0.528,
    0.774666,
    0.928193,
    0.730441,
    0.875,
    0.942271,
    0.557822,
    0.724975,
    0.56113,
    0.628896,
    0.861,
    0.67769,
    0.946697,
    0.959303,
    0.654094,
    0.871986,
    0.706839,
    0.811211,
    0.615,
    0.737,
    1.036,
    0.52626,
    0.636173,
    0.628,
    0.584123,
    0.513701,
    0.69733,
    0.616903,
    1.332453,
    0.780415,
    0.746889,
    0.592274,
    0.965571,
    0.751048,
    0.919851,
    0.671689,
    0.518873,
    0.583539,
    0.968,
    0.86445,
    0.604345,
    0.559103
  ]
}