{
  "1048576": [
    2.721388,
    2.860841,
    1.818875,
    2.495758,
    2.86,
    3.097,
    3.500897,
    2.808641,
    2.936776,
    2.532943,
    3.861718,
    2.238444,
    1.760025,
    1.865657,
    1.968668,
    1.881854,
    1.948019,
    2.974202,
    1.811,
    3.099937,
    2.08065,
    3.092453,
    2.39372,
    2.485817,
    1.945687,
    2.262102,
    2.178706,
    1.658,
    1.968122,
    1.899428,
    2.082797,
    2.818033,
    1.887199,
    1.621897,
    2.684582,
    3.997,
    1.7155,
    2.429,
    1.923254,
    1.821345,
    1.541222,
    1.976,
    1.595935,
    1.805663,
    2.896061,
    2.119,
    1.281,
    2.328955,
    2.10102,
    2.254,
    1.669,
    3.355204,
    1.722752,
    1.686978,
    2.003358,
    1.555778,
    3.182189,
    1.830684,
    1.578486,
    2.182674,
    2.450626,
    2.225413,
    2.101314,
    2.289,
    1.847,
    1.881528,
    1.937406,
    2.735322,
    3.326318,
    2.085826,
    2.724,
    2.04745,
    3.148,
    2.562445,
    2.575506,
    1.721713,
    2.460095,
    4.137669,
    2.635,
    1.674,
    2.460314,
    2.808654,
    1.689,
    1.174441,
    2.45869,
    3.322678,
    1.644,
    2.766752,
    2.436,
    2.804623,
    1.76681,
    3.111423,
    2.379329,
    1.752,
    2.197794,
    3.869831,
    2.461,
    2.157701,
    1.921,
    1.989,
    3.139461,
    1.370014,
    2.452393,
    2.279,
    1.67856,
    2.367407,
    1.696693
  ],
  "51200": [
    1.223,
    1.591186,
    1.93269,
    1.338138,
    1.519,
    0.708399,
    0.512133,
    0.680079,
    1.531,
    0.41939,
    0.521,
    0.545,
    0.71,
    0.866993,
    0.822,
    1.0,
    0.531,
    0.818,
    0.870106,
    0.681,
    0.675952,
    1.551,
    0.823947,
    0.519,
    1.056897,
    1.304488,
    1.796,
    1.490628,
    1.231,
    1.358876,
    1.854,
    1.44,
    1.045,
    0.846,
    0.939,
    1.071,
    1.178586,
    0.749,
    1.353047,
    0.516462,
    2.703362,
    1.315294,
    0.560211,
    0.676285,
    0.663701,
    1.079,
    1.590854,
    0.94379,
    0.614098,
    1.258675,
    0.714616,
    1.529014,
    0.586452,
    0.632816,
    0.559568,
    1.324532,
    1.378626,
    1.650164,
    0.74938,
    0.932214,
    0.4796,
    1.165746,
    1.546881,
    1.152,
    0.70419,
    0.463231,
    0.775216,
    1.273889,
    0.594903,
    0.777,
    2.012,
    0.66951,
    1.326692,
    1.949256,
    0.797163,
    1.209593,
    0.787614,
    1.924035,
    1.217507,
    1.001064,
    0.589901,
    1.295458,
    0.759458,
    1.282,
    0.866,
    1.236732,
    1.984417,
    0.703461,
    0.936116,
    0.733,
    0.929313,
    2.05,
    0.447666,
    0.798,
    1.466,
    1.299951,
    2.018,
    0.766,
    0.501,
    0.571381,
    0.657,
    0.828,
    0.896689,
    0.560589,
    0.788502,
    0.694842,
    0.827468,
    2.033532,
    1.348969,
    1.06971,
    1.424118,
    0.836,
    0.850483,
    1.481,
    0.540426,
    1.048835,
    1.037,
    0.468762,
    0.644,
    1.175,
    1.268646,
    0.688607,
    1.265,
    1.324,
    1.449,
    1.364,
    0.615587,
    1.145,
    0.529903,
    1.242239,
    0.931,
    1.411,
    1.808,
    1.511,
    1.285,
    0.73893,
    0.670933,
    0.681114,
    1.262897,
    1.174651,
    1.851,
    1.586355,
    1.513544,
    0.636712,
    1.301348,
    0.477783,
    0.550298,
    0.761418,
    1.108,
    1.261579,
    0.720909,
    1.813446,
    1.338113,
    1.689054,
    0.780487,
    0.884794,
    1.079,
    1.567,
    0.911,
    0.654,
    1.125,
    1.577,
    1.634,
    1.802,
    1.053,
    0.76,
    0.886,
    0.709716,
    1.182,
    1.27854,
    0.758876,
    1.292,
    0.581042,
    1.243182,
    1.614316,
    1.214,
    0.527707,
    0.678749,
    1.390007,
    0.971534,
    1.553,
    0.667,
    0.60389,
    0.422,
    0.680691,
    0.937382,
    2.094669,
    1.851561,
    1.266824,
    0.481336,
    1.997989,
    1.726612,
    1.028384,
    0.726464,
    0.568,
    1.986372,
    1.214883,
    0.489545,
    1.633,
    0.88155,
    1.791173,
    1.050398,
    0.556773,
    0.52671,
    1.462888,
    1.345686,
    0.514363,
    1.474448,
    0.69115,
    1.134265,
    1.091976,
    0.581,
    0.993897,
    1.161,
    1.269364,
    0.600026,
    1.117835,
    1.192,
    1.541,
    2.082461,
    0.584,
    0.520297,
    1.442903,
    1.001684,
    0.563987,
    1.478642,
    0.794362,
    1.186529,
    1.825185,
    1.893345,
    0.759536,
    1.15296,
    0.884772,
    1.330278,
    2.100186,
    1.989,
    1.866832,
    1.35723,
    1.214493,
    1.190628,
    1.629645,
    0.447222,
    1.368,
    1.425,
    0.517559,
    1.914,
    0.869359,
    0.521897,
    0.89237,
    0.584219,
    1.304515,
    0.735,
    0.747138,
    1.457724,
    0.942771,
    1.110724,
    0.573363,
    0.528085,
    1.809,
    0.888413,
    1.934404,
    1.491386,
    1.135174,
    1.90676,
    1.220089,
    0.637539,
    1.337075,
    1.396,
    1.494832,
    1.207093,
    0.579,
    0.698,
    0.75827,
    0.555,
    1.157761,
    0.773337,
    1.895463,
    1.420928,
    1.270225,
    0.678972,
    0.652525,
    0.612,
    0.975802,
    1.201905,
    0.646042,
    1.037,
    0.764,
    1.294091,
    0.642,
    1.27,
    0.562459,
    0.743877,
    1.479208,
    1.188,
    0.749527,
    0.683,
    1.198706,
    1.119,
    1.877722,
    0.911808,
    0.487149,
    0.599479,
    1.628,
    0.544603,
    0.945466,
    0.881244,
    0.742167,
    1.298443,
    0.861,
    1.694198,
    0.613788,
    0.680485,
    1.05867,
    1.744897,
    0.588161,
    1.267722,
    0.786985,
    0.56,
    1.251496,
    1.272,
    1.426447,
    0.689897,
    0.752787,
    1.561906,
    1.215954,
    0.715292,
    0.572816,
    1.03,
    1.38034,
    1.669929,
    1.304889,
    0.432459,
    1.433949,
    0.736936,
    1.651022,
    1.461406,
    0.475,
    1.199587,
    0.826,
    1.27271,
    0.565825,
    1.525,
    0.581105,
    0.700332,
    0.531322,
    0.546419,
    1.447,
    1.468968,
    1.004022,
    1.04739,
    0.634197,
    0.554668,
    0.614999,
    1.278751,
    0.6,
    0.736719,
    1.645,
    0.51224,
    1.068871,
    0.793008,
    0.789,
    1.003578,
    1.742458,
    1.407069,
    1.194734,
    0.496649,
    0.826925,
    0.796317,
    1.332065,
    1.447156,
    1.035149,
    0.934867,
    2.047762,
    0.405,
    0.904846,
    1.699824,
    1.358,
    0.981,
    0.872709,
    1.344521,
    0.482559,
    2.144,
    0.729347,
    1.879756,
    0.483992,
    1.263248,
    0.616599,
    0.940825,
    1.3,
    1.010485,
    0.874,
    1.222,
    0.675,
    1.141995,
    0.548534,
    0.662881,
    0.677,
    0.692227,
    0.704345,
    0.907913,
    0.540143,
    0.730761,
    0.685232,
    0.740177,
    0.699671,
    0.689473,
    0.621088,
    0.878175,
    0.444087,
    0.976653,
    0.846868,
    1.685356,
    0.393,
    1.256574,
    1.113,
    0.344587,
    0.966081,
    0.531157,
    0.583948,
    1.255061,
    0.538997,
    0.640806,
    1.303438,
    0.71,
    1.866344,
    0.545123,
    0.758457,
    0.689,
    0.487728,
    1.697,
    1.829252,
    0.844517,
    1.78853,
    0.685,
    0.952309,
    1.052883,
    1.966753,
    0.503075,
    0.56878,
    0.644663,
    1.702,
    1.84652,
    1.703392,
    0.64,
    0.768173,
    0.842,
    1.067792,
    0.565977,
    0.549086,
    0.87138,
    1.75521,
    1.10406,
    1.304668,
    0.698028,
    0.780986,
    0.573,
    0.744563,
    1.018,
    0.772,
    1.507308,
    1.511,
    1.118448,
    1.812117,
    0.784074,
    0.584,
    1.689,
    0.779,
    0.901351,
    0.671053,
    1.535704,
    0.556897,
    0.531416,
    0.643303,
    0.774,
    0.638408,
    1.782284,
    1.29507,
    0.574807,
    0.81092,
    1.18622,
    0.538,
    0.439243,
    0.750891,
    0.594363,
    0.588,
    1.978656,
    0.615169,
    0.816,
    1.23,
    1.892,
    0.8023,
    1.167357,
    0.571,
    0.675674,
    0.759,
    0.957704,
    1.302,
    0.620897,
    1.211,
    0.505926,
    1.088904,
    0.864,
    0.975,
    0.848412,
    0.686904,
    0.478,
    0.492,
    1.056,
    1.047103,
    0.765793,
    1.169876,
    0.655584,
    0.87892,
    0.805,
    0.627591,
    0.651336,
    1.414,
    1.82,
    1.766233,
    1.598,
    1.265502,
    1.270803,
    0.618,
    0.809,
    1.035,
    1.718513,
    1.028436,
    0.61,
    0.618,
    0.625,
    1.225,
    1.453,
    1.399,
    1.871,
    0.880698,
    1.171805,
    0.995,
    1.53561,
    1.888897,
    1.114,
    1.297,
    1.508,
    0.643,
    2.016609,
    0.72,
    1.263,
    1.752782,
    1.694,
    1.269,
    2.274,
    1.096802,
    0.796,
    1.525263,
    1.357117,
    1.662504,
    2.225408,
    1.307228,
    1.792116,
    1.507,
    0.654867,
    0.990802,
    1.621337,
    1.513153,
    0.591071,
    0.508461,
    1.107219,
    0.659,
    1.777703,
    1.893365,
    0.57506,
    1.263991,
    1.084291,
    1.573426,
    0.683,
    1.599,
    0.624557,
    1.886805,
    0.659,
    1.258844,
    1.673059,
    0.79436,
    1.50865,
    2.030792,
    1.546,
    0.555666,
    0.727498,
    1.663149,
    0.860681,
    1.22321,
    0.945297
  ],
  "5242880": [
    2.996445,
    5.180101,
    4.656364,
    4.215546,
    2.971546,
    3.680384,
    4.212302,
    4.181225,
    4.085122,
    4.923667,
    2.928138,
    3.303582,
    3.57552,
    4.353774,
    4.014298,
    3.369103,
    3.166396,
    4.775488,
    4.086213,
    3.758008,
    3.563642,
    5.139646,
    4.538278,
    3.768343,
    5.198073,
    4.380799,
    4.628088,
    6.400031,
    5.096763,
    3.666201,
    2.704219,
    3.407809,
    3.232,
    3.601683,
    4.014473,
    3.862565,
    2.942363,
    5.049639,
    4.008,
    3.807226,
    4.924468,
    3.611857,
    5.103541,
    3.293088,
    3.062878,
    4.21,
    3.999008,
    4.543217,
    3.767447,
    5.192,
    4.970447,
    3.94,
    3.298837,
    3.540468,
    3.325159
  ],
  "ALL": [
    1.223,
    1.591186,
    1.93269,
    1.338138,
    1.519,
    0.708399,
    0.512133,
    0.680079,
    1.531,
    0.41939,
    0.521,
    2.721388,
    2.860841,
    1.818875,
    2.495758,
    2.86,
    0.545,
    0.71,
    0.866993,
    0.822,
    1.0,
    0.531,
    0.818,
    0.870106,
    0.681,
    0.675952,
    1.551,
    0.823947,
    0.519,
    1.056897,
    3.097,
    2.996445,
    1.304488,
    1.796,
    1.490628,
    1.231,
    1.358876,
    1.854,
    1.44,
    1.045,
    0.846,
    0.939,
    1.071,
    1.178586,
    0.749,
    3.500897,
    2.808641,
    2.936776,
    1.353047,
    0.516462,
    2.703362,
    1.315294,
    0.560211,
    0.676285,
    0.663701,
    1.079,
    1.590854,
    2.532943,
    3.861718,
    2.238444,
    1.760025,
    1.865657,
    5.180101,
    4.656364,
    0.94379,
    0.614098,
    1.258675,
    0.714616,
    1.529014,
    0.586452,
    0.632816,
    0.559568,
    1.324532,
    1.378626,
    1.650164,
    0.74938,
    1.968668,
    1.881854,
    1.948019,
    2.974202,
    0.932214,
    0.4796,
    1.165746,
    1.546881,
    1.152,
    0.70419,
    0.463231,
    0.775216,
    1.273889,
    0.594903,
    0.777,
    1.811,
    3.099937,
    2.08065,
    4.215546,
    2.971546,
    2.012,
    0.66951,
    1.326692,
    1.949256,
    0.797163,
    1.209593,
    0.787614,
    1.924035,
    1.217507,
    1.001064,
    0.589901,
    1.295458,
    3.092453,
    2.39372,
    3.680384,
    4.212302,
    0.759458,
    1.282,
    0.866,
    1.236732,
    1.984417,
    0.703461,
    0.936116,
    0.733,
    2.485817,
    1.945687,
    2.262102,
    2.178706,
    1.658,
    1.968122,
    4.181225,
    4.085122,
    0.929313,
    2.05,
    0.447666,
    0.798,
    1.466,
    1.299951,
    2.018,
    0.766,
    0.501,
    0.571381,
    0.657,
    0.828,
    0.896689,
    1.899428,
    2.082797,
    2.818033,
    0.560589,
    0.788502,
    0.694842,
    0.827468,
    2.033532,
    1.348969,
    1.06971,
    1.424118,
    0.836,
    0.850483,
    1.481,
    0.540426,
    1.887199,
    1.621897,
    4.923667,
    2.928138,
    1.048835,
    1.037,
    0.468762,
    0.644,
    1.175,
    1.268646,
    0.688607,
    1.265,
    1.324,
    1.449,
    1.364,
    0.615587,
    1.145,
    2.684582,
    3.997,
    3.303582,
    0.529903,
    1.242239,
    0.931,
    1.411,
    1.808,
    1.511,
    1.285,
    0.73893,
    0.670933,
    0.681114,
    1.262897,
    1.174651,
    1.851,
    1.7155,
    2.429,
    1.923254,
    1.586355,
    1.513544,
    0.636712,
    1.301348,
    0.477783,
    0.550298,
    0.761418,
    1.108,
    1.261579,
    0.720909,
    1.813446,
    1.338113,
    1.689054,
    0.780487,
    1.821345,
    3.57552,
    0.884794,
    1.079,
    1.567,
    0.911,
    0.654,
    1.125,
    1.577,
    1.634,
    1.802,
    1.053,
    0.76,
    0.886,
    0.709716,
    1.182,
    1.27854,
    4.353774,
    0.758876,
    1.292,
    0.581042,
    1.243182,
    1.614316,
    1.214,
    0.527707,
    0.678749,
    1.390007,
    0.971534,
    1.553,
    0.667,
    0.60389,
    0.422,
    1.541222,
    4.014298,
    0.680691,
    0.937382,
    2.094669,
    1.851561,
    1.266824,
    0.481336,
    1.997989,
    1.726612,
    1.028384,
    0.726464,
    0.568,
    1.986372,
    1.214883,
    0.489545,
    1.633,
    1.976,
    0.88155,
    1.791173,
    1.050398,
    0.556773,
    0.52671,
    1.462888,
    1.345686,
    0.514363,
    1.474448,
    0.69115,
    1.134265,
    1.091976,
    1.595935,
    1.805663,
    3.369103,
    3.166396,
    0.581,
    0.993897,
    1.161,
    1.269364,
    0.600026,
    1.117835,
    1.192,
    1.541,
    2.082461,
    0.584,
    0.520297,
    1.442903,
    1.001684,
    2.896061,
    4.775488,
    4.086213,
    0.563987,
    1.478642,
    0.794362,
    1.186529,
    1.825185,
    1.893345,
    0.759536,
    1.15296,
    0.884772,
    1.330278,
    2.100186,
    1.989,
    1.866832,
    1.35723,
    1.214493,
    3.758008,
    1.190628,
    1.629645,
    0.447222,
    1.368,
    1.425,
    0.517559,
    1.914,
    0.869359,
    0.521897,
    0.89237,
    0.584219,
    1.304515,
    0.735,
    0.747138,
    1.457724,
    3.563642,
    0.942771,
    1.110724,
    0.573363,
    0.528085,
    1.809,
    0.888413,
    1.934404,
    1.491386,
    1.135174,
    1.90676,
    1.220089,
    0.637539,
    1.337075,
    1.396,
    2.119,
    5.139646,
    1.494832,
    1.207093,
    0.579,
    0.698,
    0.75827,
    0.555,
    1.157761,
    0.773337,
    1.895463,
    1.420928,
    1.270225,
    1.281,
    2.328955,
    2.10102,
    4.538278,
    3.768343,
    0.678972,
    0.652525,
    0.612,
    0.975802,
    1.201905,
    0.646042,
    1.037,
    0.764,
    1.294091,
    0.642,
    1.27,
    0.562459,
    0.743877,
    1.479208,
    1.188,
    2.254,
    0.749527,
    0.683,
    1.198706,
    1.119,
    1.877722,
    0.911808,
    0.487149,
    0.599479,
    1.628,
    0.544603,
    0.945466,
    0.881244,
    1.669,
    3.355204,
    5.198073,
    4.380799,
    0.742167,
    1.298443,
    0.861,
    1.694198,
    0.613788,
    0.680485,
    1.05867,
    1.744897,
    0.588161,
    1.722752,
    1.686978,
    2.003358,
    1.555778,
    4.628088,
    6.400031,
    5.096763,
    1.267722,
    0.786985,
    0.56,
    1.251496,
    1.272,
    1.426447,
    0.689897,
    0.752787,
    1.561906,
    1.215954,
    0.715292,
    0.572816,
    1.03,
    3.182189,
    3.666201,
    2.704219,
    1.38034,
    1.669929,
    1.304889,
    0.432459,
    1.433949,
    0.736936,
    1.651022,
    1.461406,
    0.475,
    1.199587,
    0.826,
    1.27271,
    0.565825,
    1.525,
    0.581105,
    0.700332,
    0.531322,
    0.546419,
    1.447,
    1.468968,
    1.004022,
    1.04739,
    0.634197,
    0.554668,
    0.614999,
    1.278751,
    0.6,
    0.736719,
    1.645,
    0.51224,
    1.830684,
    3.407809,
    1.068871,
    0.793008,
    0.789,
    1.003578,
    1.742458,
    1.407069,
    1.194734,
    0.496649,
    0.826925,
    0.796317,
    1.332065,
    1.447156,
    1.035149,
    0.934867,
    2.047762,
    1.578486,
    0.405,
    0.904846,
    1.699824,
    1.358,
    0.981,
    0.872709,
    1.344521,
    0.482559,
    2.144,
    0.729347,
    1.879756,
    0.483992,
    1.263248,
    0.616599,
    2.182674,
    2.450626,
    0.940825,
    1.3,
    1.010485,
    0.874,
    1.222,
    0.675,
    1.141995,
    0.548534,
    0.662881,
    2.225413,
    2.101314,
    2.289,
    1.847,
    1.881528,
    3.232,
    3.601683,
    0.677,
    0.692227,
    0.704345,
    0.907913,
    0.540143,
    0.730761,
    0.685232,
    0.740177,
    0.699671,
    0.689473,
    0.621088,
    0.878175,
    1.937406,
    2.735322,
    3.326318,
    2.085826,
    0.444087,
    0.976653,
    0.846868,
    1.685356,
    0.393,
    1.256574,
    1.113,
    0.344587,
    0.966081,
    0.531157,
    0.583948,
    1.255061,
    0.538997,
    0.640806,
    2.724,
    4.014473,
    1.303438,
    0.71,
    1.866344,
    0.545123,
    0.758457,
    0.689,
    0.487728,
    1.697,
    1.829252,
    0.844517,
    1.78853,
    0.685,
    2.04745,
    3.148,
    2.562445,
    3.862565,
    0.952309,
    1.052883,
    1.966753,
    0.503075,
    0.56878,
    0.644663,
    1.702,
    1.84652,
    1.703392,
    0.64,
    0.768173,
    0.842,
    1.067792,
    2.575506,
    2.942363,
    5.049639,
    0.565977,
    0.549086,
    0.87138,
    1.75521,
    1.10406,
    1.304668,
    0.698028,
    0.780986,
    0.573,
    0.744563,
    1.018,
    0.772,
    1.507308,
    1.511,
    1.721713,
    2.460095,
    1.118448,
    1.812117,
    0.784074,
    0.584,
    1.689,
    0.779,
    0.901351,
    0.671053,
    1.535704,
    0.556897,
    0.531416,
    4.137669,
    2.635,
    1.674,
    2.460314,
    2.808654,
    0.643303,
    0.774,
    0.638408,
    1.782284,
    1.29507,
    0.574807,
    0.81092,
    1.18622,
    0.538,
    0.439243,
    0.750891,
    0.594363,
    1.689,
    1.174441,
    4.008,
    3.807226,
    0.588,
    1.978656,
    0.615169,
    0.816,
    1.23,
    1.892,
    0.8023,
    1.167357,
    0.571,
    0.675674,
    0.759,
    0.957704,
    2.45869,
    3.322678,
    1.644,
    2.766752,
    1.302,
    0.620897,
    1.211,
    0.505926,
    1.088904,
    0.864,
    0.975,
    0.848412,
    0.686904,
    0.478,
    0.492,
    1.056,
    1.047103,
    2.436,
    4.924468,
    3.611857,
    0.765793,
    1.169876,
    0.655584,
    0.87892,
    0.805,
    0.627591,
    0.651336,
    1.414,
    1.82,
    1.766233,
    1.598,
    2.804623,
    1.76681,
    3.111423,
    5.103541,
    3.293088,
    1.265502,
    1.270803,
    0.618,
    0.809,
    1.035,
    1.718513,
    1.028436,
    0.61,
    0.618,
    0.625,
    1.225,
    1.453,
    1.399,
    2.379329,
    1.752,
    3.062878,
    1.871,
    0.880698,
    1.171805,
    0.995,
    1.53561,
    1.888897,
    1.114,
    1.297,
    1.508,
    0.643,
    2.016609,
    0.72,
    2.197794,
    4.21,
    3.999008,
    4.543217,
    1.263,
    1.752782,
    1.694,
    1.269,
    2.274,
    1.096802,
    0.796,
    1.525263,
    1.357117,
    1.662504,
    2.225408,
    1.307228,
    1.792116,
    1.507,
    3.869831,
    2.461,
    0.654867,
    0.990802,
    1.621337,
    1.513153,
    0.591071,
    0.508461,
    1.107219,
    0.659,
    2.157701,
    1.921,
    1.989,
    3.139461,
    3.767447,
    5.192,
    4.970447,
    3.94,
    1.777703,
    1.893365,
    0.57506,
    1.263991,
    1.084291,
    1.573426,
    0.683,
    1.599,
    0.624557,
    1.886805,
    0.659,
    1.370014,
    2.452393,
    2.279,
    1.67856,
    3.298837,
    1.258844,
    1.673059,
    0.79436,
    1.50865,
    2.030792,
    1.546,
    0.555666,
    0.727498,
    1.663149,
    0.860681,
    1.22321,
    0.945297,
    2.367407,
    1.696693,
    3.540468,
    3.325159
  ]
}