[
  3.280303594852158,
  2.6157511830383666,
  14.469024359209989,
  18.355647822655886,
  27.85186041923214,
  15.313298395633895,
  12.887003604426035,
  29.535370296886843,
  30.403347988830163,
  18.544061823354077,
  16.41307834175287,
  12.652643030885582,
  2.24304621428591,
  17.308700542039787,
  13.119353670534766,
  14.163705623272243,
  22.324228229276283,
  10.688698113306081,
  7.160060026445218,
  30.092252278741512,
  20.342928984232532,
  15.099124020285855,
  20.90738697881554,
  16.892100995679773,
  12.548546590933466,
  22.705213533000567,
  4.387915880637969,
  12.944418445816062,
  17.508275667399406,
  12.791609641475587,
  11.36480360231308,
  9.671471197620498,
  11.465095697665951,
  13.782509889739927,
  11.950356576746461,
  11.968524425291553,
  13.077235149052525,
  12.994670399608934,
  27.840874313966857,
  5.791154864145695,
  29.031011325196957,
  6.468088131897647,
  15.049112952438364,
  15.249012888326,
  23.76218945902017,
  23.544483617352903,
  27.111106696070856,
  15.455870304718987,
  17.87398377533467,
  15.448871076694324,
  21.89030650439542,
  12.256626437487087,
  12.389684518909494,
  36.222106213169596,
  14.994487522754989,
  13.923798769433786,
  17.72025053999419,
  12.323519672476587,
  14.375030725256508,
  25.663087155762014,
  28.825368436617634,
  19.72501818917708,
  19.633068441775816,
  17.289766992013437,
  20.024212482880067,
  16.537798084342267,
  17.902592404709004,
  28.023452420884023,
  21.39918663488479,
  16.609593904304376,
  4.845528974931676,
  28.696252576091037,
  27.860200491360374,
  15.143024128964012,
  11.90933342642614,
  9.820372640411838,
  7.360701808642431,
  18.330989951818857,
  33.13248136487615,
  8.707586740857963,
  18.629717442648893,
  14.347573135385009,
  21.4297679434228,
  26.068697186013473,
  21.430777606767816,
  13.93147500927348,
  25.314440129609938,
  9.472545526066133,
  11.595350246848197,
  49.601972568215935,
  9.827327111059903,
  20.874764162969736,
  48.682958734689024,
  15.994897261478233,
  18.033267110404335,
  11.899709610750516,
  16.603665683797246,
  24.07762479193994,
  21.36858094353216,
  10.070775255966819,
  20.121651511427867,
  14.556124861772371,
  17.11069128237708,
  27.25024629230236,
  27.858115005103773,
  20.89970185219221,
  13.420459090342856,
  22.70760645880596,
  30.184554356161158,
  19.06428418415342,
  38.07572826370026,
  15.410488354846848,
  16.85871011049019,
  24.169741697416967,
  31.95645725348155,
  33.09979867236957,
  18.43275954451101,
  10.470002404104363,
  13.83079719448086,
  5.443657233431999,
  19.769407219606432,
  14.313360768367426,
  18.52325276236844,
  17.821228320679797,
  29.173347585961153,
  19.30731826949832,
  9.38214762085925,
  13.036839121822585,
  17.53782815820138,
  20.161588203716384,
  19.39265175416155,
  22.377433161511085,
  24.865460774071266,
  27.466721236681792,
  22.064332181721173,
  16.325110462426824,
  13.379361058910037,
  19.899524112754648,
  17.105615029123957,
  22.908890468222747,
  9.015144341407233,
  21.11192478868738,
  10.773139717260179,
  14.93883970602188,
  14.988668109240159,
  18.607954545454547,
  13.546357911734827,
  3.185782790119268,
  15.669016779962021,
  23.16058951656249,
  27.815336739685783,
  12.218909125640979,
  28.66089306467645,
  13.59823949510049,
  13.136234990598062,
  17.34632480370845,
  9.769586903085697,
  27.73092451091964,
  12.997888587258503,
  22.131967346056108,
  23.24132371225325,
  12.873387190606328,
  6.518720571211101,
  16.848718571352148,
  16.10343172734997,
  14.790681373948175,
  13.817585926398468,
  26.707484945948945,
  18.715312382850726,
  22.681186319539485,
  11.055016513325445,
  28.936616880959605,
  11.543916937375924,
  37.43404749494784,
  22.14298077651208,
  22.07515934557769,
  14.806409027614514,
  15.206869140131648,
  32.34069614953154,
  21.205975746838856,
  16.45920529428558,
  21.5862712633011,
  8.440147371415964,
  10.743481741001723,
  19.49061355856349,
  31.01184794630548,
  19.10931344175365,
  7.666413850576324,
  18.214115689388994,
  19.042114762028817,
  15.802811790682961,
  21.042689352077904,
  25.983814662012083,
  10.304652731629712,
  26.64594656165588,
  34.147877513909435,
  23.69534514892977,
  10.574859023406118,
  25.92408478086035,
  21.313178116995367,
  23.127877743566874,
  13.417863826914065,
  16.87191153863589,
  14.2625955049525
]