[
  0.245311,
  0.43098,
  0.27898,
  0.250979,
  0.281099,
  0.153981,
  0.206978,
  0.155121,
  0.44098,
  0.473979,
  0.36198,
  0.262978,
  0.502358,
  0.49063,
  0.28209,
  0.28498,
  0.321184,
  0.18398,
  0.295744,
  0.315979,
  0.47798,
  0.186742,
  0.164272,
  0.27498,
  0.158221,
  0.14698,
  0.209623,
  0.20798,
  0.35498,
  0.20998,
  0.305091,
  0.368568,
  0.139979,
  0.31998,
  0.247353,
  0.34097,
  0.379841,
  0.205751,
  0.48898,
  0.394887,
  0.622338,
  0.229042,
  0.39798,
  0.221963,
  0.362747,
  0.239848,
  0.303587,
  0.185245,
  0.220981,
  0.313977,
  0.495979,
  0.34998,
  0.518982,
  0.262602,
  0.209981,
  0.35098,
  0.316068,
  0.333457,
  0.436981,
  0.173545,
  0.368982,
  0.552238,
  0.405979,
  0.258979,
  0.326028,
  0.276868,
  0.381809,
  0.165287,
  0.270977,
  0.510979,
  0.447147,
  0.290606,
  0.317964,
  0.34698,
  0.435648,
  0.650796,
  0.26398,
  0.48298,
  0.197985,
  0.297032,
  0.424592,
  0.263267,
  0.312496,
  0.366456,
  0.378418,
  0.341726,
  0.295312,
  0.471135,
  0.255493,
  0.361519,
  0.278667,
  0.263997,
  0.259398,
  0.444076,
  0.151449,
  0.212846,
  0.354974,
  0.419981,
  0.21798,
  0.38898,
  0.517981,
  0.16998,
  0.36698,
  0.341987,
  0.32598,
  0.378199,
  0.23698,
  0.41498,
  0.394155,
  0.352951,
  0.24098,
  0.34198,
  0.39298,
  0.203022,
  0.273985,
  0.229896,
  0.458978,
  0.27664,
  0.220979,
  0.47798,
  0.273981,
  0.406021,
  0.256981,
  0.239051,
  0.311851,
  0.17587,
  0.334957,
  0.44998,
  0.272979,
  0.37458,
  0.19098,
  0.40196,
  0.557657,
  0.28598,
  0.43398,
  0.399957,
  0.39986,
  0.218196,
  0.208983,
  0.271012,
  11.80605,
  0.247164,
  0.520017,
  0.41998,
  0.260978,
  0.333398,
  0.239049,
  0.38898,
  0.20598,
  0.19198,
  0.495874,
  0.212761,
  0.22298,
  0.221745,
  0.21343,
  0.27498,
  0.309961,
  0.251868,
  0.24598,
  0.19198,
  0.19698,
  0.604979,
  0.13198,
  0.179975,
  0.51698,
  0.213063,
  0.705407,
  0.33198,
  0.16598,
  0.42698,
  0.209159,
  0.432403,
  0.15498,
  0.347962,
  0.20098,
  0.29298,
  0.19798,
  0.35898,
  0.191979,
  0.20198,
  0.165977,
  0.270981,
  0.225981,
  0.429979,
  0.345984,
  0.332554,
  0.42798,
  0.309978,
  0.470984,
  0.496981,
  0.23198,
  0.413417,
  0.171301,
  0.374252,
  0.22594,
  0.149264,
  0.219822,
  0.278415,
  0.257722,
  0.359982,
  0.311979,
  0.275979,
  0.231065,
  0.18398,
  0.170575,
  0.226271,
  0.38298,
  0.384126,
  0.237981,
  0.296623,
  0.442287,
  0.277443,
  0.270979,
  0.162978,
  0.32798,
  0.241978,
  0.394022,
  0.393231,
  0.348584,
  0.261134,
  0.256864,
  0.293765,
  0.380226,
  0.184781,
  0.29751,
  0.308872,
  0.419926,
  0.20198,
  0.27698,
  0.454541,
  0.192884,
  0.25698,
  0.283994,
  0.37998,
  0.454748,
  0.28698,
  0.34798,
  0.473057,
  0.22198,
  0.45898,
  0.435108,
  0.195839,
  0.207527,
  0.275878,
  0.22284,
  0.274257,
  0.326212,
  0.434441,
  0.31298,
  0.440161,
  0.23813,
  0.514514,
  0.215794,
  0.252448,
  0.157448,
  0.384365,
  0.237125,
  0.508978,
  0.810695,
  0.17298,
  0.22898,
  0.178293,
  0.51698,
  0.20598,
  0.20898,
  0.416825,
  0.40898,
  0.464907,
  0.48777,
  0.19198,
  0.472379,
  0.210456,
  0.18652,
  0.464528,
  0.451948,
  0.422979,
  0.239062,
  0.178976,
  0.23398,
  0.28079,
  0.31344,
  0.392979,
  0.239138,
  0.375467,
  0.425963,
  0.21003,
  0.392767,
  0.218322,
  0.408056,
  0.43998,
  0.24098,
  0.17698,
  0.477595,
  0.36698,
  0.34298,
  0.261506,
  0.28398,
  0.27798,
  0.27798,
  0.307686,
  0.364691,
  0.464487,
  0.318859,
  0.432754,
  0.167616,
  0.22733,
  0.412529,
  0.162986,
  0.444979,
  0.160941,
  0.448811,
  0.51641,
  0.35011,
  0.28398,
  0.403969,
  0.143726,
  0.27598,
  0.45298,
  0.41598,
  0.381032,
  0.270981,
  0.222209,
  0.47998,
  0.403908,
  0.34898,
  0.18098,
  0.442548,
  0.510598,
  0.17398,
  0.34998,
  0.39598,
  0.44098,
  0.21898,
  0.57598,
  0.178891,
  0.34198,
  0.27998,
  0.270274,
  0.259161,
  0.255544,
  0.44808,
  0.260717,
  0.462819,
  0.21298,
  0.34298,
  0.245779,
  0.246338,
  0.35298,
  0.41098,
  0.21698,
  0.61298,
  0.397095,
  0.316341,
  0.215671,
  0.332981,
  0.214978,
  0.16798,
  0.25498,
  0.467425,
  0.39098,
  0.20898,
  0.254673,
  0.47298,
  0.297563,
  0.458979,
  0.180294,
  0.519606,
  0.158663,
  0.48122,
  0.50798,
  0.254844,
  0.384678,
  0.348922,
  0.230072,
  0.21398,
  0.160307,
  0.208677,
  0.274911,
  0.38198,
  0.270197,
  0.25598,
  0.213236,
  0.396979,
  0.512898,
  0.348953,
  0.306672,
  0.401842,
  0.346005,
  0.40698,
  0.58998,
  0.341981,
  0.34398,
  0.309476,
  0.50798,
  0.21827,
  0.209614,
  0.45298,
  0.35198,
  0.216027,
  0.21698,
  0.17798,
  0.379769,
  0.30598,
  0.30998,
  0.339846,
  0.259634,
  0.207615,
  0.216526,
  0.203011,
  0.258312,
  0.19598,
  0.488674,
  0.329035,
  0.213252,
  0.158711,
  0.506246,
  0.184844,
  0.481536,
  0.312958,
  0.436908,
  0.23087,
  0.180715,
  0.472971,
  0.458235,
  0.257035,
  0.167265,
  0.159966,
  0.19701,
  0.472882,
  0.240979,
  0.173555,
  0.420314,
  0.258189,
  0.215008,
  0.333514,
  0.401857,
  0.187521,
  0.13498,
  0.458621,
  0.133129,
  0.374098,
  0.208547,
  0.20698,
  0.243447,
  0.233644,
  0.460926,
  0.317934,
  0.320994,
  0.399752,
  0.241153,
  0.207981,
  0.435982,
  0.454842,
  0.38698,
  0.370357,
  0.156185,
  0.203824,
  0.31698,
  0.295594,
  0.29098,
  0.243289,
  0.45598,
  0.23598,
  0.57854,
  0.195547,
  0.364391,
  0.44698,
  0.455254,
  0.425997,
  0.442244,
  0.21709,
  0.192988,
  0.38998,
  0.239979,
  0.209513,
  0.16598,
  0.26098,
  0.47698,
  0.465064,
  0.27598,
  0.18098,
  0.33098,
  0.248747,
  0.264874,
  0.267979,
  0.159882,
  0.36398,
  0.214337,
  0.47798,
  0.199979,
  0.473979,
  0.49798,
  0.20298,
  0.26698,
  0.42398,
  0.258875,
  0.370981,
  0.280978,
  0.366041,
  0.422979,
  0.23298,
  0.386981,
  0.36698,
  0.406349,
  0.17498,
  0.32498,
  0.28198,
  0.110891,
  0.203768,
  0.19398,
  0.281238,
  0.170989,
  0.190915,
  0.22698,
  0.17998,
  0.262433,
  0.38498,
  0.214392,
  0.326376,
  0.186335,
  0.23198,
  0.427783,
  0.42298,
  0.222472,
  0.22898,
  0.24398,
  0.32798,
  0.19498,
  0.273999,
  0.368099,
  0.34398,
  0.302979,
  0.398417,
  0.339979,
  0.193936,
  0.41098,
  0.207871,
  0.517252,
  0.229979,
  0.455891,
  0.254872,
  0.151985,
  0.501307,
  0.424976,
  0.224981,
  0.19998,
  0.443959,
  0.382005,
  0.18298,
  0.39998,
  0.28698,
  0.31898,
  0.31798,
  0.16998,
  0.21998,
  0.33198,
  0.343285,
  0.17998,
  0.22098,
  0.28998,
  0.34298,
  0.151393,
  0.252513,
  0.229908,
  0.306293,
  0.194658,
  0.344276,
  0.329779,
  0.190904,
  0.233537,
  0.287788,
  0.442979,
  0.297974,
  0.339196,
  0.43298,
  0.16898,
  0.258825,
  0.205129,
  0.339981,
  0.265222,
  0.258916,
  0.42698,
  0.15398,
  0.616669,
  0.311592,
  0.35198,
  0.29598,
  0.41398,
  0.23198,
  0.22498,
  0.333733,
  0.165285,
  0.324965,
  0.261856,
  0.21398,
  0.36698,
  0.428451,
  0.36028,
  0.240051,
  0.293103,
  0.215132,
  0.227871,
  0.235871,
  0.330196,
  0.423869,
  0.66598,
  0.295921,
  0.411219,
  0.175023,
  0.19141,
  0.330749,
  0.18098,
  0.484712,
  0.425116,
  0.19898,
  0.174584,
  0.286108,
  0.239979,
  0.160043,
  0.358835,
  0.388619,
  0.31398,
  0.352999,
  0.48198,
  0.391241,
  0.458036,
  0.44098,
  0.40698,
  0.376688,
  0.44698,
  0.22398,
  0.399344,
  0.387981,
  0.53998,
  1.295829,
  0.303007,
  0.205909,
  0.418024,
  0.183052,
  0.209475,
  0.430978,
  0.360747,
  0.536217,
  0.160172,
  0.501015,
  0.226981,
  0.23798,
  0.20698,
  0.341774,
  0.22698,
  0.51998,
  0.25798,
  0.19736,
  0.23498,
  0.39939,
  0.36598,
  0.349241,
  0.172869,
  0.450497,
  0.245967,
  0.254556,
  0.141202,
  0.520806,
  0.209962,
  0.293784,
  0.441754,
  0.396654,
  0.243056,
  0.21772,
  0.219609,
  0.136436,
  0.154997,
  0.452976,
  0.148976,
  0.231,
  0.18098,
  0.371842,
  0.300084,
  0.24998,
  0.47483,
  0.29798,
  0.25598,
  0.224985,
  0.249061,
  0.15798,
  0.34698,
  0.492435,
  0.24198,
  0.398225,
  0.37566,
  0.231901,
  0.253353,
  0.253086,
  0.194093,
  0.40998,
  0.158518,
  0.339883,
  0.216979,
  0.308779,
  0.161788,
  0.322321,
  0.198051,
  0.19198,
  0.251161,
  0.148346,
  0.305721,
  0.483979,
  0.40498,
  0.250818,
  0.394128,
  0.28798,
  0.318979,
  0.40198,
  0.36598,
  0.16098,
  0.33798,
  0.307132,
  0.38998,
  0.22398,
  0.256965,
  0.106208,
  0.382515,
  0.185259,
  0.236555,
  0.183816,
  0.391979,
  0.153044,
  0.196981,
  0.236039,
  0.279976,
  0.12898,
  0.491918,
  0.243635,
  0.224925,
  0.175509,
  0.232687,
  0.391343,
  0.217867,
  0.17398,
  0.36698,
  0.44598,
  0.21398,
  0.24298,
  0.216979,
  0.166073,
  0.13598,
  0.182125,
  0.17898,
  0.318899,
  0.309365,
  0.326104,
  0.276773,
  0.173552,
  0.238979,
  0.338979,
  0.153796,
  0.289158,
  0.347362,
  0.635724,
  0.284979,
  0.49198,
  26.088406,
  0.311981,
  0.158776,
  0.239921,
  0.439307,
  0.32409,
  0.55498
]