{
  "1000": [
    0.51399,
    0.576982,
    0.557984,
    0.37298,
    0.96898,
    0.643024,
    0.66998,
    0.64598,
    0.49669,
    0.873895,
    0.510383,
    0.783972,
    0.374857,
    0.666023,
    0.712023,
    0.515979,
    0.575456,
    0.704368,
    0.834032,
    0.461418,
    0.351992,
    0.436922,
    0.649037,
    0.703132,
    0.521023,
    1.040181,
    0.393988,
    0.401367,
    0.560057,
    0.570024,
    0.459265,
    0.545513,
    0.764012,
    0.28098,
    0.69198,
    0.667792,
    0.606024
  ],
  "1048576": [
    0.574981,
    0.433365,
    0.50215,
    0.520288,
    0.73498,
    0.402986,
    0.662208,
    0.545776,
    0.689138,
    0.365995,
    0.315033,
    0.975546,
    0.500141,
    0.507791,
    1.051973,
    0.637306,
    0.431798,
    0.567648,
    0.580388,
    0.504003,
    0.496081,
    0.570982,
    0.604868,
    0.404886,
    0.601959,
    0.69498,
    0.883991,
    0.564808,
    0.537322,
    0.51798,
    0.41498,
    0.453884,
    0.449157,
    0.621979,
    0.515987,
    0.696042,
    0.566604,
    0.61998,
    0.409974,
    0.568108,
    0.49598,
    0.836065,
    0.408555,
    0.902036,
    0.613271,
    0.51398,
    0.808815,
    0.361983,
    0.648989,
    0.815995,
    0.501872,
    0.375324
  ],
  "51200": [
    0.491384,
    0.365028,
    0.691985,
    0.42798,
    0.758982,
    0.61598,
    0.753982,
    0.576982,
    0.45998,
    0.693049,
    0.679092,
    0.572981,
    0.39898,
    0.370982,
    0.729759,
    0.863982,
    0.898762,
    0.885005,
    1.032487,
    0.369502,
    0.64904,
    0.900392,
    0.714042,
    0.528434,
    0.702784,
    0.538851,
    0.252441,
    0.446718,
    0.616982,
    0.464117,
    0.449748,
    1.001188,
    0.465979,
    0.335126,
    0.428796,
    0.464054,
    0.515626,
    0.49398,
    0.464856,
    0.676137,
    0.671413,
    0.467097,
    0.797063,
    0.479968,
    0.61198,
    0.610631,
    0.569998,
    0.679271,
    0.677519,
    0.736331,
    0.960239,
    1.036946,
    0.540936,
    0.494025,
    0.613677,
    0.45712,
    0.64744,
    0.556723,
    0.654711,
    0.59919,
    0.539368,
    0.398419,
    0.998982,
    0.573063,
    0.852034,
    0.358902,
    0.560231,
    0.453098,
    0.377961,
    0.722996,
    0.883844,
    0.436319,
    0.638499,
    0.583989,
    0.500983,
    0.639098,
    0.741022,
    0.548512,
    0.719983,
    0.513036,
    0.385982,
    0.263933,
    0.646983,
    0.478045,
    0.684146,
    0.657023,
    0.550938,
    0.595389,
    0.506267,
    0.933979,
    0.429983,
    0.4176,
    0.566633,
    0.482982,
    0.725093,
    0.635527,
    0.471991,
    1.02998,
    0.786981,
    0.575271,
    0.432587,
    0.597071,
    0.616535,
    0.450097,
    0.914822,
    0.750117,
    0.597576,
    0.870038,
    0.435672,
    0.417982,
    0.642064,
    0.627982,
    0.547982,
    0.634917,
    0.570934,
    0.545065,
    0.81798,
    0.704996,
    0.484009,
    0.59898,
    0.50228,
    0.8226,
    0.53398,
    0.966988,
    0.374269,
    0.489388,
    0.515981,
    0.694071,
    0.573985,
    0.295102,
    0.549108,
    0.81798,
    0.460987,
    0.549159,
    0.54195,
    0.669045,
    0.639394,
    0.82828,
    0.45666,
    0.532982,
    0.454091,
    0.545719,
    0.640187,
    0.718982,
    0.69787,
    0.64798,
    0.438594,
    0.383248,
    0.506143,
    0.757972,
    0.596983,
    0.883564,
    0.695457,
    0.485168,
    0.360216,
    0.501557,
    0.627994,
    0.68898,
    0.611154,
    0.39198,
    0.486589,
    0.696696,
    0.505992,
    0.640983,
    0.662982,
    0.726418,
    0.560849,
    0.62302,
    0.715082,
    0.599071,
    0.572193,
    0.472981,
    0.529991,
    0.571984,
    0.71208,
    0.458338,
    0.564959,
    0.762932,
    0.392,
    0.730798,
    0.48698,
    0.692979,
    0.577483,
    0.669923,
    0.38202,
    0.510923,
    0.44601,
    0.610379,
    0.415997,
    0.44708,
    0.504761,
    0.58098,
    0.312019,
    0.479531,
    0.53698,
    0.471041,
    0.978048,
    0.830051,
    0.456828,
    0.842985,
    0.538982,
    0.528159,
    0.706456,
    0.486994,
    0.435982,
    0.50298,
    0.478948,
    0.275043,
    0.443647,
    0.874181,
    0.389043,
    0.672056,
    0.606982,
    0.617116,
    0.537847,
    0.722726,
    0.433039,
    0.57302,
    0.447982,
    0.586931,
    0.434988,
    0.407141,
    0.679892,
    0.397982,
    0.649978,
    0.281664,
    0.365155,
    0.660107,
    0.49398,
    0.458383,
    0.614038,
    0.811031,
    0.458879,
    0.670991,
    0.38511,
    0.359018,
    0.524465,
    0.550663,
    0.649741,
    0.990911,
    0.465777,
    0.54703,
    0.435982,
    0.427985,
    0.803982,
    0.642879,
    0.618984,
    0.488572,
    0.716026,
    0.484639,
    0.690257,
    0.518023,
    0.452719,
    0.51298,
    0.42098,
    0.483981,
    0.352996,
    0.505674,
    0.547002,
    0.427884,
    0.528041,
    0.902012,
    0.414008,
    0.357012,
    0.400869,
    0.648585,
    0.608986,
    0.739831,
    0.51136,
    0.513156,
    0.57998,
    0.423873,
    0.551138,
    0.6162,
    0.539982,
    0.402702,
    0.545168,
    1.044043,
    0.483982,
    0.652914,
    0.563004,
    0.601958,
    0.704399,
    0.71009,
    1.090773,
    1.030401,
    0.837469,
    0.943994,
    0.362039,
    1.327443,
    0.61936,
    0.474882,
    0.3582,
    0.530009,
    0.807869,
    0.81213,
    0.572963,
    0.69398,
    0.421786,
    0.455984,
    0.55873,
    0.515085,
    0.537123,
    0.402132,
    0.45498,
    0.339949,
    0.358367,
    0.573047,
    0.641615,
    0.543451,
    0.517999,
    0.602048,
    0.79341,
    0.45198,
    0.765286,
    0.474478,
    0.32219,
    0.624872,
    0.603039,
    0.656021,
    0.362038,
    0.626478,
    0.522787,
    0.461959,
    0.780938,
    0.621675,
    0.561959,
    0.818051,
    0.564072,
    0.414085,
    0.606001,
    0.497182,
    0.512107,
    0.972829,
    1.172878,
    0.878985,
    0.477985,
    0.604036,
    0.89798,
    0.625043,
    0.980032,
    0.992696,
    0.612982,
    0.639982,
    0.414733,
    0.417985,
    0.529985,
    0.692437,
    0.64798,
    0.710954,
    0.569072,
    0.56198,
    0.596608,
    0.380724,
    0.374307,
    0.433363,
    0.358401,
    0.515096,
    0.620466,
    0.67032,
    0.814056,
    0.221066,
    0.38498,
    0.517938,
    0.733431,
    0.65109,
    0.57998,
    0.637939,
    0.472085,
    0.740736,
    0.355,
    0.822917,
    0.624019,
    0.326017,
    0.867536,
    0.527061,
    0.63933,
    0.622801,
    0.646732,
    0.664874,
    0.70411,
    0.819196,
    0.649146,
    0.660216,
    0.459694,
    0.734039,
    0.670982,
    0.431859,
    0.4921,
    0.544313,
    0.440003,
    0.396981,
    0.903397,
    0.430983,
    0.778729,
    0.725485,
    0.65998,
    0.312047,
    0.31198,
    0.93498,
    0.571373,
    0.451813,
    0.926981,
    0.657979,
    0.553133,
    0.592327,
    0.577631,
    0.429012,
    0.679982,
    0.527982,
    0.71498,
    0.467984,
    0.659411,
    0.353872,
    0.403528,
    0.650036,
    0.547043,
    0.333359,
    0.555931,
    0.615989,
    0.418243,
    0.523979,
    0.574034,
    0.356303,
    0.446794,
    0.651984,
    0.582017,
    0.480685,
    0.376661,
    0.512679,
    0.553869,
    0.664533,
    0.506093,
    0.668086,
    0.510071,
    0.561231,
    0.619082,
    0.509982
  ],
  "5242880": [
    0.833264,
    0.442949,
    0.450991,
    0.455594,
    0.49473,
    0.660009,
    0.48198,
    0.657122,
    1.128035,
    0.627596,
    0.996985,
    0.568895,
    0.674175,
    0.721008,
    0.626562,
    0.351316,
    0.46898,
    0.771947,
    0.791867,
    0.324923,
    0.328022,
    0.395008,
    0.333987
  ],
  "ALL": [
    0.491384,
    0.365028,
    0.691985,
    0.42798,
    0.758982,
    0.61598,
    0.753982,
    0.576982,
    0.574981,
    0.51399,
    0.45998,
    0.693049,
    0.679092,
    0.572981,
    0.39898,
    0.370982,
    0.729759,
    0.863982,
    0.898762,
    0.885005,
    1.032487,
    0.369502,
    0.64904,
    0.900392,
    0.714042,
    0.528434,
    0.702784,
    0.538851,
    0.433365,
    0.252441,
    0.446718,
    0.616982,
    0.464117,
    0.449748,
    1.001188,
    0.465979,
    0.335126,
    0.428796,
    0.464054,
    0.515626,
    0.49398,
    0.464856,
    0.50215,
    0.520288,
    0.73498,
    0.676137,
    0.671413,
    0.467097,
    0.797063,
    0.479968,
    0.61198,
    0.610631,
    0.569998,
    0.402986,
    0.679271,
    0.677519,
    0.736331,
    0.960239,
    1.036946,
    0.540936,
    0.494025,
    0.662208,
    0.545776,
    0.613677,
    0.45712,
    0.64744,
    0.556723,
    0.654711,
    0.59919,
    0.539368,
    0.398419,
    0.689138,
    0.833264,
    0.576982,
    0.557984,
    0.37298,
    0.96898,
    0.998982,
    0.573063,
    0.852034,
    0.358902,
    0.560231,
    0.442949,
    0.453098,
    0.377961,
    0.722996,
    0.883844,
    0.436319,
    0.638499,
    0.583989,
    0.500983,
    0.643024,
    0.639098,
    0.741022,
    0.548512,
    0.719983,
    0.513036,
    0.385982,
    0.263933,
    0.365995,
    0.450991,
    0.646983,
    0.478045,
    0.684146,
    0.657023,
    0.550938,
    0.595389,
    0.506267,
    0.933979,
    0.429983,
    0.315033,
    0.4176,
    0.566633,
    0.482982,
    0.725093,
    0.635527,
    0.471991,
    1.02998,
    0.786981,
    0.575271,
    0.432587,
    0.597071,
    0.616535,
    0.450097,
    0.914822,
    0.750117,
    0.597576,
    0.975546,
    0.500141,
    0.507791,
    0.455594,
    0.49473,
    0.870038,
    0.435672,
    0.417982,
    0.642064,
    0.627982,
    0.547982,
    0.634917,
    0.570934,
    0.545065,
    0.66998,
    0.81798,
    0.704996,
    0.484009,
    0.59898,
    0.50228,
    0.8226,
    0.53398,
    0.966988,
    0.64598,
    0.374269,
    0.489388,
    0.515981,
    0.694071,
    0.573985,
    0.295102,
    0.549108,
    0.81798,
    0.460987,
    0.549159,
    0.54195,
    0.49669,
    0.669045,
    0.639394,
    0.82828,
    0.45666,
    1.051973,
    0.637306,
    0.660009,
    0.532982,
    0.454091,
    0.545719,
    0.640187,
    0.718982,
    0.69787,
    0.64798,
    0.431798,
    0.567648,
    0.580388,
    0.873895,
    0.438594,
    0.383248,
    0.506143,
    0.757972,
    0.596983,
    0.883564,
    0.695457,
    0.48198,
    0.510383,
    0.783972,
    0.374857,
    0.485168,
    0.360216,
    0.501557,
    0.627994,
    0.68898,
    0.611154,
    0.39198,
    0.486589,
    0.696696,
    0.505992,
    0.640983,
    0.662982,
    0.726418,
    0.560849,
    0.62302,
    0.504003,
    0.666023,
    0.712023,
    0.715082,
    0.599071,
    0.572193,
    0.472981,
    0.529991,
    0.571984,
    0.71208,
    0.458338,
    0.496081,
    0.570982,
    0.515979,
    0.575456,
    0.704368,
    0.564959,
    0.762932,
    0.392,
    0.730798,
    0.48698,
    0.657122,
    0.834032,
    0.692979,
    0.577483,
    0.669923,
    0.38202,
    0.510923,
    0.44601,
    0.604868,
    0.404886,
    0.601959,
    0.610379,
    0.415997,
    0.44708,
    0.504761,
    0.58098,
    0.312019,
    0.479531,
    0.69498,
    0.53698,
    0.471041,
    0.978048,
    0.830051,
    0.456828,
    0.842985,
    0.538982,
    0.883991,
    0.564808,
    0.537322,
    1.128035,
    0.627596,
    0.528159,
    0.706456,
    0.486994,
    0.435982,
    0.50298,
    0.51798,
    0.996985,
    0.478948,
    0.275043,
    0.443647,
    0.874181,
    0.389043,
    0.672056,
    0.606982,
    0.617116,
    0.568895,
    0.461418,
    0.537847,
    0.722726,
    0.433039,
    0.57302,
    0.447982,
    0.586931,
    0.434988,
    0.407141,
    0.679892,
    0.397982,
    0.41498,
    0.351992,
    0.649978,
    0.281664,
    0.365155,
    0.660107,
    0.49398,
    0.458383,
    0.614038,
    0.811031,
    0.458879,
    0.453884,
    0.674175,
    0.436922,
    0.670991,
    0.38511,
    0.359018,
    0.524465,
    0.550663,
    0.649741,
    0.449157,
    0.721008,
    0.990911,
    0.465777,
    0.54703,
    0.435982,
    0.427985,
    0.803982,
    0.642879,
    0.618984,
    0.621979,
    0.515987,
    0.696042,
    0.626562,
    0.488572,
    0.716026,
    0.484639,
    0.690257,
    0.518023,
    0.452719,
    0.51298,
    0.42098,
    0.483981,
    0.352996,
    0.505674,
    0.547002,
    0.566604,
    0.427884,
    0.528041,
    0.902012,
    0.414008,
    0.357012,
    0.400869,
    0.61998,
    0.649037,
    0.648585,
    0.608986,
    0.739831,
    0.51136,
    0.513156,
    0.57998,
    0.423873,
    0.551138,
    0.409974,
    0.703132,
    0.521023,
    0.6162,
    0.539982,
    0.402702,
    0.545168,
    1.044043,
    0.483982,
    0.652914,
    1.040181,
    0.563004,
    0.601958,
    0.704399,
    0.71009,
    1.090773,
    1.030401,
    0.837469,
    0.943994,
    0.362039,
    1.327443,
    0.61936,
    0.474882,
    0.3582,
    0.530009,
    0.807869,
    0.81213,
    0.572963,
    0.69398,
    0.568108,
    0.421786,
    0.455984,
    0.55873,
    0.515085,
    0.537123,
    0.402132,
    0.45498,
    0.393988,
    0.339949,
    0.358367,
    0.573047,
    0.641615,
    0.543451,
    0.517999,
    0.49598,
    0.836065,
    0.602048,
    0.79341,
    0.45198,
    0.765286,
    0.474478,
    0.32219,
    0.624872,
    0.603039,
    0.351316,
    0.656021,
    0.362038,
    0.626478,
    0.522787,
    0.461959,
    0.780938,
    0.621675,
    0.401367,
    0.561959,
    0.818051,
    0.564072,
    0.414085,
    0.606001,
    0.497182,
    0.512107,
    0.408555,
    0.902036,
    0.972829,
    1.172878,
    0.878985,
    0.477985,
    0.604036,
    0.89798,
    0.625043,
    0.980032,
    0.613271,
    0.46898,
    0.992696,
    0.612982,
    0.639982,
    0.414733,
    0.417985,
    0.771947,
    0.529985,
    0.692437,
    0.64798,
    0.710954,
    0.569072,
    0.56198,
    0.51398,
    0.791867,
    0.560057,
    0.596608,
    0.380724,
    0.374307,
    0.433363,
    0.358401,
    0.515096,
    0.808815,
    0.324923,
    0.620466,
    0.67032,
    0.814056,
    0.221066,
    0.38498,
    0.517938,
    0.733431,
    0.65109,
    0.57998,
    0.637939,
    0.472085,
    0.570024,
    0.740736,
    0.355,
    0.822917,
    0.624019,
    0.326017,
    0.867536,
    0.361983,
    0.328022,
    0.459265,
    0.545513,
    0.527061,
    0.63933,
    0.622801,
    0.646732,
    0.664874,
    0.70411,
    0.819196,
    0.649146,
    0.660216,
    0.648989,
    0.764012,
    0.459694,
    0.734039,
    0.670982,
    0.431859,
    0.4921,
    0.544313,
    0.440003,
    0.396981,
    0.903397,
    0.395008,
    0.430983,
    0.778729,
    0.725485,
    0.65998,
    0.312047,
    0.31198,
    0.93498,
    0.571373,
    0.451813,
    0.926981,
    0.815995,
    0.657979,
    0.553133,
    0.592327,
    0.577631,
    0.429012,
    0.679982,
    0.527982,
    0.71498,
    0.467984,
    0.659411,
    0.501872,
    0.353872,
    0.403528,
    0.650036,
    0.547043,
    0.333359,
    0.555931,
    0.615989,
    0.418243,
    0.523979,
    0.574034,
    0.333987,
    0.28098,
    0.69198,
    0.356303,
    0.446794,
    0.651984,
    0.582017,
    0.480685,
    0.375324,
    0.667792,
    0.606024,
    0.376661,
    0.512679,
    0.553869,
    0.664533,
    0.506093,
    0.668086,
    0.510071,
    0.561231,
    0.619082,
    0.509982
  ]
}