{
  "ram": {
    "bytes_used_max": 599820845056,
    "gib_used_max": 558.6266937255859,
    "gib_used_per_minute": {
      "0": 6.220777320861816,
      "1": 25.6931275836492,
      "2": 48.070797220865884,
      "3": 64.8177037643174,
      "4": 77.42325326951884,
      "5": 88.0123109181722,
      "6": 95.50034952971895,
      "7": 101.48210277557374,
      "8": 119.17785702721547,
      "9": 145.87460074990483,
      "10": 166.34442017873127,
      "11": 174.4989867776127,
      "12": 179.23476047515868,
      "13": 186.1886599265923,
      "14": 197.21327067229709,
      "15": 211.5253460566203,
      "16": 225.91039237329517,
      "17": 238.37969099680583,
      "18": 250.9710396588859,
      "19": 263.09782513117386,
      "20": 274.3421876907349,
      "21": 283.1000988847118,
      "22": 290.44161955515546,
      "23": 296.150643817449,
      "24": 300.2513376009666,
      "25": 303.35692361195885,
      "26": 305.7311831975387,
      "27": 308.3797631344553,
      "28": 310.70846395977475,
      "29": 313.33648916880287,
      "30": 315.0719294790494,
      "31": 317.4015775680542,
      "32": 320.64857211355434,
      "33": 327.78800123828955,
      "34": 328.5021509170532,
      "35": 329.63596615548863,
      "36": 331.9583594112073,
      "37": 333.1573362350464,
      "38": 334.0537487611932,
      "39": 334.93229478200277,
      "40": 340.0740825200485,
      "41": 344.70813848204534,
      "42": 344.29166844685875,
      "43": 345.55302041263906,
      "44": 347.02839686075845,
      "45": 347.90255970065874,
      "46": 349.49785445908367,
      "47": 351.0492928187052,
      "48": 352.16709143428477,
      "49": 353.1268290201823,
      "50": 354.0853056826834,
      "51": 355.2090269832288,
      "52": 356.16315237681073,
      "53": 356.6594211772337,
      "54": 357.28848762512206,
      "55": 357.9050560644117,
      "56": 358.6538918058751,
      "57": 359.5384453455607,
      "58": 360.2047984236378,
      "59": 361.2022466497906,
      "60": 362.32203534444176,
      "61": 363.00121132802155,
      "62": 364.7343077341715,
      "63": 365.74874554650256,
      "64": 366.5614041473906,
      "65": 367.33328952789304,
      "66": 367.9748262308412,
      "67": 368.7340698888746,
      "68": 370.1403314590454,
      "69": 370.4759427086782,
      "70": 370.8464541677701,
      "71": 371.3964501063029,
      "72": 371.95307178820593,
      "73": 372.5098922212245,
      "74": 373.0653519948324,
      "75": 373.46985257682155,
      "76": 374.4197550455729,
      "77": 375.0540852950791,
      "78": 376.5460633746648,
      "79": 377.66830889383954,
      "80": 378.4629592248949,
      "81": 379.2546113870912,
      "82": 379.94425837198895,
      "83": 380.6329173718469,
      "84": 381.26944402921,
      "85": 382.2508253733317,
      "86": 382.8303220070015,
      "87": 383.43941898669226,
      "88": 385.02605082625047,
      "89": 384.58135153452554,
      "90": 385.4987737364688,
      "91": 387.19611423298466,
      "92": 387.73185799916587,
      "93": 388.1028605315645,
      "94": 388.6389407788293,
      "95": 389.252656645694,
      "96": 389.48190574646,
      "97": 390.59932508306986,
      "98": 391.56404196421306,
      "99": 391.8075289322158,
      "100": 392.4970287387654,
      "101": 392.1909437815348,
      "102": 393.8382928782496,
      "103": 393.86469955444335,
      "104": 393.2451153124793,
      "105": 393.6303645635055,
      "106": 394.3563934961955,
      "107": 394.74786351090773,
      "108": 394.91181338035454,
      "109": 395.74910004933673,
      "110": 396.31563665099065,
      "111": 396.7576959254378,
      "112": 396.60415407816566,
      "113": 396.67995620986164,
      "114": 398.754013529995,
      "115": 403.0056878474721,
      "116": 416.57524880303276,
      "117": 408.2886063502385,
      "118": 401.0542805558544,
      "119": 401.53781832678845,
      "120": 400.5814121882121,
      "121": 400.8326370756505,
      "122": 400.936731888076,
      "123": 401.53244330088296,
      "124": 402.0560454675707,
      "125": 402.4833855063228,
      "126": 402.96802558898924,
      "127": 403.76849992396467,
      "128": 404.0765588124593,
      "129": 404.46179431979937,
      "130": 404.6588940377963,
      "131": 405.0063187281291,
      "132": 405.3734856298414,
      "133": 405.73956111326055,
      "134": 406.0139279683431,
      "135": 406.3854943614895,
      "136": 407.118244043986,
      "137": 407.99298043978416,
      "138": 408.45989576436705,
      "139": 408.7825787226359,
      "140": 409.19823921332926,
      "141": 409.53826173685366,
      "142": 409.78174215952555,
      "143": 410.10180179143356,
      "144": 410.4910549163818,
      "145": 410.98535440735895,
      "146": 411.308675345728,
      "147": 411.72827199300133,
      "148": 412.03100657058974,
      "149": 412.31211587938213,
      "150": 412.6846290588379,
      "151": 413.0653363890567,
      "152": 413.3043551040908,
      "153": 413.7518801371256,
      "154": 414.5706245293052,
      "155": 415.1644886016846,
      "156": 415.5612106969801,
      "157": 415.91963357440494,
      "158": 416.3204020182292,
      "159": 416.6368260787705,
      "160": 417.0046780473095,
      "161": 417.30918407440186,
      "162": 417.6721452616029,
      "163": 418.07594718933103,
      "164": 418.3268036276607,
      "165": 418.5333046347408,
      "166": 418.8194227218628,
      "167": 419.12756231275654,
      "168": 419.4700702731892,
      "169": 419.87687702178954,
      "170": 420.10932857707394,
      "171": 420.7625536514541,
      "172": 421.4649917602539,
      "173": 421.93650740284033,
      "174": 422.2811341603597,
      "175": 422.60201114719194,
      "176": 423.00188200352557,
      "177": 423.48809814453125,
      "178": 423.9375657550359,
      "179": 424.3442546391891,
      "180": 424.767688369751,
      "181": 425.26375793198406,
      "182": 425.90911897023517,
      "183": 426.37447887356,
      "184": 426.5100530204126,
      "185": 426.8386063257853,
      "186": 427.35124413441804,
      "187": 427.72348778934804,
      "188": 428.2182523091634,
      "189": 428.48282034922454,
      "190": 429.1189256668091,
      "191": 429.8594659061755,
      "192": 430.4928512573242,
      "193": 430.86560204823815,
      "194": 431.1466486009501,
      "195": 431.5901934736866,
      "196": 432.00805842081706,
      "197": 432.320483579474,
      "198": 432.7423280715942,
      "199": 433.1168569144556,
      "200": 433.5051647768182,
      "201": 433.9682755152384,
      "202": 434.4029469247592,
      "203": 434.674951616923,
      "204": 434.97364128242106,
      "205": 435.36233087313377,
      "206": 435.6997111638387,
      "207": 436.1204261779785,
      "208": 436.5868349883516,
      "209": 436.9230997085571,
      "210": 437.4428257053181,
      "211": 437.9483182228218,
      "212": 438.31716238657634,
      "213": 438.76223851866644,
      "214": 439.08848876953124,
      "215": 439.49010105456335,
      "216": 439.8832513841532,
      "217": 440.2518027623494,
      "218": 440.6335367105775,
      "219": 441.1077986895028,
      "220": 441.3322558720907,
      "221": 441.73113321853896,
      "222": 442.024236776061,
      "223": 442.4789013544718,
      "224": 442.80402704012596,
      "225": 443.2665589014689,
      "226": 443.4449502977274,
      "227": 443.870339215812,
      "228": 444.143196551005,
      "229": 444.4450664843543,
      "230": 444.69875225778355,
      "231": 445.04185276031495,
      "232": 445.50049862619176,
      "233": 445.7803114573161,
      "234": 446.0684489880578,
      "235": 446.4200333417472,
      "236": 446.8945395151774,
      "237": 447.36586224830756,
      "238": 447.68129672034314,
      "239": 448.01566588083904,
      "240": 448.21329550015724,
      "241": 448.527283167435,
      "242": 448.8389650344849,
      "243": 449.3714197449765,
      "244": 449.65898920694985,
      "245": 449.84455503043483,
      "246": 450.2406109955351,
      "247": 450.5291392008464,
      "248": 450.78178282915536,
      "249": 451.1705780029297,
      "250": 451.6942278544108,
      "251": 452.0960513616012,
      "252": 452.4059579493636,
      "253": 452.77286535898844,
      "254": 453.1652173187773,
      "255": 453.5297845204671,
      "256": 453.87482458858165,
      "257": 454.20016220868644,
      "258": 454.48436272939045,
      "259": 454.8752349594892,
      "260": 455.1263980542199,
      "261": 455.44910113016766,
      "262": 455.75175579523636,
      "263": 456.1181072235107,
      "264": 456.4210616936118,
      "265": 456.5977873721365,
      "266": 456.9283650080363,
      "267": 457.26903398158186,
      "268": 457.497693401272,
      "269": 457.80107091267905,
      "270": 458.2767567392123,
      "271": 458.7350751241048,
      "272": 459.05303515418103,
      "273": 459.40178589901683,
      "274": 459.7261156717936,
      "275": 460.1521864422297,
      "276": 460.6660059266171,
      "277": 461.1363151550293,
      "278": 461.56732203596727,
      "279": 461.8627592830335,
      "280": 462.2950294494629,
      "281": 462.69947653301693,
      "282": 463.0300461451213,
      "283": 463.3460880214885,
      "284": 463.61664232157045,
      "285": 464.0133790334066,
      "286": 464.3733821804241,
      "287": 464.8686158131745,
      "288": 465.1650056838989,
      "289": 465.66784325292554,
      "290": 466.0728151321411,
      "291": 466.4069797709837,
      "292": 466.9973377938998,
      "293": 467.27940928141277,
      "294": 467.4848991006108,
      "295": 467.87411867561985,
      "296": 468.2614904403687,
      "297": 468.72571673635707,
      "298": 469.06147061364123,
      "299": 469.46474113464353,
      "300": 469.8788344819667,
      "301": 470.0893484115601,
      "302": 470.35024138628427,
      "303": 470.75706695298015,
      "304": 471.1117656707764,
      "305": 471.496721946587,
      "306": 471.9348579018803,
      "307": 472.29649353027344,
      "308": 472.7783185021352,
      "309": 473.1948818206787,
      "310": 473.36666372266865,
      "311": 473.5853334200584,
      "312": 474.0065663019816,
      "313": 474.459458496611,
      "314": 474.8814029370324,
      "315": 475.1293155034383,
      "316": 475.3319014856371,
      "317": 475.6742405648959,
      "318": 476.0932881673177,
      "319": 476.4840979495291,
      "320": 476.88601173788817,
      "321": 477.27164255777996,
      "322": 477.5265153141345,
      "323": 477.9030075709025,
      "324": 478.20984863022625,
      "325": 478.7101666078729,
      "326": 479.0325406392415,
      "327": 479.2991411887993,
      "328": 479.68190377553304,
      "329": 480.05863370733744,
      "330": 480.3417092662747,
      "331": 480.53250013987224,
      "332": 480.8055841478251,
      "333": 480.99866002400717,
      "334": 481.30067030049986,
      "335": 481.5133156857248,
      "336": 482.01816635131837,
      "337": 482.2978044930151,
      "338": 482.5303712844849,
      "339": 482.91863696858036,
      "340": 483.1484155816547,
      "341": 483.3888843536377,
      "342": 483.62098428758526,
      "343": 483.89662183341335,
      "344": 484.1208438237508,
      "345": 484.5599896705757,
      "346": 485.0259023030599,
      "347": 485.44646046525344,
      "348": 485.8201473042116,
      "349": 486.140602238973,
      "350": 486.41329781483796,
      "351": 486.95994249979657,
      "352": 487.28087169841183,
      "353": 487.2319235720877,
      "354": 487.46710033416747,
      "355": 487.975516820358,
      "356": 488.34259974161785,
      "357": 488.7832276295807,
      "358": 489.16809463500977,
      "359": 489.2998047510783,
      "360": 489.4926741648529,
      "361": 489.715062268575,
      "362": 490.0421577065678,
      "363": 490.35407088974773,
      "364": 490.77714188893634,
      "365": 491.1638618081303,
      "366": 491.44111917786677,
      "367": 491.63538093566893,
      "368": 491.6766541044591,
      "369": 491.8862572987874,
      "370": 492.0329954502946,
      "371": 492.444897279901,
      "372": 492.8614589691162,
      "373": 493.32158078985697,
      "374": 493.58716672261556,
      "375": 493.89354072182863,
      "376": 494.2957658282781,
      "377": 494.6912663141886,
      "378": 494.88346112784694,
      "379": 495.19099193508345,
      "380": 495.3938232421875,
      "381": 495.6628839525126,
      "382": 495.81552066802976,
      "383": 496.4225987579863,
      "384": 496.721568673344,
      "385": 497.33251132965086,
      "386": 497.68413265680863,
      "387": 498.25931135813397,
      "388": 498.7102154877226,
      "389": 499.30270864195745,
      "390": 499.75155143737794,
      "391": 500.22934367293016,
      "392": 500.3374938329061,
      "393": 500.7140615430929,
      "394": 501.0017793946347,
      "395": 501.51632289886476,
      "396": 501.932109638796,
      "397": 502.3077151411671,
      "398": 502.67329565684,
      "399": 503.2554857932915,
      "400": 503.6262795130412,
      "401": 504.14737617363363,
      "402": 504.60305508112504,
      "403": 505.11359074910484,
      "404": 505.50296861034326,
      "405": 505.837890625,
      "406": 506.18207614704716,
      "407": 506.42079350099726,
      "408": 506.7682871500651,
      "409": 507.14313914412156,
      "410": 507.6256408691406,
      "411": 508.0632672713975,
      "412": 508.37958727044577,
      "413": 508.75928522745767,
      "414": 509.1845690840382,
      "415": 509.6515874701031,
      "416": 509.8992767969767,
      "417": 510.1830322782872,
      "418": 510.6667009989421,
      "419": 511.0924430459233,
      "420": 511.6626551999884,
      "421": 511.84449195861816,
      "422": 512.2622629585912,
      "423": 512.4438727060954,
      "424": 512.8353982699119,
      "425": 513.308749506029,
      "426": 513.9964399973552,
      "427": 514.3666259636313,
      "428": 514.5248928705852,
      "429": 514.7037103297347,
      "430": 514.9787734726729,
      "431": 515.2776519139608,
      "432": 515.7175301374015,
      "433": 516.0984041849772,
      "434": 516.554703987251,
      "435": 517.0089311761371,
      "436": 517.3093846638998,
      "437": 517.6767578771559,
      "438": 518.1095350879734,
      "439": 518.5586449941,
      "440": 518.7286785578324,
      "441": 518.9825450897217,
      "442": 519.4095458984375,
      "443": 519.6013691142454,
      "444": 520.0492134730022,
      "445": 520.2380413120076,
      "446": 520.5628678003947,
      "447": 521.0332908630371,
      "448": 521.8459894246068,
      "449": 523.1236875501729,
      "450": 523.4956226025597,
      "451": 523.118406522072,
      "452": 522.9928616841634,
      "453": 523.3553578651557,
      "454": 523.8260179519654,
      "455": 524.4720661357297,
      "456": 525.0161961054398,
      "457": 525.328575515747,
      "458": 525.5142595970025,
      "459": 525.709361966451,
      "460": 526.4391843504825,
      "461": 527.1283869985807,
      "462": 527.7667594273885,
      "463": 528.2683231547727,
      "464": 527.225148023185,
      "465": 526.678659884135,
      "466": 526.9692796610169,
      "467": 527.1928601582845,
      "468": 527.465905270334,
      "469": 527.5227714150639,
      "470": 527.6923830032349,
      "471": 527.7526082184355,
      "472": 528.0295023514053,
      "473": 528.163987159729,
      "474": 528.3088661452471,
      "475": 528.5049870173136,
      "476": 528.9610223931782,
      "477": 528.9950805276127,
      "478": 529.2833506485512,
      "479": 530.3985006098162,
      "480": 531.2392018205029,
      "481": 531.0220376332601,
      "482": 530.5813357466358,
      "483": 530.6199688668978,
      "484": 530.394758160909,
      "485": 530.6595105316679,
      "486": 531.1536779242047,
      "487": 531.9288635253906,
      "488": 532.0418237589173,
      "489": 532.5425317408675,
      "490": 532.3754558886512,
      "491": 532.5636581162275,
      "492": 532.8307655970256,
      "493": 533.8993940024541,
      "494": 534.1800374176543,
      "495": 534.7697357177734,
      "496": 534.8908732139458,
      "497": 533.5340860011214,
      "498": 532.8729500851389,
      "499": 533.1099268156906,
      "500": 534.2900425425747,
      "501": 533.6757150423729,
      "502": 545.3072221863945,
      "503": 540.4786017922794,
      "504": 534.6529762138755,
      "505": 534.9524168240822,
      "506": 534.1900050276416,
      "507": 534.0170085713015,
      "508": 533.879710051973,
      "509": 533.9312385559082,
      "510": 534.2674596754171,
      "511": 534.3919290542602,
      "512": 534.7946942862818,
      "513": 534.9246229398049,
      "514": 535.3633865356445,
      "515": 535.5363229008044,
      "516": 535.8269393403651,
      "517": 536.0986715952555,
      "518": 536.2244768950899,
      "519": 493.29833195573195,
      "520": 116.56247285207112,
      "521": 7.168109893798828
    }
  },
  "run_time": {
    "hours": 8.657768502777778,
    "human": "8:39:27.966610",
    "minutes": 519.4661101666667,
    "real_seconds_per_sim_second": {
      "2.0": 32.945043,
      "3.002005": 34.003421,
      "4.005899": 36.643467,
      "5.006005": 38.799055,
      "6.008018": 41.835172,
      "7.008022": 44.55696,
      "8.011275": 45.079131,
      "9.011288": 45.277353,
      "10.011509": 45.413015,
      "11.012621": 45.540065,
      "12.014662": 45.664196,
      "13.016589": 45.84541,
      "14.016642": 45.956676,
      "15.018658": 46.057748,
      "16.019504": 46.159,
      "17.020765": 46.254797,
      "18.020985": 46.342581,
      "19.021599": 46.435233,
      "20.021904": 46.519934,
      "21.021925": 46.599919,
      "22.023592": 46.683864,
      "23.025633": 46.807172,
      "24.026697": 46.880555,
      "25.028529": 46.961081,
      "26.0292": 47.033,
      "27.03044": 47.106968,
      "28.03263": 47.178509,
      "29.03374": 47.245628,
      "30.035158": 47.316151,
      "31.036472": 47.384208,
      "32.037954": 47.451709,
      "33.039631": 47.557008,
      "34.041561": 47.628118,
      "35.042199": 47.691709,
      "36.043387": 47.759134,
      "37.043496": 47.825726,
      "38.044636": 47.887604,
      "39.045983": 47.945264,
      "40.047959": 48.006829,
      "41.048051": 48.077752,
      "42.049035": 48.132221,
      "43.049747": 48.291024,
      "44.050707": 48.349986,
      "45.050757": 48.406222,
      "46.05158": 48.460367,
      "47.053293": 48.513592,
      "48.055206": 48.576777,
      "49.055747": 48.627846,
      "50.055752": 48.684154,
      "51.058137": 48.73343,
      "52.058141": 48.793028,
      "53.059054": 48.9069,
      "54.059089": 48.963149,
      "55.060947": 49.009795,
      "56.062137": 49.062278,
      "57.064198": 49.117886,
      "58.064446": 49.169597,
      "59.06519": 49.223905,
      "60.066394": 49.272296,
      "61.067534": 49.319621,
      "62.069802": 49.376136,
      "63.069953": 49.539511,
      "64.070515": 49.809481,
      "65.071471": 50.005365,
      "66.072989": 50.718221,
      "67.074524": 51.395651,
      "68.075397": 51.449396,
      "69.076591": 51.490931,
      "70.077113": 51.534221,
      "71.078979": 51.580099,
      "72.079494": 51.627578,
      "73.081774": 51.718912,
      "74.081982": 51.76275,
      "75.083936": 51.807484,
      "76.084129": 51.850782,
      "77.084994": 51.895709,
      "78.085439": 51.943268,
      "79.086734": 51.984452,
      "80.087933": 52.036424,
      "81.089529": 52.09663,
      "82.090871": 52.168146,
      "83.092845": 52.250176,
      "84.094552": 52.290312,
      "85.096552": 52.329941,
      "86.097449": 52.368302,
      "87.097815": 52.410085,
      "88.098665": 52.447952,
      "89.100841": 52.488343,
      "90.101213": 52.527126,
      "91.103435": 52.566052,
      "92.105241": 52.623729,
      "93.106662": 52.732023,
      "94.10734": 52.767852,
      "95.10817": 52.808532,
      "96.110531": 52.850581,
      "97.111013": 52.889311,
      "98.113333": 52.929545,
      "99.113348": 52.963879,
      "100.113418": 52.998275,
      "101.114802": 53.037836,
      "102.11499": 53.102525,
      "103.116505": 53.197486,
      "104.117387": 53.236541,
      "105.11753": 53.272893,
      "106.119155": 53.312463,
      "107.119428": 53.349836,
      "108.121008": 53.385814,
      "109.122573": 53.420132,
      "110.122845": 53.819234,
      "111.124273": 54.039108,
      "112.124471": 54.110497,
      "113.125799": 54.220061,
      "114.126839": 54.254742,
      "115.128954": 54.290939,
      "116.130446": 54.330019,
      "117.131491": 54.361214,
      "118.131866": 54.397333,
      "119.133965": 54.434611,
      "120.135066": 54.479792,
      "121.137456": 54.51809,
      "122.138914": 54.590734,
      "123.139638": 54.782458,
      "124.139689": 54.900952,
      "125.139798": 55.299042,
      "126.140294": 55.938745,
      "127.140484": 56.424648,
      "128.141103": 56.470424,
      "129.143634": 56.50525,
      "130.144221": 56.982019,
      "131.145964": 57.017462,
      "132.146729": 57.098203,
      "133.146976": 57.196959,
      "134.147146": 57.226901,
      "135.148128": 57.258476,
      "136.14961": 57.293182,
      "137.151057": 57.333718,
      "138.151208": 57.366894,
      "139.153327": 57.395648,
      "140.154002": 57.431575,
      "141.157712": 57.46446,
      "142.159704": 57.585289,
      "143.160542": 57.710616,
      "144.162172": 57.749267,
      "145.162279": 57.78007,
      "146.164035": 57.810954,
      "147.166848": 57.841736,
      "148.169397": 57.875204,
      "149.169518": 57.909819,
      "150.169721": 58.880269,
      "151.170422": 63.230549,
      "152.171661": 69.146096,
      "153.17168": 75.402995,
      "154.172385": 80.953094,
      "155.172439": 86.318952,
      "156.172596": 93.758211,
      "157.173427": 101.593848,
      "158.174285": 108.198766,
      "159.175299": 114.78674,
      "160.176099": 122.422401,
      "161.176579": 129.626976,
      "162.176909": 135.977639,
      "163.177344": 141.53794,
      "164.178102": 148.125163,
      "165.179609": 153.59176,
      "166.181352": 161.331141,
      "167.182226": 169.195838,
      "168.183122": 175.289757,
      "169.184545": 181.116511,
      "170.185479": 185.828022,
      "171.185712": 190.49659,
      "172.187335": 195.36592,
      "173.188641": 200.410241,
      "174.190508": 206.727316,
      "175.191839": 212.02818,
      "176.192972": 218.884048,
      "177.194334": 225.622532,
      "178.194827": 230.647774,
      "179.196753": 234.537173,
      "180.197007": 238.750466,
      "181.197899": 244.310096,
      "182.199767": 249.599745,
      "183.201201": 255.070771,
      "184.201347": 260.129144,
      "185.201927": 266.293295,
      "186.202836": 274.280123,
      "187.204452": 281.413554,
      "188.204962": 286.170223,
      "189.206729": 291.112426,
      "190.20828": 296.278533,
      "191.209772": 300.76818,
      "192.211736": 304.546427,
      "193.212485": 308.04389,
      "194.213209": 312.077507,
      "195.215211": 315.039773,
      "196.216215": 319.668329,
      "197.21773": 325.437492,
      "198.218387": 331.869635,
      "199.220013": 336.840597,
      "200.220549": 341.221333,
      "201.220684": 345.097594,
      "202.221279": 349.644561,
      "203.221713": 354.355672,
      "204.221913": 358.526891,
      "205.22245": 362.364766,
      "206.223167": 368.001,
      "207.224508": 373.806317,
      "208.225565": 378.089915,
      "209.226767": 381.976532,
      "210.227626": 385.355151,
      "211.227893": 387.642923,
      "212.228675": 390.358971,
      "213.229229": 393.310899,
      "214.230491": 397.412842,
      "215.232033": 401.945996,
      "216.232055": 407.483711,
      "217.232243": 414.045427,
      "218.233108": 418.20696,
      "219.2351": 421.823343,
      "220.236007": 425.130341,
      "221.23764": 429.620163,
      "222.238534": 432.784598,
      "223.238965": 436.032773,
      "224.239899": 438.744129,
      "225.240981": 441.304939,
      "226.242103": 445.688251,
      "227.2431": 450.098991,
      "228.244165": 453.846228,
      "229.245477": 456.634247,
      "230.2466": 459.052202,
      "231.247569": 462.019712,
      "232.248477": 465.796873,
      "233.250079": 469.353441,
      "234.250836": 472.476978,
      "235.25276": 475.055013,
      "236.254182": 478.673094,
      "237.255468": 483.286948,
      "238.256169": 487.11873,
      "239.25783": 490.535951,
      "240.257875": 495.714027,
      "241.259832": 501.669425,
      "242.260944": 516.35746,
      "243.261446": 528.997019,
      "244.261581": 541.340535,
      "245.261749": 550.762263,
      "246.262016": 559.757994,
      "247.262472": 568.185085,
      "248.262813": 575.473523,
      "249.263212": 581.434351,
      "250.263868": 585.988485,
      "251.265621": 591.744593,
      "252.26705": 601.885813,
      "253.267152": 612.859226,
      "254.267387": 620.071164,
      "255.268093": 625.133522,
      "256.270052": 630.308204,
      "257.270145": 633.925802,
      "258.271464": 636.722296,
      "259.272187": 638.674797,
      "260.273442": 640.694132,
      "261.274928": 643.606905,
      "262.275481": 649.594148,
      "263.276042": 654.645685,
      "264.276533": 658.951294,
      "265.276849": 661.721544,
      "266.277276": 664.884042,
      "267.278491": 668.256742,
      "268.28046": 671.581409,
      "269.280956": 674.447122,
      "270.281557": 676.909547,
      "271.283245": 679.143273,
      "272.28403": 682.432431,
      "273.284135": 686.300261,
      "274.285741": 689.109358,
      "275.286674": 690.93177,
      "276.286934": 693.767418,
      "277.28866": 697.029957,
      "278.290359": 699.830139,
      "279.292118": 702.58853,
      "280.292837": 705.422274,
      "281.292977": 707.215017,
      "282.2937": 708.563139,
      "283.293847": 709.981046,
      "284.295617": 712.1725,
      "285.296235": 714.369947,
      "286.296473": 718.589648,
      "287.297474": 721.430509,
      "288.298437": 723.020638,
      "289.29844": 724.637105,
      "290.299401": 726.563378,
      "291.300598": 727.937416,
      "292.302319": 730.314679,
      "293.303853": 733.084727,
      "294.305279": 735.981035,
      "295.305402": 739.124238,
      "296.307008": 743.242918,
      "297.308929": 746.726662,
      "298.309785": 749.31108,
      "299.311243": 751.746585,
      "300.31167": 755.551316,
      "301.311919": 760.138031,
      "302.313": 764.785103,
      "303.314186": 769.730183,
      "304.315": 774.824655,
      "305.316762": 780.514898,
      "306.317": 786.279678,
      "307.319": 792.163374,
      "308.32": 797.374181,
      "309.321": 802.214655,
      "310.322": 806.399985,
      "311.324": 811.39574,
      "312.326": 815.999842,
      "313.328": 820.819584,
      "314.33": 826.669688,
      "315.331": 832.679216,
      "316.33155": 839.14695,
      "317.332": 844.222742,
      "318.334": 849.052373,
      "319.336": 854.446566,
      "320.338": 859.545218,
      "321.34": 864.740007,
      "322.342": 869.667529,
      "323.344": 875.190555,
      "324.346": 880.846902,
      "325.348": 886.379932,
      "326.35": 893.069527,
      "327.352": 899.45135,
      "328.354": 904.515691,
      "329.356": 909.907126,
      "330.358": 914.450465,
      "331.36": 919.472019,
      "332.362": 925.353023,
      "333.364": 931.83876,
      "334.366": 938.017682,
      "335.368": 943.868238,
      "336.37": 951.679488,
      "337.372": 958.818778,
      "338.374": 965.438348,
      "339.376": 971.897112,
      "340.378": 979.081491,
      "341.38": 986.088892,
      "342.382": 992.911872,
      "343.384": 999.996372,
      "344.386": 1008.960514,
      "345.388": 1017.21301,
      "346.39": 1028.922224,
      "347.392": 1042.449699,
      "348.394": 1051.351542,
      "349.396": 1059.308951,
      "350.398": 1067.382165,
      "351.4": 1075.178609,
      "352.402": 1082.612265,
      "353.404": 1090.098979,
      "354.406": 1097.720641,
      "355.408": 1106.505069,
      "356.41": 1115.577206,
      "357.412": 1124.38796,
      "358.414": 1133.306315,
      "359.416": 1141.629085,
      "360.418": 1149.986345,
      "361.42": 1158.803419,
      "362.422": 1167.864762,
      "363.424": 1177.282216,
      "364.426": 1187.316143,
      "365.428": 1197.180917,
      "366.43": 1208.009478,
      "367.432": 1218.675921,
      "368.434": 1228.943775,
      "369.436": 1238.8241,
      "370.438": 1248.407232,
      "371.44": 1258.198656,
      "372.442": 1267.954706,
      "373.444": 1277.512598,
      "374.446": 1287.278784,
      "375.448": 1299.052681,
      "376.45": 1309.779112,
      "377.452": 1325.032744,
      "378.454": 1342.513243,
      "379.456": 1354.707962,
      "380.458": 1365.551719,
      "381.46": 1376.196244,
      "382.462": 1386.763123,
      "383.464": 1397.353436,
      "384.466": 1408.525356,
      "385.468": 1419.344904,
      "386.47": 1430.224119,
      "387.472": 1441.724688,
      "388.474": 1453.494579,
      "389.476": 1465.398292,
      "390.478": 1476.582501,
      "391.48": 1487.93292,
      "392.482": 1499.160848,
      "393.484": 1511.130623,
      "394.486": 1523.053863,
      "395.488": 1534.58277,
      "396.49": 1547.418239,
      "397.492": 1559.804767,
      "398.494": 1571.939149,
      "399.496": 1583.386701,
      "400.498": 1594.846066,
      "401.5": 1606.580083,
      "402.502": 1618.033659,
      "403.504": 1630.234318,
      "404.506": 1642.543454,
      "405.508": 1656.449634,
      "406.51": 1673.193678,
      "407.512": 1686.958871,
      "408.514": 1710.695984,
      "409.516": 1730.960625,
      "410.518": 1745.356561,
      "411.52": 1758.254763,
      "412.522": 1770.707924,
      "413.524": 1783.241842,
      "414.526": 1796.149826,
      "415.528": 1809.044169,
      "416.53": 1822.372401,
      "417.532": 1835.013519,
      "418.534": 1847.355147,
      "419.536": 1859.853251,
      "420.538": 1873.544102,
      "421.54": 1887.016336,
      "422.542": 1900.568927,
      "423.544": 1913.975296,
      "424.546": 1927.836098,
      "425.548": 1941.94087,
      "426.55": 1956.326871,
      "427.552": 1982.145802,
      "428.554": 2000.783339,
      "429.556": 2014.919789,
      "430.558": 2028.682968,
      "431.56": 2041.98074,
      "432.562": 2055.23362,
      "433.564": 2068.863387,
      "434.566": 2081.975049,
      "435.568": 2095.51134,
      "436.57": 2109.126134,
      "437.572": 2124.972976,
      "438.574": 2138.80499,
      "439.576": 2155.919289,
      "440.578": 2174.662983,
      "441.58": 2189.518277,
      "442.582": 2203.105991,
      "443.584": 2216.434707,
      "444.586": 2229.566044,
      "445.588": 2242.501751,
      "446.59": 2255.790576,
      "447.592": 2268.996205,
      "448.594": 2282.499534,
      "449.596": 2296.067296,
      "450.598": 2310.269273,
      "451.6": 2324.557109,
      "452.602": 2338.611023,
      "453.604": 2352.350024,
      "454.606": 2365.717491,
      "455.608": 2379.217297,
      "456.61": 2392.948849,
      "457.612": 2406.414705,
      "458.614": 2433.791586,
      "459.616": 2453.475565,
      "460.618": 2468.105704,
      "461.62": 2481.751963,
      "462.622": 2495.134172,
      "463.624": 2508.643472,
      "464.626": 2522.254835,
      "465.628": 2536.069902,
      "466.63": 2549.705134,
      "467.632": 2563.852734,
      "468.634": 2579.254776,
      "469.636": 2593.542293,
      "470.638": 2610.525237,
      "471.64": 2628.52529,
      "472.642": 2642.755796,
      "473.644": 2657.230048,
      "474.646": 2671.898827,
      "475.648": 2686.370968,
      "476.65": 2701.151728,
      "477.652": 2715.732242,
      "478.654": 2731.247785,
      "479.656": 2746.058832,
      "480.658": 2761.454155,
      "481.66": 2776.88164,
      "482.662": 2792.253191,
      "483.664": 2807.121282,
      "484.666": 2822.425982,
      "485.668": 2837.68927,
      "486.67": 2852.72569,
      "487.672": 2868.111975,
      "488.674": 2883.009579,
      "489.676": 2898.004755,
      "490.678": 2912.654738,
      "491.68": 2927.353681,
      "492.682": 2942.329101,
      "493.684": 2957.478874,
      "494.686": 2972.311911,
      "495.688": 2987.315258,
      "496.69": 3002.510153,
      "497.692": 3018.244192,
      "498.694": 3033.280047,
      "499.696": 3048.820238,
      "500.698": 3065.18442,
      "501.7": 3084.513328,
      "502.702": 3103.114909,
      "503.704": 3118.388625,
      "504.706": 3133.532695,
      "505.708": 3148.438837,
      "506.71": 3163.681554,
      "507.712": 3178.611707,
      "508.714": 3194.198638,
      "509.716": 3209.285717,
      "510.718": 3224.723418,
      "511.72": 3239.837923,
      "512.722": 3255.2026,
      "513.724": 3270.472657,
      "514.726": 3285.63939,
      "515.728": 3301.112342,
      "516.73": 3316.576617,
      "517.732": 3332.008398,
      "518.734": 3347.169975,
      "519.736": 3362.862534,
      "520.738": 3377.918499,
      "521.74": 3392.966329,
      "522.742": 3407.90085,
      "523.744": 3422.625297,
      "524.746": 3438.078529,
      "525.748": 3453.783854,
      "526.75": 3469.40373,
      "527.752": 3485.076998,
      "528.754": 3500.375974,
      "529.756": 3515.515854,
      "530.758": 3533.157594,
      "531.76": 3549.191046,
      "532.762": 3568.692567,
      "533.764": 3588.084346,
      "534.766": 3603.902156,
      "535.768": 3619.784062,
      "536.77": 3635.970427,
      "537.772": 3651.892644,
      "538.774": 3667.110378,
      "539.776": 3682.481911,
      "540.778": 3698.265733,
      "541.78": 3713.732087,
      "542.782": 3729.244748,
      "543.784": 3744.856277,
      "544.786": 3760.56195,
      "545.788": 3775.854194,
      "546.79": 3790.71896,
      "547.792": 3805.724436,
      "548.794": 3820.985789,
      "549.796": 3836.397114,
      "550.798": 3852.147676,
      "551.8": 3867.843767,
      "552.802": 3883.763793,
      "553.804": 3899.223191,
      "554.806": 3915.028754,
      "555.808": 3931.262869,
      "556.81": 3947.154813,
      "557.812": 3962.667104,
      "558.814": 3977.923163,
      "559.816": 3993.461869,
      "560.818": 4009.417477,
      "561.82": 4026.511496,
      "562.822": 4042.630986,
      "563.824": 4064.272802,
      "564.826": 4086.959778,
      "565.828": 4103.567116,
      "566.83": 4119.239439,
      "567.832": 4135.185918,
      "568.834": 4151.077069,
      "569.836": 4167.327256,
      "570.838": 4183.259386,
      "571.84": 4198.793823,
      "572.842": 4213.827333,
      "573.844": 4229.649303,
      "574.846": 4244.267237,
      "575.848": 4259.95851,
      "576.85": 4275.916932,
      "577.852": 4291.989292,
      "578.854": 4307.658005,
      "579.856": 4323.165158,
      "580.858": 4338.998386,
      "581.86": 4354.167016,
      "582.862": 4369.852751,
      "583.864": 4386.439628,
      "584.866": 4402.033668,
      "585.868": 4417.619489,
      "586.87": 4433.085761,
      "587.872": 4448.758853,
      "588.874": 4464.629613,
      "589.876": 4479.712054,
      "590.878": 4495.166149,
      "591.88": 4510.872515,
      "592.882": 4527.422326,
      "593.884": 4543.698342,
      "594.886": 4564.545491,
      "595.888": 4584.837884,
      "596.89": 4601.913491,
      "597.892": 4618.474309,
      "598.894": 4634.65811,
      "599.896": 4650.365042,
      "600.898": 4668.164017,
      "601.9": 4685.660369,
      "602.902": 4703.091893,
      "603.904": 4720.781101,
      "604.906": 4738.026187,
      "605.908": 4755.893332,
      "606.91": 4772.83842,
      "607.912": 4789.33981,
      "608.914": 4805.477968,
      "609.916": 4822.092998,
      "610.918": 4838.032856,
      "611.92": 4854.179951,
      "612.922": 4870.614214,
      "613.924": 4888.888533,
      "614.926": 4905.847075,
      "615.928": 4922.675501,
      "616.93": 4938.807675,
      "617.932": 4955.333831,
      "618.934": 4972.352749,
      "619.936": 4989.29979,
      "620.938": 5005.693846,
      "621.94": 5022.614307,
      "622.942": 5039.095235,
      "623.944": 5056.62216,
      "624.946": 5074.141603,
      "625.948": 5094.124072,
      "626.95": 5113.741897,
      "627.952": 5130.810437,
      "628.954": 5148.006374,
      "629.956": 5164.936275,
      "630.958": 5182.181445,
      "631.96": 5199.036703,
      "632.962": 5216.299257,
      "633.964": 5234.201456,
      "634.966": 5252.254736,
      "635.968": 5270.737125,
      "636.97": 5289.45627,
      "637.972": 5311.632514,
      "638.974": 5338.23022,
      "639.976": 5360.841468,
      "640.978": 5378.315362,
      "641.98": 5396.206236,
      "642.982": 5414.075277,
      "643.984": 5431.866519,
      "644.986": 5454.020436,
      "645.988": 5472.895065,
      "646.99": 5493.157369,
      "647.992": 5513.029587,
      "648.994": 5535.59986,
      "649.996": 5553.590338,
      "650.998": 5572.28457,
      "652.0": 5591.801036,
      "653.002": 5611.275268,
      "654.004": 5629.474395,
      "655.006": 5651.35801,
      "656.008": 5670.514074,
      "657.01": 5692.451246,
      "658.012": 5720.93683,
      "659.014": 5741.58878,
      "660.016": 5760.809915,
      "661.018": 5779.407906,
      "662.02": 5799.113301,
      "663.022": 5817.134338,
      "664.024": 5837.077732,
      "665.026": 5857.217263,
      "666.028": 5876.833441,
      "667.03": 5895.303603,
      "668.032": 5914.740335,
      "669.034": 5933.648416,
      "670.036": 5952.137614,
      "671.038": 5970.156171,
      "672.04": 5989.038294,
      "673.042": 6007.402224,
      "674.044": 6025.945858,
      "675.046": 6044.129302,
      "676.048": 6064.195146,
      "677.05": 6088.047284,
      "678.052": 6107.882542,
      "679.054": 6128.027024,
      "680.056": 6155.392352,
      "681.058": 6179.401229,
      "682.06": 6204.303975,
      "683.062": 6225.723821,
      "684.064": 6247.718681,
      "685.066": 6266.292276,
      "686.068": 6286.230507,
      "687.07": 6306.260761,
      "688.072": 6326.507767,
      "689.074": 6347.894022,
      "690.076": 6367.950605,
      "691.078": 6386.553832,
      "692.08": 6406.305366,
      "693.082": 6432.907087,
      "694.084": 6454.933004,
      "695.086": 6473.533091,
      "696.088": 6495.547734,
      "697.09": 6515.427703,
      "698.092": 6534.016125,
      "699.094": 6551.533314,
      "700.096": 6568.757764,
      "701.098": 6585.582273,
      "702.1": 6603.714552,
      "703.102": 6621.134245,
      "704.104": 6639.665034,
      "705.106": 6657.775306,
      "706.108": 6676.312346,
      "707.11": 6695.169998,
      "708.112": 6713.054603,
      "709.114": 6731.179381,
      "710.116": 6748.590285,
      "711.118": 6766.532138,
      "712.12": 6784.619553,
      "713.122": 6802.972861,
      "714.124": 6823.010105,
      "715.126": 6842.19797,
      "716.128": 6871.921175,
      "717.13": 6898.957899,
      "718.132": 6938.00684,
      "719.134": 6977.75484,
      "720.136": 7033.485325,
      "721.138": 7072.604583,
      "722.14": 7101.191933,
      "723.142": 7121.067757,
      "724.144": 7141.243275,
      "725.146": 7160.291639,
      "726.148": 7180.344659,
      "727.15": 7200.313144,
      "728.152": 7223.800725,
      "729.154": 7245.727578,
      "730.156": 7264.167871,
      "731.158": 7283.18592,
      "732.16": 7301.760806,
      "733.162": 7320.657612,
      "734.164": 7339.150681,
      "735.166": 7356.9012,
      "736.168": 7375.396354,
      "737.17": 7393.373751,
      "738.172": 7410.867699,
      "739.174": 7428.317158,
      "740.176": 7445.99652,
      "741.178": 7463.62047,
      "742.18": 7481.347826,
      "743.182": 7498.072045,
      "744.184": 7514.934241,
      "745.186": 7531.219157,
      "746.188": 7549.134603,
      "747.19": 7567.256891,
      "748.192": 7586.471332,
      "749.194": 7604.374173,
      "750.196": 7628.444184,
      "751.198": 7650.944944,
      "752.2": 7668.882313,
      "753.202": 7687.106539,
      "754.204": 7705.706919,
      "755.206": 7724.691439,
      "756.208": 7743.687348,
      "757.21": 7762.353099,
      "758.212": 7780.032129,
      "759.214": 7797.36007,
      "760.216": 7815.389143,
      "761.218": 7832.624807,
      "762.22": 7850.025277,
      "763.222": 7867.087091,
      "764.224": 7884.829635,
      "765.226": 7902.258818,
      "766.228": 7920.056621,
      "767.23": 7937.671868,
      "768.232": 7954.905058,
      "769.234": 7972.059862,
      "770.236": 7988.979231,
      "771.238": 8006.108423,
      "772.24": 8022.473442,
      "773.242": 8039.704204,
      "774.244": 8056.936597,
      "775.246": 8074.565617,
      "776.248": 8092.698618,
      "777.25": 8109.923523,
      "778.252": 8127.35097,
      "779.254": 8144.621271,
      "780.256": 8162.431162,
      "781.258": 8184.184726,
      "782.26": 8202.105714,
      "783.262": 8219.576992,
      "784.264": 8237.281608,
      "785.266": 8254.589136,
      "786.268": 8272.308905,
      "787.27": 8289.796313,
      "788.272": 8307.050635,
      "789.274": 8324.648655,
      "790.276": 8341.594104,
      "791.278": 8359.033114,
      "792.28": 8376.536482,
      "793.282": 8393.180467,
      "794.284": 8409.90464,
      "795.286": 8427.192132,
      "796.288": 8444.392657,
      "797.29": 8461.16841,
      "798.292": 8478.003253,
      "799.294": 8495.201754,
      "800.296": 8512.328353,
      "801.298": 8529.410743,
      "802.3": 8546.321514,
      "803.302": 8563.498347,
      "804.304": 8580.966425,
      "805.306": 8598.831055,
      "806.308": 8615.775343,
      "807.31": 8633.012068,
      "808.312": 8650.244013,
      "809.314": 8667.609018,
      "810.316": 8685.435106,
      "811.318": 8703.393127,
      "812.32": 8722.090184,
      "813.322": 8739.468881,
      "814.324": 8756.192726,
      "815.326": 8773.406809,
      "816.328": 8790.943915,
      "817.33": 8808.461941,
      "818.332": 8825.553671,
      "819.334": 8842.402539,
      "820.336": 8859.655195,
      "821.338": 8876.499333,
      "822.34": 8893.598222,
      "823.342": 8910.579502,
      "824.344": 8927.69096,
      "825.346": 8944.783332,
      "826.348": 8962.270136,
      "827.35": 8979.659836,
      "828.352": 8996.852912,
      "829.354": 9013.443935,
      "830.356": 9032.243763,
      "831.358": 9049.883769,
      "832.36": 9067.769691,
      "833.362": 9085.050745,
      "834.364": 9101.674119,
      "835.366": 9118.442395,
      "836.368": 9135.588622,
      "837.37": 9152.977506,
      "838.372": 9169.960939,
      "839.374": 9186.577404,
      "840.376": 9203.955908,
      "841.378": 9221.848687,
      "842.38": 9240.359141,
      "843.382": 9259.258586,
      "844.384": 9277.477203,
      "845.386": 9294.694821,
      "846.388": 9312.011874,
      "847.39": 9329.373021,
      "848.392": 9346.796827,
      "849.394": 9364.271045,
      "850.396": 9381.232095,
      "851.398": 9398.499699,
      "852.4": 9416.176206,
      "853.402": 9434.132758,
      "854.404": 9452.006356,
      "855.406": 9469.379652,
      "856.408": 9487.323007,
      "857.41": 9505.20178,
      "858.412": 9522.532955,
      "859.414": 9539.999381,
      "860.416": 9557.779836,
      "861.418": 9575.711495,
      "862.42": 9593.219525,
      "863.422": 9610.618263,
      "864.424": 9627.86893,
      "865.426": 9644.984622,
      "866.428": 9662.045405,
      "867.43": 9678.985063,
      "868.432": 9696.742744,
      "869.434": 9713.969918,
      "870.436": 9731.166432,
      "871.438": 9748.24209,
      "872.44": 9766.076561,
      "873.442": 9783.341733,
      "874.444": 9800.984839,
      "875.446": 9818.738685,
      "876.448": 9835.684827,
      "877.45": 9853.199058,
      "878.452": 9871.611054,
      "879.454": 9889.253382,
      "880.456": 9907.848859,
      "881.458": 9925.729841,
      "882.46": 9943.019116,
      "883.462": 9960.728422,
      "884.464": 9978.11496,
      "885.466": 9996.105917,
      "886.468": 10014.748663,
      "887.47": 10032.429434,
      "888.472": 10050.240645,
      "889.474": 10067.731412,
      "890.476": 10085.484523,
      "891.478": 10103.284798,
      "892.48": 10121.080314,
      "893.482": 10138.643274,
      "894.484": 10155.838152,
      "895.486": 10173.057172,
      "896.488": 10190.278071,
      "897.49": 10207.461034,
      "898.492": 10224.858883,
      "899.494": 10242.447812,
      "900.496": 10260.162959,
      "901.498": 10278.799101,
      "902.5": 10296.932914,
      "903.502": 10316.207916,
      "904.504": 10336.388179,
      "905.506": 10355.825225,
      "906.508": 10374.479901,
      "907.51": 10393.226154,
      "908.512": 10411.95376,
      "909.514": 10430.805501,
      "910.516": 10449.445113,
      "911.518": 10467.636436,
      "912.52": 10485.670113,
      "913.522": 10503.881813,
      "914.524": 10521.409369,
      "915.526": 10539.323769,
      "916.528": 10556.973478,
      "917.53": 10575.329046,
      "918.532": 10593.544899,
      "919.534": 10611.864374,
      "920.536": 10630.492749,
      "921.538": 10648.592553,
      "922.54": 10667.36128,
      "923.542": 10685.90654,
      "924.544": 10704.230786,
      "925.546": 10723.381546,
      "926.548": 10743.559969,
      "927.55": 10763.577927,
      "928.552": 10783.406073,
      "929.554": 10802.372046,
      "930.556": 10821.378495,
      "931.558": 10840.273556,
      "932.56": 10859.679633,
      "933.562": 10880.855662,
      "934.564": 10900.727764,
      "935.566": 10922.717771,
      "936.568": 10946.284534,
      "937.57": 10964.94951,
      "938.572": 10983.47355,
      "939.574": 11002.479852,
      "940.576": 11020.945912,
      "941.578": 11039.295729,
      "942.58": 11058.262031,
      "943.582": 11076.673323,
      "944.584": 11094.623403,
      "945.586": 11113.568597,
      "946.588": 11132.536103,
      "947.59": 11151.826937,
      "948.592": 11170.61367,
      "949.594": 11189.420367,
      "950.596": 11208.956711,
      "951.598": 11228.295962,
      "952.6": 11247.921356,
      "953.602": 11267.283247,
      "954.604": 11287.468752,
      "955.606": 11308.192522,
      "956.608": 11328.905867,
      "957.61": 11348.746079,
      "958.612": 11367.786994,
      "959.614": 11386.908214,
      "960.616": 11405.55589,
      "961.618": 11425.476035,
      "962.62": 11445.809509,
      "963.622": 11464.873535,
      "964.624": 11484.525763,
      "965.626": 11504.822073,
      "966.628": 11527.17118,
      "967.63": 11548.189854,
      "968.632": 11568.106395,
      "969.634": 11587.623341,
      "970.636": 11607.358385,
      "971.638": 11626.935593,
      "972.64": 11646.430323,
      "973.642": 11666.692264,
      "974.644": 11686.476819,
      "975.646": 11707.403204,
      "976.648": 11727.807476,
      "977.65": 11747.554069,
      "978.652": 11767.846579,
      "979.654": 11787.560056,
      "980.656": 11806.211432,
      "981.658": 11825.087076,
      "982.66": 11844.292549,
      "983.662": 11863.104348,
      "984.664": 11881.674618,
      "985.666": 11902.263364,
      "986.668": 11921.976139,
      "987.67": 11941.099856,
      "988.672": 11960.788214,
      "989.674": 11980.806334,
      "990.676": 12000.104937,
      "991.678": 12019.534523,
      "992.68": 12038.983257,
      "993.682": 12058.806276,
      "994.684": 12078.27679,
      "995.686": 12098.779945,
      "996.688": 12120.297885,
      "997.69": 12140.671568,
      "998.692": 12161.54143,
      "999.694": 12181.033498,
      "1000.696": 12200.905042,
      "1001.698": 12220.267103,
      "1002.7": 12240.284581,
      "1003.702": 12260.309708,
      "1004.704": 12279.608663,
      "1005.706": 12299.055045,
      "1006.708": 12319.017458,
      "1007.71": 12338.62003,
      "1008.712": 12357.723301,
      "1009.714": 12376.753718,
      "1010.716": 12396.017867,
      "1011.718": 12415.086213,
      "1012.72": 12435.251752,
      "1013.722": 12455.179157,
      "1014.724": 12474.884293,
      "1015.726": 12495.192103,
      "1016.728": 12516.82701,
      "1017.73": 12536.148307,
      "1018.732": 12556.149632,
      "1019.734": 12575.624404,
      "1020.736": 12595.62054,
      "1021.738": 12615.497598,
      "1022.74": 12635.008025,
      "1023.742": 12654.964796,
      "1024.744": 12674.589396,
      "1025.746": 12694.762976,
      "1026.748": 12714.885052,
      "1027.75": 12735.11617,
      "1028.752": 12755.690309,
      "1029.754": 12776.705976,
      "1030.756": 12795.993607,
      "1031.758": 12816.659544,
      "1032.76": 12836.321483,
      "1033.762": 12856.121004,
      "1034.764": 12875.546174,
      "1035.766": 12895.640424,
      "1036.768": 12915.428819,
      "1037.77": 12935.387335,
      "1038.772": 12955.051846,
      "1039.774": 12974.696135,
      "1040.776": 12994.632029,
      "1041.778": 13015.298919,
      "1042.78": 13036.067223,
      "1043.782": 13056.656579,
      "1044.784": 13076.855996,
      "1045.786": 13097.166001,
      "1046.788": 13117.727556,
      "1047.79": 13138.748899,
      "1048.792": 13158.837667,
      "1049.794": 13178.550516,
      "1050.796": 13198.538062,
      "1051.798": 13218.575363,
      "1052.8": 13238.142169,
      "1053.802": 13258.492996,
      "1054.804": 13277.9456,
      "1055.806": 13298.10591,
      "1056.808": 13317.92762,
      "1057.81": 13338.624798,
      "1058.812": 13358.749019,
      "1059.814": 13378.639062,
      "1060.816": 13398.875928,
      "1061.818": 13419.202991,
      "1062.82": 13439.820142,
      "1063.822": 13460.493794,
      "1064.824": 13481.00452,
      "1065.826": 13502.219019,
      "1066.828": 13523.239768,
      "1067.83": 13543.618681,
      "1068.832": 13563.582231,
      "1069.834": 13583.188489,
      "1070.836": 13603.082469,
      "1071.838": 13622.14118,
      "1072.84": 13641.545651,
      "1073.842": 13661.233961,
      "1074.844": 13680.439038,
      "1075.846": 13699.894711,
      "1076.848": 13719.31501,
      "1077.85": 13738.056043,
      "1078.852": 13757.980733,
      "1079.854": 13777.48583,
      "1080.856": 13796.815024,
      "1081.858": 13816.163325,
      "1082.86": 13835.341188,
      "1083.862": 13855.081181,
      "1084.864": 13874.474216,
      "1085.866": 13894.788519,
      "1086.868": 13915.580904,
      "1087.87": 13935.95965,
      "1088.872": 13956.090982,
      "1089.874": 13976.042741,
      "1090.876": 13996.14495,
      "1091.878": 14015.792296,
      "1092.88": 14034.582761,
      "1093.882": 14053.572134,
      "1094.884": 14071.805008,
      "1095.886": 14090.967679,
      "1096.888": 14110.466087,
      "1097.89": 14129.246955,
      "1098.892": 14147.796664,
      "1099.894": 14166.847453,
      "1100.896": 14185.701934,
      "1101.898": 14204.403442,
      "1102.9": 14223.338909,
      "1103.902": 14242.642064,
      "1104.904": 14261.717956,
      "1105.906": 14280.8765,
      "1106.908": 14300.470201,
      "1107.91": 14319.597827,
      "1108.912": 14338.321289,
      "1109.914": 14359.614038,
      "1110.916": 14379.198978,
      "1111.918": 14398.218023,
      "1112.92": 14417.556449,
      "1113.922": 14436.935283,
      "1114.924": 14455.456774,
      "1115.926": 14475.21881,
      "1116.928": 14494.128485,
      "1117.93": 14512.831739,
      "1118.932": 14532.260523,
      "1119.934": 14552.228418,
      "1120.936": 14571.549266,
      "1121.938": 14594.196194,
      "1122.94": 14617.760189,
      "1123.942": 14637.639431,
      "1124.944": 14656.747514,
      "1125.946": 14676.096949,
      "1126.948": 14695.81576,
      "1127.95": 14715.134391,
      "1128.952": 14734.438982,
      "1129.954": 14753.991988,
      "1130.956": 14773.69901,
      "1131.958": 14793.88677,
      "1132.96": 14815.131701,
      "1133.962": 14834.82121,
      "1134.964": 14854.311761,
      "1135.966": 14873.803997,
      "1136.968": 14893.32974,
      "1137.97": 14912.82527,
      "1138.972": 14932.293223,
      "1139.974": 14951.35495,
      "1140.976": 14972.172057,
      "1141.978": 14991.657277,
      "1142.98": 15011.112901,
      "1143.982": 15030.216306,
      "1144.984": 15049.744747,
      "1145.986": 15069.285883,
      "1146.988": 15088.848213,
      "1147.99": 15108.666597,
      "1148.992": 15127.884824,
      "1149.994": 15147.51059,
      "1150.996": 15166.88772,
      "1151.998": 15186.010764,
      "1153.0": 15207.620804,
      "1154.002": 15228.879785,
      "1155.004": 15248.087012,
      "1156.006": 15268.388004,
      "1157.008": 15287.87457,
      "1158.01": 15307.312064,
      "1159.012": 15326.712413,
      "1160.014": 15346.910579,
      "1161.016": 15367.107318,
      "1162.018": 15387.060844,
      "1163.02": 15406.675552,
      "1164.022": 15426.052689,
      "1165.024": 15445.801164,
      "1166.026": 15465.40192,
      "1167.028": 15485.327124,
      "1168.03": 15505.197426,
      "1169.032": 15524.856625,
      "1170.034": 15544.963065,
      "1171.036": 15565.103505,
      "1172.038": 15585.843193,
      "1173.04": 15605.968878,
      "1174.042": 15626.198454,
      "1175.044": 15646.118282,
      "1176.046": 15666.484533,
      "1177.048": 15686.763487,
      "1178.05": 15707.996387,
      "1179.052": 15728.81931,
      "1180.054": 15749.664534,
      "1181.056": 15770.138837,
      "1182.058": 15791.54427,
      "1183.06": 15812.591126,
      "1184.062": 15833.886835,
      "1185.064": 15855.587417,
      "1186.066": 15875.904165,
      "1187.068": 15895.995289,
      "1188.07": 15916.040911,
      "1189.072": 15935.657631,
      "1190.074": 15955.457053,
      "1191.076": 15975.568814,
      "1192.078": 15995.324228,
      "1193.08": 16015.665928,
      "1194.082": 16036.142189,
      "1195.084": 16057.140652,
      "1196.086": 16077.69036,
      "1197.088": 16098.424593,
      "1198.09": 16118.923485,
      "1199.092": 16139.134459,
      "1200.094": 16161.307749,
      "1201.096": 16182.321612,
      "1202.098": 16203.666529,
      "1203.1": 16226.705046,
      "1204.102": 16248.890146,
      "1205.104": 16270.778626,
      "1206.106": 16292.040782,
      "1207.108": 16313.892821,
      "1208.11": 16335.655971,
      "1209.112": 16356.026007,
      "1210.114": 16376.873974,
      "1211.116": 16396.967818,
      "1212.118": 16416.81663,
      "1213.12": 16437.038309,
      "1214.122": 16456.996014,
      "1215.124": 16477.714391,
      "1216.126": 16499.110767,
      "1217.128": 16519.707374,
      "1218.13": 16539.578663,
      "1219.132": 16560.083944,
      "1220.134": 16581.571383,
      "1221.136": 16603.278199,
      "1222.138": 16625.937175,
      "1223.14": 16647.398693,
      "1224.142": 16669.367632,
      "1225.144": 16690.968369,
      "1226.146": 16713.081732,
      "1227.148": 16734.528388,
      "1228.15": 16756.306123,
      "1229.152": 16777.251468,
      "1230.154": 16798.15513,
      "1231.156": 16819.002292,
      "1232.158": 16840.535584,
      "1233.16": 16861.159634,
      "1234.162": 16883.032025,
      "1235.164": 16904.208051,
      "1236.166": 16925.003968,
      "1237.168": 16945.759749,
      "1238.17": 16966.727868,
      "1239.172": 16987.793671,
      "1240.174": 17008.515138,
      "1241.176": 17028.828799,
      "1242.178": 17049.008401,
      "1243.18": 17070.829158,
      "1244.182": 17092.16341,
      "1245.184": 17113.493698,
      "1246.186": 17134.861722,
      "1247.188": 17156.553016,
      "1248.19": 17177.93637,
      "1249.192": 17199.001501,
      "1250.194": 17220.064426,
      "1251.196": 17240.618243,
      "1252.198": 17261.202181,
      "1253.2": 17282.531563,
      "1254.202": 17303.948643,
      "1255.204": 17325.025114,
      "1256.206": 17346.785538,
      "1257.208": 17368.160325,
      "1258.21": 17388.857304,
      "1259.212": 17409.733287,
      "1260.214": 17430.877827,
      "1261.216": 17452.24361,
      "1262.218": 17474.683475,
      "1263.22": 17496.624366,
      "1264.222": 17519.766737,
      "1265.224": 17542.505353,
      "1266.226": 17564.31346,
      "1267.228": 17586.420085,
      "1268.23": 17608.053366,
      "1269.232": 17629.13146,
      "1270.234": 17650.254284,
      "1271.236": 17671.996746,
      "1272.238": 17692.560919,
      "1273.24": 17713.534328,
      "1274.242": 17733.822214,
      "1275.244": 17755.553073,
      "1276.246": 17776.827868,
      "1277.248": 17798.409809,
      "1278.25": 17820.376269,
      "1279.252": 17841.875116,
      "1280.254": 17862.974753,
      "1281.256": 17884.398761,
      "1282.258": 17905.517197,
      "1283.26": 17926.174857,
      "1284.262": 17947.006558,
      "1285.264": 17968.949162,
      "1286.266": 17990.881339,
      "1287.268": 18012.32987,
      "1288.27": 18034.508493,
      "1289.272": 18055.775337,
      "1290.274": 18076.158258,
      "1291.276": 18096.472326,
      "1292.278": 18117.163391,
      "1293.28": 18138.222698,
      "1294.282": 18158.799411,
      "1295.284": 18179.456753,
      "1296.286": 18201.906459,
      "1297.288": 18222.513508,
      "1298.29": 18242.971686,
      "1299.292": 18264.032484,
      "1300.294": 18285.436459,
      "1301.296": 18306.871468,
      "1302.298": 18327.879786,
      "1303.3": 18348.467241,
      "1304.302": 18369.92647,
      "1305.304": 18391.529603,
      "1306.306": 18414.317797,
      "1307.308": 18437.105827,
      "1308.31": 18462.124668,
      "1309.312": 18487.240072,
      "1310.314": 18508.901731,
      "1311.316": 18530.77035,
      "1312.318": 18552.631034,
      "1313.32": 18574.415829,
      "1314.322": 18595.58604,
      "1315.324": 18617.050943,
      "1316.326": 18639.116182,
      "1317.328": 18660.357435,
      "1318.33": 18681.377052,
      "1319.332": 18701.562088,
      "1320.334": 18722.584169,
      "1321.336": 18743.750279,
      "1322.338": 18764.940988,
      "1323.34": 18786.867196,
      "1324.342": 18808.257782,
      "1325.344": 18829.114489,
      "1326.346": 18851.654884,
      "1327.348": 18875.6532,
      "1328.35": 18897.870245,
      "1329.352": 18919.423663,
      "1330.354": 18940.902838,
      "1331.356": 18962.283836,
      "1332.358": 18984.290506,
      "1333.36": 19006.405926,
      "1334.362": 19027.471269,
      "1335.364": 19049.393956,
      "1336.366": 19071.933179,
      "1337.368": 19094.245227,
      "1338.37": 19116.217747,
      "1339.372": 19140.791851,
      "1340.374": 19162.027084,
      "1341.376": 19183.056932,
      "1342.378": 19205.339147,
      "1343.38": 19226.374222,
      "1344.382": 19247.731474,
      "1345.384": 19269.586446,
      "1346.386": 19290.420282,
      "1347.388": 19311.411122,
      "1348.39": 19333.738698,
      "1349.392": 19354.307929,
      "1350.394": 19375.031772,
      "1351.396": 19396.921184,
      "1352.398": 19417.909,
      "1353.4": 19439.540848,
      "1354.402": 19460.594415,
      "1355.404": 19482.494004,
      "1356.406": 19504.473744,
      "1357.408": 19525.530845,
      "1358.41": 19547.627746,
      "1359.412": 19568.974655,
      "1360.414": 19589.647061,
      "1361.416": 19609.89519,
      "1362.418": 19630.850693,
      "1363.42": 19651.47569,
      "1364.422": 19672.358967,
      "1365.424": 19693.492447,
      "1366.426": 19714.216004,
      "1367.428": 19734.970627,
      "1368.43": 19756.404343,
      "1369.432": 19778.412253,
      "1370.434": 19800.131002,
      "1371.436": 19821.624302,
      "1372.438": 19841.95424,
      "1373.44": 19862.135869,
      "1374.442": 19881.689665,
      "1375.444": 19901.659834,
      "1376.446": 19922.539532,
      "1377.448": 19942.458949,
      "1378.45": 19962.308318,
      "1379.452": 19982.375196,
      "1380.454": 20002.281582,
      "1381.456": 20022.668116,
      "1382.458": 20042.476991,
      "1383.46": 20063.430095,
      "1384.462": 20083.634272,
      "1385.464": 20103.679809,
      "1386.466": 20125.411243,
      "1387.468": 20146.128036,
      "1388.47": 20167.69177,
      "1389.472": 20188.406028,
      "1390.474": 20208.768252,
      "1391.476": 20232.111174,
      "1392.478": 20252.712134,
      "1393.48": 20273.941916,
      "1394.482": 20295.030831,
      "1395.484": 20315.497323,
      "1396.486": 20336.337657,
      "1397.488": 20357.41416,
      "1398.49": 20378.923264,
      "1399.492": 20400.224742,
      "1400.494": 20420.662316,
      "1401.496": 20441.718129,
      "1402.498": 20462.037099,
      "1403.5": 20482.708698,
      "1404.502": 20503.28053,
      "1405.504": 20523.796618,
      "1406.506": 20544.63967,
      "1407.508": 20564.574866,
      "1408.51": 20585.224139,
      "1409.512": 20605.367505,
      "1410.514": 20625.543073,
      "1411.516": 20646.013926,
      "1412.518": 20666.14375,
      "1413.52": 20687.914701,
      "1414.522": 20708.803876,
      "1415.524": 20729.281662,
      "1416.526": 20750.429331,
      "1417.528": 20772.023777,
      "1418.53": 20793.227495,
      "1419.532": 20814.780082,
      "1420.534": 20838.70039,
      "1421.536": 20858.693636,
      "1422.538": 20878.402583,
      "1423.54": 20898.796348,
      "1424.542": 20919.678643,
      "1425.544": 20940.590613,
      "1426.546": 20961.323459,
      "1427.548": 20982.047864,
      "1428.55": 21001.889757,
      "1429.552": 21021.745369,
      "1430.554": 21041.730131,
      "1431.556": 21061.953314,
      "1432.558": 21082.250471,
      "1433.56": 21102.523118,
      "1434.562": 21123.382766,
      "1435.564": 21145.158642,
      "1436.566": 21166.423171,
      "1437.568": 21187.54139,
      "1438.57": 21208.185092,
      "1439.572": 21228.66914,
      "1440.574": 21249.668916,
      "1441.576": 21271.535001,
      "1442.578": 21293.063522,
      "1443.58": 21315.590568,
      "1444.582": 21337.033983,
      "1445.584": 21358.674093,
      "1446.586": 21380.414468,
      "1447.588": 21401.242379,
      "1448.59": 21422.016285,
      "1449.592": 21442.408089,
      "1450.594": 21463.592254,
      "1451.596": 21484.489338,
      "1452.598": 21506.600005,
      "1453.6": 21527.57677,
      "1454.602": 21548.042775,
      "1455.604": 21568.423422,
      "1456.606": 21588.641883,
      "1457.608": 21611.249056,
      "1458.61": 21632.624884,
      "1459.612": 21653.623683,
      "1460.614": 21674.719687,
      "1461.616": 21696.952983,
      "1462.618": 21717.922186,
      "1463.62": 21739.46794,
      "1464.622": 21761.142075,
      "1465.624": 21783.012354,
      "1466.626": 21803.560987,
      "1467.628": 21824.775962,
      "1468.63": 21845.011709,
      "1469.632": 21865.349691,
      "1470.634": 21886.600057,
      "1471.636": 21907.54712,
      "1472.638": 21929.075583,
      "1473.64": 21949.899546,
      "1474.642": 21971.779547,
      "1475.644": 21993.29896,
      "1476.646": 22014.523249,
      "1477.648": 22035.090768,
      "1478.65": 22056.940725,
      "1479.652": 22078.05045,
      "1480.654": 22099.69851,
      "1481.656": 22121.917083,
      "1482.658": 22143.358602,
      "1483.66": 22164.268512,
      "1484.662": 22185.533296,
      "1485.664": 22206.880938,
      "1486.666": 22227.809033,
      "1487.668": 22248.576724,
      "1488.67": 22269.269011,
      "1489.672": 22290.134871,
      "1490.674": 22311.433277,
      "1491.676": 22333.861139,
      "1492.678": 22355.292497,
      "1493.68": 22378.720635,
      "1494.682": 22403.715637,
      "1495.684": 22425.934115,
      "1496.686": 22447.164388,
      "1497.688": 22467.940335,
      "1498.69": 22488.351289,
      "1499.692": 22511.026575,
      "1500.694": 22533.796782,
      "1501.696": 22556.654897,
      "1502.698": 22579.588991,
      "1503.7": 22602.438361,
      "1504.702": 22625.034641,
      "1505.704": 22647.181125,
      "1506.706": 22669.453006,
      "1507.708": 22692.677777,
      "1508.71": 22714.187021,
      "1509.712": 22735.502475,
      "1510.714": 22756.798686,
      "1511.716": 22778.371284,
      "1512.718": 22800.760921,
      "1513.72": 22822.056905,
      "1514.722": 22843.147768,
      "1515.724": 22864.451142,
      "1516.726": 22885.380439,
      "1517.728": 22907.313402,
      "1518.73": 22928.773317,
      "1519.732": 22951.552791,
      "1520.734": 22975.738744,
      "1521.736": 22998.88665,
      "1522.738": 23022.355828,
      "1523.74": 23044.414655,
      "1524.742": 23068.526579,
      "1525.744": 23093.214662,
      "1526.746": 23116.222936,
      "1527.748": 23139.390198,
      "1528.75": 23160.821062,
      "1529.752": 23183.343409,
      "1530.754": 23205.022515,
      "1531.756": 23227.62714,
      "1532.758": 23249.038136,
      "1533.76": 23271.362561,
      "1534.762": 23294.146748,
      "1535.764": 23317.052189,
      "1536.766": 23339.344314,
      "1537.768": 23361.554659,
      "1538.77": 23383.707949,
      "1539.772": 23405.55054,
      "1540.774": 23430.239317,
      "1541.776": 23454.255048,
      "1542.778": 23477.062905,
      "1543.78": 23500.593586,
      "1544.782": 23523.39112,
      "1545.784": 23545.93554,
      "1546.786": 23570.369307,
      "1547.788": 23592.257377,
      "1548.79": 23613.881738,
      "1549.792": 23636.281989,
      "1550.794": 23658.900429,
      "1551.796": 23681.420641,
      "1552.798": 23703.693719,
      "1553.8": 23725.747791,
      "1554.802": 23747.747567,
      "1555.804": 23770.73214,
      "1556.806": 23792.946615,
      "1557.808": 23814.457943,
      "1558.81": 23836.455011,
      "1559.812": 23856.944684,
      "1560.814": 23880.607222,
      "1561.816": 23903.39766,
      "1562.818": 23926.158767,
      "1563.82": 23948.20424,
      "1564.822": 23970.431525,
      "1565.824": 23992.917978,
      "1566.826": 24014.693098,
      "1567.828": 24037.024857,
      "1568.83": 24059.227122,
      "1569.832": 24080.958529,
      "1570.834": 24104.559823,
      "1571.836": 24126.408818,
      "1572.838": 24148.757197,
      "1573.84": 24170.944643,
      "1574.842": 24194.965797,
      "1575.844": 24217.810167,
      "1576.846": 24241.107252,
      "1577.848": 24263.684776,
      "1578.85": 24285.56611,
      "1579.852": 24308.367407,
      "1580.854": 24332.85361,
      "1581.856": 24355.462398,
      "1582.858": 24378.105414,
      "1583.86": 24402.25642,
      "1584.862": 24425.77145,
      "1585.864": 24449.34343,
      "1586.866": 24472.036842,
      "1587.868": 24494.942787,
      "1588.87": 24516.635138,
      "1589.872": 24538.975315,
      "1590.874": 24560.883215,
      "1591.876": 24582.958742,
      "1592.878": 24606.117764,
      "1593.88": 24628.939329,
      "1594.882": 24651.403546,
      "1595.884": 24673.631242,
      "1596.886": 24696.293756,
      "1597.888": 24718.36931,
      "1598.89": 24740.957647,
      "1599.892": 24764.543247,
      "1600.894": 24789.170365,
      "1601.896": 24811.39562,
      "1602.898": 24833.132733,
      "1603.9": 24854.924395,
      "1604.902": 24878.263542,
      "1605.904": 24903.908957,
      "1606.906": 24926.383276,
      "1607.908": 24949.06024,
      "1608.91": 24971.150678,
      "1609.912": 24993.869428,
      "1610.914": 25016.459451,
      "1611.916": 25039.944011,
      "1612.918": 25063.311477,
      "1613.92": 25085.800469,
      "1614.922": 25108.263889,
      "1615.924": 25132.75534,
      "1616.926": 25157.451339,
      "1617.928": 25181.232967,
      "1618.93": 25204.229982,
      "1619.932": 25226.729504,
      "1620.934": 25252.026996,
      "1621.936": 25275.181868,
      "1622.938": 25298.001629,
      "1623.94": 25321.006812,
      "1624.942": 25343.711369,
      "1625.944": 25366.495095,
      "1626.946": 25390.170993,
      "1627.948": 25412.765995,
      "1628.95": 25435.762096,
      "1629.952": 25458.12178,
      "1630.954": 25480.379483,
      "1631.956": 25502.69659,
      "1632.958": 25526.975426,
      "1633.96": 25552.191859,
      "1634.962": 25576.091666,
      "1635.964": 25599.674005,
      "1636.966": 25624.407016,
      "1637.968": 25647.567505,
      "1638.97": 25670.125456,
      "1639.972": 25692.156413,
      "1640.974": 25717.272201,
      "1641.976": 25740.483348,
      "1642.978": 25763.611209,
      "1643.98": 25786.976537,
      "1644.982": 25810.023749,
      "1645.984": 25832.742794,
      "1646.986": 25855.088015,
      "1647.988": 25877.256594,
      "1648.99": 25898.926381,
      "1649.992": 25922.169744,
      "1650.994": 25944.026989,
      "1651.996": 25966.904597,
      "1652.998": 25989.795624,
      "1654.0": 26012.193984,
      "1655.002": 26035.367609,
      "1656.004": 26058.182588,
      "1657.006": 26081.177584,
      "1658.008": 26103.747063,
      "1659.01": 26125.831482,
      "1660.012": 26147.275558,
      "1661.014": 26170.938682,
      "1662.016": 26194.152214,
      "1663.018": 26216.073715,
      "1664.02": 26239.465858,
      "1665.022": 26262.398634,
      "1666.024": 26286.645852,
      "1667.026": 26309.922876,
      "1668.028": 26334.163311,
      "1669.03": 26356.998714,
      "1670.032": 26378.673472,
      "1671.034": 26400.643221,
      "1672.036": 26422.488346,
      "1673.038": 26444.122029,
      "1674.04": 26467.11947,
      "1675.042": 26489.352966,
      "1676.044": 26511.746549,
      "1677.046": 26533.833246,
      "1678.048": 26555.567902,
      "1679.05": 26577.820533,
      "1680.052": 26602.505349,
      "1681.054": 26630.17426,
      "1682.056": 26652.631114,
      "1683.058": 26676.156077,
      "1684.06": 26698.925925,
      "1685.062": 26721.122193,
      "1686.064": 26744.128708,
      "1687.066": 26766.559204,
      "1688.068": 26788.321189,
      "1689.07": 26810.388328,
      "1690.072": 26832.723739,
      "1691.074": 26854.640882,
      "1692.076": 26879.055943,
      "1693.078": 26903.050835,
      "1694.08": 26928.853039,
      "1695.082": 26952.113474,
      "1696.084": 26977.010007,
      "1697.086": 27000.716032,
      "1698.088": 27024.716537,
      "1699.09": 27049.434276,
      "1700.092": 27074.458618,
      "1701.094": 27099.26511,
      "1702.096": 27122.308788,
      "1703.098": 27144.943891,
      "1704.1": 27168.366352,
      "1705.102": 27192.154502,
      "1706.104": 27216.214514,
      "1707.106": 27238.588785,
      "1708.108": 27262.396662,
      "1709.11": 27285.81919,
      "1710.112": 27308.504896,
      "1711.114": 27333.633112,
      "1712.116": 27357.968707,
      "1713.118": 27381.276863,
      "1714.12": 27403.494022,
      "1715.122": 27425.559823,
      "1716.124": 27449.051485,
      "1717.126": 27472.041969,
      "1718.128": 27494.19079,
      "1719.13": 27516.123726,
      "1720.132": 27540.053822,
      "1721.134": 27561.842481,
      "1722.136": 27583.559857,
      "1723.138": 27605.786557,
      "1724.14": 27629.20382,
      "1725.142": 27653.222257,
      "1726.144": 27677.278024,
      "1727.146": 27700.88386,
      "1728.148": 27723.839528,
      "1729.15": 27747.50723,
      "1730.152": 27770.978314,
      "1731.154": 27792.933958,
      "1732.156": 27816.231487,
      "1733.158": 27838.69303,
      "1734.16": 27862.150782,
      "1735.162": 27884.678059,
      "1736.164": 27907.541341,
      "1737.166": 27931.935317,
      "1738.168": 27955.039291,
      "1739.17": 27981.553116,
      "1740.172": 28004.596729,
      "1741.174": 28029.015287,
      "1742.176": 28053.20535,
      "1743.178": 28077.142512,
      "1744.18": 28100.721887,
      "1745.182": 28123.718476,
      "1746.184": 28147.861526,
      "1747.186": 28171.474559,
      "1748.188": 28194.284241,
      "1749.19": 28218.121977,
      "1750.192": 28241.583355,
      "1751.194": 28264.387267,
      "1752.196": 28286.700374,
      "1753.198": 28311.450292,
      "1754.2": 28334.121472,
      "1755.202": 28356.843834,
      "1756.204": 28380.243457,
      "1757.206": 28403.314949,
      "1758.208": 28427.10416,
      "1759.21": 28452.062424,
      "1760.212": 28475.689082,
      "1761.214": 28499.731702,
      "1762.216": 28522.600463,
      "1763.218": 28546.728157,
      "1764.22": 28571.943109,
      "1765.222": 28596.092556,
      "1766.224": 28619.538413,
      "1767.226": 28643.612464,
      "1768.228": 28671.94253,
      "1769.23": 28696.804134,
      "1770.232": 28722.500745,
      "1771.234": 28749.995444,
      "1772.236": 28778.403232,
      "1773.238": 28808.783135,
      "1774.24": 28835.587367,
      "1775.242": 28859.6111,
      "1776.244": 28885.755173,
      "1777.246": 28913.751108,
      "1778.248": 28940.530443,
      "1779.25": 28965.762957,
      "1780.252": 28991.68843,
      "1781.254": 29019.114915,
      "1782.256": 29044.051803,
      "1783.258": 29069.119397,
      "1784.26": 29092.237113,
      "1785.262": 29115.377741,
      "1786.264": 29138.839099,
      "1787.266": 29163.901416,
      "1788.268": 29188.361257,
      "1789.27": 29216.977299,
      "1790.272": 29242.466891,
      "1791.274": 29268.00098,
      "1792.276": 29296.022694,
      "1793.278": 29326.150965,
      "1794.28": 29351.006324,
      "1795.282": 29380.271605,
      "1796.284": 29406.803471,
      "1797.286": 29432.684643,
      "1798.288": 29459.507018,
      "1799.29": 29484.458943,
      "1800.292": 29511.128015,
      "1801.294": 29538.845993,
      "1802.296": 29567.012826,
      "1803.298": 29597.582143,
      "1804.3": 29630.762226,
      "1805.302": 29659.19885,
      "1806.304": 29687.301506,
      "1807.306": 29715.27703,
      "1808.308": 29742.880546,
      "1809.31": 29770.057454,
      "1810.312": 29795.648016,
      "1811.314": 29823.841025,
      "1812.316": 29851.660186,
      "1813.318": 29881.179948,
      "1814.32": 29908.20705,
      "1815.322": 29934.04441,
      "1816.324": 29959.913021,
      "1817.326": 29987.815692,
      "1818.328": 30020.658515,
      "1819.33": 30059.044059,
      "1820.332": 30092.651397,
      "1821.334": 30121.531109,
      "1822.336": 30163.907434,
      "1823.338": 30211.898585,
      "1824.34": 30252.543173,
      "1825.342": 30286.901493,
      "1826.344": 30320.196461,
      "1827.346": 30346.132218,
      "1828.348": 30379.043544,
      "1829.35": 30408.685861,
      "1830.352": 30435.188718,
      "1831.354": 30461.778321,
      "1832.356": 30487.306847,
      "1833.358": 30512.357159,
      "1834.36": 30538.252185,
      "1835.362": 30563.743694,
      "1836.364": 30589.345263,
      "1837.366": 30613.580354,
      "1838.368": 30637.89148,
      "1839.37": 30662.590692,
      "1840.372": 30686.362804,
      "1841.374": 30709.623826,
      "1842.376": 30734.494231,
      "1843.378": 30760.161342,
      "1844.38": 30787.181562,
      "1845.382": 30812.71033,
      "1846.384": 30837.724425,
      "1847.386": 30863.652633,
      "1848.388": 30889.365276,
      "1849.39": 30913.520295,
      "1850.392": 30938.564792,
      "1851.394": 30964.536414,
      "1852.396": 30988.684076,
      "1853.398": 31013.1971,
      "1854.4": 31038.556452,
      "1855.402": 31063.71507,
      "1856.404": 31088.854205,
      "1857.406": 31114.193288,
      "1858.408": 31140.274547,
      "1859.41": 31167.96661
    },
    "seconds": 31167.96661
  }
}