[
  0.991008,
  1.120985,
  1.054756,
  0.916613,
  1.114009,
  1.102058,
  1.054702,
  0.749782,
  1.03919,
  0.721359,
  0.460336,
  0.646119,
  0.722893,
  0.569762,
  0.620675,
  0.391834,
  0.522623,
  0.607738,
  0.764368,
  0.833028,
  0.860901,
  0.570142,
  0.369298,
  0.544932,
  0.64198,
  0.673332,
  0.574488,
  0.707265,
  0.723958,
  0.685012,
  0.658989,
  0.796361,
  0.754975,
  0.880154,
  0.482772,
  0.68798,
  0.623262,
  0.743809,
  0.563454,
  0.742525,
  0.77798,
  0.844001,
  0.701128,
  0.475987,
  0.558217,
  0.673489,
  0.822411,
  0.451567,
  0.645478,
  0.706749,
  0.790988,
  0.843979,
  0.573251,
  0.712565,
  1.037085,
  0.590663,
  1.177369,
  0.473481,
  0.758823,
  0.758173,
  0.74098,
  0.589461,
  0.651258,
  0.71195,
  0.415687,
  0.601184,
  0.476108,
  0.559599,
  0.548864,
  0.515653,
  0.558815,
  0.611777,
  0.612787,
  0.577895,
  0.934994,
  0.865672,
  0.982983,
  0.614981,
  0.849559,
  0.653975,
  1.176689,
  0.718143,
  0.68898,
  0.635603,
  0.780574,
  0.97798,
  0.716801,
  0.757048,
  0.805989,
  1.039981,
  0.687303,
  0.956979,
  0.748759,
  0.83898,
  0.993024,
  0.843565,
  0.9481,
  0.982158,
  0.820347,
  0.721986,
  0.803837,
  0.835046,
  0.839857,
  1.614987,
  1.619942,
  0.938182,
  0.72598,
  0.843869,
  0.758977,
  1.040978,
  0.9312,
  1.009904,
  0.841512,
  0.893507,
  0.709656,
  0.900222,
  0.806846,
  0.883538,
  1.120004,
  1.003903,
  0.807432,
  0.860742,
  0.712371,
  0.694388,
  1.045985,
  1.062998,
  0.795256,
  1.095605,
  1.168992,
  1.085916,
  0.545983,
  0.669051,
  0.578518,
  1.041071,
  0.427027,
  0.554125,
  0.67798,
  0.746979,
  0.54198,
  1.271326,
  0.978262,
  0.953019,
  0.378109,
  0.863734,
  1.066699,
  0.782593,
  0.594121,
  0.987049,
  0.612015,
  0.832982,
  0.61575,
  0.67298,
  0.81998,
  1.147564,
  0.89998,
  0.72498,
  0.732981,
  0.794982,
  0.688036,
  0.712985,
  0.69472,
  0.791587,
  0.906766,
  1.121146,
  0.948981,
  1.346,
  0.730777,
  1.46598,
  0.693277,
  0.886,
  0.452333,
  0.444982,
  0.627031,
  0.659018,
  0.756987,
  0.620539,
  1.739047,
  0.387538,
  0.433501,
  0.611068,
  0.785081,
  0.974143,
  0.997017,
  0.816978,
  1.020984,
  0.894646,
  0.693174,
  0.612239,
  0.527333,
  0.50098,
  0.815824,
  0.63033,
  0.623915,
  0.76698,
  0.577981,
  0.589032,
  0.689987,
  0.799979,
  0.741798,
  0.960982,
  0.771983,
  0.76598,
  0.693084,
  0.921156,
  0.76198,
  0.735333,
  0.470325,
  0.67598,
  0.793111,
  0.742862,
  0.794152,
  0.794535,
  0.756979,
  0.576093,
  0.601845,
  0.644496,
  0.614883,
  0.4637,
  0.698834,
  0.602478,
  0.663099,
  0.465384,
  0.714323,
  0.499598,
  0.725045,
  0.68265,
  0.550866,
  0.466065,
  0.859937,
  1.069582,
  0.83149,
  1.133854,
  1.461016,
  0.95256,
  1.067979,
  0.631793,
  1.056744,
  0.77009,
  0.867979,
  0.80033,
  0.947429,
  0.810001,
  0.871996,
  1.334532,
  0.670137,
  0.700263,
  0.899799,
  0.82326,
  0.717552,
  0.826065,
  0.877534,
  0.92302,
  0.92971,
  0.80642,
  0.880067,
  1.119248,
  0.530406,
  0.702012,
  0.62498,
  0.684208,
  0.592063,
  0.501381,
  0.547018,
  0.784979,
  0.889982,
  0.907066,
  0.74137,
  0.832185,
  0.714615,
  0.764003,
  0.741733,
  0.768398,
  2.353207,
  1.054073,
  1.022998,
  0.659634,
  0.845099,
  0.612517,
  0.757571,
  0.706172,
  0.874061,
  0.955839,
  0.825315,
  0.493077,
  0.63498,
  0.852094,
  0.477446,
  0.62298,
  0.727011,
  0.623035,
  0.690982,
  0.469982,
  0.490039,
  0.620566,
  0.725412,
  0.691176,
  0.572624,
  0.445852,
  0.647069,
  0.511072,
  0.483985,
  0.644072,
  0.528816,
  0.945055,
  0.686107,
  1.107992,
  0.739685,
  0.579983,
  0.958754,
  0.727495,
  1.439944,
  1.05813,
  0.746979,
  1.311002,
  0.578979,
  0.9721,
  0.93198,
  0.610957,
  0.839761,
  0.524985,
  0.827772,
  0.692995,
  0.594174,
  1.16999,
  0.639992,
  0.621034,
  0.755123,
  0.61398,
  1.134987,
  0.610902,
  1.210981,
  1.038982,
  0.997082,
  0.745982,
  0.802045,
  0.646989,
  0.927984,
  0.749096,
  0.897084,
  0.776983,
  0.807334,
  0.761158,
  0.838489,
  0.48298,
  0.660305,
  0.757131,
  0.509889,
  0.72498,
  0.771697,
  0.696793,
  0.918036,
  0.846983,
  0.831573,
  0.745186,
  1.021343,
  0.737329,
  0.545616,
  0.731788,
  0.530836,
  0.653862,
  0.655487,
  0.745405,
  0.657873,
  0.498999,
  0.587582,
  0.743991,
  0.586668,
  0.425978,
  0.495341,
  0.684889,
  0.593984,
  0.766685,
  0.74698,
  0.468283,
  0.71798,
  0.46502,
  0.63398,
  0.68198,
  0.562091,
  0.558986,
  0.493204,
  0.503981,
  0.54198,
  0.374413,
  0.517982,
  0.395986,
  0.42617,
  0.524619,
  0.609854,
  0.616542,
  0.684694,
  0.565171,
  0.54581,
  0.593686,
  0.769069,
  0.63698,
  0.542488,
  0.444709,
  0.84798,
  0.494027,
  0.730262,
  0.896576,
  0.607782,
  1.080318,
  1.375993,
  0.887003,
  0.57198,
  0.525979,
  0.554572,
  0.580984,
  0.60998,
  0.3467,
  0.3967,
  0.84298,
  0.710537,
  0.485026,
  0.391581,
  0.68798,
  0.59048,
  0.653982,
  0.56098,
  0.47132,
  0.557965,
  0.75598,
  0.728004,
  0.44533,
  0.923253,
  0.808582,
  0.737963,
  0.458284,
  0.57898,
  2.902421,
  0.612959,
  0.80201,
  0.852989,
  0.943986,
  0.933016,
  0.761556,
  1.01498,
  0.937459,
  0.882051,
  0.962551,
  0.95701,
  0.487185,
  0.81398,
  0.872994,
  0.836119,
  0.776813,
  0.954379,
  0.964258,
  0.83916,
  0.95357,
  0.72498,
  0.357046,
  0.677981,
  0.909885,
  0.48698,
  0.694166,
  0.84498,
  0.630084,
  0.604675,
  0.867883,
  0.740045,
  0.886061,
  0.804698,
  0.915979,
  1.145797,
  0.732981,
  0.975016,
  1.004015,
  0.781256,
  0.72298,
  0.617316,
  0.404208,
  0.511982,
  0.599986,
  0.457618,
  0.422238,
  0.717984,
  1.11998,
  0.88398,
  1.209985,
  1.009975,
  1.388286,
  0.669881,
  0.976006,
  1.037285,
  0.46639,
  0.430002,
  0.360828,
  0.683893,
  0.60198,
  0.922823,
  0.60703,
  0.50498,
  0.466608,
  0.55287,
  0.549672,
  0.835839,
  0.849318,
  0.592157,
  0.658807,
  0.897982,
  1.055607,
  0.619045,
  0.70273,
  0.948985,
  1.076267,
  1.039012,
  0.77798,
  0.867176,
  0.858023,
  0.809008,
  0.45311,
  0.558981,
  0.61998,
  0.444992,
  0.65998,
  0.71498,
  0.575032,
  0.604729,
  0.605881,
  0.518622,
  0.858825,
  0.766915,
  0.837229,
  1.025566,
  0.998003,
  0.853926,
  0.902398,
  0.843098,
  0.559774,
  0.570985,
  0.526983,
  0.466932,
  0.491003,
  0.62398,
  0.603987,
  0.638372,
  0.898682,
  0.705956,
  0.796041,
  1.005142,
  0.692991,
  0.621054,
  0.675154,
  0.54098,
  0.753249,
  0.565069,
  0.563064,
  0.355248,
  0.50498,
  0.50998,
  0.596996,
  0.586855,
  0.54911,
  0.769753,
  0.963589,
  0.68598,
  1.038686,
  0.943526,
  0.765987,
  1.01298,
  0.978253,
  0.751969,
  0.701416,
  0.840236,
  0.60741,
  0.613785,
  0.70732,
  0.958982,
  0.746981,
  0.787654,
  0.803077,
  0.67521,
  0.520042,
  0.63498,
  0.347159,
  0.617141,
  0.788695,
  0.542688,
  0.409085,
  0.946059,
  0.733402,
  1.271097,
  0.746952,
  0.854188,
  1.330498,
  1.120409,
  0.685476,
  0.751581,
  0.97498,
  1.122037,
  1.101041,
  0.916936,
  0.374432,
  0.90126,
  0.886063,
  0.746982,
  0.438518,
  0.634784,
  0.77906,
  0.899991,
  0.750098,
  0.58498,
  0.909985,
  0.63665,
  0.672304,
  0.834583,
  0.856049,
  0.816395,
  0.87498,
  0.955595,
  1.23495,
  0.733676,
  1.027523,
  0.709719,
  0.954687,
  0.423437,
  1.138301,
  1.112413,
  0.918379,
  0.981603,
  0.827612,
  0.872787,
  1.022663,
  0.794862,
  0.846725,
  1.001982,
  0.643987,
  0.676266,
  0.584982,
  0.853876,
  0.629411,
  0.635803,
  0.963584,
  0.622312,
  1.336566,
  0.76498,
  0.983072,
  0.903256,
  0.747479,
  1.011197,
  0.860048,
  1.128373,
  0.715856,
  1.043531,
  0.755888,
  0.687671,
  0.75936,
  0.83737,
  0.645387,
  0.828721,
  0.450291,
  0.492953,
  0.645906,
  0.573578,
  0.737095,
  0.592371,
  0.580016,
  0.41282,
  0.697557,
  0.403424,
  0.97202,
  0.521068,
  0.562853,
  0.67546,
  0.493086,
  0.64898,
  0.79298,
  0.684953,
  0.95698,
  1.232617,
  0.309046,
  0.419048,
  0.540091,
  0.484042,
  0.61198,
  0.735979,
  0.551564,
  0.616647,
  0.564353,
  0.661993,
  0.880996,
  0.514362,
  0.53698,
  0.472822,
  0.72711,
  0.698024,
  0.49393,
  0.899464,
  0.537912,
  0.849196,
  0.686347,
  0.727965,
  0.673358,
  0.482099,
  0.463876,
  0.378762,
  0.579117,
  0.737498,
  0.79831,
  0.876829,
  0.84353,
  0.6889,
  0.583456,
  0.769606,
  1.026462,
  0.751018,
  1.262138,
  0.665475,
  0.858984,
  0.666222,
  0.398042,
  0.433513,
  0.696477,
  0.536099,
  0.572319,
  0.655814,
  0.711852,
  0.506162,
  0.540032,
  0.835989,
  0.837608,
  0.828796,
  0.513297,
  0.779979,
  0.75548,
  0.791569,
  0.42878,
  0.99398,
  0.51002,
  0.710982,
  0.622215,
  0.779983,
  0.720908,
  0.733111,
  0.911462,
  0.672008,
  0.877923,
  0.607375,
  0.61298,
  0.644276,
  0.451881,
  0.61698,
  0.953562,
  0.818123,
  0.77873,
  0.628,
  0.95658,
  0.462431,
  1.016519,
  0.98198,
  0.85475,
  0.640581,
  0.748946,
  1.029934,
  1.075276,
  0.74299,
  0.633784,
  0.893207,
  0.910881,
  0.829018,
  0.965982,
  0.82998,
  0.836005,
  0.783843,
  0.957985,
  1.445976,
  1.239022,
  0.69205,
  0.502891,
  0.501728,
  0.636984,
  0.745017,
  0.546724,
  0.658012,
  0.5762,
  0.650444,
  1.126547,
  0.554039,
  0.811068,
  1.08098,
  0.795984,
  0.989087,
  0.79798,
  0.775544,
  0.877671,
  0.781081,
  0.755013,
  0.627979,
  0.722801,
  0.50482,
  0.599889,
  0.359984,
  0.558089,
  0.581881,
  0.651137,
  0.476951,
  0.504932,
  0.904172,
  0.663332,
  0.583554,
  0.587589,
  0.550873,
  0.572026,
  0.657012,
  0.49798,
  0.417995,
  0.483829,
  0.564003,
  0.53871,
  0.503828,
  0.411952,
  0.708502,
  0.582991,
  0.695895,
  0.523025,
  0.457005,
  0.477837,
  0.857569
]