[
  0.160696,
  0.157598,
  0.35122,
  0.40298,
  0.327981,
  0.15668,
  0.414803,
  0.500996,
  0.267979,
  0.215663,
  0.23904,
  0.290316,
  0.441981,
  0.152599,
  0.20598,
  0.45777,
  0.506985,
  0.576449,
  0.392978,
  0.554683,
  0.50084,
  0.378932,
  0.62194,
  0.41272,
  0.461006,
  0.39598,
  0.679794,
  0.64198,
  0.812988,
  0.439452,
  0.439868,
  0.507015,
  0.33298,
  0.712599,
  0.482979,
  0.528979,
  0.393806,
  0.541101,
  0.57098,
  0.324979,
  0.385178,
  0.443264,
  0.323559,
  0.361827,
  0.39698,
  0.34952,
  0.362944,
  0.551727,
  0.61336,
  0.349391,
  0.394186,
  0.494509,
  0.549978,
  0.417981,
  0.619835,
  0.40298,
  0.509978,
  0.368217,
  0.415972,
  0.434305,
  0.43798,
  0.45298,
  0.42098,
  0.61598,
  0.40498,
  0.36398,
  0.609938,
  0.63798,
  0.450957,
  0.50698,
  0.436978,
  0.518938,
  0.406542,
  0.55398,
  0.42798,
  0.624019,
  0.475568,
  0.410738,
  0.504013,
  0.480282,
  0.36711,
  0.373643,
  0.523024,
  0.57798,
  0.51498,
  0.39998,
  0.59994,
  0.42003,
  0.650903,
  0.46098,
  0.51198,
  0.670034,
  0.57498,
  0.402453,
  0.32198,
  0.37598,
  0.46498,
  0.296313,
  0.341156,
  0.43098,
  0.450351,
  0.32698,
  0.28798,
  0.356744,
  0.312979,
  0.34398,
  0.283898,
  0.300855,
  0.32098,
  0.51698,
  0.21698,
  0.141694,
  0.33198,
  0.17098,
  0.32498,
  0.436889,
  0.38398,
  0.19098,
  0.318562,
  0.23898,
  0.22098,
  0.38998,
  0.17598,
  0.39198,
  0.312892,
  0.438541,
  0.49498,
  0.46498,
  0.391967,
  0.399211,
  0.569105,
  0.492076,
  0.396388,
  0.550505,
  0.405381,
  0.423182,
  0.48198,
  0.55098,
  0.636592,
  0.556385,
  0.574697,
  0.455815,
  0.487418,
  0.616327,
  0.18998,
  0.235148,
  0.35184,
  0.182831,
  0.259618,
  0.28456,
  0.411413,
  0.172426,
  0.216395,
  0.247157,
  0.371351,
  0.233222,
  0.40298,
  0.239892,
  0.269998,
  0.527948,
  0.62098,
  0.471539,
  0.484838,
  0.416688,
  0.575676,
  0.463979,
  0.607981,
  0.660978,
  0.528615,
  0.588966,
  0.432295,
  0.512979,
  0.850981,
  0.568395,
  0.39398,
  0.664133,
  0.338956,
  0.60798,
  0.16598,
  0.200034,
  0.394173,
  0.41295,
  0.134533,
  0.163766,
  0.16848,
  0.271985,
  0.430461,
  0.28498,
  0.159023,
  0.432009,
  0.172913,
  0.325222,
  0.326095,
  0.40498,
  0.507026,
  0.44498,
  0.369979,
  0.38298,
  0.529979,
  0.471932,
  0.62498,
  0.44198,
  0.41898,
  0.482959,
  0.50498,
  0.450624,
  0.57798,
  0.50798,
  0.46298,
  0.355027,
  0.383228,
  0.367979,
  0.54256,
  0.40998,
  0.40403,
  0.4752,
  0.65898,
  0.63398,
  0.413088,
  0.575298,
  0.42198,
  0.474206,
  0.70998,
  0.734839,
  0.171646,
  0.15198,
  0.378097,
  0.254744,
  0.39298,
  0.196487,
  0.16598,
  0.128181,
  0.359065,
  0.218689,
  0.182976,
  0.236099,
  0.112517,
  0.23498,
  0.200013,
  0.306243,
  0.66698,
  0.367027,
  0.630566,
  0.410952,
  0.526981,
  0.520092,
  0.767211,
  0.481816,
  0.52698,
  0.69998,
  0.365963,
  0.429894,
  0.48498,
  0.634406,
  0.448013,
  0.57298,
  0.410456,
  0.387689,
  0.393034,
  0.50398,
  0.508095,
  0.660058,
  0.63598,
  0.52198,
  0.397968,
  0.54298,
  0.545374,
  0.44298,
  0.537689,
  0.665071,
  0.408665,
  0.685413,
  0.356034,
  0.395056,
  0.173,
  0.570404,
  0.27095,
  0.335971,
  0.187471,
  0.518566,
  0.21121,
  0.30001,
  0.154576,
  0.207196,
  0.290396,
  0.44898,
  0.279,
  0.12798,
  0.488385,
  0.255979,
  0.280175,
  0.620749,
  0.247981,
  0.339946,
  0.296684,
  0.44698,
  0.194398,
  0.164959,
  0.49096,
  0.30012,
  0.27498,
  0.36398,
  0.301196,
  0.158022,
  0.288101,
  0.311698,
  0.174983,
  0.70698,
  0.165979,
  0.407618,
  0.20396,
  0.22998,
  0.24598,
  0.27698,
  0.332976,
  0.333996,
  0.186901,
  0.49098,
  0.29805,
  0.22598,
  0.217979,
  0.41598,
  0.19298,
  0.52998,
  0.52898,
  0.17498,
  0.23398,
  0.42998,
  0.54198,
  0.487111,
  0.31798,
  0.54098,
  0.27398,
  0.23098,
  0.27998,
  0.313523,
  0.67198,
  0.570965,
  0.49098,
  0.697978,
  0.39698,
  0.371236,
  0.425564,
  0.665855,
  0.611216,
  0.619402,
  0.44961,
  0.371675,
  0.363923,
  0.406731,
  0.337935,
  0.39229,
  0.734272,
  0.419883,
  0.56098,
  0.408508,
  0.401955,
  0.452176,
  0.473667,
  0.448252,
  0.487002,
  0.53096,
  0.45998,
  0.515092,
  0.433655,
  0.392984,
  0.413118,
  0.51688,
  0.605981,
  0.40544,
  0.446591,
  0.494093,
  0.52322,
  0.469981,
  0.504366,
  0.582984,
  0.440101,
  0.470326,
  0.43846,
  0.65698,
  0.650092,
  0.58098,
  0.537976,
  0.51206,
  0.69698,
  0.428652,
  0.476544,
  0.578005,
  0.398955,
  0.618713,
  0.715212,
  0.409978,
  0.69098,
  0.373832,
  0.45298,
  0.755382,
  0.55298,
  0.67298,
  0.46398,
  0.49998,
  0.20498,
  0.45898,
  0.287916,
  0.17498,
  0.196076,
  0.424153,
  0.350525,
  0.166997,
  0.320859,
  0.43925,
  0.293296,
  0.267771,
  0.180946,
  0.165014,
  0.47398,
  0.279233,
  0.386979,
  0.574979,
  0.374847,
  0.586382,
  0.360979,
  0.612621,
  0.34698,
  0.401918,
  0.463979,
  1.613915,
  0.491979,
  0.385979,
  0.36598,
  0.321979,
  0.35698,
  0.42798,
  0.164294,
  0.290917,
  0.440979,
  0.441452,
  0.17064,
  0.260998,
  0.475312,
  0.274998,
  0.260317,
  0.46898,
  0.388846,
  0.216975,
  0.57298,
  0.471961,
  0.37698,
  0.41498,
  0.428829,
  0.79998,
  0.42998,
  0.521799,
  0.72798,
  0.377143,
  0.68598,
  0.486186,
  0.365051,
  0.64698,
  0.405396,
  0.435301,
  0.431687,
  0.394895,
  0.436865,
  0.593222,
  0.341976,
  0.160234,
  0.176868,
  0.27198,
  0.26098,
  0.41298,
  0.587022,
  0.33698,
  0.165992,
  0.519016,
  0.51798,
  0.190276,
  0.475757,
  0.419948,
  0.12098,
  0.397706,
  0.438981,
  0.704978,
  0.666981,
  0.669979,
  0.566978,
  0.47798,
  0.52181,
  0.38198,
  0.452876,
  0.444732,
  0.56011,
  0.45998,
  0.60898,
  0.51642,
  0.61098,
  0.62057,
  0.50743,
  0.493265,
  0.637147,
  0.41098,
  0.366959,
  0.568307,
  0.43298,
  0.416834,
  0.375081,
  0.671649,
  0.60798,
  0.60298,
  0.500638,
  0.411817,
  0.48598,
  0.512294,
  0.734076,
  0.450982,
  0.594131,
  0.670896,
  0.53486,
  0.701959,
  0.493636,
  0.460318,
  0.433762,
  0.544864,
  0.443722,
  0.481658,
  0.48098,
  0.511988,
  0.572084,
  0.399441,
  0.313929,
  0.505982,
  0.316301,
  0.58998,
  0.37498,
  0.581501,
  0.41798,
  0.444847,
  0.44798,
  0.309315,
  0.465344,
  0.480854,
  0.46898,
  0.63943,
  0.31698,
  0.59298,
  0.687952,
  0.58498,
  0.493323,
  0.345745,
  0.44898,
  0.36398,
  0.756917,
  0.405122,
  0.700311,
  0.666303,
  0.52998,
  0.600324,
  0.640676,
  0.413848,
  0.36818,
  0.605293,
  0.388996,
  0.386668,
  0.354993,
  0.34798,
  0.304859,
  0.381961,
  0.61198,
  0.346973,
  0.452649,
  0.53798,
  0.347984,
  0.335123,
  0.278038,
  0.292383,
  0.310002,
  0.301436,
  0.36898,
  0.539801,
  0.638968,
  0.584852,
  0.374865,
  0.528226,
  0.404403,
  0.67498,
  0.558988,
  0.519793,
  0.403715,
  0.43098,
  0.608156,
  0.44498,
  0.529141,
  0.444084,
  0.545414,
  0.41398,
  0.47885,
  0.428322,
  0.54898,
  0.43398,
  0.48498,
  0.597458,
  0.53198,
  0.65566,
  0.395718,
  0.67021,
  0.466657,
  0.42898,
  0.556682,
  0.434966,
  0.437408,
  0.604128,
  0.54598,
  0.568615,
  0.629507,
  0.63298,
  0.54498,
  0.577437,
  0.437713,
  0.707252,
  0.499225,
  0.444411,
  0.40698,
  0.400706,
  0.5438,
  0.413012,
  0.452227,
  0.262367,
  0.332977,
  0.204586,
  0.474301,
  0.14911,
  0.274097,
  0.211531,
  0.426566,
  0.40898,
  0.395948,
  0.297883,
  0.35898,
  0.175121,
  0.18598,
  0.300879,
  0.420033,
  0.368982,
  0.531747,
  0.333059,
  0.57471,
  0.490979,
  0.510091,
  0.40298,
  0.523748,
  0.609715,
  0.520979,
  0.421741,
  0.692251,
  0.557871,
  0.56798,
  0.719471,
  0.167932,
  0.46998,
  0.30398,
  0.28398,
  0.29098,
  0.47498,
  0.22998,
  0.32098,
  0.351687,
  0.30998,
  0.47598,
  0.404502,
  0.11698,
  0.24298,
  0.20498,
  0.255888,
  0.650981,
  0.426982,
  0.626165,
  0.582316,
  0.615976,
  0.64698,
  0.398088,
  0.61298,
  0.625934,
  0.61016,
  0.32398,
  0.47998,
  0.450331,
  0.385571,
  0.532379,
  0.54998,
  0.454364,
  0.519982,
  0.423369,
  0.49598,
  0.283182,
  0.428134,
  0.30298,
  0.51398,
  0.58998,
  0.430466,
  0.42098,
  0.338392,
  0.42898,
  0.43898,
  0.34698,
  0.478979,
  0.317981,
  0.199899,
  0.179448,
  0.50495,
  0.367013,
  0.138051,
  0.260833,
  0.19498,
  0.389149,
  0.286985,
  0.190409,
  0.31702,
  0.422545,
  0.207559,
  0.401375,
  0.145429,
  0.35898,
  0.19398,
  0.19898,
  0.18898,
  0.10698,
  0.158535,
  0.36498,
  0.363791,
  0.17098,
  0.397844,
  0.15498,
  0.160161,
  0.36198,
  0.38898,
  0.33098,
  0.255571,
  0.148408,
  0.133637,
  0.154981,
  0.379647,
  0.104202,
  0.20419,
  0.214947,
  0.131939,
  0.18698,
  0.231822,
  0.361033,
  0.357244,
  0.453533,
  0.321432,
  0.445023,
  0.240372,
  0.416858,
  0.303012,
  0.417144,
  0.273939,
  0.202106,
  0.373979,
  0.188078,
  0.265531,
  0.153051,
  0.405981,
  0.371979,
  0.36698,
  0.14498,
  0.154168,
  0.210981,
  0.124323,
  0.338926,
  0.16397,
  0.218868,
  0.205056,
  0.159103,
  0.26798,
  0.47598,
  0.17898,
  0.21398,
  0.40498,
  0.284842,
  0.23298,
  0.166624,
  0.443513,
  0.33398,
  0.38398,
  0.527173,
  0.470766,
  0.810956,
  0.487532,
  0.444738,
  0.44898,
  0.681298,
  0.540936,
  0.649938,
  0.591982,
  0.499253,
  0.472779,
  0.518038,
  0.428667,
  0.547655,
  0.467398,
  0.353986,
  0.374996,
  0.488498,
  0.51809,
  0.52098,
  0.338161,
  0.35098,
  0.31498,
  0.573132,
  0.34896,
  0.516116,
  0.49545,
  0.384099,
  0.409971,
  0.367056,
  0.35098,
  0.163099,
  0.148591,
  0.122373,
  0.11317,
  0.447931,
  0.261086,
  0.16202,
  0.176212,
  0.414979,
  0.188979,
  0.233099,
  0.572979,
  0.188933,
  0.352945,
  0.123582,
  0.156488,
  0.411981,
  0.65398,
  0.438482,
  0.42898,
  0.51198,
  0.539203,
  0.40698,
  0.533541,
  0.45498,
  0.533786,
  0.584027,
  0.457521,
  0.596981,
  0.38798,
  0.34598,
  0.615673,
  0.368982,
  0.431981,
  0.278982,
  0.354269,
  0.152787,
  0.31498,
  0.35698,
  0.38098,
  0.205859,
  0.318879,
  0.175351,
  0.241599,
  0.34898,
  0.31098,
  0.132353,
  0.453982,
  0.52398,
  0.36598,
  0.420903,
  0.921412,
  0.434032,
  0.371124,
  0.529723,
  0.67984,
  0.393979,
  0.46898,
  0.719844,
  0.474719,
  0.48198,
  0.37206,
  0.37198,
  0.486958,
  0.549883,
  0.40098,
  0.45698,
  0.35598,
  0.57898,
  0.44498,
  0.399766,
  0.62498,
  0.54498,
  0.353703,
  0.630135,
  0.58898,
  0.413223,
  0.667061,
  0.475191,
  0.70598,
  0.224204,
  0.464337,
  0.27398,
  0.434265,
  0.23198,
  0.282292,
  0.436731,
  0.19298,
  0.386016,
  0.230679,
  0.34848,
  0.493465,
  0.23498,
  0.28998,
  0.289772,
  0.305901,
  0.42998,
  0.414424,
  0.52211,
  0.576979,
  0.560182,
  0.34698,
  0.518111,
  0.363981,
  0.4343,
  0.404023,
  0.358886,
  0.363094,
  0.429066,
  0.48398,
  0.349874,
  0.570249,
  0.203979,
  0.277977,
  0.33498,
  0.51781,
  0.282944,
  0.44698,
  0.20098,
  0.46798,
  0.262966,
  0.353123,
  0.22698,
  0.371684,
  0.47111,
  0.385851,
  0.290087,
  0.387571,
  0.409909,
  0.407743,
  0.41889,
  0.382433,
  0.362784,
  0.664107,
  0.407114,
  0.36598,
  0.553979,
  0.513177,
  0.62398,
  0.53498,
  0.768723,
  0.360549,
  0.404528,
  0.47198,
  0.173562,
  0.344102,
  0.216398,
  0.352402,
  0.386319,
  0.197892,
  0.384851,
  0.346965,
  0.192021,
  0.159665,
  0.193153,
  0.325283,
  0.41498,
  0.36998,
  0.171651,
  0.165967,
  0.480319,
  0.619249,
  0.55898,
  0.70998,
  0.44598,
  0.401849,
  0.63498,
  0.51598,
  0.47198,
  0.604933,
  0.58398,
  0.49098,
  0.434153,
  0.567389,
  0.42098,
  0.43298,
  0.22398,
  0.361141,
  0.33498,
  0.193979,
  0.22429,
  0.311538,
  0.252407,
  0.304649,
  0.45898,
  0.59398,
  0.363397,
  0.260039,
  0.34789,
  0.26698,
  0.326569,
  0.18998,
  0.253978,
  0.241142,
  0.280743,
  0.329979,
  0.33298,
  0.410155,
  0.218618,
  0.302981,
  0.182941,
  0.340747,
  0.23598,
  0.485956,
  0.511973,
  0.24022,
  0.355793,
  0.25098,
  0.419291,
  0.437217,
  0.481409,
  0.492027,
  0.372059,
  0.541738,
  0.667653,
  0.820158,
  0.380011,
  0.64598,
  0.527282,
  0.518173,
  0.41101,
  0.626981,
  0.525979,
  0.573526,
  0.397582,
  0.43598,
  0.568932,
  0.44898,
  0.630414,
  0.545778,
  0.46498,
  0.510827,
  0.389124,
  0.447568,
  0.446142,
  0.554108,
  0.488841,
  0.442918,
  0.393989,
  0.6462,
  0.341154,
  0.372977,
  0.345979,
  0.75116,
  0.37998,
  0.25498,
  0.46198,
  0.242794,
  0.347511,
  0.18998,
  0.351794,
  0.541598,
  0.320889,
  0.35498,
  0.388649,
  0.15998,
  0.406983,
  0.560316,
  0.632174,
  0.818886,
  0.490515,
  0.523008,
  0.45298,
  0.571328,
  0.467581,
  0.624211,
  0.476289,
  0.717265,
  0.418282,
  0.699961,
  0.587486,
  0.551974,
  0.427266,
  0.49598,
  0.406683,
  0.603317,
  0.550811,
  0.41298,
  0.49998,
  0.37198,
  0.60798,
  0.762545,
  0.56998,
  0.63598,
  0.45198,
  0.42398,
  0.44898,
  0.75798,
  0.20298,
  0.182499,
  0.176404,
  0.495048,
  0.251891,
  0.441759,
  0.314257,
  0.13747,
  0.261023,
  0.431075,
  0.193981,
  0.169301,
  0.434974,
  0.39998,
  0.28098,
  0.19396,
  0.376979,
  0.306871,
  0.255611,
  0.210842,
  0.257982,
  0.249982,
  0.316088,
  0.368981,
  0.265981,
  0.264889,
  0.23198,
  0.17498,
  0.184982,
  0.43698,
  0.426089,
  0.28798,
  0.22598,
  0.204839,
  0.29898,
  0.36698,
  0.349445,
  0.493149,
  0.38998,
  0.329647,
  0.41339,
  0.21398,
  0.429261,
  0.28698,
  0.362865,
  0.170811,
  0.38098,
  0.36998,
  0.508981,
  0.448359,
  0.425979,
  0.76616,
  0.401602,
  0.650004,
  0.438598,
  0.440599,
  0.51237,
  0.442361,
  0.452981,
  0.537423,
  0.45842,
  0.512964,
  0.717958,
  0.622293,
  0.576735,
  0.370189,
  0.599122,
  0.43935,
  0.641032,
  0.680849,
  0.347032,
  0.653835,
  0.359662,
  0.433447,
  0.467927,
  0.52298,
  0.753855,
  0.482996,
  0.576758,
  0.584119,
  0.444937,
  0.49998,
  0.20498,
  0.260973,
  0.41319,
  0.200865,
  0.509687,
  0.185977,
  0.17298,
  0.1932,
  0.294938,
  0.184095,
  0.47298,
  0.37698,
  0.256723,
  0.232982,
  0.514179,
  0.453842,
  0.18798,
  0.210502,
  0.38191,
  0.42698,
  0.4441,
  0.336056,
  0.404061,
  0.442922,
  0.320843,
  0.332919,
  0.22747,
  0.290463,
  0.559612,
  0.303118,
  0.601358,
  0.447673,
  0.58511,
  1.102214,
  0.725108,
  0.676658,
  0.817776,
  0.556096,
  0.467374,
  0.494442,
  0.43598,
  0.455061,
  0.659119,
  0.553024,
  0.75798,
  0.67898,
  0.54498,
  0.486653,
  0.68898,
  0.463045,
  0.543127,
  0.590234,
  0.381744,
  0.38498,
  0.426979,
  0.65498,
  0.33598,
  0.49998,
  0.414911,
  0.391788,
  0.524858,
  0.42998,
  0.68998,
  0.59998,
  0.64598,
  0.485329,
  0.560972,
  0.65598,
  0.530981,
  0.60398,
  0.422082,
  0.488261,
  0.471903,
  0.68498,
  0.614434,
  0.770846,
  0.45598,
  0.70498,
  0.41398,
  0.82698,
  0.59798,
  0.54138,
  0.36198,
  0.539209,
  0.395314,
  0.418543,
  0.42275,
  0.625979,
  0.466193,
  0.51098,
  0.4246,
  0.62398,
  0.66598,
  0.490764,
  0.50698,
  0.659097,
  0.454519,
  0.57298,
  0.682974,
  0.63698,
  0.60698,
  0.709959,
  0.830979,
  0.494574,
  0.487704,
  0.448391,
  0.511901,
  0.444484,
  0.663012,
  0.689979,
  0.207361,
  0.279588,
  0.453999,
  0.305793,
  0.306113,
  0.299698,
  0.18698,
  0.459673,
  0.171786,
  0.284019,
  0.207985,
  0.148449,
  0.246362,
  0.35498,
  0.225705,
  0.134386,
  0.273847,
  0.275892,
  0.17898,
  0.304088,
  0.307206,
  0.177149,
  0.171742,
  0.212405,
  0.190286,
  0.183979,
  0.200731,
  0.12598,
  0.316514,
  0.226896,
  0.289562,
  0.46113,
  0.201716,
  0.266085,
  0.168968,
  0.545979,
  0.37998,
  0.537982,
  0.32598,
  0.40498,
  0.30598,
  0.42698,
  0.486979,
  0.228491,
  0.239952,
  0.35279,
  0.267309,
  0.31598,
  0.399232,
  0.320689,
  0.456977,
  0.42174,
  0.231367,
  0.37111,
  0.313964,
  0.311843,
  0.267189,
  0.207938,
  0.271471,
  0.318965,
  0.336342,
  0.196509,
  0.188561,
  0.508976,
  0.32302,
  0.149642,
  0.35398,
  0.19134,
  0.41498,
  0.326066,
  0.32598,
  0.469709,
  0.222982,
  0.254854,
  0.29983,
  0.53398,
  0.373949,
  0.26198,
  0.34898,
  0.388125,
  0.39998,
  0.25998,
  0.411979,
  0.442981,
  0.186012,
  0.25398,
  0.256977,
  0.342095,
  0.317979,
  0.34998,
  0.247951,
  0.427982,
  0.192982,
  0.42209,
  0.30398,
  0.345998,
  0.422606,
  0.451962,
  0.714599,
  0.431979,
  0.438602,
  0.572263,
  0.573385,
  0.427602,
  0.456414,
  0.48598,
  0.789598,
  0.697536,
  0.467353,
  0.443167,
  0.47382,
  0.57298,
  0.197796,
  0.487981,
  0.35098,
  0.36498,
  0.348069,
  0.20944,
  0.195972,
  0.25798,
  0.17098,
  0.31798,
  0.130045,
  0.452981,
  0.17998,
  0.18598,
  0.286617,
  0.167114,
  0.160955,
  0.219785,
  0.31398,
  0.52098,
  0.335981,
  0.347981,
  0.228982,
  0.411979,
  0.20795,
  0.24598,
  0.227979,
  0.21498,
  0.20698,
  0.218908,
  0.29798,
  0.52098,
  0.415728,
  0.538759,
  0.680915,
  0.577157,
  0.447136,
  0.696675,
  0.474979,
  0.60869,
  0.37998,
  0.70398,
  0.533485,
  0.502243,
  0.52098,
  0.39038,
  0.48598,
  0.447856,
  0.377384,
  0.60338,
  0.441795,
  0.568761,
  0.410803,
  0.32998,
  0.453323,
  0.600389,
  0.582267,
  0.414017,
  0.632172,
  0.567777,
  0.475573,
  0.340574,
  0.436015,
  0.399757,
  0.572981,
  0.41498,
  0.49698,
  0.34398,
  0.35498,
  0.61198,
  0.37398,
  0.362357,
  0.64598,
  0.58098,
  0.443216,
  0.35198,
  0.37598,
  0.52498,
  0.57298,
  0.41798,
  0.41398,
  0.314981,
  0.380981,
  0.15798,
  0.321979,
  0.39898,
  0.257843,
  0.299602,
  0.36998,
  0.428061,
  0.413115,
  0.337836,
  0.40098,
  0.198432,
  0.18898,
  0.268789,
  0.408981,
  0.481675,
  0.64198,
  0.564562,
  0.680018,
  0.750977,
  0.53393,
  0.762926,
  0.588304,
  0.771944,
  0.75298,
  0.497976,
  0.538561,
  0.43517,
  0.51699,
  0.594403,
  0.352413,
  0.66498,
  0.507625,
  0.609323,
  0.36514,
  0.76698,
  0.58798,
  0.469973,
  0.445029,
  0.417728,
  0.634542,
  0.362125,
  0.381057,
  0.55198,
  0.390095,
  0.511156,
  0.56383,
  0.715831,
  0.558981,
  0.518062,
  0.720054,
  0.49498,
  0.718083,
  0.57998,
  0.584977,
  0.53398,
  0.628775,
  0.604544,
  0.46798,
  0.429986,
  0.515906,
  0.49598,
  0.308714,
  0.139199,
  0.228389,
  0.32098,
  0.44798,
  0.416687,
  0.21298,
  0.115306,
  0.22398,
  0.343105,
  0.260933,
  0.31489,
  0.37767,
  0.348494,
  0.32698,
  0.40144,
  0.690063,
  0.528528,
  0.523493,
  0.532173,
  0.583523,
  0.471165,
  0.72395,
  0.396659,
  0.430943,
  0.513304,
  0.44098,
  0.846036,
  0.436263,
  0.469358,
  0.570319,
  0.35498,
  0.153069,
  0.125793,
  0.18098,
  0.349726,
  0.35298,
  0.313818,
  0.173081,
  0.11498,
  0.325585,
  0.277178,
  0.224415,
  0.382988,
  0.190128,
  0.190145,
  0.31498,
  0.10168
]