{
  "ALL": [
    [
      37.5,
      6.25
    ],
    [
      37.5,
      6.25
    ],
    [
      56.25,
      6.25
    ],
    [
      56.25,
      6.25
    ],
    [
      50.0,
      6.25
    ],
    [
      50.0,
      6.25
    ],
    [
      25.0,
      6.25
    ],
    [
      25.0,
      6.25
    ],
    [
      37.5,
      6.25
    ],
    [
      37.5,
      6.25
    ],
    [
      18.75,
      6.25
    ],
    [
      18.75,
      6.25
    ],
    [
      50.0,
      6.25
    ],
    [
      50.0,
      6.25
    ],
    [
      37.5,
      6.25
    ],
    [
      37.5,
      6.25
    ],
    [
      25.0,
      6.25
    ],
    [
      25.0,
      6.25
    ],
    [
      31.25,
      6.25
    ],
    [
      31.25,
      6.25
    ],
    [
      25.0,
      6.25
    ],
    [
      25.0,
      6.25
    ],
    [
      68.75,
      6.25
    ],
    [
      68.75,
      6.25
    ],
    [
      25.0,
      6.25
    ],
    [
      25.0,
      6.25
    ],
    [
      43.75,
      6.25
    ],
    [
      43.75,
      6.25
    ],
    [
      62.5,
      6.25
    ],
    [
      62.5,
      6.25
    ],
    [
      62.5,
      6.25
    ],
    [
      62.5,
      6.25
    ],
    [
      18.75,
      6.25
    ],
    [
      18.75,
      6.25
    ],
    [
      31.25,
      6.25
    ],
    [
      31.25,
      6.25
    ],
    [
      37.5,
      6.25
    ],
    [
      37.5,
      6.25
    ],
    [
      43.75,
      6.25
    ],
    [
      43.75,
      6.25
    ],
    [
      62.5,
      6.25
    ],
    [
      62.5,
      6.25
    ],
    [
      25.0,
      6.25
    ],
    [
      25.0,
      6.25
    ],
    [
      37.5,
      6.25
    ],
    [
      37.5,
      6.25
    ],
    [
      53.333333333333336,
      6.666666666666667
    ],
    [
      53.333333333333336,
      6.666666666666667
    ],
    [
      56.25,
      6.25
    ],
    [
      56.25,
      6.25
    ],
    [
      52.94117647058823,
      5.882352941176471
    ],
    [
      52.94117647058823,
      5.882352941176471
    ],
    [
      43.75,
      6.25
    ],
    [
      43.75,
      6.25
    ],
    [
      31.25,
      6.25
    ],
    [
      31.25,
      6.25
    ],
    [
      50.0,
      6.25
    ],
    [
      50.0,
      6.25
    ],
    [
      62.5,
      6.25
    ],
    [
      62.5,
      6.25
    ],
    [
      50.0,
      6.25
    ],
    [
      50.0,
      6.25
    ],
    [
      41.1764705882353,
      5.882352941176471
    ],
    [
      41.1764705882353,
      5.882352941176471
    ],
    [
      37.5,
      6.25
    ],
    [
      37.5,
      6.25
    ],
    [
      31.25,
      6.25
    ],
    [
      31.25,
      6.25
    ],
    [
      33.333333333333336,
      6.666666666666667
    ],
    [
      33.333333333333336,
      6.666666666666667
    ],
    [
      33.333333333333336,
      6.666666666666667
    ],
    [
      33.333333333333336,
      6.666666666666667
    ],
    [
      43.75,
      6.25
    ],
    [
      43.75,
      6.25
    ],
    [
      25.0,
      6.25
    ],
    [
      25.0,
      6.25
    ],
    [
      31.25,
      6.25
    ],
    [
      31.25,
      6.25
    ],
    [
      56.25,
      6.25
    ],
    [
      56.25,
      6.25
    ],
    [
      47.05882352941177,
      5.882352941176471
    ],
    [
      47.05882352941177,
      5.882352941176471
    ],
    [
      37.5,
      6.25
    ],
    [
      37.5,
      6.25
    ],
    [
      31.25,
      6.25
    ],
    [
      31.25,
      6.25
    ]
  ],
  "PROXY-STATUS": [
    [
      6.25,
      6.25
    ],
    [
      6.25,
      6.25
    ],
    [
      6.25,
      6.25
    ],
    [
      6.25,
      6.25
    ],
    [
      6.25,
      6.25
    ],
    [
      6.25,
      6.25
    ],
    [
      6.25,
      6.25
    ],
    [
      6.666666666666667,
      6.666666666666667
    ]
  ],
  "TIMEOUT": [
    [
      37.5,
      6.25
    ],
    [
      56.25,
      6.25
    ],
    [
      43.75,
      6.25
    ],
    [
      25.0,
      6.25
    ],
    [
      37.5,
      6.25
    ],
    [
      18.75,
      6.25
    ],
    [
      50.0,
      6.25
    ],
    [
      37.5,
      6.25
    ],
    [
      25.0,
      6.25
    ],
    [
      31.25,
      6.25
    ],
    [
      25.0,
      6.25
    ],
    [
      68.75,
      6.25
    ],
    [
      25.0,
      6.25
    ],
    [
      37.5,
      6.25
    ],
    [
      62.5,
      6.25
    ],
    [
      56.25,
      6.25
    ],
    [
      18.75,
      6.25
    ],
    [
      31.25,
      6.25
    ],
    [
      31.25,
      6.25
    ],
    [
      43.75,
      6.25
    ],
    [
      62.5,
      6.25
    ],
    [
      25.0,
      6.25
    ],
    [
      37.5,
      6.25
    ],
    [
      53.333333333333336,
      6.666666666666667
    ],
    [
      56.25,
      6.25
    ],
    [
      52.94117647058823,
      5.882352941176471
    ],
    [
      43.75,
      6.25
    ],
    [
      31.25,
      6.25
    ],
    [
      50.0,
      6.25
    ],
    [
      56.25,
      6.25
    ],
    [
      50.0,
      6.25
    ],
    [
      41.1764705882353,
      5.882352941176471
    ],
    [
      31.25,
      6.25
    ],
    [
      25.0,
      6.25
    ],
    [
      26.666666666666668,
      6.666666666666667
    ],
    [
      33.333333333333336,
      6.666666666666667
    ],
    [
      43.75,
      6.25
    ],
    [
      25.0,
      6.25
    ],
    [
      31.25,
      6.25
    ],
    [
      56.25,
      6.25
    ],
    [
      47.05882352941177,
      5.882352941176471
    ],
    [
      37.5,
      6.25
    ],
    [
      31.25,
      6.25
    ]
  ]
}