[
  9.149332755225878,
  10.463713439305996,
  13.677245406951304,
  8.38503464619506,
  4.679812247361587,
  7.311051184055433,
  15.69123858731899,
  11.001392054005246,
  9.397568511861314,
  8.177115063868888,
  9.588269462283991,
  9.1648178453975,
  10.233760974341536,
  11.308920338238577,
  11.833357421592725,
  9.885777761678797,
  10.420882749000238,
  14.01815554459785,
  12.957119254556156,
  12.831382701964003,
  10.904047049547994,
  8.061054302215444,
  9.52014957826464,
  13.886297722223166,
  11.497392286109882,
  16.724679601099787,
  11.348106546765987,
  14.735313279509318,
  8.57019341683537,
  5.8364912760940175,
  7.070526504867115,
  6.020468489878997,
  11.594332194787617,
  11.848426963040144,
  10.63275785492958,
  12.634250972162214,
  12.64271794887632,
  11.771294001276683,
  10.945241042615256,
  12.517735050575467,
  11.69599414878877,
  11.530715714164995,
  8.860086918129007,
  9.134878220218907,
  10.08531405821952,
  12.291993202058588,
  13.366866822742688,
  11.034009681627538,
  14.89232056458948,
  12.110754794009923,
  10.104905893242828,
  10.464087889391875,
  0.9758559821312578,
  14.985760096055285,
  8.138117900579285,
  3.475880889044363,
  13.392798722797272,
  9.599196188225147,
  9.352717685575062,
  8.91896190364144,
  7.469855994861655,
  13.3325625551622,
  10.695987061611495,
  12.006927722327974,
  6.785708365794229,
  10.134474418420423,
  9.14067087779467,
  10.391942833208526,
  11.530325989601227,
  10.853600014847064,
  4.721714407644707,
  12.179285025764298,
  10.747374030931445,
  7.4700195611871,
  7.785296036178925,
  12.288008404622548,
  12.350064559726786,
  9.744703641989998,
  11.308764136818427,
  3.6619150104747535,
  11.695359281437122,
  13.119774123559033,
  8.329670821582775,
  8.83240703183658,
  9.926023092627528,
  8.272942954837557,
  11.934226560085822,
  15.104527945452128,
  12.436356234962455,
  8.418659554034686,
  9.930453471504602,
  11.763480409764224,
  10.721141632991921,
  8.01122109111119,
  16.833753448991942,
  8.585110822639734,
  12.47326341704194,
  8.750526367540276,
  11.530585803049838,
  13.412105049340163,
  13.289627030168072,
  12.147914490551706,
  12.697341893861859,
  10.13680822087409,
  9.467134733370797,
  12.417268762019173,
  14.868359404793454,
  11.500169956710204,
  10.06102356399241,
  9.42001472686272,
  9.258966071755713,
  9.188597721788902,
  10.795953511800063,
  7.286054735957826,
  12.265550095877275,
  10.63226077900222,
  9.587618242412464,
  11.661842877409285,
  13.561166450792218,
  11.563220273873558,
  8.106740649648206,
  16.05442523687017,
  11.093151308551514,
  10.460077318336408,
  10.668002637195396,
  10.690289104587913,
  10.25837960828338,
  9.31426530212917,
  13.318812100232295,
  9.536516559469428,
  12.634056014196426,
  8.822775098168524,
  8.349667237078537,
  12.751685169264512,
  11.362280144215958,
  10.480965925819715,
  10.918617459652792,
  13.828741487406763,
  11.78973590991562,
  11.789973590459162,
  11.415572863074466,
  10.696154740535777,
  10.715949783259687,
  11.09321142881918,
  10.984330140331107,
  7.234128653069301,
  12.44176116073465,
  12.994587902931432,
  11.834212618342132,
  10.604278753623275,
  10.934833069339197,
  13.008462054216883,
  13.129157232381681,
  13.883283763298287,
  4.7169702619149945,
  1.525287070670113,
  9.745886789398376,
  7.887400197293383,
  8.03972976688466,
  10.188957720958825,
  10.993710590484786,
  11.350120189975026,
  9.792840312414029,
  13.508541522988025,
  14.413394642706258,
  9.26139590021334,
  13.247267220233885,
  12.217231705861293,
  9.671859643154157,
  9.233717080036453,
  8.422747333011008,
  1.5997453693843806,
  12.19488581863244,
  9.016236383418269,
  13.077527576612349,
  14.847867166219942,
  11.563252935477403,
  9.864481601160483,
  10.04160135793112,
  11.841606669192883,
  10.84026448259335,
  15.804520044474648,
  11.970134240943631,
  11.42739504242966,
  15.926881268625914,
  16.739862032868416,
  11.096940158521914,
  11.061946902654876,
  9.911603627858781,
  10.659752420333408,
  13.619864791131583,
  22.46572861674223,
  12.330498009048133,
  10.310725925478172,
  8.78415494015509,
  10.318314488362825,
  9.475439660400234,
  10.218306712694291,
  10.77152397165658,
  8.114759297655816,
  8.784268033096435,
  7.595618986125179,
  10.389305518545315,
  8.191530232874577,
  9.941933039639016,
  9.745817184539055,
  10.284873730014375,
  12.316326899008375,
  7.919304822868726,
  10.40012702445221,
  9.122786296711457,
  8.880517852145752,
  9.390131731362526,
  9.310240525444392,
  12.304776733113709,
  15.144200534185659,
  9.980520462047814,
  10.489344747448614,
  13.50916560793308,
  10.08225891856614,
  8.605702729860289,
  8.020387212049732,
  6.789647394433943,
  14.114967813563478,
  9.057109291515578,
  10.587439643512026,
  12.55766941925668,
  10.74387648249093,
  13.032771750203741,
  9.685429092603934,
  12.832026229837066,
  14.706780476939763,
  13.308204192957986,
  11.704354091198903,
  10.529842377101467,
  9.372009541993465,
  16.219808868743847,
  11.48806784379315,
  12.479651499539685,
  11.223071482226773,
  11.753652066058764,
  9.85187591750295,
  10.157659278300638,
  11.575808645344084,
  12.085905509253942,
  7.4305903450879605,
  9.011572234561736,
  9.327019249828556,
  9.853132664383345,
  10.81109274234014,
  12.656985264563847,
  10.8281071873504
]