[
  0.463337,
  0.626979,
  0.683365,
  0.741518,
  0.619897,
  0.40898,
  0.37598,
  0.399119,
  0.626575,
  0.623175,
  0.60198,
  0.51598,
  0.705926,
  0.48498,
  0.54198,
  0.66798,
  0.406981,
  0.525346,
  0.33197,
  0.483664,
  0.676725,
  0.406642,
  0.633572,
  0.386981,
  0.451983,
  0.479384,
  0.42398,
  0.464455,
  0.63698,
  0.706351,
  0.41162,
  0.749033,
  0.732942,
  0.497466,
  0.472125,
  0.624978,
  0.534978,
  0.703407,
  0.73398,
  0.43905,
  0.71598,
  0.729979,
  0.43312,
  0.440979,
  0.43798,
  1.01865,
  0.66098,
  0.77998,
  0.6135,
  0.388797,
  0.41298,
  0.704436,
  0.477737,
  0.616432,
  0.411454,
  0.66098,
  0.662837,
  0.683694,
  0.58998,
  0.392729,
  0.460604,
  0.582617,
  0.774363,
  0.46998,
  0.50598,
  0.377469,
  0.61356,
  0.579961,
  0.53298,
  0.42998,
  0.41498,
  0.61198,
  0.654316,
  0.380211,
  0.66198,
  0.59198,
  0.570675,
  0.55698,
  0.47298,
  0.46598,
  0.576999,
  0.458952,
  0.422481,
  0.562863,
  0.436955,
  0.673451,
  0.493462,
  0.576383,
  0.6846,
  0.418922,
  0.46598,
  0.435051,
  0.447245,
  0.568488,
  0.79718,
  0.735912,
  0.556979,
  0.37898,
  0.56498,
  0.40198,
  0.54698,
  0.41598,
  0.68126,
  0.457783,
  0.597047,
  0.59598,
  0.42098,
  0.526979,
  0.704946,
  0.42798,
  0.437158,
  0.701811,
  0.572129,
  0.430986,
  0.412122,
  0.406065,
  0.395527,
  0.489694,
  0.671981,
  0.48914,
  0.47098,
  0.575345,
  0.513102,
  0.675652,
  0.702976,
  0.612461,
  0.398983,
  0.622115,
  0.393955,
  0.479281,
  0.450979,
  0.576981,
  0.555431,
  0.547979,
  0.52228,
  0.62698,
  0.55998,
  0.61598,
  0.44698,
  0.44898,
  0.671976,
  0.46898,
  0.451102,
  0.351979,
  0.48598,
  0.568979,
  0.44098,
  0.430922,
  0.64998,
  0.522023,
  0.533106,
  0.53998,
  0.37698,
  0.476953,
  0.67424,
  0.460169,
  0.49698,
  0.69188,
  0.50098,
  0.691252,
  0.716981,
  0.468455,
  0.417891,
  0.668869,
  0.53198,
  0.446222,
  0.46398,
  0.662142,
  0.54178,
  0.603906,
  0.61298,
  0.574979,
  0.437871,
  0.412783,
  0.62798,
  0.436015,
  0.530981,
  0.36498,
  0.641983,
  0.466323,
  0.45704,
  0.514834,
  0.420801,
  0.360236,
  0.595003,
  0.55616,
  0.62698,
  0.444695,
  0.452508,
  0.355952,
  0.620494,
  0.70806,
  0.642645,
  0.72626,
  0.630058,
  0.64898,
  0.49472,
  0.634336,
  0.535392,
  0.575492,
  0.63698,
  0.589,
  0.56151,
  0.557226,
  0.496049,
  0.469299,
  0.566507,
  0.45398,
  0.46298,
  0.454831,
  1.688549,
  0.473844,
  0.520537,
  0.558979,
  0.646911,
  0.483173,
  0.53698,
  0.52598,
  0.470931,
  0.66798,
  0.56998,
  0.55098,
  0.55498,
  0.446085,
  0.580286,
  0.474777,
  0.51798,
  0.70498,
  0.41498,
  0.49598,
  0.55998,
  0.773976,
  0.65998,
  0.61098,
  0.716981,
  0.537607,
  0.482829,
  0.40176,
  0.531686,
  0.459191,
  0.61598,
  0.49098,
  0.851978,
  0.65298,
  0.39698,
  0.589982,
  0.53798,
  0.487471,
  0.555501,
  0.41898,
  0.40298,
  0.476784,
  0.64798,
  0.36298,
  0.379126,
  0.680265,
  0.47098,
  0.599632,
  0.612664,
  0.626689,
  0.43998,
  0.690034,
  0.595005,
  0.462887,
  0.535523,
  0.592532,
  0.607994,
  0.468284,
  0.44202,
  0.45798,
  0.61129,
  0.575063,
  0.601691,
  0.443246,
  0.664805,
  0.43798,
  0.439499,
  0.46998,
  0.501401,
  0.561782,
  0.403188,
  0.460563,
  0.411959,
  0.618791,
  0.451861,
  0.38787,
  0.389871,
  0.52598,
  0.691889,
  0.515089,
  0.61398,
  0.459976,
  0.56998,
  0.437524,
  0.55298,
  0.435099,
  0.648957,
  0.597912,
  0.467024,
  0.36598,
  0.50298,
  0.42898,
  0.370702,
  0.81598,
  0.427638,
  0.678838,
  0.385154,
  0.547139,
  0.44398,
  0.61498,
  0.42898,
  0.603962,
  0.417001,
  0.534504,
  0.95898,
  0.46098,
  0.67198,
  0.613863,
  0.455871,
  0.553303,
  0.713737,
  0.690316,
  0.63398,
  0.546587,
  0.527599,
  0.585586,
  0.524767,
  0.582979,
  0.406435,
  0.686206,
  0.42398,
  0.53598,
  0.506616,
  0.419707,
  0.432458,
  0.481548,
  0.642862,
  0.530414,
  0.48998,
  0.51698,
  0.50798,
  0.75098,
  0.40998,
  0.554049,
  0.54074,
  0.447474,
  0.49298,
  0.767688,
  0.548328,
  0.68489,
  0.447107,
  0.431978,
  0.677356,
  0.403981,
  0.79198,
  0.639378,
  0.56887,
  0.547983,
  0.47298,
  0.63298,
  0.471536,
  0.569276,
  0.535546,
  0.435978,
  0.74298,
  0.589842,
  0.446607,
  0.412044,
  0.59325,
  0.56398,
  0.37598,
  0.413997,
  0.51098,
  0.47998,
  0.66798,
  0.455063,
  0.65098,
  0.46298,
  0.45017,
  0.447067,
  0.379652,
  0.37198,
  0.423568,
  0.59081,
  0.413729,
  0.428042,
  0.439718,
  0.446729,
  0.531163,
  0.64098,
  0.46498,
  0.58998,
  0.452596,
  0.511504,
  0.43698,
  0.423315,
  0.61898,
  0.637849,
  0.45498,
  0.483982,
  0.615979,
  0.490644,
  0.430508,
  0.671331,
  0.491938,
  0.37976,
  0.72698,
  0.447979,
  0.414807,
  0.55198,
  0.364091,
  0.58598,
  0.40698,
  0.57194,
  0.69398,
  0.438328,
  0.486858,
  0.480916,
  0.552978,
  0.402263,
  0.386231,
  0.577391,
  0.41535,
  0.39198,
  0.496977,
  0.588844,
  0.708834,
  0.480686,
  0.60308,
  0.541031,
  0.455307,
  0.636981,
  0.690979,
  0.415981,
  0.42193,
  0.655978,
  0.65198,
  0.65898,
  0.620703,
  0.50398,
  0.514978,
  0.430977,
  0.723537,
  0.68498,
  0.82298,
  0.46198,
  0.36898,
  0.406786,
  0.603694,
  0.562754,
  0.515354,
  0.516917,
  0.583979,
  0.406981,
  0.413978,
  0.46272,
  0.574838,
  0.414376,
  0.498854,
  0.393067,
  0.66498,
  0.425231,
  0.675678,
  0.469332,
  0.668979,
  0.403457,
  0.656977,
  0.46698,
  0.460978,
  0.420493,
  0.440557,
  0.526115,
  0.726186,
  0.586399,
  0.49698,
  0.648599,
  0.532833,
  0.619148,
  0.384594,
  0.345012,
  0.435292,
  0.375417,
  0.43698,
  0.555143,
  0.516906,
  0.625922,
  0.412979,
  0.62999,
  0.616976,
  0.524962,
  0.552917,
  0.420271,
  0.625949,
  0.65,
  0.329779,
  1.049201,
  0.665061,
  0.401987,
  0.652091,
  0.510357,
  0.627979,
  0.452648,
  0.473385,
  0.460657,
  0.467536,
  0.567119,
  0.734981,
  0.512914,
  0.45298,
  0.388981,
  0.473271,
  0.482979,
  0.435979,
  0.447981,
  0.45698,
  0.450361,
  0.437625,
  0.71798,
  0.58798,
  0.490455,
  0.67498,
  0.573385,
  0.401973,
  0.726908,
  0.664132,
  0.443107,
  0.525113,
  0.446987,
  0.405092,
  0.57298,
  0.46798,
  0.786975,
  0.455007,
  0.412979,
  0.37698,
  0.43798,
  0.778979,
  0.657007,
  0.424158,
  0.465867,
  0.395979,
  0.557979,
  0.556976,
  0.533704,
  0.670107,
  0.397691,
  0.778979,
  0.439318,
  0.544331,
  0.576964,
  0.436532,
  0.416082,
  0.652981,
  0.502758,
  0.471136,
  0.516111,
  0.595664,
  0.616421,
  0.52398,
  0.53498,
  0.52498,
  0.532981,
  0.444125,
  0.463329,
  0.344579,
  0.384979,
  0.49898,
  0.344898,
  0.47398,
  0.66298,
  0.59998,
  0.55898,
  0.57398,
  0.48386,
  0.617947,
  0.405281,
  0.447468,
  0.427971,
  0.393427,
  0.430979,
  0.55598,
  0.834598,
  0.437031,
  0.449511,
  0.769981,
  0.43866,
  0.616878,
  0.645981,
  0.613958,
  0.449778,
  0.427178,
  0.408882,
  0.365006,
  0.618011,
  0.476485,
  0.424981,
  0.366981,
  0.482705,
  0.427972,
  0.529562,
  0.386013,
  0.45198,
  0.509482,
  0.53298,
  0.53498,
  0.39498,
  0.548991,
  0.738493,
  0.403595,
  0.429981,
  0.726982,
  0.465981,
  0.391979,
  0.59298,
  0.462314,
  0.48298,
  0.416979,
  0.453844,
  0.406033,
  0.446981,
  0.486156,
  0.466064,
  0.470125,
  0.416504,
  0.522982,
  0.357978,
  0.66998,
  0.64598,
  0.589979,
  0.673979,
  0.49298,
  0.660981,
  0.498981,
  0.42698,
  0.419978,
  0.530979,
  0.75398,
  0.599979,
  0.689419,
  0.360287,
  0.368386,
  0.359831,
  0.694979,
  0.422977,
  0.379751,
  0.37598,
  0.391058,
  0.50598,
  0.35059,
  0.391981,
  0.53998,
  0.746651,
  0.54398,
  0.639836,
  4.508641,
  0.626202,
  0.484606,
  0.502917,
  0.490693,
  0.60398,
  0.678356,
  0.73967,
  0.605889,
  0.45898,
  0.625823,
  0.47598,
  0.510985,
  0.471755,
  0.558137,
  0.697842,
  0.601064,
  0.519156,
  0.517952,
  0.717642,
  0.532577,
  0.455897,
  0.516491,
  0.68498,
  0.550379,
  0.536936,
  0.543556,
  0.523957,
  0.80798,
  0.729497,
  0.45861,
  0.522041,
  0.45547,
  0.454968,
  0.364844,
  0.38153,
  0.751983,
  0.636595,
  0.438915,
  0.397977,
  0.496932,
  0.466628,
  0.458686,
  0.42098,
  0.648131,
  0.56398,
  0.412029,
  0.43777,
  0.434979,
  0.546981,
  0.668441,
  0.702981,
  0.450981,
  0.472945,
  0.547979,
  0.434269,
  0.63098,
  0.45198,
  1.789981,
  0.561981,
  0.481978,
  0.537782,
  0.422927,
  0.53282,
  0.409804,
  0.395965,
  0.491963,
  0.406232,
  0.44098,
  0.81398,
  0.474458,
  0.492548,
  0.595995,
  0.543464,
  0.493318,
  0.362721,
  0.35498,
  0.427957,
  0.760371,
  0.65498,
  0.469356,
  0.467166,
  0.665982,
  0.705088,
  0.796734,
  0.489205,
  0.74398,
  0.523004,
  0.60498,
  0.60668,
  0.557614,
  0.518223,
  0.485105,
  0.651454,
  0.62998,
  0.523751,
  0.729966,
  0.41398,
  0.784936,
  0.67698,
  0.478014,
  0.51498,
  0.422049,
  0.79898,
  0.55298,
  0.48198,
  0.43798,
  0.487956,
  0.637033,
  0.460563,
  0.644979,
  0.483695,
  0.788141,
  0.628877,
  0.42398,
  0.707038,
  0.503034,
  0.54598,
  0.50198,
  0.52098,
  0.527627,
  0.68498,
  0.502616,
  0.517979,
  0.450411,
  0.63598,
  0.64998,
  0.58398,
  0.414361,
  0.502628,
  0.438533,
  0.505461,
  0.417562,
  0.786224,
  0.473376,
  0.59298,
  0.386928,
  0.49098,
  0.402269,
  0.63898,
  0.456424,
  0.411719,
  0.588705,
  0.381229,
  0.548668,
  0.614141,
  0.451523,
  0.664788,
  0.48898,
  0.683888,
  0.569895,
  0.52998,
  0.669303,
  0.442776,
  0.572731,
  0.486149,
  0.445059,
  0.714277,
  0.58198,
  0.405654,
  0.596426,
  0.471231,
  0.656126,
  0.625398,
  0.603984,
  0.46098,
  0.42798,
  0.63598,
  1.046375,
  0.68198,
  0.491211,
  0.44398,
  0.47898,
  0.726914,
  0.62098,
  0.63698,
  0.48998
]