[
  0.736093,
  0.715972,
  0.843994,
  0.931032,
  0.83698,
  0.688699,
  0.97198,
  1.07898,
  0.756067,
  0.872157,
  0.773977,
  0.622978,
  1.219085,
  0.732742,
  0.906979,
  0.86798,
  0.861995,
  0.937007,
  0.62191,
  0.779611,
  0.907621,
  0.706623,
  1.103858,
  0.804495,
  0.79994,
  0.760081,
  0.80898,
  1.285259,
  1.035091,
  0.935984,
  0.812989,
  1.372985,
  0.56598,
  0.948385,
  0.768588,
  1.124907,
  1.08898,
  0.659149,
  0.597238,
  1.171982,
  0.76508,
  0.698987,
  0.74798,
  0.795979,
  0.97998,
  0.792982,
  0.862638,
  0.585981,
  0.759045,
  0.657986,
  0.84498,
  0.638046,
  0.679152,
  0.71702,
  0.959559,
  1.191636,
  0.816488,
  0.891013,
  0.79998,
  1.210677,
  0.679158,
  0.699081,
  1.037979,
  0.958071,
  0.839549,
  0.953444,
  0.863645,
  0.975954,
  0.783499,
  0.791909,
  0.835982,
  0.817656,
  1.09998,
  0.89098,
  0.77498,
  0.624354,
  0.747199,
  0.702604,
  0.940462,
  0.548721,
  0.613646,
  0.612993,
  0.833496,
  0.656217,
  0.73698,
  0.73998,
  0.83999,
  0.629508,
  0.883761,
  0.801387,
  0.793938,
  0.656836,
  0.728981,
  0.593979,
  0.626221,
  0.782261,
  0.57598,
  0.638012,
  0.849244,
  0.643324,
  1.007824,
  0.623047,
  1.360813,
  1.001981,
  1.109987,
  1.109864,
  0.876823,
  0.557341,
  0.846024,
  0.757764,
  0.67798,
  0.963621,
  0.826025,
  0.951137,
  1.08706,
  0.852,
  0.590119,
  0.856826,
  0.998829,
  0.75099,
  0.863802,
  0.964399,
  0.974155,
  1.130047,
  0.748987,
  0.797491,
  0.712984,
  0.752868,
  0.79698,
  0.665984,
  0.887598,
  1.13129,
  0.873501,
  0.741012,
  1.18525,
  0.753399,
  0.861615,
  0.779083,
  0.744852,
  1.021313,
  0.758984,
  0.759976,
  0.60898,
  0.681012,
  0.881298,
  0.82698,
  0.763995,
  1.00098,
  0.869979,
  0.781495,
  1.13054,
  0.68665,
  0.928954,
  0.48998,
  0.810982,
  0.735461,
  0.767982,
  0.794031,
  0.82133,
  0.674794,
  0.808443,
  1.66998,
  0.944981,
  0.785801,
  1.010003,
  0.709028,
  0.91998,
  1.056266,
  1.087004,
  0.991658,
  0.752125,
  0.73798,
  1.144966,
  0.793658,
  0.869352,
  0.573169,
  0.932926,
  0.866982,
  0.643002,
  0.737218,
  0.994375,
  0.801896,
  0.613301,
  1.095982,
  0.600014,
  1.077996,
  0.569569,
  1.015979,
  0.747992,
  0.66598,
  0.62998,
  0.517982,
  0.859917,
  0.691562,
  1.272745,
  0.705973,
  0.695993,
  0.774067,
  1.158979,
  1.08298,
  0.990609,
  0.70698,
  1.665047,
  0.752979,
  0.889981,
  0.864913,
  0.739021,
  0.882019,
  1.27898,
  0.808938,
  1.248568,
  1.012011,
  0.749995,
  0.838507,
  0.959045,
  0.971983,
  0.755304,
  0.82098,
  0.925564,
  0.742851,
  0.70245,
  0.641012,
  0.732821,
  0.627861,
  0.738021,
  0.973056,
  1.117031,
  0.820155,
  0.82298,
  0.569983,
  0.915859,
  1.221493,
  1.004472,
  0.781005,
  0.876985,
  0.893596,
  0.58636,
  0.727814,
  0.935035,
  0.695647,
  0.92698,
  0.736723,
  0.673742,
  0.819074,
  0.893312,
  0.768438,
  1.020822,
  0.826249,
  1.134313,
  0.679983,
  1.100982,
  0.851422,
  0.766586,
  0.749752,
  0.574302,
  1.130028,
  1.080167,
  0.780546,
  0.958718,
  1.009034,
  0.895566,
  1.007982,
  0.874873,
  0.764381,
  0.649982,
  0.903135,
  0.976359,
  0.684751,
  0.910275,
  1.220012,
  0.862105,
  0.624982,
  0.73098,
  0.884979,
  0.58601,
  0.605463,
  0.825513,
  0.741569,
  0.823753,
  0.712322,
  0.748276,
  1.120427,
  1.091012,
  0.97205,
  0.725943,
  0.860898,
  0.904009,
  0.690003,
  0.705752,
  1.170531,
  1.025961,
  0.787991,
  1.124979,
  0.842112,
  0.959513,
  0.847024,
  0.685973,
  1.118986,
  0.680039,
  1.066114,
  0.751012,
  0.855984,
  0.712044,
  1.05198,
  0.938314,
  1.106057,
  0.74898,
  0.657073,
  0.736109,
  0.55498,
  0.845015,
  0.763654,
  0.772723,
  1.01198,
  0.668615,
  0.775851,
  0.744829,
  1.122995,
  0.930984,
  0.827872,
  0.974881,
  1.205979,
  0.704985,
  1.05515,
  0.841979,
  0.886853,
  0.679784,
  0.932983,
  0.548622,
  0.667544,
  0.630666,
  0.895166,
  1.051885,
  0.741991,
  0.920987,
  0.723979,
  0.795107,
  0.887515,
  0.759796,
  1.083808,
  0.910046,
  1.016981,
  0.85898,
  0.883708,
  0.864113,
  0.605986,
  0.7274,
  0.786891,
  1.29598,
  0.827363,
  1.142648,
  0.73598,
  0.782298,
  0.885456,
  1.163511,
  0.813508,
  0.799728,
  0.615249,
  0.95298,
  0.846694,
  0.824957,
  1.345984,
  1.016091,
  0.793247,
  0.811771,
  0.933077,
  0.995754,
  0.740705,
  0.831384,
  1.041061,
  0.93698,
  1.140982,
  1.010874,
  0.57689,
  0.90498,
  1.020146,
  0.677022,
  1.18898,
  0.975641,
  0.874319,
  0.79198,
  0.77898,
  0.667203,
  0.725051,
  1.063987,
  0.989027,
  0.735965,
  0.85534,
  1.316429,
  0.809303,
  0.689899,
  1.135823,
  1.132637,
  0.854323,
  0.68948,
  0.925068,
  0.639508,
  0.538012,
  0.80498,
  0.963016,
  0.775982,
  0.731786,
  1.169331,
  0.945982,
  0.733026,
  1.132907
]