
Network statistics for circuits >= 4MB xmit:
  Stats for phase post-4mb:
    BWE: Min: 1.0/78.2+174.5/2550.0, Avg: 1.0/196.6+234.7/2721.3, Dev: 81.2, Max: 1.0/348.6+314.5/3029.0
    CWND: Min: 237.0/401.4+155.5/1941.0, Avg: 242.0/467.1+160.7/1955.7, Dev: 44.9, Max: 242.0/535.4+196.7/2037.0
    QUSE: Min: 1.0/148.9+132.6/433.0, Avg: 5.7/5897898327244360.0+71143553603369168.0/2732850973882896384.0, Dev: 33787996232357312.0, Max: 20.0/240908971111878464.0+2094265743118414592.0/18446744073709551616.0
    final CWND: 241.0/431.5+168.9/2037.0
    final QUSE: 1.0/260.9+120.1/433.0
    RTTFactor: Min: 1.0/14.8+39.9/459.1, Avg: 1.0/38.4+60.2/483.3, Dev: 24.1, Max: 1.0/108.4+128.5/665.8
    init minRTTFactor: 1.0/1.2+0.6/31.0
    phase minRTTFactor: 1.0/1.1+0.5/31.0
    Total circs: 9112
  Stats for phase slow start:
    BWE: Min: 1.0/165.6+214.8/2556.0, Avg: 1.0/254.6+193.8/2556.0, Dev: 90.1, Max: 1.0/356.4+236.6/2556.0
    CWND: Min: 248.0/400.2+191.7/1923.0, Avg: 249.3/492.5+162.1/1923.0, Dev: 93.7, Max: 250.0/600.1+189.0/2037.0
    QUSE: Min: 248.0/248.0+0.0/248.0, Avg: 248.0/248.0+0.0/248.0, Dev: 0.0, Max: 248.0/248.0+0.0/248.0
    final CWND: 248.0/532.7+203.9/2037.0
    final QUSE: 248.0/248.0+0.0/248.0
    RTTFactor: Min: 1.0/3.2+6.5/106.0, Avg: 1.0/23.0+32.2/186.7, Dev: 20.7, Max: 1.0/48.1+70.1/330.9
    init minRTTFactor: 1.0/1.7+3.0/59.1
    phase minRTTFactor: 1.0/1.0+0.1/2.2
    Total circs: 9112
  Stats for phase post-slow start:
    BWE: Min: 1.0/36.3+116.8/2497.0, Avg: 1.0/189.7+207.3/2716.1, Dev: 118.9, Max: 1.0/449.8+282.3/3029.0
    CWND: Min: 237.0/338.3+134.7/1923.0, Avg: 244.7/466.0+147.0/1930.1, Dev: 83.8, Max: 250.0/604.5+190.1/2037.0
    QUSE: Min: 1.0/91.1+92.8/248.0, Avg: 21.2/14572754559477880.0+96226621054508752.0/2258784988617496064.0, Dev: 92830189582798544.0, Max: 248.0/696409126575514240.0+3515891815308946944.0/18446744073709551616.0
    final CWND: 241.0/431.5+168.9/2037.0
    final QUSE: 1.0/260.9+120.1/433.0
    RTTFactor: Min: 1.0/2.4+5.0/88.1, Avg: 1.0/36.7+37.6/248.4, Dev: 41.3, Max: 1.1/183.6+153.6/700.1
    init minRTTFactor: 1.0/1.7+3.0/59.1
    phase minRTTFactor: 1.0/1.0+0.0/1.0
    Total circs: 9112
  Stats for phase lifetime:
    BWE: Min: 1.0/36.3+116.8/2497.0, Avg: 1.0/190.9+205.5/2712.3, Dev: 121.9, Max: 1.0/449.8+282.3/3029.0
    CWND: Min: 237.0/338.3+134.7/1923.0, Avg: 244.9/466.2+146.5/1930.0, Dev: 85.6, Max: 250.0/604.5+190.1/2037.0
    QUSE: Min: 1.0/91.1+92.8/248.0, Avg: 24.1/14184481108071940.0+93387337578267088.0/2196040961155898880.0, Dev: 91698912240938000.0, Max: 248.0/696409126575514240.0+3515891815308946944.0/18446744073709551616.0
    final CWND: 241.0/431.5+168.9/2037.0
    final QUSE: 1.0/260.9+120.1/433.0
    RTTFactor: Min: 1.0/2.4+5.0/88.1, Avg: 1.0/36.2+36.8/240.8, Dev: 41.3, Max: 1.1/183.6+153.6/700.1
    init minRTTFactor: 1.0/1.7+3.0/59.1
    phase minRTTFactor: 1.0/1.0+0.0/1.0
    Total circs: 9112
  Total circs: 9112
  Circs still in SS: 0

Network statistics for all circuits:
  Stats for phase post-4mb:
    BWE: Min: 1.0/78.2+174.5/2550.0, Avg: 1.0/196.6+234.7/2721.3, Dev: 81.2, Max: 1.0/348.6+314.5/3029.0
    CWND: Min: 237.0/401.4+155.5/1941.0, Avg: 242.0/467.1+160.7/1955.7, Dev: 44.9, Max: 242.0/535.4+196.7/2037.0
    QUSE: Min: 1.0/148.9+132.6/433.0, Avg: 5.7/5897898327244360.0+71143553603369168.0/2732850973882896384.0, Dev: 33787996232357312.0, Max: 20.0/240908971111878464.0+2094265743118414592.0/18446744073709551616.0
    final CWND: 241.0/431.5+168.9/2037.0
    final QUSE: 1.0/260.9+120.1/433.0
    RTTFactor: Min: 1.0/14.8+39.9/459.1, Avg: 1.0/38.4+60.2/483.3, Dev: 24.1, Max: 1.0/108.4+128.5/665.8
    init minRTTFactor: 1.0/1.2+0.6/31.0
    phase minRTTFactor: 1.0/1.1+0.5/31.0
    Total circs: 9112
  Stats for phase slow start:
    BWE: Min: 1.0/125.7+193.8/2556.0, Avg: 1.0/173.6+195.3/2556.0, Dev: 48.5, Max: 1.0/227.7+240.9/2556.0
    CWND: Min: 248.0/355.1+167.0/1923.0, Avg: 248.0/401.0+168.2/1923.0, Dev: 46.7, Max: 248.0/453.9+209.8/2037.0
    QUSE: Min: 248.0/248.0+0.0/248.0, Avg: 248.0/248.0+0.0/248.0, Dev: 0.0, Max: 248.0/248.0+0.0/248.0
    final CWND: 248.0/421.0+198.1/2037.0
    final QUSE: 248.0/248.0+0.0/248.0
    RTTFactor: Min: 1.0/30.3+55.8/340.5, Avg: 1.0/44.9+58.8/340.5, Dev: 15.0, Max: 1.0/62.1+76.2/340.5
    init minRTTFactor: 1.0/1.5+2.6/59.1
    phase minRTTFactor: 1.0/1.0+0.0/2.2
    Total circs: 22728
  Stats for phase post-slow start:
    BWE: Min: 1.0/35.1+111.9/2497.0, Avg: 1.0/122.9+186.8/2716.1, Dev: 70.9, Max: 1.0/277.4+292.2/3029.0
    CWND: Min: 237.0/319.2+126.0/1923.0, Avg: 243.3/383.6+152.9/1930.1, Dev: 44.5, Max: 248.0/455.7+211.4/2037.0
    QUSE: Min: 1.0/165.9+99.2/248.0, Avg: 21.2/11001119162241636.0+115481974305467120.0/5270498306774157312.0, Dev: 55344099275505776.0, Max: 248.0/356305906738758080.0+2538844220188384256.0/18446744073709551616.0
    final CWND: 240.0/367.4+156.5/2037.0
    final QUSE: 1.0/262.9+94.4/433.0
    RTTFactor: Min: 1.0/27.2+51.5/340.5, Avg: 1.0/76.2+82.0/496.6, Dev: 42.4, Max: 1.1/184.6+153.2/782.2
    init minRTTFactor: 1.0/1.5+2.6/59.1
    phase minRTTFactor: 1.0/1.0+0.0/1.0
    Total circs: 22728
  Stats for phase lifetime:
    BWE: Min: 1.0/35.1+111.9/2497.0, Avg: 1.0/124.4+185.5/2712.3, Dev: 73.5, Max: 1.0/277.4+292.2/3029.0
    CWND: Min: 237.0/319.2+126.0/1923.0, Avg: 243.7/384.0+152.8/1930.0, Dev: 45.7, Max: 248.0/455.7+211.4/2037.0
    QUSE: Min: 1.0/165.9+99.2/248.0, Avg: 24.1/10508818945564840.0+108215742070059088.0/4611686018427387904.0, Dev: 54402204723701448.0, Max: 248.0/356305906738758080.0+2538844220188384256.0/18446744073709551616.0
    final CWND: 240.0/367.4+156.5/2037.0
    final QUSE: 1.0/262.9+94.4/433.0
    RTTFactor: Min: 1.0/27.2+51.5/340.5, Avg: 1.0/73.9+78.9/475.7, Dev: 42.8, Max: 1.1/184.6+153.2/782.2
    init minRTTFactor: 1.0/1.5+2.6/59.1
    phase minRTTFactor: 1.0/1.0+0.0/1.0
    Total circs: 22728
  Total circs: 22728
  Circs still in SS: 0

Network statistics for circuits never exiting slow start:
  No circuits

Network statistics for circuits that hit min cwnd:
  No circuits
