[
  0.371683,
  0.801921,
  0.931857,
  0.811599,
  0.362036,
  0.862086,
  0.374052,
  0.771263,
  0.311396,
  0.392102,
  0.771648,
  0.53675,
  0.592994,
  0.543653,
  0.904023,
  0.629998,
  0.639006,
  0.752535,
  0.861557,
  0.619249,
  0.934988,
  0.578455,
  0.98324,
  0.301363,
  0.824932,
  0.39836,
  0.50334,
  0.686313,
  0.91377,
  0.810484,
  0.57199,
  0.448633,
  0.453611,
  0.810957,
  0.943684,
  0.355975,
  0.389984,
  0.784319,
  0.356477,
  0.606618,
  0.789227,
  0.759048,
  0.765014,
  0.648258,
  0.855751,
  0.453032,
  0.830173,
  0.410409,
  0.676206,
  0.351306,
  0.367808,
  0.404823,
  0.831634,
  0.709236,
  0.592563,
  0.751325,
  0.396901,
  0.411884,
  0.746513,
  0.771631,
  0.78754,
  0.777593,
  0.404297,
  0.495094,
  0.822221,
  0.395531,
  0.813566,
  0.456768,
  0.789238,
  0.335473,
  0.816394,
  0.625462,
  0.853787,
  0.346996,
  0.663443,
  0.840662,
  0.727197,
  0.7758,
  0.35109,
  0.391593,
  0.282674,
  0.329,
  0.343268,
  0.298994,
  0.323435,
  0.224127,
  0.26596,
  0.28507,
  0.288877,
  0.297307,
  0.234671,
  0.309956,
  0.216218,
  0.266252,
  0.296981,
  0.30482,
  0.418242,
  0.448589,
  0.19189,
  0.231652,
  0.310076,
  0.331907,
  0.370611,
  0.399995,
  0.041854,
  0.203844,
  0.302573,
  0.324499,
  0.450824,
  0.279553,
  0.358799,
  0.222375,
  0.319735,
  0.386111,
  0.342026,
  0.361632,
  0.330175,
  0.254684,
  0.239026,
  0.038253,
  0.298976,
  0.311935,
  0.253581,
  0.380699,
  0.380805,
  0.387108,
  0.361884,
  0.374288,
  0.227062,
  0.147604,
  0.216089,
  0.249883,
  0.30777,
  0.588876,
  0.428378,
  0.297265,
  0.351183,
  0.293858,
  0.315763,
  0.186846,
  0.389896,
  0.417641,
  0.147112,
  0.210002,
  0.248174,
  0.308822,
  0.227625,
  0.397233,
  0.44173,
  0.165454,
  0.216875,
  0.229438,
  0.237422,
  0.323813,
  0.392609,
  0.174223,
  0.235131,
  0.249312,
  0.295074,
  0.189326,
  0.295659,
  0.210963,
  0.263801,
  0.277985,
  0.303855,
  0.217165,
  0.316554,
  0.276144,
  0.344005,
  0.298936,
  0.357508,
  0.222108,
  0.313497,
  0.26809,
  0.331596,
  0.35116,
  0.383811,
  0.045165,
  0.140961,
  0.353821,
  0.382036,
  0.360439,
  0.208019,
  0.236393,
  0.894703,
  1.196617,
  0.997791,
  1.063786,
  0.875767,
  1.055295,
  0.898974,
  1.175759,
  1.091741,
  1.204064,
  0.909486,
  1.033971,
  0.246759,
  0.880532,
  1.108706,
  1.031686,
  1.200892,
  0.89301,
  1.092661,
  0.933681,
  1.11865,
  1.109278,
  1.233264,
  1.025633,
  1.135614,
  0.828369,
  0.946592,
  1.084479,
  1.243572,
  0.922555,
  1.005553,
  0.918561,
  1.070545,
  0.229373,
  0.303132,
  0.430136,
  0.691331,
  0.240253,
  0.265134,
  0.266542,
  0.270007,
  0.274001,
  0.235313,
  0.285661,
  0.214812,
  0.267541,
  0.398002,
  0.412464,
  0.272897,
  0.245403,
  0.275655,
  0.20396,
  0.233973,
  0.339136,
  0.353994,
  0.394017,
  0.249026,
  0.158062,
  0.25689,
  0.21624,
  0.335235,
  0.335853,
  0.34484,
  0.398258,
  0.451872,
  0.223711,
  0.291249,
  0.3333,
  0.430079,
  0.278044,
  0.291472,
  0.295898,
  0.373882,
  0.191118,
  0.236255,
  0.415887,
  0.303029,
  0.198872,
  0.25608,
  0.277374,
  0.293012,
  0.314005,
  0.343106,
  0.401685,
  0.434237,
  0.412219,
  0.227401,
  0.220431,
  0.437326,
  0.220523,
  0.290105,
  0.222217,
  0.375018,
  0.25362,
  0.29215,
  0.350258,
  0.430146,
  0.382577,
  0.445026,
  0.215304,
  0.308633,
  0.415543,
  0.418088,
  0.330575,
  0.370108,
  0.239238,
  0.209438,
  0.270988,
  0.385955,
  0.392673,
  0.481491,
  0.283794,
  0.570087,
  0.419363,
  0.301089,
  0.359245,
  0.30387,
  0.284264,
  0.270754,
  0.318028,
  0.332229,
  0.368881,
  0.216079,
  0.343438,
  0.204604,
  0.254919,
  0.266936,
  0.396471,
  0.403616,
  0.331034,
  0.29506,
  0.352714,
  0.186648,
  0.4486,
  0.451948,
  0.470459,
  0.251023,
  0.274092,
  0.334379,
  0.349569,
  0.250687,
  0.401312,
  0.417935,
  0.202031,
  0.362665,
  0.037129,
  0.366428,
  0.406523,
  0.353028,
  0.439342,
  0.309182,
  0.322529,
  0.327962,
  0.384292,
  0.314319,
  0.259449,
  0.237613,
  0.401971,
  0.262901,
  0.34501,
  0.055799,
  0.435883,
  0.45818,
  0.378113,
  0.483286,
  0.24788,
  0.335747,
  0.575672,
  0.585679,
  0.453158,
  0.273993,
  0.398266,
  0.302026,
  0.297026,
  0.26867,
  0.292663,
  0.240753,
  0.259762,
  0.261746,
  0.27277,
  0.204652,
  0.221331,
  0.236952,
  0.28496,
  0.368936,
  0.392943,
  0.247625,
  0.274634,
  0.283979,
  0.307972,
  0.268616,
  0.229026,
  0.376945,
  0.404026,
  0.29558,
  0.343684,
  0.039553,
  0.358963,
  0.204426,
  0.370537,
  0.385243,
  0.371526,
  0.400518,
  0.463501,
  0.359026,
  0.31049,
  0.417026,
  0.275464,
  0.289472,
  0.230455,
  0.252266,
  0.065998,
  0.401914,
  0.451026,
  0.292411,
  0.329026,
  1.072927,
  1.13888,
  1.015487,
  1.019746,
  1.049468,
  1.128385,
  1.023196,
  1.026359,
  1.076439,
  1.087395,
  1.029915,
  1.05142,
  1.074403,
  1.078444,
  1.058339,
  1.10074,
  1.122223,
  1.234579,
  1.204331,
  1.315711,
  0.282634,
  1.110272,
  1.153863,
  1.051259,
  1.071527,
  1.000226,
  1.087454,
  1.115551,
  1.120528,
  1.055252,
  1.107027,
  1.04929,
  1.092539,
  0.826076,
  0.893747,
  0.903395,
  1.090252,
  0.851119,
  1.000985,
  0.822456,
  0.932939,
  0.953808,
  0.98653,
  0.914065,
  1.05003,
  0.970727,
  1.091047,
  0.223518,
  0.945487,
  1.138026,
  1.106004,
  0.998541,
  0.845996,
  0.956241,
  0.978048,
  1.145788,
  0.868193,
  0.979018,
  0.9042,
  0.971011,
  0.849924,
  0.93965,
  0.855902,
  1.070265,
  0.930677,
  1.024648,
  0.322762,
  0.334692,
  0.328812,
  0.297813,
  0.299523,
  0.2329,
  0.317612,
  0.394495,
  0.278199,
  0.287669,
  0.316737,
  0.317277,
  0.410984,
  0.235642,
  0.269018,
  0.285885,
  0.305853,
  0.327052,
  0.334761,
  0.400674,
  0.449876,
  0.426061,
  0.520621,
  0.242133,
  0.301425,
  0.354444,
  0.39842,
  0.250595,
  0.332376,
  0.442053,
  0.47857,
  0.251559,
  0.341275,
  0.34696,
  0.413537,
  0.372887,
  0.255269,
  0.312238,
  0.418501,
  0.277483,
  0.463985,
  0.275024,
  0.288208,
  0.451464,
  0.055958,
  0.329478,
  0.378524,
  0.446436,
  0.459168,
  0.309751,
  0.456837,
  1.1044,
  1.244329,
  0.96898,
  1.202605,
  1.398305,
  0.956856,
  0.961306,
  1.09288,
  0.99551,
  1.10826,
  1.164476,
  1.248902,
  1.132214,
  1.446221,
  1.085589,
  1.175969,
  1.110152,
  1.179415,
  1.233414,
  1.290177,
  1.419194,
  1.050581,
  1.129159,
  1.086134,
  1.2438,
  1.08122,
  1.122598,
  1.189766,
  1.382105,
  1.087989,
  1.241078,
  1.11266,
  1.21006,
  0.347976,
  0.564997,
  0.534965,
  0.589979,
  0.455444,
  0.470099,
  0.510298,
  0.428154,
  0.246637,
  0.305407,
  0.314926,
  0.361415,
  0.371899,
  0.456889,
  0.61437,
  0.259896,
  0.367352,
  0.565341,
  0.570846,
  0.325826,
  0.342374,
  0.344304,
  0.41681,
  0.361792,
  0.494288,
  0.474275,
  0.483778,
  0.342763,
  0.566244,
  0.061716,
  0.315233,
  0.372737,
  0.360207,
  0.387727,
  0.447548,
  0.840818,
  0.35016,
  0.853279,
  0.334606,
  0.515336,
  0.847712,
  0.770737,
  0.795691,
  0.323939,
  0.863214,
  0.334137,
  0.839089,
  0.38367,
  0.712197,
  0.801719,
  0.815662,
  0.3425,
  0.880388,
  0.329541,
  0.570728,
  0.792355,
  0.927621,
  0.62628,
  0.817842,
  0.372477,
  0.942864,
  0.335629,
  0.42841,
  0.71646,
  0.84071,
  0.672704,
  0.659596,
  0.785012,
  0.355261,
  0.807076,
  0.35902,
  0.86882,
  0.054658,
  0.674282,
  0.316234,
  0.349212,
  0.802134,
  0.810424,
  0.318869,
  0.750258,
  0.322055,
  0.609998,
  0.7414,
  0.882438,
  0.344066,
  0.854715,
  0.324344,
  0.836958,
  0.321764,
  0.376428,
  0.830437,
  0.840852,
  0.243399,
  0.37892,
  0.787071,
  0.366178,
  0.814878,
  0.360897,
  0.720615,
  0.640153,
  0.733041,
  0.377399,
  0.767981,
  0.330928,
  0.794915,
  0.812783,
  0.904469,
  0.964284,
  0.933797,
  0.770124,
  0.807808,
  0.95424,
  1.269449,
  1.221749,
  1.00269,
  0.901631,
  0.811768,
  0.931669,
  0.982502,
  0.853982,
  0.852991,
  0.920892,
  0.87875,
  1.12965,
  0.78296,
  0.785989,
  0.871974,
  0.970491,
  0.997887,
  1.029633,
  0.961197,
  1.047421,
  1.057762,
  0.73175,
  0.779297,
  0.780911,
  0.913256,
  0.974824,
  1.046065,
  1.107407,
  0.980426,
  0.744696,
  0.869716,
  0.952617,
  0.960609,
  0.790855,
  1.002755,
  0.925691,
  0.776472,
  0.977386,
  1.047861,
  0.870092,
  0.876076,
  0.901257,
  0.931057,
  0.972806,
  1.035799,
  0.220972,
  1.042677,
  1.043445,
  0.749258,
  0.905172,
  0.776978,
  0.780063,
  0.79714,
  0.919869,
  0.996836,
  1.02654,
  0.815655,
  0.964567,
  0.813868,
  0.924782,
  0.938969,
  0.985805,
  0.805675,
  0.937551,
  0.796626,
  0.934524,
  0.816595,
  0.950444,
  0.782583,
  0.909618,
  0.943652,
  1.036479,
  0.834026,
  1.026026,
  0.993536,
  0.900511,
  1.033253,
  1.22332,
  0.237289,
  0.408388,
  0.433213,
  0.450421,
  0.356427,
  0.57345,
  0.184416,
  0.405415,
  0.345398,
  0.474986,
  0.374356,
  0.511389,
  0.100328,
  0.249338,
  0.644377,
  0.244315,
  0.437352,
  0.268298,
  0.458333,
  0.248282,
  0.442318,
  0.257264,
  0.389291,
  0.155995,
  0.387291,
  0.331793,
  0.561843,
  0.31221,
  0.349247,
  0.109455,
  0.384965,
  0.631026,
  0.238679,
  0.397932,
  0.237688,
  0.332909,
  0.202616,
  0.328185,
  0.387094,
  0.33767,
  0.350963,
  0.234979,
  0.270286,
  0.305397,
  0.310302,
  0.370946,
  0.28387,
  0.211771,
  0.322755,
  0.348519,
  0.378276,
  0.381618,
  0.328841,
  0.285623,
  0.340961,
  0.352602,
  0.416606,
  0.28059,
  0.311934,
  0.36558,
  0.476233,
  0.20356,
  0.383562,
  0.396855,
  0.429742,
  0.435191,
  0.339826,
  0.445026,
  0.258501,
  0.327808,
  0.426256,
  0.452483,
  0.465472,
  0.387719,
  0.321447,
  0.426754,
  0.405793,
  0.265026,
  0.202952,
  0.258418,
  0.292982,
  0.929712,
  1.304676,
  0.950627,
  1.044908,
  1.007183,
  1.009896,
  1.011669,
  1.021873,
  0.916672,
  1.326854,
  0.273558,
  0.991981,
  1.00911,
  1.14566,
  1.202933,
  1.050235,
  0.936981,
  0.938573,
  1.102778,
  0.90459,
  1.29476,
  1.004742,
  1.020538,
  0.957513,
  1.078731,
  0.961568,
  1.106706,
  0.973376,
  1.061219,
  0.290913,
  0.890468,
  1.046673,
  1.054711,
  1.333599,
  0.226728,
  0.343704,
  0.556856,
  0.287429,
  0.231326,
  0.298648,
  0.421906,
  0.501813,
  0.054093,
  0.34216,
  0.312655,
  0.350462,
  0.326005,
  0.293192,
  0.326199,
  0.572013,
  0.322026,
  0.419499,
  0.439908,
  0.29369,
  0.305851,
  0.313452,
  0.332875,
  0.487372,
  0.275882,
  0.328624,
  0.384431,
  0.406759,
  0.239785,
  0.486749,
  0.274593,
  0.286692,
  0.345409,
  0.3484,
  0.060745,
  0.322943,
  0.338736,
  0.383952,
  0.47776,
  0.346026,
  0.329009,
  0.38458,
  0.441026,
  0.384562,
  0.503412,
  0.370584,
  0.428537,
  0.331519,
  0.506326,
  0.3095,
  0.358701,
  0.302482,
  0.374602,
  0.445272,
  0.456026,
  0.35081,
  0.340247,
  0.372026,
  0.326436,
  0.355229,
  0.342893,
  0.357662,
  0.293672,
  0.345662,
  0.281867,
  0.242982,
  0.283997,
  0.318791,
  0.330813,
  0.244139,
  0.29198,
  0.249865,
  0.277673,
  0.284856,
  0.334305,
  0.241651,
  0.269263,
  0.294785,
  0.327992,
  0.338761,
  0.345967,
  0.359977,
  0.434725,
  0.427624,
  0.480883,
  0.249811,
  0.310995,
  0.314466,
  0.365383,
  0.429022,
  0.276028,
  0.199257,
  0.246335,
  0.284321,
  0.211595,
  0.313009,
  0.276569,
  0.206945,
  0.25656,
  0.288753,
  0.372535,
  0.445344,
  0.220526,
  0.22951,
  0.19538,
  0.296672,
  0.267026,
  0.405491,
  0.43195,
  0.270474,
  0.349266,
  0.231884,
  0.239781,
  0.285099,
  0.382017,
  0.268408,
  0.320217,
  1.127929,
  1.152331,
  1.422185,
  1.019446,
  1.062909,
  1.104886,
  1.169236,
  1.113796,
  1.191875,
  1.141638,
  1.136886,
  0.301229,
  1.075705,
  1.084835,
  1.221824,
  1.205064,
  0.937806,
  0.958506,
  1.209781,
  1.162026,
  0.989863,
  1.105763,
  0.314986,
  1.043752,
  1.052743,
  1.061731,
  1.126876,
  1.066709,
  1.196716,
  1.072685,
  1.136906,
  1.123677,
  1.14167,
  0.960652,
  0.976659,
  1.113637,
  1.302824,
  2.216541,
  1.080386,
  0.848514,
  0.943765,
  1.13539,
  1.176374,
  1.092915,
  1.136419,
  1.005128,
  0.87215,
  0.930367,
  0.98443,
  0.870383,
  0.898999,
  0.917275,
  0.951992,
  0.916508,
  0.929517,
  0.917903,
  0.944784,
  0.976296,
  1.238534,
  0.878641,
  1.11212,
  1.120501,
  0.882718,
  0.898874,
  0.93623,
  0.940408,
  1.056252,
  1.13786,
  0.95147,
  0.997102,
  1.015495,
  1.064097,
  0.898423,
  0.918411,
  0.92637,
  0.957993,
  0.27252,
  0.877469,
  0.964091,
  0.889011,
  0.95896,
  0.838958,
  0.911432,
  0.955554,
  1.023581,
  0.856618,
  0.940026,
  1.057995,
  1.12155,
  0.944395,
  0.980123,
  1.038394,
  0.849026,
  0.839443,
  0.955049,
  0.970536,
  1.084452,
  0.841402,
  0.900008,
  0.258953,
  0.894386,
  0.925268,
  0.894368,
  1.064976,
  0.86235,
  0.894958,
  0.91456,
  0.991325,
  0.990317,
  1.015924,
  1.023905,
  1.07534,
  0.345672,
  0.47054,
  0.33866,
  0.464133,
  0.192233,
  0.248209,
  0.322071,
  0.324066,
  0.248667,
  0.382439,
  0.24907,
  0.304701,
  0.222651,
  0.267925,
  0.243029,
  0.286016,
  0.348774,
  0.384813,
  0.41679,
  0.269079,
  0.310633,
  0.380419,
  0.294199,
  0.369224,
  0.371972,
  0.378047,
  0.402011,
  0.417215,
  0.343606,
  0.455254,
  0.039384,
  0.291588,
  0.384375,
  0.256052,
  0.356026,
  0.247536,
  0.280729,
  0.331541,
  0.337314,
  0.342523,
  0.373416,
  0.393023,
  0.4146,
  0.22165,
  0.35726,
  0.28847,
  0.414242,
  0.318446,
  0.456436,
  0.441631,
  0.06295,
  0.218408,
  0.337195,
  1.088929,
  1.273324,
  1.100635,
  1.307993,
  1.021008,
  1.202423,
  2.291001,
  1.022887,
  0.984141,
  1.243317,
  1.174304,
  1.287772,
  1.244155,
  1.218891,
  1.343309,
  1.099592,
  1.212855,
  0.997526,
  0.955836,
  1.172676,
  1.427873,
  1.003367,
  1.059988,
  1.099997,
  1.171404,
  1.187394,
  1.471928,
  1.048525,
  1.010898,
  1.155849,
  1.16598,
  1.182753,
  1.058984,
  1.100295,
  1.226,
  1.308983,
  1.260886,
  1.346233,
  1.177607,
  1.291966,
  1.370968,
  1.552363,
  1.214822,
  1.271348,
  1.164336,
  1.25394,
  1.148015,
  1.004532,
  1.018617,
  1.091201,
  1.117655,
  1.285039,
  1.412596,
  1.029798,
  1.527206,
  1.104268,
  1.153955,
  1.185567,
  1.204547,
  1.166872,
  1.176267,
  1.167793,
  1.139521,
  1.00953,
  1.138812,
  1.007153,
  1.185439,
  0.920948,
  1.187464,
  1.01597,
  1.032168,
  1.131384,
  1.181349,
  0.995973,
  1.100368,
  1.14799,
  1.282218,
  1.13915,
  1.141682,
  1.024725,
  1.045819,
  1.122775,
  1.139146,
  1.173104,
  1.224122,
  0.337554,
  1.052745,
  1.101524,
  0.992714,
  1.181124,
  1.125621,
  1.180753,
  1.019686,
  1.131081,
  1.092699,
  1.203297,
  0.196426,
  0.209727,
  0.257116,
  0.129182,
  0.1789,
  0.250491,
  0.271531,
  0.274707,
  0.191711,
  0.291421,
  0.264322,
  0.267625,
  0.371587,
  0.398159,
  0.292955,
  0.426691,
  0.164406,
  0.259695,
  0.273983,
  0.299712,
  0.312456,
  0.212026,
  0.282041,
  0.435672,
  0.237316,
  0.240016,
  0.247294,
  0.257285,
  0.270528,
  0.295352,
  0.297782,
  0.298901,
  0.188463,
  0.207639,
  0.225495,
  0.335326,
  0.321792,
  0.056945,
  0.220138,
  0.24829,
  0.345685,
  0.391905,
  0.219556,
  0.238822,
  0.338265,
  0.222026,
  0.284164,
  0.326531,
  0.259871,
  0.317939,
  0.201488,
  0.337484,
  0.366026,
  0.258988,
  0.329323,
  0.886232,
  0.967436,
  0.723896,
  1.009585,
  0.96789,
  1.033383,
  0.796008,
  0.873623,
  0.856663,
  1.06585,
  0.885591,
  1.072821,
  1.338547,
  1.027809,
  1.084579,
  0.802798,
  0.882288,
  0.800695,
  0.88509,
  0.814759,
  0.881821,
  0.885668,
  0.923675,
  0.911984,
  1.033072,
  0.809698,
  0.871519,
  0.963687,
  1.056441,
  0.207121,
  1.000662,
  1.016479,
  0.847643,
  1.024414,
  0.294478,
  0.334092,
  0.317179,
  0.326997,
  0.215414,
  0.315998,
  0.407006,
  0.529619,
  0.31502,
  0.200436,
  0.239661,
  0.34646,
  0.261896,
  0.273997,
  0.27804,
  0.347682,
  0.599974,
  0.254642,
  0.617436,
  0.208258,
  0.251935,
  0.273156,
  0.30895,
  0.429163,
  0.460971,
  0.246734,
  0.358434,
  0.261423,
  0.315388,
  0.344605,
  0.355581,
  0.363398,
  0.411363,
  0.236016,
  0.265985,
  0.331009,
  0.347441,
  0.266901,
  0.345692,
  0.394708,
  0.441884,
  0.364396,
  0.336026,
  0.269131,
  0.434809,
  0.234001,
  0.324139,
  0.337685,
  0.347901,
  0.360869,
  0.230683,
  0.35538,
  0.334135,
  0.440554,
  0.282334,
  0.376541,
  0.404523,
  0.455026,
  0.443299,
  0.399892,
  0.303589,
  0.319359,
  0.348578,
  0.387272,
  0.242325,
  0.338276,
  0.199574,
  0.346439,
  0.378896,
  0.325211,
  0.307527,
  0.959449,
  0.973936,
  1.023916,
  0.98067,
  0.97111,
  1.027746,
  1.004519,
  1.101915,
  1.043372,
  1.132856,
  1.463675,
  0.957362,
  1.119833,
  0.945258,
  1.103036,
  0.973318,
  1.125828,
  1.000958,
  1.025151,
  0.986593,
  0.996761,
  1.114856,
  1.162371,
  0.925749,
  1.057542,
  0.280755,
  1.127276,
  1.146024,
  1.073604,
  1.236036,
  1.120473,
  1.184669,
  1.046535,
  1.058039,
  0.397128,
  0.507943,
  0.288564,
  0.332019,
  0.332594,
  0.383332,
  0.347531,
  0.382945,
  0.224057,
  0.280595,
  0.311515,
  0.386887,
  0.315482,
  0.3473,
  0.277104,
  0.296456,
  0.039083,
  0.372727,
  0.432638,
  0.329417,
  0.406626,
  0.456788,
  0.541509,
  0.261388,
  0.291959,
  0.223143,
  0.279377,
  0.293771,
  0.250548,
  0.412358,
  0.246214,
  0.29782,
  0.246256,
  0.26123,
  0.989234,
  1.158208,
  1.065832,
  1.118095,
  0.964405,
  1.158709,
  0.905792,
  1.163375,
  0.948372,
  1.163864,
  1.026253,
  1.099018,
  0.972253,
  1.118137,
  1.009874,
  1.019031,
  0.304189,
  0.979887,
  1.136061,
  0.98707,
  0.990642,
  1.198039,
  1.247513,
  1.164108,
  1.210987,
  1.162893,
  1.168224,
  0.975935,
  1.073009,
  1.041848,
  1.259193,
  1.043907,
  1.099914,
  0.404679,
  0.471992,
  0.478018,
  0.324919,
  0.339348,
  0.379392,
  0.448476,
  0.466356,
  0.403758,
  0.28793,
  0.8394,
  0.44582,
  0.462133,
  0.272947,
  0.296255,
  0.429972,
  0.453264,
  0.254649,
  0.272393,
  0.228519,
  0.293812,
  0.387631,
  0.474925,
  0.35737,
  0.438726,
  0.469018,
  0.471555,
  0.487335,
  0.406431,
  0.316616,
  0.335841,
  0.298026,
  0.310425,
  0.06075,
  0.262598,
  0.334426,
  0.379898,
  0.503573,
  0.219303,
  0.377868,
  0.252486,
  0.467026,
  0.479519,
  0.460585,
  0.405821,
  0.485508,
  0.25449,
  0.331074,
  0.057011,
  0.368464,
  0.369152,
  0.325467,
  0.323594,
  0.279064,
  0.412812,
  0.265411,
  0.347999,
  0.04068,
  0.264826,
  0.373675,
  0.201288,
  0.250667,
  0.310642,
  0.466026,
  0.269174,
  0.293627,
  0.286697,
  0.322604,
  0.236836,
  0.302026,
  0.04692,
  0.23057,
  0.238577,
  0.233559,
  0.241552,
  0.454107,
  0.411026,
  0.215519,
  0.323526,
  0.038707,
  0.207499,
  0.317506,
  0.41949,
  0.413026,
  0.247464,
  0.274472,
  0.238938,
  0.288945,
  0.385921,
  0.401938,
  0.245418,
  0.472411,
  1.043098,
  1.113326,
  1.138397,
  1.028117,
  1.098371,
  1.13125,
  1.148014,
  1.425247,
  1.117535,
  0.97961,
  1.320758,
  1.016925,
  1.087422,
  0.958884,
  1.157184,
  1.151097,
  1.301899,
  1.033576,
  1.091177,
  1.098925,
  1.117327,
  1.130031,
  1.240952,
  1.033301,
  1.169512,
  1.01618,
  1.037571,
  1.03901,
  1.119591,
  1.127573,
  1.14757,
  1.014839,
  1.149139,
  1.291995,
  1.253426,
  1.007863,
  1.192237,
  0.282486,
  1.033826,
  1.223017,
  1.177823,
  1.251008,
  1.186188,
  1.272239,
  1.064775,
  1.17717,
  0.971864,
  1.138187,
  1.068346,
  1.265137,
  1.037012,
  1.211407,
  1.378962,
  1.113693,
  1.137504,
  0.991794,
  1.206158,
  1.227082,
  1.066531,
  1.12602,
  1.215356,
  0.226321,
  1.061099,
  1.099554,
  1.029346,
  1.1233,
  1.117299,
  1.147296,
  1.098237,
  1.228106,
  1.026321,
  1.069261,
  0.226022,
  1.005115,
  1.223272,
  1.171222,
  1.391213,
  0.977738,
  1.104195,
  1.021054,
  1.426939,
  1.173591,
  1.321156,
  1.04214,
  1.198138,
  1.068929,
  1.183113,
  1.198085,
  1.335122,
  1.033944,
  1.173096,
  1.19065,
  1.060073,
  1.075749,
  0.946366,
  1.244499,
  0.903549,
  1.19046,
  1.781148,
  0.934691,
  1.097116,
  1.265085,
  1.164366,
  0.944071,
  1.115476,
  0.950056,
  1.346326,
  1.024287,
  1.198942,
  0.943908,
  1.332924,
  1.777843,
  0.854424,
  1.196599,
  0.947984,
  1.219355,
  0.833834,
  1.156877,
  1.040088,
  1.288914,
  0.958802,
  1.19053,
  1.785493,
  0.899818,
  1.255096,
  1.014899,
  1.331007,
  1.057837,
  1.257018,
  0.292972,
  0.296433,
  0.237269,
  0.667706,
  0.232223,
  0.26187,
  0.266977,
  0.333283,
  0.412667,
  0.460219,
  0.276613,
  0.311986,
  0.228645,
  0.298083,
  0.231777,
  0.247759,
  0.285686,
  0.297011,
  0.332278,
  0.33574,
  0.432617,
  0.395586,
  0.233424,
  0.330731,
  0.294609,
  0.299406,
  0.279846,
  0.3554,
  0.431651,
  0.449123,
  0.240098,
  0.249555,
  0.33505,
  0.309656,
  0.433115,
  0.421904,
  0.477211,
  0.227551,
  0.289567,
  0.332225,
  0.36549,
  0.299305,
  0.332465,
  0.357454,
  0.390398,
  0.350975,
  0.418963,
  0.292465,
  0.353419,
  0.961912,
  1.445928,
  1.04999,
  0.903612,
  1.012403,
  1.015422,
  1.278573,
  1.340784,
  0.974077,
  0.963266,
  1.560867,
  0.991911,
  1.158895,
  0.269376,
  1.213983,
  1.031651,
  1.103956,
  1.232955,
  1.430949,
  0.983041,
  1.388886,
  1.021027,
  1.025952,
  1.029951,
  1.033989,
  1.05596,
  1.265974,
  0.928126,
  1.016909,
  1.395875,
  0.91651,
  0.918815,
  1.050952,
  1.078964,
  1.103988,
  1.343968,
  1.19892,
  1.055726,
  1.109826,
  1.202856,
  1.274842,
  1.276849,
  0.951924,
  0.956943,
  1.104948,
  1.05866,
  1.018383,
  1.075029,
  0.899614,
  1.01189,
  1.122882,
  1.132906,
  0.272963,
  1.091824,
  1.133979,
  0.957767,
  1.035943,
  0.95596,
  0.970404,
  0.973955,
  1.033962,
  1.068382,
  1.081935,
  0.999796,
  1.062796,
  0.916993,
  1.115101,
  1.0589,
  1.168027,
  0.858907,
  1.105778,
  0.269781,
  0.938864,
  1.013875,
  1.116787,
  1.129971,
  1.08228,
  1.114715,
  1.165027,
  1.152691,
  0.909979,
  1.419101,
  0.860698,
  1.028521,
  1.113309,
  1.064564,
  0.330478,
  0.338973,
  0.285423,
  0.448881,
  0.289574,
  0.400611,
  0.544448,
  1.440456,
  0.05514,
  0.552346,
  0.299367,
  0.396454,
  0.282907,
  0.287699,
  0.32156,
  0.345796,
  0.289723,
  0.34823,
  0.279249,
  0.356428,
  0.393444,
  0.385026,
  0.316427,
  0.358356,
  0.375502,
  0.385035,
  0.422706,
  0.442732,
  0.455026,
  0.383076,
  0.055424,
  0.423209,
  0.471435,
  0.328504,
  0.352981,
  0.377997,
  0.393528,
  0.291325,
  0.423437,
  0.50537,
  0.522285,
  0.292233,
  0.353852,
  0.388078,
  0.490834,
  0.296132,
  0.459026,
  0.293305,
  0.313853,
  0.321387,
  0.358787,
  0.284762,
  0.319026,
  0.440431,
  0.459026,
  0.328038,
  0.333233,
  0.773339,
  0.348211,
  0.265448,
  0.254115,
  0.760269,
  0.437405,
  0.521103,
  0.758726,
  0.196066,
  0.299237,
  0.747828,
  0.872623,
  0.400084,
  0.291997,
  0.862225,
  0.364068,
  0.696973,
  0.53205,
  0.267033,
  0.863577,
  0.630016,
  0.872892,
  0.264989,
  0.848543,
  0.225969,
  0.873752,
  0.252959,
  0.838833,
  0.242944,
  0.887693,
  0.198936,
  0.907006,
  0.204423,
  0.223905,
  0.900654,
  0.310887,
  0.885484,
  0.36594,
  0.696754,
  0.306675,
  0.913179,
  0.876677,
  1.011978,
  0.246264,
  0.888098,
  0.91396,
  0.893641,
  0.978942,
  0.916809,
  0.980601,
  0.980612,
  1.002192,
  0.886586,
  0.998143,
  1.218863,
  1.14927,
  0.955719,
  0.958691,
  0.890543,
  1.023831,
  0.278359,
  0.874517,
  1.077804,
  0.911499,
  0.99649,
  0.947386,
  1.105281,
  0.968623,
  1.02287,
  0.886438,
  0.946453,
  1.003494,
  1.098784,
  0.909634,
  1.000079,
  0.456346,
  0.544458,
  0.432203,
  0.309693,
  0.306998,
  0.343914,
  0.561006,
  0.620012,
  0.451555,
  0.388675,
  0.285637,
  0.386321,
  0.462598,
  0.301956,
  0.306433,
  0.375449,
  0.457442,
  0.291869,
  0.297612,
  0.346784,
  0.385176,
  0.398162,
  0.405937,
  0.485281,
  0.55674,
  0.427407,
  0.305318,
  0.276688,
  0.30234,
  0.370114,
  0.373775,
  0.470583,
  0.485382,
  0.279393,
  0.395635,
  0.468301,
  0.50595,
  0.277164,
  0.334357,
  0.250881,
  0.303072,
  0.324869,
  0.277987,
  0.351488,
  0.268303,
  0.291626,
  0.331278,
  0.318898,
  0.33626,
  0.458587,
  0.30711,
  0.343084,
  0.294234,
  0.379545,
  0.369037,
  0.476216,
  0.388953,
  0.417568,
  1.026705,
  1.245953,
  0.996513,
  1.201088,
  0.8785,
  1.128071,
  0.951843,
  1.156053,
  0.877407,
  1.116753,
  0.911491,
  1.108247,
  0.945833,
  1.089628,
  0.264068,
  0.867988,
  1.159981,
  1.016683,
  1.084841,
  0.877415,
  1.133045,
  1.088196,
  1.188362,
  1.140472,
  1.162176,
  1.013373,
  1.132892,
  0.983892,
  1.081027,
  1.106827,
  0.926378,
  1.08393,
  1.021327,
  1.136997,
  0.179681,
  0.322335,
  0.25996,
  0.563455,
  0.277902,
  0.423766,
  0.403026,
  0.216796,
  0.294541,
  0.301161,
  0.38365,
  0.243948,
  0.256933,
  0.278585,
  0.291601,
  0.344908,
  0.360669,
  0.285292,
  0.314026,
  0.258629,
  0.301655,
  0.318481,
  0.333082,
  0.293666,
  0.276385,
  0.038528,
  0.35359,
  0.399026,
  0.248577,
  0.33023,
  0.241555,
  0.297222,
  0.402544,
  0.422197,
  0.220518,
  0.396185,
  0.226508,
  0.290161,
  0.311107,
  0.289483,
  0.37015,
  0.253191,
  0.281472,
  0.384447,
  0.460114,
  0.266429,
  0.348096,
  0.224278,
  0.346066,
  0.039066,
  1.033618,
  1.137385,
  0.289952,
  0.943143,
  1.068912,
  0.906124,
  1.097033,
  1.07788,
  1.132099,
  0.882088,
  1.059855,
  0.89007,
  0.994837,
  1.008026,
  1.063557,
  0.907919,
  1.065808,
  1.021153,
  1.104782,
  0.258834,
  0.963998,
  0.976832,
  0.911974,
  1.036754,
  0.864195,
  1.076736,
  0.891222,
  1.083026,
  1.069168,
  1.0697,
  0.980911,
  1.096229,
  0.99901,
  1.138667,
  0.324181,
  0.607678,
  0.252377,
  0.375945,
  0.23833,
  0.262447,
  0.377432,
  0.418498,
  0.237233,
  0.234795,
  0.380199,
  0.572662,
  0.311307,
  0.340984,
  0.352353,
  0.371373,
  0.353685,
  0.232154,
  0.388152,
  0.244034,
  0.323864,
  0.452175,
  0.510219,
  0.285624,
  0.357744,
  0.230964,
  0.273982,
  0.317999,
  0.364502,
  0.37569,
  0.379674,
  0.269614,
  0.320435,
  0.404792,
  0.439184,
  0.285021,
  0.317067,
  0.342514,
  0.417161,
  0.268462,
  0.405486,
  0.314324,
  0.357208,
  0.260609,
  0.27647,
  0.30699,
  0.346163,
  0.262571,
  0.357396,
  0.236552,
  0.366648,
  0.304558,
  0.381101,
  0.27786,
  0.289233,
  0.054693,
  0.365274,
  0.301085,
  0.268329,
  0.324643,
  0.455606,
  0.397026,
  0.440454,
  0.441693,
  0.328135,
  0.269872,
  0.288465,
  0.360117,
  1.051981,
  1.124211,
  0.279751,
  1.121954,
  1.199999,
  1.047872,
  1.107944,
  0.995517,
  1.091095,
  1.048892,
  1.077034,
  0.983876,
  1.047227,
  1.134994,
  1.241867,
  1.058842,
  1.139983,
  1.211822,
  1.372965,
  0.305018,
  1.192814,
  1.292121,
  1.149786,
  1.204796,
  1.188775,
  1.247531,
  1.314425,
  1.426759,
  1.026742,
  1.11287,
  0.980717,
  1.088985,
  1.111834,
  1.189706,
  0.303359,
  0.298674,
  0.56068,
  0.240583,
  0.232878,
  0.281019,
  0.300076,
  0.342992,
  0.407011,
  0.050933,
  0.283659,
  0.341519,
  0.408554,
  0.423003,
  0.277028,
  0.307027,
  0.245762,
  0.395641,
  0.242993,
  0.276061,
  0.301001,
  0.334986,
  0.377968,
  0.397137,
  0.251624,
  0.336631,
  0.250023,
  0.327016,
  0.215613,
  0.256606,
  0.039336,
  0.271588,
  0.291597,
  0.27158,
  0.329571,
  0.248552,
  0.345558,
  0.226545,
  0.296533,
  0.293517,
  0.294522,
  0.256026,
  0.311027,
  0.33932,
  0.299027,
  0.332469,
  0.343462,
  0.282452,
  0.309467,
  0.341805,
  0.324427,
  0.397435,
  0.349175,
  0.390472,
  0.219735,
  0.243681,
  0.145065,
  0.259078,
  0.271,
  0.317023,
  0.277365,
  0.300026,
  0.185046,
  0.252531,
  0.28692,
  0.355753,
  0.380765,
  0.387649,
  0.188791,
  0.203858,
  0.278658,
  0.283113,
  0.352002,
  0.396753,
  0.20546,
  0.253624,
  0.316694,
  0.419026,
  0.19801,
  0.165544,
  0.270588,
  0.30963,
  0.433577,
  0.346241,
  0.452267,
  0.425544,
  0.336793,
  0.205546,
  0.288407,
  0.258981,
  0.226393,
  0.270774,
  0.223545,
  0.30049,
  0.192524,
  0.362469,
  0.286398,
  0.378863,
  0.327775,
  0.374436,
  0.214358,
  0.275418,
  1.11685,
  1.203924,
  0.973477,
  1.013905,
  0.996774,
  1.107887,
  0.92052,
  1.12787,
  0.965547,
  0.997064,
  1.04234,
  1.061835,
  0.926415,
  1.089824,
  1.087407,
  0.947404,
  1.066799,
  0.89244,
  1.088781,
  1.024711,
  1.115026,
  0.969997,
  0.97135,
  0.953325,
  1.055621,
  1.131709,
  0.943238,
  0.282153,
  0.973866,
  1.144698,
  1.01768,
  1.038696,
  1.078253,
  1.095662,
  0.259669,
  0.553687,
  0.284976,
  0.320977,
  0.287997,
  0.412127,
  0.438002,
  0.509915,
  0.348388,
  0.279869,
  0.431662,
  0.292335,
  0.387338,
  0.478451,
  0.696711,
  0.038277,
  0.454948,
  0.293769,
  0.422651,
  0.269979,
  0.381355,
  0.423102,
  0.452881,
  0.480849,
  0.513562,
  0.289631,
  0.470632,
  0.354833,
  0.411172,
  0.251592,
  0.396609,
  0.50901,
  0.528895,
  0.221503,
  0.351998,
  0.287026,
  0.318902,
  0.23559,
  0.404605,
  0.496935,
  0.523762,
  0.322906,
  0.343248,
  0.334331,
  0.367552,
  0.236533,
  0.427549,
  0.343526,
  0.507909,
  0.236505,
  0.299007,
  0.38548,
  0.497003,
  0.043932,
  0.357472,
  0.378616,
  0.36088,
  0.377446,
  0.342429,
  0.394453,
  0.247411,
  0.426426,
  1.065875,
  1.241154,
  0.954134,
  0.971006,
  0.95712,
  1.097066,
  0.961108,
  0.976041,
  1.028028,
  1.06708,
  0.955063,
  0.972011,
  1.063849,
  1.099045,
  1.096027,
  1.159211,
  1.105209,
  0.916009,
  0.949364,
  0.947934,
  0.955999,
  0.990924,
  1.190976,
  1.042896,
  0.985072,
  0.982944,
  1.147878,
  0.928867,
  0.943004,
  1.009849,
  1.024901,
  0.978218,
  0.927084,
  0.330193,
  0.602778,
  0.322982,
  0.305155,
  0.359957,
  0.361607,
  0.369413,
  0.386035,
  0.445345,
  0.283284,
  0.272019,
  0.32005,
  0.337465,
  0.274092,
  0.340748,
  0.349886,
  0.354949,
  0.260293,
  0.299954,
  0.34213,
  0.397767,
  0.483577,
  0.386733,
  0.331408,
  0.466941,
  0.263051,
  0.318083,
  0.337067,
  0.34761,
  0.357932,
  0.415011,
  0.282172,
  0.287849,
  0.296499,
  0.346316,
  0.444937,
  0.453344,
  0.269334,
  0.306394,
  0.28086,
  0.409167,
  0.176509,
  0.351165,
  0.306897,
  0.447826,
  0.478283,
  0.285836,
  0.330026,
  0.259237,
  0.296476,
  0.332825,
  0.410382,
  0.317758,
  0.327322,
  0.41418,
  0.51161,
  0.488681,
  0.501685,
  0.940937,
  1.015613,
  0.993022,
  1.052902,
  0.994691,
  1.040504,
  0.962987,
  1.054113,
  0.989846,
  1.08496,
  1.449962,
  1.020277,
  1.022851,
  1.014916,
  1.020042,
  0.996796,
  1.191803,
  1.184449,
  1.156378,
  0.95924,
  1.00876,
  0.284066,
  1.030742,
  0.998962,
  1.047847,
  1.09585,
  1.186339,
  1.003028,
  1.023688,
  1.023329,
  1.006077,
  1.012582,
  1.001055,
  1.044659,
  1.429284,
  0.98956,
  1.018659,
  0.989549,
  0.988524,
  0.992531,
  0.995614,
  0.99135,
  1.06685,
  0.292908,
  0.977607,
  0.999486,
  1.135468,
  1.198855,
  1.049457,
  1.050543,
  1.033532,
  1.037269,
  1.124088,
  1.192507,
  0.282229,
  1.050487,
  1.113387,
  1.059478,
  1.06179,
  1.006476,
  0.984566,
  0.97944,
  1.01734,
  0.930622,
  1.000333,
  1.111628,
  1.13043,
  0.99256,
  0.99831,
  0.874347,
  1.091343,
  1.666301,
  1.002067,
  1.114326,
  1.174434,
  1.189029,
  0.989939,
  1.155408,
  0.870343,
  1.1884,
  0.942885,
  1.185371,
  0.987167,
  1.332058,
  1.036678,
  1.098729,
  1.138671,
  1.330324,
  0.902748,
  1.126657,
  1.034672,
  1.263001,
  0.986644,
  1.095045,
  0.995095,
  1.185775,
  0.264583,
  0.937608,
  1.136219,
  1.056584,
  1.230211,
  0.932637,
  1.321192,
  0.506052,
  0.897345,
  0.462965,
  0.692226,
  0.597759,
  0.907974,
  0.415466,
  0.660434,
  0.388709,
  0.719143,
  0.421846,
  0.762217,
  0.428279,
  0.786373,
  0.220807,
  0.572656,
  0.893921,
  0.434002,
  0.759879,
  0.564787,
  0.717106,
  0.7556,
  0.777083,
  0.081816,
  0.46402,
  0.759295,
  0.507075,
  0.825957,
  0.539189,
  0.698044,
  0.501727,
  0.804977,
  0.081057,
  0.587288,
  0.90466,
  0.908143,
  1.050068,
  1.124775,
  1.07216,
  0.895237,
  1.035005,
  1.667174,
  0.974617,
  0.969994,
  1.000072,
  1.03513,
  0.966792,
  0.985084,
  1.026341,
  1.248879,
  0.875978,
  1.011758,
  1.230962,
  1.293743,
  1.189194,
  0.99016,
  1.019862,
  0.93422,
  0.92122,
  0.87394,
  1.05072,
  1.05596,
  1.160728,
  1.367007,
  0.931182,
  0.334305,
  0.992056,
  1.013704,
  1.118152,
  1.15407,
  0.996006,
  0.943088,
  1.168769,
  1.228988,
  0.989997,
  1.093058,
  0.874018,
  1.030745,
  0.996907,
  1.073897,
  1.185676,
  1.434801,
  0.961034,
  1.142814,
  1.058923,
  1.104425,
  1.136997,
  0.910999,
  0.93399,
  1.01078,
  1.016758,
  0.953024,
  1.097806,
  0.948201,
  1.090984,
  0.913998,
  1.03433,
  0.907007,
  1.094675,
  0.965018,
  1.010002,
  1.044785,
  1.129905,
  0.991976,
  1.058209,
  1.048189,
  0.899026,
  0.949973,
  0.97792,
  1.005989,
  1.070474,
  0.939667,
  0.983764,
  1.077974,
  1.126373,
  1.135745,
  1.064026,
  0.28101,
  1.053857,
  1.021175,
  0.959939,
  1.084706,
  0.978917,
  1.074698,
  1.000671,
  1.028903,
  0.980738,
  1.099883,
  1.667048,
  0.191685,
  0.267678,
  0.218611,
  0.21959,
  0.288617,
  0.296601,
  0.280665,
  0.361658,
  0.233693,
  0.246964,
  0.395973,
  0.42226,
  0.286649,
  0.341642,
  0.228976,
  0.233983,
  0.257959,
  0.271993,
  0.274967,
  0.35,
  0.286631,
  0.357624,
  0.258613,
  0.330606,
  0.260588,
  0.264596,
  0.375577,
  0.376026,
  0.387734,
  0.439026,
  0.325544,
  0.360537,
  0.280526,
  0.372519,
  0.327936,
  0.288498,
  0.319505,
  0.381253,
  0.417487,
  0.292954,
  0.295065,
  0.283444,
  0.345445,
  0.40395,
  0.403964,
  0.381826,
  0.430026,
  0.276792,
  0.374403,
  0.283692,
  0.410235,
  0.330881,
  0.351005,
  0.362344,
  0.379943,
  0.527442,
  0.323022,
  0.655957,
  0.055641,
  0.377742,
  0.588005,
  0.253961,
  0.240642,
  0.295034,
  0.260643,
  0.279678,
  0.287132,
  0.290078,
  0.311388,
  0.329192,
  0.298008,
  0.474275,
  0.33425,
  0.334368,
  0.35828,
  0.456088,
  0.298136,
  0.403094,
  0.435606,
  0.45859,
  0.46233,
  0.46391,
  0.400688,
  0.472243,
  0.276588,
  0.37088,
  0.038868,
  0.395532,
  0.426844,
  0.280541,
  0.29428,
  0.421512,
  0.298026,
  0.382048,
  0.23844,
  0.357946,
  0.383099,
  0.320415,
  0.348814,
  0.328541,
  0.426271,
  0.402523,
  0.374335,
  0.303692,
  0.455498,
  0.237486,
  0.35546,
  0.285762,
  0.323469,
  0.176451,
  0.372125,
  0.041287,
  0.298433,
  0.314444,
  0.256498,
  0.303408,
  1.067772,
  1.075938,
  1.045914,
  1.066772,
  1.120896,
  1.15718,
  1.023843,
  1.072871,
  0.974853,
  1.013515,
  1.011827,
  1.060842,
  1.059817,
  1.062664,
  1.086025,
  1.022762,
  1.399806,
  1.065621,
  1.103788,
  1.019607,
  0.944906,
  1.143054,
  1.146749,
  1.048471,
  1.266727,
  1.038081,
  1.166709,
  1.104309,
  1.168721,
  1.037673,
  1.038517,
  0.966662,
  1.023495,
  0.295686,
  0.363534,
  0.322945,
  0.339371,
  0.39839,
  0.217027,
  0.263669,
  0.276088,
  0.266472,
  0.296487,
  0.35399,
  0.345198,
  0.223649,
  0.307151,
  0.191224,
  0.300114,
  0.332178,
  0.336589,
  0.243563,
  0.393241,
  0.399405,
  0.266839,
  0.279961,
  0.335963,
  0.351468,
  0.410082,
  0.291071,
  0.314017,
  0.038553,
  0.334694,
  0.403046,
  0.229525,
  0.347026,
  0.286938,
  0.293454,
  0.309077,
  0.314491,
  0.355466,
  0.363982,
  0.420454,
  0.438117,
  0.247429,
  0.274945,
  0.343188,
  0.373381,
  1.004232,
  1.026934,
  1.764576,
  1.113915,
  1.1152,
  0.967196,
  1.185316,
  0.983185,
  1.113872,
  1.005728,
  1.006157,
  0.357355,
  0.980848,
  0.991012,
  0.964098,
  1.071822,
  0.95441,
  0.956978,
  1.050781,
  1.142093,
  1.162763,
  1.165075,
  0.952729,
  0.958484,
  0.992644,
  0.997009,
  1.078019,
  1.155706,
  1.120845,
  1.194999,
  0.281878,
  1.12468,
  1.142978,
  1.115654,
  1.121685,
  1.038404,
  1.054566,
  1.111528,
  1.146683,
  0.994524,
  1.049641,
  1.114649,
  1.163506,
  1.153003,
  1.179627,
  0.993887,
  1.000502,
  0.294317,
  1.093588,
  1.138445,
  1.004016,
  1.094887,
  1.100548,
  1.183419,
  1.06953,
  1.102401,
  1.201519,
  1.353377,
  0.998616,
  1.045358,
  1.03534,
  1.237917,
  0.295662,
  0.997322,
  1.094536,
  0.969311,
  1.04444,
  1.061293,
  1.091422,
  0.943015,
  1.120455,
  0.992024,
  0.86153,
  1.013057,
  0.883784,
  0.985167,
  1.012622,
  1.173759,
  0.837705,
  0.987393,
  0.938465,
  0.970979,
  0.279654,
  0.942571,
  1.086234,
  0.952648,
  1.140026,
  1.006521,
  1.100925,
  0.893617,
  1.009282,
  0.989264,
  1.179653,
  0.280907,
  0.863614,
  0.994872,
  0.873464,
  1.083026,
  0.892551,
  0.981854,
  0.85334,
  1.011202,
  1.383542,
  0.89266,
  0.982177,
  0.909189,
  1.001934,
  1.033909,
  0.906026,
  0.880211,
  0.989891,
  0.972863,
  0.989873,
  0.936287,
  1.065862,
  0.959557,
  1.061847,
  1.046166,
  1.049822,
  1.043321,
  1.110027,
  0.911009,
  1.056026,
  0.832372,
  0.993998,
  1.127765,
  0.875972,
  1.043026,
  0.964962,
  1.095028,
  1.022936,
  1.115717,
  1.016919,
  1.155026,
  0.952911,
  0.977678,
  0.957881,
  1.018662,
  0.964099,
  0.987808,
  1.144072,
  1.374029,
  1.163023,
  1.197733,
  1.05824,
  1.090759,
  0.992017,
  1.074741,
  1.038009,
  1.227718,
  1.03498,
  1.090399,
  0.285239,
  1.063966,
  1.14569,
  1.047948,
  1.325673,
  0.95793,
  1.105653,
  0.950912,
  1.011635,
  1.071894,
  1.15965,
  1.153593,
  1.15388,
  0.961866,
  1.383238,
  0.971163,
  1.078556,
  1.014963,
  1.081545,
  0.23855,
  0.820208,
  0.230524,
  0.721955,
  0.207077,
  0.718465,
  0.343555,
  0.80266,
  0.833342,
  0.860896,
  0.343198,
  0.686072,
  0.822453,
  0.800347,
  0.31268,
  0.838209,
  0.560792,
  0.286673,
  0.30215,
  0.863849,
  0.268472,
  0.368503,
  0.822873,
  0.84663,
  0.942672,
  0.387457,
  0.800433,
  0.414958,
  0.879395,
  0.271992,
  0.815277,
  0.320491,
  0.842827,
  0.305938,
  0.720529,
  0.044996,
  0.25794,
  0.82347,
  0.274421,
  0.73558,
  0.389305,
  0.602903,
  0.780079,
  0.81721,
  0.834654,
  0.550403,
  0.870563,
  0.319039,
  0.702323,
  0.412367,
  0.781089,
  0.445359,
  0.710084,
  0.366851,
  0.286333,
  0.863601,
  0.300714,
  0.857208,
  0.051041,
  0.368287,
  0.877676,
  0.843965,
  0.935877,
  0.896163,
  0.917541,
  0.994901,
  1.133884,
  0.900601,
  0.913103,
  1.018495,
  0.251538,
  1.002573,
  1.129203,
  0.993065,
  1.094458,
  0.884055,
  1.057433,
  1.005669,
  1.074422,
  0.837014,
  0.910747,
  0.93178,
  0.959382,
  0.292069,
  0.870976,
  0.885368,
  1.060342,
  1.117965,
  0.974886,
  1.030325,
  0.886922,
  0.893721,
  0.870912,
  0.94529,
  0.252004,
  0.24125,
  0.362181,
  0.303988,
  0.262274,
  0.356668,
  0.438514,
  0.459462,
  0.543683,
  0.254121,
  0.173587,
  0.297953,
  0.352664,
  0.375458,
  0.350177,
  0.170645,
  0.284765,
  0.249653,
  0.403163,
  0.424955,
  0.322899,
  0.247421,
  0.340305,
  0.233747,
  0.296713,
  0.380566,
  0.38072,
  0.437096,
  0.239611,
  0.317595,
  0.464404,
  0.357683,
  0.245718,
  0.307357,
  0.286595,
  0.235239,
  0.376757,
  0.460469,
  0.292907,
  0.335026,
  0.345559,
  0.383311,
  0.043544,
  0.217686,
  0.424026,
  0.254368,
  0.413226,
  0.306999,
  0.216586,
  0.373486,
  0.449279,
  0.266462,
  0.32111,
  0.205444,
  0.272761,
  0.219426,
  0.36149,
  0.039096,
  0.309415,
  0.375205,
  1.236686,
  1.264151,
  1.16115,
  1.192364,
  1.146267,
  1.239124,
  1.045063,
  1.188099,
  1.140088,
  1.151446,
  1.089749,
  1.11007,
  0.352951,
  1.087831,
  1.095154,
  1.249382,
  1.28207,
  1.242388,
  1.270019,
  0.999122,
  1.104988,
  1.087449,
  1.150026,
  0.243955,
  1.198507,
  1.248953,
  1.056394,
  1.109065,
  1.198318,
  1.199302,
  1.000771,
  1.14736,
  1.216471,
  1.309026,
  0.901726,
  0.933739,
  1.048989,
  1.081871,
  0.24038,
  0.969731,
  0.90403,
  0.880516,
  0.901277,
  0.887389,
  0.997821,
  0.834836,
  0.899651,
  0.828626,
  1.01498,
  0.978615,
  1.101079,
  0.927747,
  0.946598,
  0.910607,
  1.006024,
  0.88478,
  0.956163,
  1.011203,
  1.002291,
  1.467598,
  0.843603,
  0.876782,
  1.126107,
  0.904538,
  0.921517,
  0.872644,
  0.911348,
  0.239675,
  0.270804,
  0.5066,
  0.910598,
  0.224346,
  0.258359,
  0.321366,
  0.345351,
  0.292833,
  0.231656,
  0.282662,
  0.248932,
  0.26594,
  0.311039,
  0.353926,
  0.257644,
  0.364024,
  0.278046,
  0.321938,
  0.375904,
  0.408996,
  0.297296,
  0.230026,
  0.419631,
  0.457014,
  0.289997,
  0.321972,
  0.334005,
  0.343964,
  0.397026,
  0.409027,
  0.236055,
  0.236053,
  0.265598,
  0.25012,
  0.250503,
  0.296527,
  0.375417,
  0.400511,
  0.421026,
  0.309577,
  0.38257,
  0.195937,
  0.297944,
  0.051427,
  0.261541,
  0.453534,
  0.267526,
  0.324519,
  0.343503,
  0.345508,
  0.388483,
  0.400153,
  0.280465,
  0.324472,
  0.230163,
  0.340454,
  0.421436,
  0.250073,
  0.436415,
  0.414663,
  0.049982,
  0.817065,
  0.984564,
  0.263175,
  1.001393,
  1.080656,
  0.788618,
  0.891017,
  0.825094,
  0.905508,
  0.897488,
  0.918077,
  0.851553,
  0.952054,
  0.898258,
  1.012446,
  0.934021,
  0.895207,
  0.83122,
  0.943417,
  1.524483,
  0.876993,
  0.983142,
  0.786969,
  0.991382,
  0.783949,
  0.917363,
  0.909939,
  0.970338,
  0.879913,
  0.936326,
  0.928302,
  0.867509,
  0.844242,
  0.916026,
  0.318451,
  0.321686,
  0.431065,
  0.304143,
  0.358005,
  0.384325,
  0.754984,
  0.462994,
  0.306249,
  0.242288,
  0.358669,
  0.389965,
  0.232999,
  0.392992,
  0.480978,
  0.453652,
  0.50265,
  0.330003,
  0.370016,
  0.39364,
  0.308133,
  0.286802,
  0.298446,
  0.298867,
  0.368828,
  0.334068,
  0.50353,
  0.525614,
  0.405889,
  0.323117,
  0.253475,
  0.459075,
  0.378603,
  0.360028,
  0.421949,
  0.45796,
  0.330973,
  0.362302,
  0.370577,
  0.40658,
  0.229857,
  0.43456,
  0.401652,
  0.450663,
  0.319516,
  0.326531,
  0.261505,
  0.311506,
  0.350974,
  0.446521,
  0.314886,
  0.442478,
  0.06669,
  0.333007,
  0.491023,
  0.258433,
  0.383249,
  0.291536,
  0.434416,
  1.002238,
  1.04531,
  0.926839,
  1.153317,
  1.096627,
  1.267523,
  1.026149,
  1.053799,
  1.142555,
  1.162539,
  1.057931,
  1.119569,
  0.99798,
  0.991757,
  1.057612,
  1.059465,
  0.983477,
  1.011421,
  0.294084,
  1.064871,
  1.292004,
  1.007942,
  1.056045,
  1.016461,
  1.070997,
  0.984323,
  1.075913,
  1.018483,
  1.053837,
  0.989857,
  1.018523,
  1.724575,
  0.992357,
  0.994851,
  0.95693,
  0.977569,
  0.85855,
  1.00833,
  0.957755,
  1.026209,
  0.903507,
  1.032881,
  0.913494,
  1.037856,
  0.903476,
  1.043833,
  0.992479,
  1.162826,
  1.09544,
  1.117933,
  0.981471,
  1.201782,
  0.289364,
  0.9684,
  0.969138,
  1.13075,
  1.142389,
  1.179368,
  1.202592,
  0.982643,
  1.138119,
  0.973325,
  1.049407,
  0.26999,
  1.032967,
  1.08315,
  0.868311,
  1.002382,
  0.98067,
  1.206146,
  0.803882,
  1.13509,
  0.765636,
  1.09819,
  0.929951,
  1.102173,
  0.949541,
  1.102039,
  1.110275,
  0.85934,
  1.164906,
  1.27879,
  1.124541,
  1.258801,
  0.90153,
  1.047023,
  0.811935,
  1.169026,
  0.934723,
  1.181982,
  0.893336,
  1.185906,
  0.98511,
  1.140606,
  0.783707,
  1.078927,
  0.30312,
  0.804415,
  1.100411,
  0.904397,
  1.08434,
  1.019928,
  1.17808,
  1.159838,
  1.288045,
  0.283011,
  0.965628,
  1.15806,
  1.254878,
  1.254207,
  1.005776,
  1.249034,
  1.045903,
  1.128016,
  1.050817,
  1.242944,
  1.113806,
  1.198919,
  0.990782,
  1.223908,
  1.415873,
  1.035895,
  1.265882,
  0.985812,
  1.132343,
  1.105494,
  1.079932,
  1.191478,
  1.133756,
  0.996691,
  1.118861,
  1.10568,
  1.285288,
  1.043506,
  1.231008,
  0.715581,
  0.836676,
  0.049886,
  0.478555,
  0.637348,
  0.718062,
  0.635225,
  0.899783,
  0.394989,
  0.247949,
  0.80255,
  0.77404,
  0.285939,
  0.239623,
  0.66169,
  0.320663,
  0.707509,
  0.267518,
  0.699583,
  0.301872,
  0.218496,
  0.334384,
  0.92585,
  0.273501,
  0.309486,
  0.788106,
  0.818778,
  0.693729,
  0.289018,
  0.239704,
  0.272486,
  0.790551,
  0.466919,
  0.525684,
  0.252499,
  0.281383,
  0.763716,
  0.275604,
  0.713551,
  0.584506,
  0.799526,
  0.314945,
  0.694008,
  0.822312,
  0.76399,
  0.277985,
  1.874439,
  0.918074,
  0.866883,
  0.36687,
  0.892529,
  0.237005,
  0.237985,
  0.740867,
  0.804014,
  0.130171,
  0.391773,
  0.682475,
  0.833488,
  0.256437,
  0.689801,
  0.262003,
  0.329591,
  0.598657,
  0.761802,
  0.249534,
  0.80204,
  0.393426,
  0.789478,
  0.332866,
  0.52985,
  0.572916,
  0.279642,
  0.284023,
  0.681075,
  0.635407,
  0.265901,
  0.551188,
  0.748263,
  0.688256,
  0.41691,
  0.567251,
  0.805464,
  0.275365,
  0.702253,
  0.371354,
  0.478336,
  0.802967,
  0.335318,
  0.810782,
  0.771834,
  0.972864,
  0.903593,
  1.051479,
  0.785965,
  0.993824,
  0.904531,
  0.984138,
  0.695731,
  1.089294,
  0.824502,
  0.912958,
  0.845475,
  0.956943,
  0.793377,
  0.900226,
  0.264581,
  0.788259,
  0.954731,
  0.920431,
  1.0667,
  0.755284,
  0.979686,
  0.772176,
  0.921868,
  0.744882,
  1.162294,
  1.088354,
  1.040813,
  0.995435,
  1.037889,
  1.293297,
  0.774345,
  0.946071,
  1.233163,
  1.26007,
  0.913278,
  0.917136,
  0.873116,
  0.95126,
  0.990106,
  0.990911,
  0.894088,
  0.965216,
  0.884063,
  1.004405,
  0.878045,
  0.941188,
  0.95503,
  1.022172,
  1.024955,
  1.120051,
  0.271904,
  1.135226,
  1.26093,
  0.979504,
  1.018685,
  0.885305,
  1.219093,
  0.94594,
  0.966084,
  1.022021,
  1.162039,
  0.923904,
  1.079046,
  0.889224,
  1.137989,
  0.220688,
  0.220717,
  0.264922,
  0.292485,
  0.355,
  0.385007,
  0.243668,
  0.317661,
  0.388981,
  0.457796,
  0.22508,
  0.313642,
  0.039267,
  0.307625,
  0.453669,
  0.39411,
  0.408026,
  0.309591,
  0.461677,
  0.236573,
  0.272639,
  0.376896,
  0.348026,
  0.279537,
  0.343544,
  0.234279,
  0.304026,
  0.269501,
  0.308508,
  0.054017,
  0.414984,
  0.380136,
  0.255244,
  0.318567,
  0.235837,
  0.291824,
  0.296436,
  0.352583,
  0.267945,
  0.334938,
  0.970026,
  1.133834,
  0.973353,
  1.140091,
  0.982262,
  1.144495,
  1.005237,
  1.243594,
  1.064223,
  1.080986,
  1.154015,
  1.294205,
  1.11558,
  1.27919,
  0.972165,
  1.103115,
  1.085147,
  1.221972,
  1.106954,
  1.131129,
  1.481975,
  0.970111,
  1.111839,
  1.0651,
  1.146911,
  1.128075,
  1.224027,
  1.072924,
  1.001026,
  1.113014,
  1.277046,
  1.022028,
  1.056158,
  1.134931,
  1.20371,
  1.043907,
  1.127203,
  1.061888,
  1.123588,
  1.081878,
  1.14705,
  0.283501,
  1.081632,
  1.099249,
  1.091835,
  1.096799,
  1.024824,
  1.136996,
  1.053799,
  1.126985,
  1.046788,
  1.12696,
  1.178949,
  1.224761,
  0.988055,
  1.188864,
  1.140727,
  1.242043,
  1.174611,
  1.120026,
  1.167702,
  1.191305,
  0.305186,
  1.016673,
  1.14399,
  1.170655,
  1.265841,
  1.24928,
  1.254509,
  1.128348,
  1.137511,
  0.333002,
  1.170442,
  1.290296,
  1.152142,
  1.34525,
  1.114919,
  1.136071,
  1.110249,
  1.141514,
  1.235224,
  1.243673,
  1.190206,
  1.14112,
  1.141195,
  1.237407,
  1.18717,
  1.269575,
  1.159491,
  1.214159,
  1.154141,
  1.147183,
  1.244292,
  1.297095,
  1.120816,
  1.118026,
  1.365888,
  1.079087,
  1.154077,
  1.120069,
  1.264791,
  0.417672,
  0.442981,
  0.192549,
  0.289497,
  0.288794,
  0.344802,
  0.347521,
  0.452816,
  0.284566,
  0.283317,
  0.490285,
  0.329681,
  0.339662,
  0.224978,
  0.258075,
  0.324271,
  0.302604,
  0.208649,
  0.265039,
  0.301575,
  0.422721,
  0.435117,
  0.450015,
  0.247847,
  0.456009,
  0.317924,
  0.326632,
  0.322773,
  0.335972,
  0.376749,
  0.388739,
  0.451437,
  0.396658,
  0.054861,
  0.300591,
  0.344653,
  0.365281,
  0.383899,
  0.379595,
  0.38189,
  0.277587,
  0.332301,
  0.436855,
  0.376026,
  0.199291,
  0.269792,
  0.366516,
  0.405895,
  0.412505,
  0.427048,
  0.056071,
  0.288483,
  0.302221,
  0.263772,
  0.308026,
  0.262447,
  0.295754,
  0.200988,
  0.260436,
  0.373835,
  0.388967,
  0.244681,
  0.27169,
  0.250003,
  0.336003,
  0.356979,
  0.411056,
  0.280663,
  0.423026,
  0.314136,
  0.404999,
  0.429071,
  0.483026,
  0.367105,
  0.487882,
  0.324946,
  0.346945,
  0.293026,
  0.384166,
  0.242634,
  0.341635,
  0.21891,
  0.405377,
  0.386624,
  0.462609,
  0.295732,
  0.309839,
  0.079745,
  0.30758,
  0.320581,
  0.443562,
  0.439758,
  0.292543,
  0.403544,
  0.41452,
  0.483534,
  0.40592,
  0.458226,
  0.382594,
  0.422026,
  0.319598,
  0.431472,
  0.038805,
  0.397455,
  0.35605,
  0.257544,
  0.461444,
  0.283198,
  0.421426,
  0.916685,
  1.118107,
  0.915876,
  1.153008,
  0.889644,
  1.237128,
  1.027626,
  1.256055,
  0.977612,
  1.172033,
  0.911411,
  1.106016,
  0.936956,
  1.249458,
  0.923554,
  1.15799,
  0.246271,
  0.878787,
  1.110969,
  1.179954,
  1.338086,
  1.002541,
  1.255928,
  0.894313,
  1.105186,
  0.985637,
  1.266895,
  0.995924,
  1.260875,
  0.873132,
  1.121525,
  0.954405,
  1.112842,
  1.42537,
  0.792043,
  1.018094,
  1.083898,
  1.177153,
  0.900141,
  1.064106,
  1.108121,
  1.127816,
  1.130569,
  1.155763,
  0.998463,
  1.10406,
  1.350351,
  1.071045,
  1.103119,
  0.974658,
  1.028056,
  0.955937,
  1.055005,
  0.936244,
  1.096099,
  0.960574,
  1.032152,
  1.031999,
  1.126662,
  0.937528,
  0.974015,
  1.137634,
  1.032624,
  1.367357,
  1.033673,
  1.046612,
  0.910094,
  1.036539,
  0.218177,
  0.357179,
  0.290008,
  0.281008,
  0.254484,
  0.428822,
  0.480122,
  1.061215,
  0.475833,
  0.313017,
  0.417926,
  0.212844,
  0.354922,
  0.272659,
  0.283571,
  0.337556,
  0.410641,
  0.350784,
  0.355614,
  0.173828,
  0.184808,
  0.208785,
  0.297193,
  0.314897,
  0.230244,
  0.227816,
  0.27226,
  0.284945,
  0.385031,
  0.274857,
  0.287866,
  0.374796,
  0.380772,
  0.399778,
  0.441886,
  0.235084,
  0.243831,
  0.34576,
  0.218738,
  0.246823,
  0.324798,
  0.289097,
  0.454709,
  0.356916,
  0.039603,
  0.333956,
  0.347567,
  0.289095,
  0.318666,
  0.323759,
  0.367726,
  0.286705,
  0.350634,
  0.287616,
  0.335687,
  0.246576,
  0.294557,
  0.039951,
  0.932896,
  0.947148,
  1.018909,
  1.06535,
  1.062921,
  1.066749,
  1.064375,
  1.17432,
  0.97686,
  0.990177,
  1.014902,
  1.038081,
  1.122817,
  1.168008,
  0.973914,
  1.048803,
  0.281424,
  1.08403,
  1.099918,
  1.087932,
  1.116903,
  1.011701,
  1.014742,
  0.915911,
  1.105724,
  1.005205,
  1.016706,
  1.046104,
  1.079698,
  0.96267,
  1.006927,
  0.938749,
  0.976864,
  0.265673,
  0.404476,
  0.333194,
  0.321375,
  0.246643,
  0.246824,
  0.274852,
  0.667107,
  0.272554,
  0.231661,
  0.250741,
  0.294964,
  0.517805,
  0.396838,
  0.255645,
  0.374438,
  0.235923,
  0.244909,
  0.318685,
  0.3487,
  0.398776,
  0.730892,
  0.32015,
  0.385424,
  0.46762,
  0.293787,
  0.490993,
  0.329277,
  0.417078,
  0.435124,
  0.435153,
  0.402094,
  0.398029,
  0.284058,
  0.361521,
  0.394596,
  0.418389,
  0.266912,
  0.309808,
  0.249595,
  0.386062,
  0.186186,
  0.245214,
  0.31897,
  0.34601,
  0.293553,
  0.348231,
  0.275301,
  0.283629,
  0.292736,
  0.298942,
  0.234168,
  0.334875,
  0.330362,
  0.336555,
  0.060856,
  0.28272,
  0.339536,
  0.287651,
  0.336526,
  0.357979,
  0.233501,
  0.343157,
  0.270483,
  0.39129,
  0.222497,
  0.371265,
  0.261899,
  0.377246,
  0.258047,
  0.326375,
  0.385411,
  0.911561,
  0.972263,
  0.940992,
  0.94952,
  0.844236,
  0.922736,
  0.93809,
  0.954732,
  0.877705,
  0.881079,
  0.963514,
  0.984626,
  0.907662,
  0.949038,
  0.855068,
  0.980067,
  0.980626,
  0.995002,
  0.877934,
  1.004641,
  0.255192,
  0.966966,
  1.067713,
  0.949928,
  0.993948,
  0.926723,
  0.976551,
  0.867523,
  1.007536,
  0.956524,
  0.968886,
  1.451301,
  0.941893,
  1.011496,
  0.255282,
  0.517855,
  0.444794,
  0.257115,
  0.249138,
  0.441367,
  0.538716,
  0.74299,
  0.368247,
  0.348973,
  0.637217,
  0.196168,
  0.338589,
  0.383897,
  0.421202,
  0.446019,
  0.339856,
  0.335225,
  0.378036,
  0.271988,
  0.273648,
  0.358241,
  0.43951,
  0.266059,
  0.334412,
  0.277307,
  0.363588,
  0.439581,
  0.472705,
  0.420466,
  0.443649,
  0.470182,
  0.488495,
  0.346969,
  0.339556,
  0.260816,
  0.330343,
  0.25559,
  0.354851,
  0.053085,
  0.358983,
  0.365887,
  0.382298,
  0.500706,
  0.4737,
  0.426007,
  0.323356,
  0.455236,
  0.323426,
  0.380815,
  0.060044,
  0.324524,
  0.393351,
  0.379601,
  0.478772,
  0.328267,
  0.445761,
  0.252315,
  0.512742,
  0.288773,
  0.503892,
  0.053081,
  0.205687,
  0.311339,
  0.409658,
  0.411326,
  0.068656,
  0.336678,
  0.415302,
  0.309631,
  0.343284,
  0.380613,
  0.470058,
  0.448256,
  0.47152,
  0.248577,
  0.320231,
  0.306505,
  0.448552,
  0.210534,
  0.323201,
  0.403515,
  0.470762,
  0.296166,
  0.3785,
  0.333208,
  0.343512,
  0.383919,
  0.268016,
  0.309682,
  0.247395,
  0.250994,
  0.267086,
  0.299433,
  0.346497,
  0.356937,
  0.275676,
  0.749249,
  0.183769,
  0.711649,
  0.310899,
  0.67752,
  0.181896,
  0.749939,
  0.320436,
  0.166948,
  0.74957,
  0.124116,
  0.20582,
  0.720261,
  0.42954,
  0.295783,
  0.332764,
  0.267796,
  0.675127,
  0.355731,
  0.35071,
  0.537042,
  0.569699,
  0.662128,
  0.210674,
  0.758511,
  0.162937,
  0.720868,
  0.124161,
  0.474681,
  0.603767,
  0.242032,
  0.237495,
  0.262992,
  0.332345,
  0.472464,
  0.47393,
  0.685226,
  0.039037,
  0.216661,
  0.749189,
  0.344511,
  0.369525,
  0.520682,
  0.555373,
  0.549285,
  0.261642,
  0.562732,
  0.226707,
  0.272984,
  0.442344,
  0.501636,
  0.545082,
  0.582961,
  0.378547,
  0.194141,
  0.468843,
  0.216009,
  0.329,
  0.392544,
  0.394975,
  0.449781,
  0.588989,
  0.263593,
  0.283609,
  0.459861,
  0.513725,
  0.371738,
  0.384281,
  0.584243,
  0.604911,
  0.251598,
  0.475427,
  0.360024,
  0.523283,
  0.258856,
  0.266094,
  0.373313,
  0.388717,
  0.504014,
  0.466732,
  0.207004,
  0.209573,
  0.422328,
  0.467808,
  0.555525,
  0.290555,
  0.418606,
  0.363537,
  0.524636,
  0.266517,
  0.46403,
  0.4725,
  0.592621,
  0.267774,
  0.480618,
  0.311469,
  0.438862,
  0.310843,
  0.516261,
  0.203436,
  0.455207,
  0.04089,
  0.300415,
  0.457701,
  0.259675,
  0.32848,
  0.199256,
  0.279668,
  0.279697,
  0.241394,
  0.261642,
  0.235626,
  0.265536,
  0.232616,
  0.256017,
  0.242598,
  0.341644,
  0.21357,
  0.256577,
  0.263799,
  0.270552,
  0.038717,
  0.181541,
  0.353534,
  0.228323,
  0.289026,
  0.229643,
  0.367112,
  0.28448,
  0.220026,
  0.317469,
  0.322462,
  0.044003,
  0.366451,
  0.377472,
  0.322437,
  0.337551,
  0.257418,
  0.320411,
  0.969926,
  1.107338,
  0.343973,
  1.104918,
  1.262371,
  1.004964,
  1.175302,
  1.20488,
  1.267409,
  1.023862,
  1.127063,
  1.244832,
  1.26462,
  1.408996,
  1.116825,
  1.213222,
  1.019801,
  1.12221,
  0.99579,
  1.135185,
  1.085979,
  1.248184,
  0.964994,
  1.138161,
  0.977732,
  1.237654,
  1.008711,
  1.23212,
  1.405398,
  1.091702,
  1.131097,
  1.209078,
  1.218683,
  1.10335,
  1.274315,
  0.993896,
  1.155636,
  0.964778,
  1.459322,
  0.222691,
  1.120326,
  1.004006,
  1.009564,
  1.11131,
  0.929809,
  1.174384,
  1.041979,
  1.293435,
  0.995245,
  1.214263,
  0.365,
  1.103314,
  1.134236,
  0.987466,
  1.117384,
  1.021362,
  1.407159,
  0.22269,
  0.978157,
  1.112163,
  1.105585,
  1.251851,
  0.891516,
  1.274763,
  1.072383,
  1.165102,
  1.140644,
  1.251084,
  1.27782,
  1.147306,
  0.784305,
  0.970568,
  0.815395,
  0.897796,
  0.965799,
  1.048588,
  0.770958,
  0.90424,
  0.833507,
  0.912745,
  1.014972,
  1.042126,
  0.90726,
  0.926699,
  1.372667,
  0.952698,
  0.981926,
  0.785913,
  0.943401,
  0.827532,
  1.136855,
  0.72849,
  0.952632,
  0.721514,
  0.843477,
  0.961406,
  0.965828,
  0.791261,
  0.934581,
  0.8674,
  0.900563,
  0.247516,
  0.841023,
  0.939576
]