[
  0.210023,
  0.274629,
  0.513975,
  0.367945,
  0.44798,
  0.215,
  0.25861,
  0.402979,
  0.481694,
  0.422996,
  0.35754,
  0.369275,
  0.30598,
  0.287977,
  0.41798,
  0.464105,
  0.17398,
  0.242159,
  0.446805,
  0.28998,
  0.254599,
  0.296835,
  0.318626,
  0.526301,
  0.373677,
  0.372852,
  0.143707,
  0.445862,
  0.22798,
  0.441254,
  0.33098,
  0.16898,
  0.411641,
  0.151797,
  0.162754,
  0.435359,
  0.193394,
  0.360331,
  0.183012,
  0.18426,
  0.33098,
  0.258844,
  0.28298,
  0.154016,
  0.305969,
  0.34498,
  0.194809,
  0.400415,
  0.65246,
  0.443449,
  0.553617,
  0.397249,
  0.510333,
  0.448738,
  0.379739,
  0.392365,
  0.511379,
  0.478322,
  0.651734,
  0.655989,
  0.541903,
  0.50745,
  0.632567,
  0.61552,
  0.427394,
  0.230849,
  0.163046,
  0.20598,
  0.412617,
  0.334978,
  0.301594,
  0.17098,
  0.195238,
  0.371311,
  0.40798,
  0.344961,
  0.340369,
  0.230402,
  0.187419,
  0.145189,
  0.290492,
  0.502996,
  0.182482,
  0.29398,
  0.333527,
  0.22498,
  0.34898,
  0.319149,
  0.17898,
  0.379951,
  0.319427,
  0.145887,
  0.43098,
  0.202071,
  0.20598,
  0.215002,
  0.210098,
  0.230077,
  0.401668,
  0.17998,
  0.16198,
  0.12455,
  0.25898,
  0.161979,
  0.15398,
  0.197722,
  0.35998,
  0.33198,
  0.39398,
  0.326981,
  0.36598,
  0.40298,
  0.463963,
  0.46598,
  0.407955,
  0.386506,
  0.432979,
  0.529953,
  0.476446,
  0.677343,
  0.690063,
  0.408497,
  0.496006,
  0.639689,
  0.71198,
  0.445562,
  0.636789,
  0.618274,
  0.58673,
  0.539231,
  0.47498,
  0.56698,
  0.44698,
  0.401979,
  0.31798,
  0.389727,
  0.73998,
  0.47598,
  0.612705,
  0.40298,
  0.52698,
  0.374617,
  0.37498,
  0.49798,
  0.305997,
  0.193116,
  0.296054,
  0.187736,
  0.240593,
  0.43698,
  0.40998,
  0.198695,
  0.271729,
  0.372374,
  0.449742,
  0.437666,
  0.47198,
  0.23098,
  0.162113,
  0.161025,
  0.465107,
  0.482405,
  0.69198,
  0.438865,
  0.534321,
  0.645727,
  0.421428,
  0.695061,
  0.542981,
  0.559981,
  0.680126,
  0.434643,
  0.566979,
  0.38198,
  0.633611,
  0.676799,
  0.49898,
  0.235904,
  0.55898,
  0.449951,
  0.459051,
  0.24698,
  0.293853,
  0.190962,
  0.484742,
  0.347981,
  0.304676,
  0.383017,
  0.28998,
  0.49795,
  0.24898,
  0.64098,
  0.525059,
  0.256975,
  0.198644,
  0.193202,
  0.338004,
  0.339342,
  0.224982,
  0.297511,
  0.268953,
  0.612002,
  0.322717,
  0.402797,
  0.213242,
  0.29898,
  0.51947,
  0.409096,
  0.37151,
  0.35498,
  0.595016,
  0.422903,
  0.36298,
  0.390956,
  0.519928,
  0.399869,
  0.55869,
  0.53298,
  0.450347,
  0.37198,
  0.424782,
  0.445404,
  0.46498,
  0.46598,
  0.154918,
  0.376885,
  0.25189,
  0.353707,
  0.26498,
  0.442247,
  0.28198,
  0.445715,
  0.56198,
  0.372238,
  0.25898,
  0.22998,
  0.147815,
  0.29998,
  0.171189,
  0.209664,
  0.16798,
  0.429813,
  0.200985,
  0.325807,
  0.484766,
  0.31898,
  0.23016,
  0.275459,
  0.303561,
  0.27698,
  0.327391,
  0.392083,
  0.33998,
  0.46898,
  0.393499,
  0.327976,
  0.380928,
  0.638598,
  0.604973,
  0.607113,
  0.531596,
  0.72298,
  0.488929,
  0.68498,
  0.498139,
  0.624986,
  0.370504,
  0.616493,
  0.71898,
  0.540975,
  0.50798,
  0.729016,
  0.413112,
  0.236593,
  0.18098,
  0.15998,
  0.69698,
  0.353111,
  0.45798,
  0.247,
  0.348871,
  0.472065,
  0.473979,
  0.452879,
  0.274284,
  0.27698,
  0.23498,
  0.165696,
  0.39198,
  0.179733,
  0.159863,
  0.241964,
  0.38898,
  0.174796,
  0.419978,
  0.296981,
  0.408965,
  0.236054,
  0.402383,
  0.174881,
  0.460577,
  0.163834,
  0.24598,
  0.614324,
  0.447289,
  0.713225,
  0.428787,
  0.606292,
  0.416844,
  0.461765,
  0.751984,
  0.53298,
  0.635095,
  0.52198,
  0.49898,
  0.454989,
  0.496976,
  0.62098,
  11.058984,
  0.364978,
  0.385089,
  0.356981,
  0.423978,
  0.393018,
  0.468845,
  0.58898,
  0.421474,
  0.7,
  0.475545,
  0.49498,
  0.53398,
  0.4379,
  0.74098,
  0.71098,
  0.61098,
  0.347471,
  0.206179,
  0.428982,
  0.492975,
  0.132235,
  0.36998,
  0.27498,
  0.35498,
  0.21598,
  0.31798,
  0.24298,
  0.32898,
  0.223532,
  0.38598,
  0.330163,
  0.349911,
  0.50298,
  0.582658,
  0.56198,
  0.622071,
  0.570465,
  0.52904,
  0.76498,
  0.407011,
  0.624928,
  0.55598,
  0.75998,
  0.46498,
  0.710719,
  0.584981,
  0.64702,
  0.59498,
  0.130083,
  0.181978,
  0.22498,
  0.26098,
  0.448669,
  0.343956,
  0.25156,
  0.253977,
  0.175862,
  0.43498,
  0.203868,
  0.17598,
  0.157521,
  0.110869,
  0.24598,
  0.399102,
  0.482549,
  0.583887,
  0.484619,
  0.40805,
  0.447025,
  0.276929,
  0.642976,
  0.630529,
  0.695938,
  0.3448,
  0.39998,
  0.567698,
  0.717665,
  0.578914,
  0.566413,
  0.377535,
  0.318857,
  0.163963,
  0.259968,
  0.275869,
  0.456723,
  0.192971,
  0.17198,
  0.447484,
  0.192976,
  0.19798,
  0.26287,
  0.211678,
  0.303745,
  0.28987,
  0.288997,
  0.357685,
  0.512978,
  0.392784,
  0.41898,
  0.552979,
  0.40217,
  0.404639,
  0.51598,
  0.401663,
  0.577049,
  0.650979,
  0.474119,
  0.52598,
  0.590979,
  0.79998,
  0.498545,
  0.383038,
  0.23204,
  0.247978,
  0.21498,
  0.328442,
  0.29598,
  0.496958,
  0.443452,
  0.258976,
  0.287954,
  0.186712,
  0.200199,
  0.551941,
  0.233785,
  0.212384,
  0.243938,
  0.151025,
  0.632282,
  0.411746,
  0.385778,
  0.467697,
  0.560185,
  0.573558,
  0.434746,
  0.393566,
  0.557228,
  0.417215,
  0.501019,
  0.752095,
  0.615974,
  0.687715,
  0.506945,
  0.618614,
  0.14219,
  0.14798,
  0.185243,
  0.30398,
  0.36298,
  0.23698,
  0.33932,
  0.247975,
  0.393981,
  0.44698,
  0.358742,
  0.41798,
  0.28598,
  0.268979,
  0.15998,
  0.46654,
  0.16798,
  0.24298,
  0.251973,
  0.35498,
  0.18975,
  0.227035,
  0.20098,
  0.201991,
  0.22098,
  0.182568,
  0.31798,
  0.29898,
  0.45998,
  0.132474,
  0.18598,
  0.34698,
  0.678701,
  0.455062,
  0.698872,
  0.534273,
  0.836979,
  0.574974,
  0.635896,
  0.401301,
  0.720381,
  0.538123,
  0.42409,
  0.431968,
  0.533859,
  0.506561,
  0.586389,
  0.494945,
  0.456857,
  0.5136,
  0.614434,
  0.473983,
  0.517303,
  0.481181,
  0.649492,
  0.447506,
  0.69398,
  0.724372,
  0.606499,
  0.457844,
  0.498861,
  0.478156,
  0.781285,
  0.704808,
  0.497949,
  0.391801,
  0.442785,
  0.492167,
  0.68098,
  0.474722,
  0.62998,
  0.361373,
  0.479322,
  0.357621,
  0.612924,
  0.612107,
  0.596959,
  0.585961,
  0.433303,
  0.613114,
  0.293935,
  0.400678,
  0.229204,
  0.189582,
  0.21898,
  0.228733,
  0.208966,
  0.38998,
  0.369341,
  0.34998,
  0.41194,
  0.417109,
  0.26298,
  0.248019,
  0.19398,
  0.41798,
  0.553979,
  0.425807,
  0.65998,
  0.42662,
  0.449975,
  0.392351,
  0.71198,
  0.67711,
  0.558978,
  0.451979,
  0.465291,
  0.70996,
  0.507849,
  0.74298,
  0.663362,
  0.357617,
  0.275126,
  0.22998,
  0.241957,
  0.265838,
  0.312437,
  0.168057,
  0.53098,
  0.376637,
  0.305838,
  0.240001,
  0.393557,
  0.412393,
  0.211106,
  0.29898,
  0.213839,
  0.272899,
  0.148106,
  0.406981,
  0.364009,
  0.189807,
  0.48767,
  0.23798,
  0.38698,
  0.312238,
  0.189322,
  0.46598,
  0.159957,
  0.144096,
  0.204345,
  0.362535,
  0.491336,
  0.42898,
  0.372438,
  0.382817,
  0.389295,
  0.70485,
  0.435989,
  0.520203,
  0.723816,
  0.464983,
  0.422845,
  0.384479,
  0.61698,
  0.490408,
  0.37698,
  0.435855,
  0.503075,
  0.35698,
  0.20236,
  0.193808,
  0.435813,
  0.198532,
  0.427403,
  0.225282,
  0.225951,
  0.164204,
  0.380141,
  0.437674,
  0.168361,
  0.39159,
  0.178814,
  0.424968,
  0.373158,
  0.453454,
  0.675979,
  0.651978,
  0.570982,
  0.428981,
  0.499619,
  0.581877,
  0.532979,
  0.437868,
  0.43993,
  0.603622,
  0.454362,
  0.465981,
  0.622935,
  0.365978,
  0.562971,
  0.833629,
  0.224149,
  0.448136,
  0.22598,
  0.362025,
  0.421073,
  0.22998,
  0.401077,
  0.212844,
  0.21098,
  0.175597,
  0.30298,
  0.383985,
  0.245738,
  0.298031,
  0.31598,
  0.16798,
  0.407738,
  0.393405,
  0.45098,
  0.445531,
  0.530237,
  0.492981,
  0.395979,
  0.552618,
  0.560661,
  0.46298,
  0.69698,
  0.57198,
  0.39898,
  0.444192,
  0.662454,
  0.42698,
  0.500718,
  0.180795,
  0.413912,
  0.247979,
  0.184979,
  0.435981,
  0.396979,
  0.259084,
  0.299661,
  0.24542,
  0.439033,
  0.198424,
  0.309838,
  13.30098,
  0.425956,
  0.403084,
  0.482981,
  0.470979,
  0.492981,
  0.556982,
  0.528999,
  0.451981,
  0.72398,
  0.67898,
  0.52298,
  0.39998,
  0.53698,
  0.654687,
  0.791696,
  0.688235,
  0.67898,
  0.44831,
  0.182982,
  0.194121,
  0.52998,
  0.15898,
  0.278261,
  0.185979,
  0.197564,
  0.275979,
  0.241563,
  0.25498,
  0.33498,
  0.422908,
  0.31598,
  0.353981,
  14.59285,
  0.354548,
  0.353906,
  0.325813,
  0.123944,
  0.20598,
  0.215998,
  0.205305,
  0.450344,
  0.148207,
  0.47198,
  0.22798,
  0.301471,
  0.162854,
  0.20098,
  0.141969,
  0.384628,
  0.359705,
  0.401094,
  0.608979,
  0.449641,
  0.40998,
  0.510228,
  0.43098,
  0.45498,
  0.55798,
  0.44098,
  0.66498,
  0.40698,
  0.428409,
  0.551649,
  0.58198,
  0.665931,
  0.64298,
  0.156875,
  0.206024,
  0.441897,
  0.183036,
  0.48598,
  0.203539,
  0.25898,
  0.15898,
  0.219979,
  0.44798,
  0.282994,
  0.43798,
  0.263844,
  0.220915,
  0.22498,
  0.435837,
  0.61998,
  0.624978,
  0.400968,
  0.466927,
  0.586841,
  0.69898,
  0.492943,
  0.70297,
  0.61998,
  0.659981,
  0.53598,
  0.485478,
  0.68798,
  0.64398,
  6.182358,
  0.428018,
  0.35697,
  0.430563,
  0.221968,
  0.151091,
  0.445457,
  0.206402,
  0.18598,
  0.425776,
  0.353687,
  0.407204,
  0.293637,
  0.221519,
  0.16358,
  0.21998,
  0.22098,
  0.263564,
  0.430753,
  0.402981,
  0.705279,
  0.561962,
  0.502863,
  0.63187,
  0.76607,
  0.631601,
  0.631543,
  0.56898,
  0.655092,
  0.45698,
  0.411866,
  0.457072,
  0.55098,
  0.539438,
  0.735321,
  0.586258,
  0.642958,
  0.444526,
  0.385117,
  0.418454,
  0.679303,
  0.60998,
  0.65398,
  0.61381,
  0.632312,
  0.404848,
  0.558519,
  0.525075,
  0.592555,
  0.502123,
  0.514229,
  0.490981,
  0.409595,
  0.484861,
  0.458323,
  0.587143,
  0.62547,
  0.53564,
  0.508909,
  0.593862,
  0.48698,
  0.386559,
  0.54598,
  0.39898,
  0.46027,
  0.479512,
  0.544931,
  0.383243,
  0.328127,
  0.276607,
  0.520266,
  0.288154,
  0.400477,
  0.21998,
  0.373983,
  0.303069,
  0.217327,
  0.238311,
  0.254726,
  0.473935,
  0.320839,
  0.56298,
  0.466291,
  0.448707,
  0.359977,
  0.41098,
  0.448901,
  0.71898,
  0.64969,
  0.37598,
  0.49998,
  0.41398,
  0.53798,
  0.87898,
  0.46498,
  0.48098,
  0.80198,
  0.41098,
  0.302435,
  0.34498,
  0.12698,
  0.199094,
  0.37598,
  0.222775,
  0.203981,
  0.14595,
  0.23698,
  0.28598,
  0.51198,
  0.288386,
  0.29498,
  0.354455,
  0.22798,
  0.334738,
  0.57298,
  0.365406,
  0.418169,
  0.16398,
  0.210528,
  0.15098,
  0.32798,
  0.246832,
  0.186672,
  0.47598,
  0.399311,
  0.262057,
  0.28298,
  0.475704,
  0.42198,
  0.21298,
  0.42998,
  0.44098,
  0.42798,
  0.73698,
  0.507549,
  0.456367,
  0.45798,
  0.461632,
  0.50098,
  0.69098,
  0.40098,
  0.648165,
  0.482357,
  0.58198,
  0.61198,
  0.38998,
  0.284622,
  0.230981,
  0.180323,
  0.252222,
  0.208542,
  0.252641,
  0.38807,
  0.479656,
  0.28398,
  0.29398,
  0.119166,
  0.564094,
  0.369981,
  0.16698,
  0.386478,
  0.29398,
  0.74768,
  0.46398,
  0.452981,
  0.710156,
  0.565034,
  0.499716,
  0.49198,
  0.58626,
  0.56898,
  0.456999,
  0.63098,
  0.573171,
  0.67798,
  0.52598,
  0.452543,
  0.698182,
  0.532978,
  0.609935,
  0.43998,
  0.453979,
  0.41498,
  0.445763,
  0.59498,
  0.651747,
  0.434058,
  0.70198,
  0.46198,
  0.66898,
  0.443923,
  0.442999,
  0.460761,
  0.349911,
  0.551073,
  0.71998,
  0.682711,
  0.561198,
  0.584409,
  0.428008,
  0.533212,
  0.64498,
  0.419948,
  0.430524,
  0.606982,
  0.625664,
  0.560053,
  0.599079,
  0.492361,
  0.42995,
  0.68798,
  0.405021,
  0.43098,
  0.60498,
  0.48198,
  0.38298,
  0.654844,
  0.66898,
  0.523701,
  0.421432,
  0.531033,
  0.409015,
  0.48498,
  0.52298,
  0.532817,
  0.488053,
  0.494268,
  0.412037,
  0.574981,
  0.53598,
  0.847113,
  0.654981,
  0.454105,
  0.49298,
  0.53598,
  0.672979,
  0.506203,
  0.409497,
  0.757158,
  0.555979,
  0.504806,
  0.161904,
  0.32698,
  0.257264,
  0.484502,
  0.368458,
  0.409727,
  0.371417,
  0.37573,
  0.21898,
  0.232847,
  0.18855,
  0.341828,
  0.181454,
  0.373312,
  0.224775,
  0.367956,
  0.419184,
  0.402865,
  0.612433,
  0.682981,
  0.439097,
  0.406401,
  0.47098,
  0.53698,
  0.54898,
  0.444508,
  0.665182,
  0.403976,
  0.518299,
  0.678871,
  0.596995,
  0.654213,
  0.181579,
  0.213982,
  0.27269,
  0.444501,
  0.43698,
  0.407371,
  0.13998,
  0.25898,
  0.342098,
  0.158024,
  0.14998,
  0.203935,
  0.34798,
  0.20598,
  0.193239,
  0.55198,
  0.454353,
  0.561983,
  0.716224,
  0.415931,
  0.480858,
  0.54998,
  0.443977,
  0.54998,
  0.673981,
  0.489999,
  0.742962,
  0.679229,
  0.460822,
  0.53198,
  0.457082,
  0.67393,
  0.602981,
  0.465981,
  0.402373,
  0.415979,
  0.390509,
  0.569564,
  0.426074,
  0.460989,
  0.68872,
  0.796189,
  0.51798,
  0.492206,
  0.420258,
  0.440638,
  0.49553,
  0.562935,
  0.432978,
  0.333032,
  0.345846,
  0.19098,
  0.193985,
  0.40698,
  0.51198,
  0.14298,
  0.19198,
  0.23898,
  0.23598,
  0.408986,
  0.35398,
  3.58498,
  0.246893,
  0.28198,
  0.385376,
  0.556977,
  0.34698,
  0.46798,
  0.441051,
  0.395918,
  0.56598,
  0.6076,
  0.59898,
  0.545003,
  0.377552,
  0.33598,
  0.381871,
  0.54698,
  5.27298,
  0.40998,
  0.21765,
  0.27698,
  0.33398,
  0.28398,
  0.211979,
  0.411268,
  0.32897,
  0.25198,
  0.27998,
  0.26187,
  0.177852,
  0.178979,
  0.278981,
  0.508433,
  0.23098,
  0.43398,
  0.492934,
  0.606043,
  0.529979,
  0.661136,
  0.503555,
  0.528663,
  0.595678,
  0.39198,
  0.564275,
  0.659906,
  0.650416,
  0.51202,
  0.652964,
  0.666482,
  0.41498,
  0.487672,
  0.476017,
  0.38298,
  0.505176,
  0.53098,
  0.506147,
  0.644724,
  0.652027,
  0.627341,
  0.517354,
  0.444252,
  0.41898,
  0.53798,
  0.51098,
  0.693859,
  0.48898,
  0.461979,
  0.619997,
  0.496276,
  0.408996,
  0.510171,
  0.45798,
  0.457167,
  0.373963,
  0.396979,
  0.603948,
  0.368862,
  0.478184,
  0.52898,
  0.714617,
  0.373494,
  0.64598,
  0.408967,
  0.537499,
  0.634976,
  0.54598,
  0.895113,
  0.705228,
  0.5652,
  0.471832,
  0.55398,
  0.574985,
  0.72498,
  0.42698,
  0.432085,
  0.602692,
  0.563117,
  0.50998,
  0.57698,
  0.265046,
  0.186415,
  0.246374,
  0.463901,
  0.256577,
  0.387564,
  0.243822,
  0.144912,
  0.40798,
  0.500754,
  0.25983,
  0.572161,
  0.183014,
  0.415576,
  0.45898,
  0.260528,
  0.330801,
  0.393969,
  0.463768,
  0.46698,
  0.661686,
  0.344082,
  0.45898,
  0.41298,
  0.37586,
  0.544203,
  0.376085,
  0.378661,
  0.66298,
  0.45798,
  0.50178,
  0.314452,
  0.504656,
  0.371322,
  0.575356,
  0.489441,
  0.42211,
  0.410728,
  0.449981,
  0.382572,
  0.45755,
  0.455661,
  0.53498,
  0.55598,
  0.60898,
  0.488481,
  0.525036,
  0.653629,
  0.690291,
  0.531303,
  0.45798,
  0.195979,
  0.222979,
  0.34098,
  0.45398,
  0.30298,
  0.44198,
  0.469413,
  0.49998,
  0.16198,
  0.30298,
  0.162732,
  0.229979,
  11.586022,
  0.415025,
  0.482574,
  0.53798,
  0.660979,
  0.43698,
  0.643341,
  0.510311,
  0.455528,
  0.40798,
  0.535979,
  0.490776,
  0.48856,
  0.46898,
  0.469246,
  0.532388,
  0.65898,
  0.477816,
  0.40098,
  0.66198,
  0.414877,
  0.661276,
  0.542981,
  0.63398,
  0.444498,
  0.646468,
  0.62298,
  0.57198,
  0.74098,
  0.71798,
  0.61798,
  0.433656,
  0.67898,
  0.722589,
  0.482159,
  0.575003,
  0.664381,
  0.516747,
  0.66198,
  0.61642,
  0.516651,
  0.725804,
  0.430952,
  0.494917,
  0.519145,
  0.503117,
  0.68498,
  0.744437,
  0.656188,
  0.157038,
  0.15798,
  0.197847,
  0.308981,
  0.166357,
  0.330979,
  0.398977,
  0.20698,
  0.415728,
  0.371979,
  0.38498,
  0.38798,
  0.344382,
  0.22298,
  0.327022,
  0.177727,
  0.14198,
  0.243866,
  0.24098,
  0.20098,
  0.28198,
  0.169907,
  0.41598,
  0.29898,
  0.401997,
  0.446806,
  0.406403,
  0.420184,
  0.345955,
  0.580699,
  0.26898,
  0.25398,
  0.559753,
  0.517093,
  0.453075,
  0.644066,
  0.402351,
  0.655233,
  0.544223,
  0.41461,
  0.428482,
  0.628941,
  0.523258,
  0.60498,
  0.39598,
  0.46103,
  0.633811,
  0.474315,
  0.42909,
  0.470975,
  0.671002,
  0.435047,
  0.45029,
  0.54599,
  0.774537,
  0.410883,
  0.496572,
  0.528319,
  0.43368,
  0.423043,
  0.637879,
  0.485133,
  0.559061,
  0.592892,
  0.44794,
  0.183892,
  0.140963,
  0.19901,
  0.24598,
  0.266255,
  0.169993,
  0.19398,
  0.229979,
  0.286915,
  0.51998,
  0.40098,
  0.229191,
  0.281052,
  0.407855,
  0.25198,
  0.505981,
  0.42903,
  0.45398,
  0.67698,
  0.683601,
  0.536683,
  0.487945,
  0.45698,
  0.73599,
  0.67698,
  0.673679,
  0.412424,
  0.64998,
  0.778641,
  0.51698,
  0.73355,
  0.581976,
  0.168981,
  0.454981,
  0.313981,
  0.436291,
  0.34207,
  0.26398,
  0.15698,
  0.269353,
  0.23698,
  0.26198,
  0.33198,
  0.44498,
  0.236164,
  0.353979,
  0.25998,
  0.62598,
  0.49798,
  0.455272,
  0.40003,
  0.629956,
  0.449847,
  0.671584,
  0.553413,
  0.446281,
  0.6991,
  0.442883,
  0.626064,
  0.38293,
  0.528971,
  0.574924,
  0.485826,
  0.423539,
  0.287979,
  0.304807,
  0.198792,
  0.569788,
  0.329622,
  0.511358,
  0.515709,
  0.202981,
  0.255792,
  0.635513,
  0.189473,
  0.384953,
  0.405326,
  0.249408,
  0.25498,
  0.467958,
  0.24827,
  0.204999,
  0.30898,
  0.230981,
  0.505908,
  0.320863,
  0.390728,
  0.42898,
  0.24898,
  0.21298,
  0.31498,
  0.175,
  0.422226,
  0.52868,
  0.19498,
  0.350134,
  0.200981,
  0.160216,
  0.412706,
  0.370436,
  0.26198,
  0.278978,
  0.23498,
  0.17698,
  0.390978,
  0.274985,
  0.410999,
  0.45098,
  0.385925,
  0.403926,
  0.156327,
  0.138319,
  0.23291,
  0.33298,
  0.283908,
  0.27798,
  0.38898,
  0.33898,
  0.36098,
  0.315933,
  0.44898,
  0.22998,
  0.27839,
  0.251883,
  0.466904,
  0.153051,
  0.317359,
  0.26596,
  0.213981,
  0.271977,
  0.31398,
  0.32798,
  0.21898,
  0.189741,
  0.328147,
  0.29498,
  0.37998,
  0.502693,
  0.38398,
  0.316734,
  0.26498,
  0.415246,
  0.28533,
  0.41398,
  0.416693,
  0.472252,
  0.713534,
  0.46698,
  0.761979,
  0.748979,
  0.465013,
  0.58998,
  0.71798,
  0.57198,
  0.51798,
  0.37898,
  38.19298,
  0.409453,
  0.65598,
  0.451979,
  0.597142,
  0.516903,
  0.545165,
  0.51878,
  0.44198,
  0.442885,
  0.697678,
  0.55798,
  0.862306,
  0.673187,
  0.74598,
  0.607272,
  0.479218,
  0.543695,
  0.70998,
  0.353268,
  0.434982,
  0.692981,
  0.399982,
  0.448299,
  0.441442,
  0.463012,
  0.6722,
  0.580779,
  0.527982,
  0.483705,
  0.412344,
  0.43278,
  0.598181,
  0.379117,
  0.472385
]