{
  "1000": [
    0.722995,
    0.562407,
    0.686706,
    0.982052,
    0.65998,
    0.747497,
    0.795716,
    0.662768,
    1.05398,
    0.736034,
    0.672012,
    0.515953,
    0.798037,
    0.657796,
    0.867655,
    0.7574,
    0.761871,
    0.486317,
    0.734036,
    0.488576,
    0.636012,
    0.926527,
    0.410282,
    0.639918,
    0.36355,
    0.69798,
    0.688081,
    0.605888,
    0.381255,
    0.456377,
    0.461921,
    0.799919,
    0.752678,
    0.8302,
    0.40398,
    0.626025,
    0.643859,
    0.763986,
    0.500633,
    0.622022,
    0.345281,
    0.618022,
    0.405957,
    1.225692,
    0.59598,
    1.061126,
    0.490157,
    0.706675,
    0.49798,
    0.645035,
    0.623013,
    0.439034,
    0.70484
  ],
  "1048576": [
    2.618369,
    2.110966,
    2.406963,
    7.218963,
    2.295896,
    2.485054,
    2.281157,
    2.327964,
    4.033984,
    3.058834,
    4.705435,
    3.806963,
    11.982069,
    3.462365,
    8.172392,
    3.177035,
    2.336964,
    4.375962,
    5.045654,
    1.936719,
    2.733787,
    1.799965,
    3.788163,
    3.605964,
    3.816681,
    4.028869,
    3.478963,
    3.355945,
    6.539717,
    44.320954,
    21.561007,
    7.538964,
    2.595964,
    3.459964,
    2.603091,
    12.595971,
    5.1986,
    3.378964,
    2.277459,
    2.185964,
    2.886964,
    2.992829,
    3.79022,
    5.262596,
    29.357315,
    4.468499,
    1.718842,
    3.133173,
    3.130902,
    3.679971,
    6.988004,
    2.223984,
    2.20823,
    3.940005,
    3.789131,
    1.968494,
    2.237007,
    47.222342,
    2.132838,
    2.920929,
    2.168516,
    22.86897,
    3.575902,
    3.48697,
    3.137969,
    3.116968,
    1.925517,
    3.308582,
    2.825984,
    3.527964,
    4.302969,
    3.952994,
    2.793268,
    4.247974,
    3.012966,
    9.431212,
    4.569899,
    3.870301,
    1.914966,
    3.892972,
    2.472855,
    3.048241,
    2.868318,
    4.073318,
    4.634913,
    2.558964,
    5.54656,
    2.998968,
    3.173005,
    2.427964,
    3.263971,
    3.756113,
    6.600784,
    2.98943,
    4.062266,
    3.342082,
    3.810761,
    3.753047,
    2.414297,
    1.758557,
    5.44196,
    6.361964,
    3.784965,
    2.891972,
    3.159196,
    2.264737,
    2.491621,
    3.658994,
    20.727959,
    6.551964,
    3.732971,
    3.362964,
    11.540357,
    3.116565,
    1.936543,
    2.108966,
    3.71433,
    3.772964,
    4.187964,
    3.960964,
    3.402364,
    3.760966,
    1.796953,
    3.865079,
    3.166194,
    9.476959,
    3.111322
  ],
  "51200": [
    0.619964,
    0.432552,
    0.773964,
    0.412986,
    0.694966,
    0.484964,
    0.642286,
    0.692969,
    0.356973,
    0.639052,
    0.730964,
    0.695559,
    1.229964,
    2.253964,
    0.839453,
    0.400414,
    0.557964,
    0.529498,
    0.817994,
    0.430972,
    0.711197,
    0.716964,
    0.383964,
    0.593036,
    0.342438,
    0.408646,
    0.788236,
    1.352926,
    0.875049,
    0.71515,
    0.706292,
    0.711511,
    0.777448,
    0.801057,
    0.483017,
    0.837551,
    0.507966,
    0.403964,
    0.451964,
    0.78197,
    0.487964,
    0.504942,
    0.591576,
    0.548966,
    0.454964,
    0.790254,
    0.952376,
    0.572305,
    0.672105,
    0.667918,
    0.741964,
    1.511102,
    0.763962,
    0.696964,
    0.767819,
    0.647963,
    0.476734,
    1.281966,
    0.880095,
    0.729816,
    0.42911,
    0.561478,
    0.445972,
    0.495933,
    0.785529,
    0.857979,
    1.060831,
    0.934323,
    0.784039,
    0.79497,
    0.869966,
    0.910979,
    0.882741,
    0.751999,
    0.933964,
    0.875386,
    0.746923,
    0.685176,
    0.729966,
    0.74017,
    0.766005,
    0.669964,
    0.720496,
    0.555973,
    0.557964,
    0.49041,
    0.397966,
    0.458389,
    0.391964,
    0.374964,
    0.552945,
    0.498704,
    0.516969,
    0.607482,
    1.142692,
    0.614992,
    0.593964,
    0.667889,
    0.662965,
    0.359777,
    0.729709,
    1.066964,
    0.563804,
    0.883042,
    0.73592,
    0.599484,
    0.539965,
    0.621655,
    0.443963,
    0.445964,
    0.973964,
    0.298219,
    0.529964,
    0.619964,
    0.639966,
    0.516418,
    0.439238,
    0.403765,
    0.580966,
    0.477011,
    0.532335,
    0.746992,
    0.881298,
    0.564966,
    0.890338,
    1.433964,
    0.770848,
    0.601983,
    0.896008,
    0.717809,
    0.730014,
    0.815993,
    0.904965,
    1.097265,
    1.098465,
    0.513984,
    0.579976,
    0.89091,
    0.730917,
    0.639946,
    0.484964,
    0.402964,
    1.013564,
    3.074964,
    0.708964,
    0.846983,
    0.506964,
    0.675052,
    0.580964,
    0.509903,
    0.739292,
    0.390041,
    0.694781,
    0.444093,
    0.820877,
    1.262964,
    1.35595,
    0.75617,
    0.73972,
    0.766006,
    0.67769,
    2.447964,
    1.098969,
    0.958919,
    0.795964,
    0.687255,
    0.963965,
    0.908964,
    0.724073,
    0.691694,
    1.415995,
    0.669822,
    1.002005,
    0.634964,
    0.697964,
    1.12109,
    1.271957,
    0.640964,
    0.874109,
    1.060678,
    0.733965,
    0.748467,
    1.338635,
    0.748487,
    0.85297,
    0.614416,
    0.507088,
    0.442973,
    0.438735,
    0.451002,
    0.403417,
    0.696736,
    0.572964,
    0.46794,
    0.443503,
    0.692893,
    1.356136,
    0.859047,
    0.676964,
    0.932964,
    0.778964,
    0.751564,
    0.812964,
    1.706964,
    0.948964,
    0.590399,
    1.304735,
    0.790992,
    0.644762,
    0.959236,
    0.705064,
    0.979973,
    0.604964,
    0.66803,
    0.88043,
    0.465611,
    0.61697,
    0.520104,
    0.573966,
    0.397964,
    0.318605,
    0.47239,
    0.55599,
    0.827953,
    0.936946,
    0.584999,
    0.368773,
    0.570458,
    0.47495,
    0.94111,
    0.672885,
    1.293553,
    0.608964,
    0.683951,
    0.6562,
    0.633971,
    0.935768,
    1.055527,
    0.776598,
    0.701964,
    0.752654,
    0.848968,
    0.642916,
    0.826764,
    0.954996,
    0.723965,
    0.969232,
    1.408963,
    1.041005,
    0.649964,
    0.592007,
    0.546358,
    1.155116,
    0.53264,
    0.671345,
    0.965849,
    0.809491,
    0.632733,
    0.489414,
    0.513629,
    0.745963,
    0.383563,
    0.454914,
    0.635459,
    0.5074,
    0.680963,
    0.560154,
    0.559668,
    0.748864,
    0.518969,
    0.593972,
    0.544105,
    0.542427,
    0.483964,
    1.11626,
    0.768977,
    0.45911,
    0.568964,
    5.942964,
    0.879169,
    1.754979,
    0.774964,
    0.685964,
    0.776341,
    0.692996,
    0.794447,
    0.870983,
    0.926402,
    0.793785,
    0.722996,
    0.791964,
    0.842964,
    1.064212,
    0.741087,
    0.782942,
    0.532964,
    0.782966,
    0.948848,
    0.61797,
    0.837963,
    0.499966,
    0.433964,
    0.935969,
    0.463512,
    0.910955,
    0.593993,
    0.864968,
    0.793988,
    1.004749,
    0.65011,
    0.652963,
    0.592717,
    0.530393,
    0.491247,
    0.455589,
    0.652614,
    0.720845,
    0.950964,
    1.002632,
    0.604305,
    0.658554,
    1.317193,
    0.943865,
    1.339699,
    0.59004,
    0.423977,
    0.884955,
    9.713589,
    0.528966,
    0.443819,
    0.356601,
    0.328751,
    0.798319,
    0.484019,
    0.479971,
    0.68106,
    0.390125,
    0.420964,
    0.52079,
    0.377917,
    0.625962,
    0.958847,
    1.076971,
    0.592964,
    0.896946,
    0.435391,
    1.095049,
    0.668696,
    0.489911,
    0.606521,
    0.329153,
    0.536267,
    0.517172,
    0.412766,
    0.535572,
    0.576435,
    0.699654,
    0.648921,
    0.413015,
    0.438505,
    0.489196,
    0.385489,
    0.617651,
    0.548847,
    0.446044,
    0.442523,
    1.066793,
    0.823003,
    0.770471,
    0.774964,
    0.783641,
    1.033962,
    0.397964,
    1.342964,
    0.689964,
    0.472436,
    0.712568,
    0.412517,
    0.520964,
    0.50365,
    0.558983,
    0.473442,
    0.601944,
    0.496949,
    0.49722,
    0.339964,
    1.754078,
    0.720964,
    0.854964,
    0.745459,
    0.779454,
    0.690398,
    3.351366,
    0.344264,
    0.520146,
    0.643926,
    0.446964,
    0.440964,
    0.348218,
    0.655972,
    7.344983,
    0.654727,
    0.962651,
    0.939519,
    0.736964,
    0.906976,
    0.792953,
    0.644159,
    0.607405,
    0.713695,
    1.176798,
    1.082963,
    1.059418,
    0.696966,
    0.85843,
    0.941175,
    0.975961,
    0.686061,
    0.745479,
    0.617656,
    0.672359,
    1.458963,
    0.721964,
    0.674964,
    1.056566,
    0.741016,
    1.113965,
    0.80522,
    0.800933,
    0.862264,
    0.912504,
    0.947964,
    0.803519,
    0.743233,
    0.808115,
    0.939299,
    0.60652,
    0.708969,
    0.732962,
    1.073857,
    0.816313,
    1.074851,
    0.605099,
    0.500332,
    0.475791,
    0.523927,
    0.535807,
    0.491964,
    0.421122,
    0.451119,
    0.514823,
    0.689758,
    0.793166,
    0.441518,
    0.468049,
    0.998969,
    0.473872,
    0.512692,
    0.536966,
    0.521057,
    1.648696,
    0.502969,
    0.476964,
    1.43504,
    0.432966,
    0.506042,
    0.565964,
    0.852795,
    0.482984,
    0.767366,
    0.671092,
    1.10199,
    0.798962,
    1.056694,
    0.761643,
    0.563095,
    0.735465,
    0.423623,
    0.344977,
    0.365092,
    6.094964,
    0.849918,
    0.525015,
    0.736985,
    0.502891,
    0.739967,
    0.633695,
    0.708018,
    0.840964,
    0.966964,
    0.724968,
    0.798507,
    0.912965,
    0.333221,
    0.373032,
    0.498964,
    0.825964,
    0.513266,
    0.3479,
    0.534898,
    0.538964,
    0.62154,
    0.500429,
    0.395964,
    0.943712,
    0.481625,
    0.862875,
    0.540903,
    0.502841,
    0.413965,
    1.360047,
    0.783184,
    1.095969,
    0.686964,
    0.976735,
    0.706368,
    0.650778,
    0.668984,
    0.77243,
    0.730964,
    0.754969,
    0.903225,
    1.016966,
    0.671951,
    0.684867,
    0.778596,
    0.699201,
    0.705734,
    0.563924,
    0.520374,
    0.440924,
    0.698964,
    0.363068,
    0.627988,
    0.669567,
    0.932796,
    0.700161,
    0.757044,
    0.605252,
    0.575983,
    1.030232,
    0.962966,
    1.159963,
    0.673038,
    0.610057,
    0.900465,
    0.729298,
    1.022964,
    0.949899,
    0.921191,
    1.355453,
    0.734964,
    0.421556,
    0.920969,
    0.44946,
    0.523972,
    0.866964,
    0.440361,
    0.378612,
    0.673923,
    0.459283,
    0.739192,
    0.363966,
    0.5791,
    0.632032,
    0.672191,
    0.71607,
    0.820983,
    1.030931,
    0.768106,
    0.733964,
    0.664977,
    0.688967,
    0.756963,
    0.817972,
    0.761299,
    0.984972,
    3.717964,
    0.489775,
    0.631979,
    0.4153,
    0.443374,
    0.678037,
    0.68097,
    1.20179,
    0.951554,
    0.637807,
    0.674004,
    0.535598,
    0.385568,
    0.890964,
    0.927881,
    0.634626,
    0.436964,
    0.704983,
    1.013821,
    0.801965,
    0.736964,
    0.875101,
    0.723022,
    1.083849,
    0.772966,
    1.218458,
    1.042431,
    1.516575,
    0.595503,
    0.398485,
    0.34062,
    0.556701,
    0.846996,
    0.515966,
    0.471117,
    0.521214,
    0.771969,
    0.472986,
    0.710964,
    0.646254,
    0.841653,
    1.031984,
    0.956287,
    0.437036,
    0.467984,
    0.808575,
    0.638966,
    0.455964,
    1.165038,
    0.473967,
    0.895964,
    0.685092,
    0.861013,
    0.426978,
    1.36732,
    0.517953,
    0.514035,
    0.735143,
    0.455994,
    0.573086,
    0.459621,
    0.738972,
    0.598963,
    0.543064,
    0.648563,
    0.642964,
    0.724984,
    0.727394,
    1.210967,
    0.604965,
    0.470966,
    0.476968,
    0.774999,
    0.637924,
    0.588964,
    0.743563,
    0.720286,
    0.760882,
    0.796412,
    0.709986,
    1.258966,
    0.823974,
    0.656885,
    0.798077,
    0.650066,
    0.846966,
    1.181503,
    1.967389,
    0.689964,
    0.746866,
    0.66816,
    0.657964,
    0.660014,
    0.792964,
    0.912964,
    0.858964,
    0.620357,
    1.105967,
    1.289762,
    0.682022,
    1.098866,
    0.449964,
    0.505877,
    0.375066,
    0.793966,
    0.65538,
    0.684978,
    0.856961,
    0.420263,
    0.532243,
    0.611963,
    1.02044,
    1.557001,
    0.497964,
    0.544978,
    0.360972,
    0.727968,
    0.53266,
    0.478964,
    0.540648,
    0.799018,
    0.758286,
    0.677433,
    0.811679,
    0.533789,
    0.616544,
    0.400926,
    0.486783,
    1.028983,
    0.547792,
    0.334931,
    0.865983,
    0.721878,
    0.435936,
    0.813358,
    0.405477,
    0.489247,
    1.202547,
    0.572703,
    0.622918,
    2.985528,
    0.909041,
    0.748972,
    0.678926,
    0.686815,
    0.619966,
    0.481296,
    0.5404,
    0.814078,
    0.439226,
    0.415257,
    0.746349,
    0.796345,
    0.414596,
    0.405382,
    0.381966,
    0.413127,
    0.467003,
    0.546665,
    0.468964,
    0.619964,
    1.199964,
    0.574962,
    0.771964,
    0.489929,
    0.54903,
    0.596528,
    0.676921,
    0.665216,
    1.029967,
    0.84546,
    0.728108,
    0.85901,
    0.766831,
    0.946963,
    0.823242,
    0.620753,
    0.695964,
    0.753072,
    0.824976,
    0.641148,
    0.72818,
    0.547964,
    0.799585,
    0.463083,
    0.570972,
    0.417964,
    0.431287,
    0.836995,
    0.364814,
    0.383323,
    1.479964,
    0.481964,
    0.53751,
    0.765101,
    0.602231,
    0.679456,
    0.478861,
    0.598058,
    0.65702,
    0.859989,
    0.599964,
    0.793696,
    0.663995,
    0.595964,
    0.678964,
    1.01595,
    0.598695,
    0.952965,
    0.877964,
    1.421188,
    0.665967,
    0.733266,
    0.415812,
    0.458997,
    0.888306,
    0.576127,
    0.39491,
    0.420945,
    0.424966
  ],
  "5242880": [
    7.474967,
    6.399939,
    71.756195,
    14.720151,
    5.875966,
    7.69665,
    7.015965,
    55.853896,
    11.787921,
    11.457969,
    6.364923,
    8.884988,
    16.847833,
    8.509175,
    6.196536,
    22.274874,
    22.525593,
    5.255028,
    7.420553,
    8.056619,
    7.007966,
    11.638966,
    13.415972,
    9.60426,
    7.426567,
    6.785761,
    48.194492,
    52.699486,
    16.766536,
    9.223967,
    12.631658,
    7.966586,
    10.347279,
    4.957963,
    5.879965,
    11.183967,
    40.94196,
    99.735176,
    6.682661,
    52.707969,
    80.900639,
    12.347793,
    89.729301,
    9.582967,
    14.272967,
    8.883469,
    11.140316,
    9.904967,
    7.080276,
    7.935967,
    19.759611,
    7.364967,
    12.530405,
    6.717966,
    5.685923,
    10.800967,
    31.605907,
    7.71484,
    10.511966,
    6.648865
  ],
  "ALL": [
    0.619964,
    0.432552,
    0.773964,
    0.412986,
    0.694966,
    0.484964,
    0.642286,
    0.692969,
    0.356973,
    0.639052,
    0.730964,
    2.618369,
    2.110966,
    2.406963,
    0.722995,
    0.695559,
    1.229964,
    2.253964,
    7.218963,
    2.295896,
    2.485054,
    0.839453,
    0.400414,
    0.557964,
    0.529498,
    0.817994,
    0.430972,
    2.281157,
    2.327964,
    7.474967,
    0.711197,
    0.716964,
    0.383964,
    0.593036,
    0.342438,
    0.408646,
    6.399939,
    0.788236,
    1.352926,
    0.875049,
    0.71515,
    0.706292,
    0.711511,
    0.777448,
    4.033984,
    71.756195,
    0.801057,
    0.483017,
    0.837551,
    0.507966,
    0.403964,
    0.451964,
    0.78197,
    0.487964,
    0.504942,
    0.591576,
    0.548966,
    14.720151,
    0.562407,
    0.454964,
    0.790254,
    0.952376,
    0.572305,
    0.672105,
    0.667918,
    0.741964,
    3.058834,
    5.875966,
    0.686706,
    1.511102,
    0.763962,
    0.696964,
    0.767819,
    0.647963,
    4.705435,
    3.806963,
    11.982069,
    0.476734,
    1.281966,
    0.880095,
    0.729816,
    0.42911,
    0.561478,
    0.445972,
    0.495933,
    0.785529,
    0.982052,
    0.65998,
    0.857979,
    1.060831,
    0.934323,
    0.784039,
    0.79497,
    0.869966,
    3.462365,
    0.747497,
    0.795716,
    0.910979,
    0.882741,
    0.751999,
    0.933964,
    8.172392,
    3.177035,
    0.875386,
    0.746923,
    0.685176,
    0.729966,
    0.74017,
    0.766005,
    0.669964,
    0.720496,
    7.69665,
    0.555973,
    0.557964,
    0.49041,
    0.397966,
    0.458389,
    0.391964,
    0.374964,
    0.552945,
    2.336964,
    7.015965,
    0.498704,
    0.516969,
    0.607482,
    1.142692,
    0.614992,
    0.593964,
    0.667889,
    4.375962,
    0.662965,
    0.359777,
    0.729709,
    1.066964,
    0.563804,
    0.883042,
    5.045654,
    55.853896,
    0.73592,
    0.599484,
    0.539965,
    0.621655,
    0.443963,
    0.445964,
    0.973964,
    0.298219,
    0.529964,
    0.619964,
    1.936719,
    2.733787,
    1.799965,
    0.639966,
    0.516418,
    0.439238,
    0.403765,
    0.580966,
    0.477011,
    0.532335,
    0.746992,
    0.662768,
    0.881298,
    0.564966,
    0.890338,
    1.433964,
    0.770848,
    0.601983,
    0.896008,
    0.717809,
    3.788163,
    3.605964,
    3.816681,
    11.787921,
    11.457969,
    1.05398,
    0.730014,
    0.815993,
    0.904965,
    1.097265,
    1.098465,
    0.513984,
    4.028869,
    3.478963,
    6.364923,
    0.579976,
    0.89091,
    0.730917,
    0.639946,
    0.484964,
    0.402964,
    1.013564,
    3.074964,
    0.708964,
    0.846983,
    3.355945,
    0.506964,
    0.675052,
    0.580964,
    0.509903,
    0.739292,
    0.390041,
    0.694781,
    6.539717,
    8.884988,
    0.444093,
    0.820877,
    1.262964,
    1.35595,
    0.75617,
    0.73972,
    0.766006,
    0.67769,
    2.447964,
    44.320954,
    0.736034,
    0.672012,
    1.098969,
    0.958919,
    0.795964,
    0.687255,
    0.963965,
    0.908964,
    21.561007,
    7.538964,
    0.724073,
    0.691694,
    1.415995,
    0.669822,
    1.002005,
    0.634964,
    0.697964,
    1.12109,
    1.271957,
    0.640964,
    0.874109,
    1.060678,
    0.733965,
    0.748467,
    1.338635,
    0.748487,
    0.85297,
    0.614416,
    16.847833,
    0.515953,
    0.507088,
    0.442973,
    0.438735,
    0.451002,
    0.403417,
    0.696736,
    0.572964,
    0.46794,
    0.443503,
    2.595964,
    8.509175,
    6.196536,
    0.692893,
    1.356136,
    0.859047,
    0.676964,
    0.932964,
    0.778964,
    0.751564,
    0.812964,
    3.459964,
    22.274874,
    1.706964,
    0.948964,
    0.590399,
    1.304735,
    0.790992,
    0.644762,
    0.959236,
    0.705064,
    0.979973,
    0.604964,
    0.66803,
    0.798037,
    0.88043,
    0.465611,
    0.61697,
    0.520104,
    0.573966,
    0.397964,
    0.318605,
    0.47239,
    0.55599,
    2.603091,
    0.827953,
    0.936946,
    0.584999,
    0.368773,
    0.570458,
    0.47495,
    0.94111,
    0.672885,
    12.595971,
    0.657796,
    0.867655,
    0.7574,
    1.293553,
    0.608964,
    0.683951,
    0.6562,
    0.633971,
    0.935768,
    1.055527,
    0.776598,
    5.1986,
    22.525593,
    0.761871,
    0.701964,
    0.752654,
    0.848968,
    0.642916,
    0.826764,
    0.954996,
    0.723965,
    0.969232,
    1.408963,
    1.041005,
    0.649964,
    3.378964,
    0.592007,
    0.546358,
    1.155116,
    0.53264,
    0.671345,
    0.965849,
    0.809491,
    0.632733,
    0.489414,
    0.513629,
    0.745963,
    2.277459,
    2.185964,
    0.383563,
    0.454914,
    0.635459,
    0.5074,
    0.680963,
    0.560154,
    0.559668,
    0.748864,
    2.886964,
    0.486317,
    0.518969,
    0.593972,
    0.544105,
    0.542427,
    0.483964,
    1.11626,
    0.768977,
    0.45911,
    0.568964,
    2.992829,
    5.255028,
    5.942964,
    0.879169,
    1.754979,
    0.774964,
    0.685964,
    0.776341,
    3.79022,
    5.262596,
    7.420553,
    8.056619,
    7.007966,
    11.638966,
    0.734036,
    0.692996,
    0.794447,
    0.870983,
    0.926402,
    0.793785,
    0.722996,
    0.791964,
    0.842964,
    1.064212,
    0.741087,
    0.782942,
    29.357315,
    4.468499,
    0.488576,
    0.532964,
    0.782966,
    0.948848,
    0.61797,
    0.837963,
    0.499966,
    0.433964,
    0.935969,
    0.463512,
    0.636012,
    0.910955,
    0.593993,
    0.864968,
    0.793988,
    1.004749,
    0.65011,
    0.652963,
    0.592717,
    0.530393,
    0.491247,
    0.455589,
    1.718842,
    3.133173,
    13.415972,
    0.652614,
    0.720845,
    0.950964,
    1.002632,
    0.604305,
    0.658554,
    1.317193,
    0.943865,
    1.339699,
    0.59004,
    3.130902,
    3.679971,
    6.988004,
    9.60426,
    0.423977,
    0.884955,
    9.713589,
    0.528966,
    0.443819,
    0.356601,
    0.328751,
    2.223984,
    2.20823,
    3.940005,
    3.789131,
    1.968494,
    7.426567,
    0.798319,
    0.484019,
    0.479971,
    0.68106,
    0.390125,
    0.420964,
    0.52079,
    0.377917,
    0.926527,
    0.625962,
    0.958847,
    1.076971,
    0.592964,
    0.896946,
    0.435391,
    1.095049,
    0.668696,
    2.237007,
    47.222342,
    2.132838,
    0.489911,
    0.606521,
    0.329153,
    0.536267,
    0.517172,
    0.412766,
    0.535572,
    0.576435,
    0.699654,
    2.920929,
    2.168516,
    0.410282,
    0.648921,
    0.413015,
    0.438505,
    0.489196,
    0.385489,
    0.617651,
    0.548847,
    0.446044,
    0.442523,
    22.86897,
    6.785761,
    0.639918,
    1.066793,
    0.823003,
    0.770471,
    0.774964,
    0.783641,
    3.575902,
    48.194492,
    0.36355,
    1.033962,
    0.397964,
    1.342964,
    0.689964,
    0.472436,
    0.712568,
    3.48697,
    3.137969,
    0.412517,
    0.520964,
    0.50365,
    0.558983,
    0.473442,
    0.601944,
    0.496949,
    0.49722,
    0.339964,
    3.116968,
    0.69798,
    1.754078,
    0.720964,
    0.854964,
    0.745459,
    0.779454,
    0.690398,
    3.351366,
    0.344264,
    0.520146,
    0.643926,
    0.446964,
    0.440964,
    0.348218,
    0.655972,
    7.344983,
    1.925517,
    3.308582,
    2.825984,
    52.699486,
    0.654727,
    0.962651,
    0.939519,
    0.736964,
    0.906976,
    0.792953,
    0.644159,
    0.607405,
    0.713695,
    1.176798,
    1.082963,
    1.059418,
    0.696966,
    0.85843,
    0.941175,
    0.975961,
    16.766536,
    0.686061,
    0.745479,
    0.617656,
    0.672359,
    1.458963,
    0.721964,
    0.674964,
    3.527964,
    4.302969,
    9.223967,
    12.631658,
    1.056566,
    0.741016,
    1.113965,
    0.80522,
    0.800933,
    0.862264,
    0.912504,
    0.947964,
    3.952994,
    0.803519,
    0.743233,
    0.808115,
    0.939299,
    0.60652,
    0.708969,
    0.732962,
    1.073857,
    0.816313,
    1.074851,
    0.605099,
    0.500332,
    0.475791,
    0.523927,
    0.535807,
    0.491964,
    0.421122,
    0.451119,
    0.514823,
    0.689758,
    0.793166,
    0.441518,
    0.688081,
    0.605888,
    0.468049,
    0.998969,
    0.473872,
    0.512692,
    0.536966,
    0.521057,
    1.648696,
    0.502969,
    0.476964,
    1.43504,
    0.432966,
    0.506042,
    0.565964,
    0.852795,
    0.482984,
    2.793268,
    4.247974,
    3.012966,
    0.767366,
    0.671092,
    1.10199,
    0.798962,
    1.056694,
    9.431212,
    4.569899,
    0.381255,
    0.761643,
    0.563095,
    0.735465,
    0.423623,
    0.344977,
    0.365092,
    6.094964,
    0.849918,
    0.525015,
    0.736985,
    0.502891,
    3.870301,
    7.966586,
    0.739967,
    0.633695,
    0.708018,
    0.840964,
    0.966964,
    0.724968,
    0.798507,
    0.912965,
    0.456377,
    0.333221,
    0.373032,
    0.498964,
    0.825964,
    0.513266,
    0.3479,
    1.914966,
    10.347279,
    0.534898,
    0.538964,
    0.62154,
    0.500429,
    0.395964,
    3.892972,
    2.472855,
    3.048241,
    2.868318,
    4.073318,
    0.461921,
    0.943712,
    0.481625,
    0.862875,
    0.540903,
    0.502841,
    0.413965,
    4.634913,
    2.558964,
    4.957963,
    0.799919,
    1.360047,
    0.783184,
    1.095969,
    0.686964,
    0.976735,
    0.706368,
    0.650778,
    0.668984,
    0.77243,
    0.730964,
    0.752678,
    0.754969,
    0.903225,
    1.016966,
    0.671951,
    0.684867,
    0.778596,
    0.699201,
    0.705734,
    5.54656,
    0.563924,
    0.520374,
    0.440924,
    0.698964,
    0.363068,
    2.998968,
    5.879965,
    11.183967,
    0.8302,
    0.627988,
    0.669567,
    0.932796,
    0.700161,
    0.757044,
    0.605252,
    0.575983,
    1.030232,
    0.962966,
    1.159963,
    0.673038,
    0.610057,
    0.900465,
    0.729298,
    1.022964,
    0.949899,
    0.921191,
    1.355453,
    3.173005,
    40.94196,
    0.40398,
    0.734964,
    0.421556,
    0.920969,
    0.44946,
    0.523972,
    0.866964,
    0.440361,
    0.378612,
    99.735176,
    0.626025,
    0.673923,
    0.459283,
    0.739192,
    0.363966,
    0.5791,
    0.632032,
    2.427964,
    3.263971,
    6.682661,
    0.643859,
    0.672191,
    0.71607,
    0.820983,
    1.030931,
    0.768106,
    0.733964,
    0.664977,
    3.756113,
    6.600784,
    2.98943,
    0.688967,
    0.756963,
    0.817972,
    0.761299,
    0.984972,
    3.717964,
    4.062266,
    52.707969,
    0.489775,
    0.631979,
    0.4153,
    0.443374,
    0.678037,
    0.68097,
    3.342082,
    3.810761,
    3.753047,
    2.414297,
    1.20179,
    0.951554,
    0.637807,
    0.674004,
    0.535598,
    0.385568,
    0.890964,
    0.927881,
    0.634626,
    0.436964,
    1.758557,
    5.44196,
    80.900639,
    0.704983,
    1.013821,
    0.801965,
    0.736964,
    0.875101,
    12.347793,
    89.729301,
    9.582967,
    14.272967,
    0.763986,
    0.723022,
    1.083849,
    0.772966,
    1.218458,
    1.042431,
    1.516575,
    0.595503,
    6.361964,
    8.883469,
    11.140316,
    0.398485,
    0.34062,
    0.556701,
    0.846996,
    0.515966,
    0.471117,
    0.521214,
    0.771969,
    0.472986,
    0.710964,
    0.646254,
    0.841653,
    1.031984,
    0.956287,
    3.784965,
    9.904967,
    0.500633,
    0.437036,
    0.467984,
    0.808575,
    0.638966,
    0.455964,
    1.165038,
    0.473967,
    0.895964,
    0.685092,
    0.861013,
    0.426978,
    2.891972,
    0.622022,
    0.345281,
    1.36732,
    0.517953,
    0.514035,
    0.735143,
    0.455994,
    0.573086,
    0.459621,
    3.159196,
    2.264737,
    2.491621,
    0.618022,
    0.738972,
    0.598963,
    0.543064,
    0.648563,
    0.642964,
    0.724984,
    0.405957,
    0.727394,
    1.210967,
    0.604965,
    0.470966,
    0.476968,
    0.774999,
    0.637924,
    0.588964,
    7.080276,
    0.743563,
    0.720286,
    0.760882,
    0.796412,
    0.709986,
    1.258966,
    0.823974,
    0.656885,
    0.798077,
    3.658994,
    20.727959,
    7.935967,
    19.759611,
    0.650066,
    0.846966,
    1.181503,
    1.967389,
    0.689964,
    0.746866,
    0.66816,
    0.657964,
    0.660014,
    0.792964,
    0.912964,
    0.858964,
    6.551964,
    1.225692,
    0.620357,
    1.105967,
    1.289762,
    0.682022,
    1.098866,
    3.732971,
    3.362964,
    11.540357,
    7.364967,
    0.59598,
    0.449964,
    0.505877,
    0.375066,
    0.793966,
    0.65538,
    0.684978,
    0.856961,
    0.420263,
    0.532243,
    0.611963,
    1.02044,
    3.116565,
    1.557001,
    0.497964,
    0.544978,
    0.360972,
    0.727968,
    0.53266,
    0.478964,
    0.540648,
    1.936543,
    1.061126,
    0.490157,
    0.706675,
    0.799018,
    0.758286,
    0.677433,
    0.811679,
    0.533789,
    0.616544,
    2.108966,
    0.49798,
    0.400926,
    0.486783,
    1.028983,
    0.547792,
    0.334931,
    0.865983,
    0.721878,
    0.435936,
    0.813358,
    0.405477,
    0.489247,
    1.202547,
    12.530405,
    0.645035,
    0.572703,
    0.622918,
    2.985528,
    0.909041,
    0.748972,
    0.678926,
    0.686815,
    0.619966,
    3.71433,
    3.772964,
    0.481296,
    0.5404,
    0.814078,
    0.439226,
    0.415257,
    0.746349,
    0.796345,
    0.414596,
    0.405382,
    6.717966,
    5.685923,
    0.381966,
    0.413127,
    0.467003,
    0.546665,
    0.468964,
    0.619964,
    1.199964,
    0.574962,
    0.771964,
    0.489929,
    0.54903,
    0.596528,
    4.187964,
    0.676921,
    0.665216,
    1.029967,
    0.84546,
    0.728108,
    0.85901,
    0.766831,
    3.960964,
    10.800967,
    31.605907,
    0.946963,
    0.823242,
    0.620753,
    0.695964,
    0.753072,
    0.824976,
    0.641148,
    0.72818,
    3.402364,
    0.623013,
    0.547964,
    0.799585,
    0.463083,
    0.570972,
    0.417964,
    0.431287,
    0.836995,
    0.364814,
    0.383323,
    3.760966,
    1.796953,
    7.71484,
    10.511966,
    0.439034,
    1.479964,
    0.481964,
    0.53751,
    0.765101,
    0.602231,
    0.679456,
    0.478861,
    0.598058,
    0.70484,
    0.65702,
    0.859989,
    0.599964,
    0.793696,
    0.663995,
    0.595964,
    0.678964,
    3.865079,
    1.01595,
    0.598695,
    0.952965,
    0.877964,
    1.421188,
    3.166194,
    9.476959,
    0.665967,
    0.733266,
    0.415812,
    0.458997,
    0.888306,
    0.576127,
    0.39491,
    0.420945,
    0.424966,
    3.111322,
    6.648865
  ]
}