[
  0.894703,
  1.196617,
  0.997791,
  1.063786,
  0.875767,
  1.055295,
  0.898974,
  1.175759,
  1.091741,
  1.204064,
  0.909486,
  1.033971,
  0.246759,
  0.880532,
  1.108706,
  1.031686,
  1.200892,
  0.89301,
  1.092661,
  0.933681,
  1.11865,
  1.109278,
  1.233264,
  1.025633,
  1.135614,
  0.828369,
  0.946592,
  1.084479,
  1.243572,
  0.922555,
  1.005553,
  0.918561,
  1.070545,
  1.072927,
  1.13888,
  1.015487,
  1.019746,
  1.049468,
  1.128385,
  1.023196,
  1.026359,
  1.076439,
  1.087395,
  1.029915,
  1.05142,
  1.074403,
  1.078444,
  1.058339,
  1.10074,
  1.122223,
  1.234579,
  1.204331,
  1.315711,
  0.282634,
  1.110272,
  1.153863,
  1.051259,
  1.071527,
  1.000226,
  1.087454,
  1.115551,
  1.120528,
  1.055252,
  1.107027,
  1.04929,
  1.092539,
  0.826076,
  0.893747,
  0.903395,
  1.090252,
  0.851119,
  1.000985,
  0.822456,
  0.932939,
  0.953808,
  0.98653,
  0.914065,
  1.05003,
  0.970727,
  1.091047,
  0.223518,
  0.945487,
  1.138026,
  1.106004,
  0.998541,
  0.845996,
  0.956241,
  0.978048,
  1.145788,
  0.868193,
  0.979018,
  0.9042,
  0.971011,
  0.849924,
  0.93965,
  0.855902,
  1.070265,
  0.930677,
  1.024648,
  1.1044,
  1.244329,
  0.96898,
  1.202605,
  1.398305,
  0.956856,
  0.961306,
  1.09288,
  0.99551,
  1.10826,
  1.164476,
  1.248902,
  1.132214,
  1.446221,
  1.085589,
  1.175969,
  1.110152,
  1.179415,
  1.233414,
  1.290177,
  1.419194,
  1.050581,
  1.129159,
  1.086134,
  1.2438,
  1.08122,
  1.122598,
  1.189766,
  1.382105,
  1.087989,
  1.241078,
  1.11266,
  1.21006,
  0.812783,
  0.904469,
  0.964284,
  0.933797,
  0.770124,
  0.807808,
  0.95424,
  1.269449,
  1.221749,
  1.00269,
  0.901631,
  0.811768,
  0.931669,
  0.982502,
  0.853982,
  0.852991,
  0.920892,
  0.87875,
  1.12965,
  0.78296,
  0.785989,
  0.871974,
  0.970491,
  0.997887,
  1.029633,
  0.961197,
  1.047421,
  1.057762,
  0.73175,
  0.779297,
  0.780911,
  0.913256,
  0.974824,
  1.046065,
  1.107407,
  0.980426,
  0.744696,
  0.869716,
  0.952617,
  0.960609,
  0.790855,
  1.002755,
  0.925691,
  0.776472,
  0.977386,
  1.047861,
  0.870092,
  0.876076,
  0.901257,
  0.931057,
  0.972806,
  1.035799,
  0.220972,
  1.042677,
  1.043445,
  0.749258,
  0.905172,
  0.776978,
  0.780063,
  0.79714,
  0.919869,
  0.996836,
  1.02654,
  0.815655,
  0.964567,
  0.813868,
  0.924782,
  0.938969,
  0.985805,
  0.805675,
  0.937551,
  0.796626,
  0.934524,
  0.816595,
  0.950444,
  0.782583,
  0.909618,
  0.943652,
  1.036479,
  0.834026,
  1.026026,
  0.993536,
  0.900511,
  1.033253,
  1.22332,
  0.929712,
  1.304676,
  0.950627,
  1.044908,
  1.007183,
  1.009896,
  1.011669,
  1.021873,
  0.916672,
  1.326854,
  0.273558,
  0.991981,
  1.00911,
  1.14566,
  1.202933,
  1.050235,
  0.936981,
  0.938573,
  1.102778,
  0.90459,
  1.29476,
  1.004742,
  1.020538,
  0.957513,
  1.078731,
  0.961568,
  1.106706,
  0.973376,
  1.061219,
  0.290913,
  0.890468,
  1.046673,
  1.054711,
  1.333599,
  1.127929,
  1.152331,
  1.422185,
  1.019446,
  1.062909,
  1.104886,
  1.169236,
  1.113796,
  1.191875,
  1.141638,
  1.136886,
  0.301229,
  1.075705,
  1.084835,
  1.221824,
  1.205064,
  0.937806,
  0.958506,
  1.209781,
  1.162026,
  0.989863,
  1.105763,
  0.314986,
  1.043752,
  1.052743,
  1.061731,
  1.126876,
  1.066709,
  1.196716,
  1.072685,
  1.136906,
  1.123677,
  1.14167,
  0.960652,
  0.976659,
  1.113637,
  1.302824,
  2.216541,
  1.080386,
  0.848514,
  0.943765,
  1.13539,
  1.176374,
  1.092915,
  1.136419,
  1.005128,
  0.87215,
  0.930367,
  0.98443,
  0.870383,
  0.898999,
  0.917275,
  0.951992,
  0.916508,
  0.929517,
  0.917903,
  0.944784,
  0.976296,
  1.238534,
  0.878641,
  1.11212,
  1.120501,
  0.882718,
  0.898874,
  0.93623,
  0.940408,
  1.056252,
  1.13786,
  0.95147,
  0.997102,
  1.015495,
  1.064097,
  0.898423,
  0.918411,
  0.92637,
  0.957993,
  0.27252,
  0.877469,
  0.964091,
  0.889011,
  0.95896,
  0.838958,
  0.911432,
  0.955554,
  1.023581,
  0.856618,
  0.940026,
  1.057995,
  1.12155,
  0.944395,
  0.980123,
  1.038394,
  0.849026,
  0.839443,
  0.955049,
  0.970536,
  1.084452,
  0.841402,
  0.900008,
  0.258953,
  0.894386,
  0.925268,
  0.894368,
  1.064976,
  0.86235,
  0.894958,
  0.91456,
  0.991325,
  0.990317,
  1.015924,
  1.023905,
  1.07534,
  1.088929,
  1.273324,
  1.100635,
  1.307993,
  1.021008,
  1.202423,
  2.291001,
  1.022887,
  0.984141,
  1.243317,
  1.174304,
  1.287772,
  1.244155,
  1.218891,
  1.343309,
  1.099592,
  1.212855,
  0.997526,
  0.955836,
  1.172676,
  1.427873,
  1.003367,
  1.059988,
  1.099997,
  1.171404,
  1.187394,
  1.471928,
  1.048525,
  1.010898,
  1.155849,
  1.16598,
  1.182753,
  1.058984,
  1.100295,
  1.226,
  1.308983,
  1.260886,
  1.346233,
  1.177607,
  1.291966,
  1.370968,
  1.552363,
  1.214822,
  1.271348,
  1.164336,
  1.25394,
  1.148015,
  1.004532,
  1.018617,
  1.091201,
  1.117655,
  1.285039,
  1.412596,
  1.029798,
  1.527206,
  1.104268,
  1.153955,
  1.185567,
  1.204547,
  1.166872,
  1.176267,
  1.167793,
  1.139521,
  1.00953,
  1.138812,
  1.007153,
  1.185439,
  0.920948,
  1.187464,
  1.01597,
  1.032168,
  1.131384,
  1.181349,
  0.995973,
  1.100368,
  1.14799,
  1.282218,
  1.13915,
  1.141682,
  1.024725,
  1.045819,
  1.122775,
  1.139146,
  1.173104,
  1.224122,
  0.337554,
  1.052745,
  1.101524,
  0.992714,
  1.181124,
  1.125621,
  1.180753,
  1.019686,
  1.131081,
  1.092699,
  1.203297,
  0.886232,
  0.967436,
  0.723896,
  1.009585,
  0.96789,
  1.033383,
  0.796008,
  0.873623,
  0.856663,
  1.06585,
  0.885591,
  1.072821,
  1.338547,
  1.027809,
  1.084579,
  0.802798,
  0.882288,
  0.800695,
  0.88509,
  0.814759,
  0.881821,
  0.885668,
  0.923675,
  0.911984,
  1.033072,
  0.809698,
  0.871519,
  0.963687,
  1.056441,
  0.207121,
  1.000662,
  1.016479,
  0.847643,
  1.024414,
  0.959449,
  0.973936,
  1.023916,
  0.98067,
  0.97111,
  1.027746,
  1.004519,
  1.101915,
  1.043372,
  1.132856,
  1.463675,
  0.957362,
  1.119833,
  0.945258,
  1.103036,
  0.973318,
  1.125828,
  1.000958,
  1.025151,
  0.986593,
  0.996761,
  1.114856,
  1.162371,
  0.925749,
  1.057542,
  0.280755,
  1.127276,
  1.146024,
  1.073604,
  1.236036,
  1.120473,
  1.184669,
  1.046535,
  1.058039,
  0.989234,
  1.158208,
  1.065832,
  1.118095,
  0.964405,
  1.158709,
  0.905792,
  1.163375,
  0.948372,
  1.163864,
  1.026253,
  1.099018,
  0.972253,
  1.118137,
  1.009874,
  1.019031,
  0.304189,
  0.979887,
  1.136061,
  0.98707,
  0.990642,
  1.198039,
  1.247513,
  1.164108,
  1.210987,
  1.162893,
  1.168224,
  0.975935,
  1.073009,
  1.041848,
  1.259193,
  1.043907,
  1.099914,
  1.043098,
  1.113326,
  1.138397,
  1.028117,
  1.098371,
  1.13125,
  1.148014,
  1.425247,
  1.117535,
  0.97961,
  1.320758,
  1.016925,
  1.087422,
  0.958884,
  1.157184,
  1.151097,
  1.301899,
  1.033576,
  1.091177,
  1.098925,
  1.117327,
  1.130031,
  1.240952,
  1.033301,
  1.169512,
  1.01618,
  1.037571,
  1.03901,
  1.119591,
  1.127573,
  1.14757,
  1.014839,
  1.149139,
  1.291995,
  1.253426,
  1.007863,
  1.192237,
  0.282486,
  1.033826,
  1.223017,
  1.177823,
  1.251008,
  1.186188,
  1.272239,
  1.064775,
  1.17717,
  0.971864,
  1.138187,
  1.068346,
  1.265137,
  1.037012,
  1.211407,
  1.378962,
  1.113693,
  1.137504,
  0.991794,
  1.206158,
  1.227082,
  1.066531,
  1.12602,
  1.215356,
  0.226321,
  1.061099,
  1.099554,
  1.029346,
  1.1233,
  1.117299,
  1.147296,
  1.098237,
  1.228106,
  1.026321,
  1.069261,
  0.226022,
  1.005115,
  1.223272,
  1.171222,
  1.391213,
  0.977738,
  1.104195,
  1.021054,
  1.426939,
  1.173591,
  1.321156,
  1.04214,
  1.198138,
  1.068929,
  1.183113,
  1.198085,
  1.335122,
  1.033944,
  1.173096,
  1.19065,
  1.060073,
  1.075749,
  0.946366,
  1.244499,
  0.903549,
  1.19046,
  1.781148,
  0.934691,
  1.097116,
  1.265085,
  1.164366,
  0.944071,
  1.115476,
  0.950056,
  1.346326,
  1.024287,
  1.198942,
  0.943908,
  1.332924,
  1.777843,
  0.854424,
  1.196599,
  0.947984,
  1.219355,
  0.833834,
  1.156877,
  1.040088,
  1.288914,
  0.958802,
  1.19053,
  1.785493,
  0.899818,
  1.255096,
  1.014899,
  1.331007,
  1.057837,
  1.257018,
  0.961912,
  1.445928,
  1.04999,
  0.903612,
  1.012403,
  1.015422,
  1.278573,
  1.340784,
  0.974077,
  0.963266,
  1.560867,
  0.991911,
  1.158895,
  0.269376,
  1.213983,
  1.031651,
  1.103956,
  1.232955,
  1.430949,
  0.983041,
  1.388886,
  1.021027,
  1.025952,
  1.029951,
  1.033989,
  1.05596,
  1.265974,
  0.928126,
  1.016909,
  1.395875,
  0.91651,
  0.918815,
  1.050952,
  1.078964,
  1.103988,
  1.343968,
  1.19892,
  1.055726,
  1.109826,
  1.202856,
  1.274842,
  1.276849,
  0.951924,
  0.956943,
  1.104948,
  1.05866,
  1.018383,
  1.075029,
  0.899614,
  1.01189,
  1.122882,
  1.132906,
  0.272963,
  1.091824,
  1.133979,
  0.957767,
  1.035943,
  0.95596,
  0.970404,
  0.973955,
  1.033962,
  1.068382,
  1.081935,
  0.999796,
  1.062796,
  0.916993,
  1.115101,
  1.0589,
  1.168027,
  0.858907,
  1.105778,
  0.269781,
  0.938864,
  1.013875,
  1.116787,
  1.129971,
  1.08228,
  1.114715,
  1.165027,
  1.152691,
  0.909979,
  1.419101,
  0.860698,
  1.028521,
  1.113309,
  1.064564,
  0.876677,
  1.011978,
  0.246264,
  0.888098,
  0.91396,
  0.893641,
  0.978942,
  0.916809,
  0.980601,
  0.980612,
  1.002192,
  0.886586,
  0.998143,
  1.218863,
  1.14927,
  0.955719,
  0.958691,
  0.890543,
  1.023831,
  0.278359,
  0.874517,
  1.077804,
  0.911499,
  0.99649,
  0.947386,
  1.105281,
  0.968623,
  1.02287,
  0.886438,
  0.946453,
  1.003494,
  1.098784,
  0.909634,
  1.000079,
  1.026705,
  1.245953,
  0.996513,
  1.201088,
  0.8785,
  1.128071,
  0.951843,
  1.156053,
  0.877407,
  1.116753,
  0.911491,
  1.108247,
  0.945833,
  1.089628,
  0.264068,
  0.867988,
  1.159981,
  1.016683,
  1.084841,
  0.877415,
  1.133045,
  1.088196,
  1.188362,
  1.140472,
  1.162176,
  1.013373,
  1.132892,
  0.983892,
  1.081027,
  1.106827,
  0.926378,
  1.08393,
  1.021327,
  1.136997,
  1.033618,
  1.137385,
  0.289952,
  0.943143,
  1.068912,
  0.906124,
  1.097033,
  1.07788,
  1.132099,
  0.882088,
  1.059855,
  0.89007,
  0.994837,
  1.008026,
  1.063557,
  0.907919,
  1.065808,
  1.021153,
  1.104782,
  0.258834,
  0.963998,
  0.976832,
  0.911974,
  1.036754,
  0.864195,
  1.076736,
  0.891222,
  1.083026,
  1.069168,
  1.0697,
  0.980911,
  1.096229,
  0.99901,
  1.138667,
  1.051981,
  1.124211,
  0.279751,
  1.121954,
  1.199999,
  1.047872,
  1.107944,
  0.995517,
  1.091095,
  1.048892,
  1.077034,
  0.983876,
  1.047227,
  1.134994,
  1.241867,
  1.058842,
  1.139983,
  1.211822,
  1.372965,
  0.305018,
  1.192814,
  1.292121,
  1.149786,
  1.204796,
  1.188775,
  1.247531,
  1.314425,
  1.426759,
  1.026742,
  1.11287,
  0.980717,
  1.088985,
  1.111834,
  1.189706,
  0.303359,
  1.11685,
  1.203924,
  0.973477,
  1.013905,
  0.996774,
  1.107887,
  0.92052,
  1.12787,
  0.965547,
  0.997064,
  1.04234,
  1.061835,
  0.926415,
  1.089824,
  1.087407,
  0.947404,
  1.066799,
  0.89244,
  1.088781,
  1.024711,
  1.115026,
  0.969997,
  0.97135,
  0.953325,
  1.055621,
  1.131709,
  0.943238,
  0.282153,
  0.973866,
  1.144698,
  1.01768,
  1.038696,
  1.078253,
  1.095662,
  1.065875,
  1.241154,
  0.954134,
  0.971006,
  0.95712,
  1.097066,
  0.961108,
  0.976041,
  1.028028,
  1.06708,
  0.955063,
  0.972011,
  1.063849,
  1.099045,
  1.096027,
  1.159211,
  1.105209,
  0.916009,
  0.949364,
  0.947934,
  0.955999,
  0.990924,
  1.190976,
  1.042896,
  0.985072,
  0.982944,
  1.147878,
  0.928867,
  0.943004,
  1.009849,
  1.024901,
  0.978218,
  0.927084,
  0.940937,
  1.015613,
  0.993022,
  1.052902,
  0.994691,
  1.040504,
  0.962987,
  1.054113,
  0.989846,
  1.08496,
  1.449962,
  1.020277,
  1.022851,
  1.014916,
  1.020042,
  0.996796,
  1.191803,
  1.184449,
  1.156378,
  0.95924,
  1.00876,
  0.284066,
  1.030742,
  0.998962,
  1.047847,
  1.09585,
  1.186339,
  1.003028,
  1.023688,
  1.023329,
  1.006077,
  1.012582,
  1.001055,
  1.044659,
  1.429284,
  0.98956,
  1.018659,
  0.989549,
  0.988524,
  0.992531,
  0.995614,
  0.99135,
  1.06685,
  0.292908,
  0.977607,
  0.999486,
  1.135468,
  1.198855,
  1.049457,
  1.050543,
  1.033532,
  1.037269,
  1.124088,
  1.192507,
  0.282229,
  1.050487,
  1.113387,
  1.059478,
  1.06179,
  1.006476,
  0.984566,
  0.97944,
  1.01734,
  0.930622,
  1.000333,
  1.111628,
  1.13043,
  0.99256,
  0.99831,
  0.874347,
  1.091343,
  1.666301,
  1.002067,
  1.114326,
  1.174434,
  1.189029,
  0.989939,
  1.155408,
  0.870343,
  1.1884,
  0.942885,
  1.185371,
  0.987167,
  1.332058,
  1.036678,
  1.098729,
  1.138671,
  1.330324,
  0.902748,
  1.126657,
  1.034672,
  1.263001,
  0.986644,
  1.095045,
  0.995095,
  1.185775,
  0.264583,
  0.937608,
  1.136219,
  1.056584,
  1.230211,
  0.932637,
  1.321192,
  0.908143,
  1.050068,
  1.124775,
  1.07216,
  0.895237,
  1.035005,
  1.667174,
  0.974617,
  0.969994,
  1.000072,
  1.03513,
  0.966792,
  0.985084,
  1.026341,
  1.248879,
  0.875978,
  1.011758,
  1.230962,
  1.293743,
  1.189194,
  0.99016,
  1.019862,
  0.93422,
  0.92122,
  0.87394,
  1.05072,
  1.05596,
  1.160728,
  1.367007,
  0.931182,
  0.334305,
  0.992056,
  1.013704,
  1.118152,
  1.15407,
  0.996006,
  0.943088,
  1.168769,
  1.228988,
  0.989997,
  1.093058,
  0.874018,
  1.030745,
  0.996907,
  1.073897,
  1.185676,
  1.434801,
  0.961034,
  1.142814,
  1.058923,
  1.104425,
  1.136997,
  0.910999,
  0.93399,
  1.01078,
  1.016758,
  0.953024,
  1.097806,
  0.948201,
  1.090984,
  0.913998,
  1.03433,
  0.907007,
  1.094675,
  0.965018,
  1.010002,
  1.044785,
  1.129905,
  0.991976,
  1.058209,
  1.048189,
  0.899026,
  0.949973,
  0.97792,
  1.005989,
  1.070474,
  0.939667,
  0.983764,
  1.077974,
  1.126373,
  1.135745,
  1.064026,
  0.28101,
  1.053857,
  1.021175,
  0.959939,
  1.084706,
  0.978917,
  1.074698,
  1.000671,
  1.028903,
  0.980738,
  1.099883,
  1.667048,
  1.067772,
  1.075938,
  1.045914,
  1.066772,
  1.120896,
  1.15718,
  1.023843,
  1.072871,
  0.974853,
  1.013515,
  1.011827,
  1.060842,
  1.059817,
  1.062664,
  1.086025,
  1.022762,
  1.399806,
  1.065621,
  1.103788,
  1.019607,
  0.944906,
  1.143054,
  1.146749,
  1.048471,
  1.266727,
  1.038081,
  1.166709,
  1.104309,
  1.168721,
  1.037673,
  1.038517,
  0.966662,
  1.023495,
  1.004232,
  1.026934,
  1.764576,
  1.113915,
  1.1152,
  0.967196,
  1.185316,
  0.983185,
  1.113872,
  1.005728,
  1.006157,
  0.357355,
  0.980848,
  0.991012,
  0.964098,
  1.071822,
  0.95441,
  0.956978,
  1.050781,
  1.142093,
  1.162763,
  1.165075,
  0.952729,
  0.958484,
  0.992644,
  0.997009,
  1.078019,
  1.155706,
  1.120845,
  1.194999,
  0.281878,
  1.12468,
  1.142978,
  1.115654,
  1.121685,
  1.038404,
  1.054566,
  1.111528,
  1.146683,
  0.994524,
  1.049641,
  1.114649,
  1.163506,
  1.153003,
  1.179627,
  0.993887,
  1.000502,
  0.294317,
  1.093588,
  1.138445,
  1.004016,
  1.094887,
  1.100548,
  1.183419,
  1.06953,
  1.102401,
  1.201519,
  1.353377,
  0.998616,
  1.045358,
  1.03534,
  1.237917,
  0.295662,
  0.997322,
  1.094536,
  0.969311,
  1.04444,
  1.061293,
  1.091422,
  0.943015,
  1.120455,
  0.992024,
  0.86153,
  1.013057,
  0.883784,
  0.985167,
  1.012622,
  1.173759,
  0.837705,
  0.987393,
  0.938465,
  0.970979,
  0.279654,
  0.942571,
  1.086234,
  0.952648,
  1.140026,
  1.006521,
  1.100925,
  0.893617,
  1.009282,
  0.989264,
  1.179653,
  0.280907,
  0.863614,
  0.994872,
  0.873464,
  1.083026,
  0.892551,
  0.981854,
  0.85334,
  1.011202,
  1.383542,
  0.89266,
  0.982177,
  0.909189,
  1.001934,
  1.033909,
  0.906026,
  0.880211,
  0.989891,
  0.972863,
  0.989873,
  0.936287,
  1.065862,
  0.959557,
  1.061847,
  1.046166,
  1.049822,
  1.043321,
  1.110027,
  0.911009,
  1.056026,
  0.832372,
  0.993998,
  1.127765,
  0.875972,
  1.043026,
  0.964962,
  1.095028,
  1.022936,
  1.115717,
  1.016919,
  1.155026,
  0.952911,
  0.977678,
  0.957881,
  1.018662,
  0.964099,
  0.987808,
  1.144072,
  1.374029,
  1.163023,
  1.197733,
  1.05824,
  1.090759,
  0.992017,
  1.074741,
  1.038009,
  1.227718,
  1.03498,
  1.090399,
  0.285239,
  1.063966,
  1.14569,
  1.047948,
  1.325673,
  0.95793,
  1.105653,
  0.950912,
  1.011635,
  1.071894,
  1.15965,
  1.153593,
  1.15388,
  0.961866,
  1.383238,
  0.971163,
  1.078556,
  1.014963,
  1.081545,
  0.843965,
  0.935877,
  0.896163,
  0.917541,
  0.994901,
  1.133884,
  0.900601,
  0.913103,
  1.018495,
  0.251538,
  1.002573,
  1.129203,
  0.993065,
  1.094458,
  0.884055,
  1.057433,
  1.005669,
  1.074422,
  0.837014,
  0.910747,
  0.93178,
  0.959382,
  0.292069,
  0.870976,
  0.885368,
  1.060342,
  1.117965,
  0.974886,
  1.030325,
  0.886922,
  0.893721,
  0.870912,
  0.94529,
  0.252004,
  1.236686,
  1.264151,
  1.16115,
  1.192364,
  1.146267,
  1.239124,
  1.045063,
  1.188099,
  1.140088,
  1.151446,
  1.089749,
  1.11007,
  0.352951,
  1.087831,
  1.095154,
  1.249382,
  1.28207,
  1.242388,
  1.270019,
  0.999122,
  1.104988,
  1.087449,
  1.150026,
  0.243955,
  1.198507,
  1.248953,
  1.056394,
  1.109065,
  1.198318,
  1.199302,
  1.000771,
  1.14736,
  1.216471,
  1.309026,
  0.901726,
  0.933739,
  1.048989,
  1.081871,
  0.24038,
  0.969731,
  0.90403,
  0.880516,
  0.901277,
  0.887389,
  0.997821,
  0.834836,
  0.899651,
  0.828626,
  1.01498,
  0.978615,
  1.101079,
  0.927747,
  0.946598,
  0.910607,
  1.006024,
  0.88478,
  0.956163,
  1.011203,
  1.002291,
  1.467598,
  0.843603,
  0.876782,
  1.126107,
  0.904538,
  0.921517,
  0.872644,
  0.911348,
  0.817065,
  0.984564,
  0.263175,
  1.001393,
  1.080656,
  0.788618,
  0.891017,
  0.825094,
  0.905508,
  0.897488,
  0.918077,
  0.851553,
  0.952054,
  0.898258,
  1.012446,
  0.934021,
  0.895207,
  0.83122,
  0.943417,
  1.524483,
  0.876993,
  0.983142,
  0.786969,
  0.991382,
  0.783949,
  0.917363,
  0.909939,
  0.970338,
  0.879913,
  0.936326,
  0.928302,
  0.867509,
  0.844242,
  0.916026,
  1.002238,
  1.04531,
  0.926839,
  1.153317,
  1.096627,
  1.267523,
  1.026149,
  1.053799,
  1.142555,
  1.162539,
  1.057931,
  1.119569,
  0.99798,
  0.991757,
  1.057612,
  1.059465,
  0.983477,
  1.011421,
  0.294084,
  1.064871,
  1.292004,
  1.007942,
  1.056045,
  1.016461,
  1.070997,
  0.984323,
  1.075913,
  1.018483,
  1.053837,
  0.989857,
  1.018523,
  1.724575,
  0.992357,
  0.994851,
  0.95693,
  0.977569,
  0.85855,
  1.00833,
  0.957755,
  1.026209,
  0.903507,
  1.032881,
  0.913494,
  1.037856,
  0.903476,
  1.043833,
  0.992479,
  1.162826,
  1.09544,
  1.117933,
  0.981471,
  1.201782,
  0.289364,
  0.9684,
  0.969138,
  1.13075,
  1.142389,
  1.179368,
  1.202592,
  0.982643,
  1.138119,
  0.973325,
  1.049407,
  0.26999,
  1.032967,
  1.08315,
  0.868311,
  1.002382,
  0.98067,
  1.206146,
  0.803882,
  1.13509,
  0.765636,
  1.09819,
  0.929951,
  1.102173,
  0.949541,
  1.102039,
  1.110275,
  0.85934,
  1.164906,
  1.27879,
  1.124541,
  1.258801,
  0.90153,
  1.047023,
  0.811935,
  1.169026,
  0.934723,
  1.181982,
  0.893336,
  1.185906,
  0.98511,
  1.140606,
  0.783707,
  1.078927,
  0.30312,
  0.804415,
  1.100411,
  0.904397,
  1.08434,
  1.019928,
  1.17808,
  1.159838,
  1.288045,
  0.283011,
  0.965628,
  1.15806,
  1.254878,
  1.254207,
  1.005776,
  1.249034,
  1.045903,
  1.128016,
  1.050817,
  1.242944,
  1.113806,
  1.198919,
  0.990782,
  1.223908,
  1.415873,
  1.035895,
  1.265882,
  0.985812,
  1.132343,
  1.105494,
  1.079932,
  1.191478,
  1.133756,
  0.996691,
  1.118861,
  1.10568,
  1.285288,
  1.043506,
  1.231008,
  0.771834,
  0.972864,
  0.903593,
  1.051479,
  0.785965,
  0.993824,
  0.904531,
  0.984138,
  0.695731,
  1.089294,
  0.824502,
  0.912958,
  0.845475,
  0.956943,
  0.793377,
  0.900226,
  0.264581,
  0.788259,
  0.954731,
  0.920431,
  1.0667,
  0.755284,
  0.979686,
  0.772176,
  0.921868,
  0.744882,
  1.162294,
  1.088354,
  1.040813,
  0.995435,
  1.037889,
  1.293297,
  0.774345,
  0.946071,
  1.233163,
  1.26007,
  0.913278,
  0.917136,
  0.873116,
  0.95126,
  0.990106,
  0.990911,
  0.894088,
  0.965216,
  0.884063,
  1.004405,
  0.878045,
  0.941188,
  0.95503,
  1.022172,
  1.024955,
  1.120051,
  0.271904,
  1.135226,
  1.26093,
  0.979504,
  1.018685,
  0.885305,
  1.219093,
  0.94594,
  0.966084,
  1.022021,
  1.162039,
  0.923904,
  1.079046,
  0.889224,
  1.137989,
  0.970026,
  1.133834,
  0.973353,
  1.140091,
  0.982262,
  1.144495,
  1.005237,
  1.243594,
  1.064223,
  1.080986,
  1.154015,
  1.294205,
  1.11558,
  1.27919,
  0.972165,
  1.103115,
  1.085147,
  1.221972,
  1.106954,
  1.131129,
  1.481975,
  0.970111,
  1.111839,
  1.0651,
  1.146911,
  1.128075,
  1.224027,
  1.072924,
  1.001026,
  1.113014,
  1.277046,
  1.022028,
  1.056158,
  1.134931,
  1.20371,
  1.043907,
  1.127203,
  1.061888,
  1.123588,
  1.081878,
  1.14705,
  0.283501,
  1.081632,
  1.099249,
  1.091835,
  1.096799,
  1.024824,
  1.136996,
  1.053799,
  1.126985,
  1.046788,
  1.12696,
  1.178949,
  1.224761,
  0.988055,
  1.188864,
  1.140727,
  1.242043,
  1.174611,
  1.120026,
  1.167702,
  1.191305,
  0.305186,
  1.016673,
  1.14399,
  1.170655,
  1.265841,
  1.24928,
  1.254509,
  1.128348,
  1.137511,
  0.333002,
  1.170442,
  1.290296,
  1.152142,
  1.34525,
  1.114919,
  1.136071,
  1.110249,
  1.141514,
  1.235224,
  1.243673,
  1.190206,
  1.14112,
  1.141195,
  1.237407,
  1.18717,
  1.269575,
  1.159491,
  1.214159,
  1.154141,
  1.147183,
  1.244292,
  1.297095,
  1.120816,
  1.118026,
  1.365888,
  1.079087,
  1.154077,
  1.120069,
  1.264791,
  0.916685,
  1.118107,
  0.915876,
  1.153008,
  0.889644,
  1.237128,
  1.027626,
  1.256055,
  0.977612,
  1.172033,
  0.911411,
  1.106016,
  0.936956,
  1.249458,
  0.923554,
  1.15799,
  0.246271,
  0.878787,
  1.110969,
  1.179954,
  1.338086,
  1.002541,
  1.255928,
  0.894313,
  1.105186,
  0.985637,
  1.266895,
  0.995924,
  1.260875,
  0.873132,
  1.121525,
  0.954405,
  1.112842,
  1.42537,
  0.792043,
  1.018094,
  1.083898,
  1.177153,
  0.900141,
  1.064106,
  1.108121,
  1.127816,
  1.130569,
  1.155763,
  0.998463,
  1.10406,
  1.350351,
  1.071045,
  1.103119,
  0.974658,
  1.028056,
  0.955937,
  1.055005,
  0.936244,
  1.096099,
  0.960574,
  1.032152,
  1.031999,
  1.126662,
  0.937528,
  0.974015,
  1.137634,
  1.032624,
  1.367357,
  1.033673,
  1.046612,
  0.910094,
  1.036539,
  0.932896,
  0.947148,
  1.018909,
  1.06535,
  1.062921,
  1.066749,
  1.064375,
  1.17432,
  0.97686,
  0.990177,
  1.014902,
  1.038081,
  1.122817,
  1.168008,
  0.973914,
  1.048803,
  0.281424,
  1.08403,
  1.099918,
  1.087932,
  1.116903,
  1.011701,
  1.014742,
  0.915911,
  1.105724,
  1.005205,
  1.016706,
  1.046104,
  1.079698,
  0.96267,
  1.006927,
  0.938749,
  0.976864,
  0.911561,
  0.972263,
  0.940992,
  0.94952,
  0.844236,
  0.922736,
  0.93809,
  0.954732,
  0.877705,
  0.881079,
  0.963514,
  0.984626,
  0.907662,
  0.949038,
  0.855068,
  0.980067,
  0.980626,
  0.995002,
  0.877934,
  1.004641,
  0.255192,
  0.966966,
  1.067713,
  0.949928,
  0.993948,
  0.926723,
  0.976551,
  0.867523,
  1.007536,
  0.956524,
  0.968886,
  1.451301,
  0.941893,
  1.011496,
  0.969926,
  1.107338,
  0.343973,
  1.104918,
  1.262371,
  1.004964,
  1.175302,
  1.20488,
  1.267409,
  1.023862,
  1.127063,
  1.244832,
  1.26462,
  1.408996,
  1.116825,
  1.213222,
  1.019801,
  1.12221,
  0.99579,
  1.135185,
  1.085979,
  1.248184,
  0.964994,
  1.138161,
  0.977732,
  1.237654,
  1.008711,
  1.23212,
  1.405398,
  1.091702,
  1.131097,
  1.209078,
  1.218683,
  1.10335,
  1.274315,
  0.993896,
  1.155636,
  0.964778,
  1.459322,
  0.222691,
  1.120326,
  1.004006,
  1.009564,
  1.11131,
  0.929809,
  1.174384,
  1.041979,
  1.293435,
  0.995245,
  1.214263,
  0.365,
  1.103314,
  1.134236,
  0.987466,
  1.117384,
  1.021362,
  1.407159,
  0.22269,
  0.978157,
  1.112163,
  1.105585,
  1.251851,
  0.891516,
  1.274763,
  1.072383,
  1.165102,
  1.140644,
  1.251084,
  1.27782,
  1.147306,
  0.784305,
  0.970568,
  0.815395,
  0.897796,
  0.965799,
  1.048588,
  0.770958,
  0.90424,
  0.833507,
  0.912745,
  1.014972,
  1.042126,
  0.90726,
  0.926699,
  1.372667,
  0.952698,
  0.981926,
  0.785913,
  0.943401,
  0.827532,
  1.136855,
  0.72849,
  0.952632,
  0.721514,
  0.843477,
  0.961406,
  0.965828,
  0.791261,
  0.934581,
  0.8674,
  0.900563,
  0.247516,
  0.841023,
  0.939576
]