[
  0.6968056641130317,
  0.12624599983285417,
  4.0017067431996685,
  3.6550980302871974,
  5.599921754986412,
  6.32687882220756,
  5.516923056190075,
  5.344090920365049,
  0.1413280796860102,
  4.3348270728282765,
  4.160183977943785,
  0.20981268896915978,
  3.721509712515362,
  3.6648359272538418,
  0.4023723925408932,
  5.1306104596149655,
  3.751631243630814,
  5.065306102247737,
  5.284337707097635,
  5.608875553180703,
  1.0685855047208308,
  3.559776417780141,
  0.1699071919706603,
  5.262890627008735,
  4.5033970051791155,
  5.718238719617381,
  5.490780183698868,
  5.214330476782456,
  3.9445208858466434,
  4.3833162551301506,
  4.357978600528639,
  4.782619362496552,
  2.502238644038788,
  7.125253028069364,
  5.42943426455453,
  0.14417155476471183,
  5.047643590432804,
  6.101095999022333,
  1.572166423248899,
  4.513690194638589,
  5.129999674186278,
  6.445622172782844,
  4.2641630105537685,
  5.149468228960291,
  4.813373388438505,
  5.969114434940845,
  2.338021846476135,
  1.8510973870531005,
  0.5006304733815008,
  4.139131437076108,
  6.011442114676656,
  6.112355356476292,
  2.3894519159099694,
  3.2509920737338907,
  6.307373020544128,
  2.113424628114704,
  0.37154991793001185,
  3.0848777502980282,
  0.5888565258536603,
  0.35326366003156623,
  4.523475664667772,
  3.9666890173948057,
  3.262643715719826,
  0.5492752384508633,
  3.6226786096701566,
  1.5856228597722595,
  0.3054564995621573,
  2.760509491432389,
  2.2126381023983233,
  2.140246462286963,
  5.022999971779172,
  0.46721462929893093,
  4.411325752228691,
  2.070716190863507,
  2.790490485577722,
  5.365594399728421,
  1.482618549726527,
  2.8313481332294996,
  6.347351904166824,
  1.7301750990029967,
  4.077383383100237,
  4.774932290731125,
  0.6182525521087793,
  5.646302508027234,
  5.509490791832428,
  3.0127065382815172,
  4.867792248869482,
  3.439900577945312,
  4.916874051155908,
  3.7593691514547034,
  5.390080540146956,
  5.302572046977387,
  4.9214373301916305,
  4.7046594372451755,
  5.309187634310284,
  2.715134849763091,
  3.44228688092441,
  4.237608327502041,
  6.35664608213213,
  6.037676576690842,
  5.757516943801004,
  4.620547908098077,
  4.273055974815194,
  4.844479630405414,
  3.8603166520505043,
  3.507833125255457
]