{
  "1000": [
    0.50084,
    0.41272,
    0.443264,
    0.551727,
    0.417981,
    0.509978,
    0.434305,
    0.609938,
    0.42798,
    0.36711,
    0.46098,
    0.636592,
    0.429894,
    0.387689,
    0.545374,
    0.67198,
    0.448252,
    0.618713,
    0.574979,
    0.35698,
    0.444732,
    0.62057,
    0.637147,
    0.41098,
    0.734076,
    0.511988,
    0.700311,
    0.41398,
    0.604128,
    0.64698,
    0.32398,
    0.54998,
    0.434032,
    0.353703,
    0.48398,
    0.407114,
    0.480319,
    0.44598,
    0.434153,
    0.42098,
    0.372059,
    0.630414,
    0.65498,
    0.33598,
    0.414911,
    0.64598,
    0.82698,
    0.487704,
    0.422606,
    0.572263,
    0.37998,
    0.39038,
    0.447856,
    0.35498,
    0.538561,
    0.471165
  ],
  "1048576": [
    0.461006,
    0.812988,
    0.33298,
    0.528979,
    0.397377,
    0.36398,
    0.50698,
    0.57498,
    0.399211,
    0.588966,
    0.39398,
    0.326095,
    0.38298,
    0.367979,
    0.66698,
    0.410952,
    0.69998,
    0.697978,
    0.39698,
    0.611216,
    0.44961,
    0.363923,
    0.406731,
    0.337935,
    0.56098,
    0.58098,
    0.537976,
    0.45298,
    0.55298,
    0.360979,
    0.36598,
    0.42798,
    0.435301,
    0.452876,
    0.568307,
    0.43298,
    0.48598,
    0.544864,
    0.58998,
    0.581501,
    0.345745,
    0.36398,
    0.666303,
    0.52998,
    0.36818,
    0.386668,
    0.346973,
    0.528226,
    0.404403,
    0.54898,
    0.43398,
    0.556682,
    0.577437,
    0.444411,
    0.413012,
    0.420033,
    0.333059,
    0.609715,
    0.692251,
    0.719471,
    0.283182,
    0.472779,
    0.52098,
    0.367056,
    0.533541,
    0.34598,
    0.393979,
    0.719844,
    0.474719,
    0.44498,
    0.62498,
    0.58898,
    0.70598,
    0.363094,
    0.41889,
    0.553979,
    0.62398,
    0.47198,
    0.401849,
    0.49098,
    0.446142,
    0.442918,
    0.6462,
    0.418282,
    0.49998,
    0.60798,
    0.442361,
    0.370189,
    0.433447,
    0.470913,
    0.601358,
    0.447673,
    0.676658,
    0.43598,
    0.54498,
    0.426979,
    0.68998,
    0.485329,
    0.60398,
    0.614434,
    0.70498,
    0.395314,
    0.625979,
    0.568761,
    0.600389,
    0.632172,
    0.567777,
    0.475573,
    0.572981,
    0.41498,
    0.57298,
    0.771944,
    0.718083,
    0.628775,
    0.429986
  ],
  "51200": [
    0.506985,
    0.576449,
    0.554683,
    0.378932,
    0.62194,
    0.39598,
    0.679794,
    0.64198,
    0.439452,
    0.507015,
    0.712599,
    0.482979,
    0.541101,
    0.57098,
    0.324979,
    0.385178,
    0.323559,
    0.361827,
    0.39698,
    0.34952,
    0.362944,
    0.61336,
    0.349391,
    0.394186,
    0.494509,
    0.549978,
    0.619835,
    0.40298,
    0.368217,
    0.415972,
    0.45298,
    0.42098,
    0.61598,
    0.406965,
    0.63798,
    0.450957,
    0.436978,
    0.518938,
    0.406542,
    0.555964,
    0.624019,
    0.475568,
    0.410738,
    0.505125,
    0.480282,
    0.373643,
    0.523024,
    0.57798,
    0.51498,
    0.39998,
    0.59994,
    0.42003,
    0.650903,
    0.51198,
    0.670034,
    0.402453,
    0.32198,
    0.37598,
    0.391967,
    0.569105,
    0.492076,
    0.396388,
    0.550505,
    0.405381,
    0.423182,
    0.48198,
    0.55098,
    0.556385,
    0.574697,
    0.455815,
    0.487418,
    0.616327,
    0.62098,
    0.471539,
    0.484838,
    0.416688,
    0.575676,
    0.463979,
    0.607981,
    0.660978,
    0.528615,
    0.432295,
    0.512979,
    0.850981,
    0.664133,
    0.40498,
    0.50901,
    0.44498,
    0.369979,
    0.529979,
    0.471932,
    0.62498,
    0.44198,
    0.41898,
    0.482959,
    0.450624,
    0.57798,
    0.50798,
    0.46298,
    0.355027,
    0.383228,
    0.54256,
    0.40998,
    0.4752,
    0.65898,
    0.63398,
    0.575298,
    0.42198,
    0.474206,
    0.70998,
    0.734839,
    0.367027,
    0.630566,
    0.526981,
    0.520092,
    0.767211,
    0.481816,
    0.52698,
    0.365963,
    0.48498,
    0.634406,
    0.449992,
    0.57298,
    0.413174,
    0.393034,
    0.50398,
    0.508095,
    0.660058,
    0.63598,
    0.52198,
    0.397968,
    0.54298,
    0.44298,
    0.537689,
    0.665071,
    0.408665,
    0.570965,
    0.49098,
    0.371236,
    0.425564,
    0.665855,
    0.619402,
    0.371675,
    0.39229,
    0.734272,
    0.419883,
    0.408508,
    0.401955,
    0.452176,
    0.473667,
    0.487002,
    0.53096,
    0.45998,
    0.515092,
    0.433655,
    0.392984,
    0.413118,
    0.51688,
    0.605981,
    0.40544,
    0.446591,
    0.494093,
    0.52322,
    0.469981,
    0.504366,
    0.582984,
    0.440101,
    0.470326,
    0.43846,
    0.65698,
    0.650092,
    0.51206,
    0.69698,
    0.428652,
    0.476544,
    0.398955,
    0.715212,
    0.409978,
    0.69098,
    0.373832,
    0.755382,
    0.67298,
    0.49998,
    0.386979,
    0.374847,
    0.586382,
    0.34698,
    0.401918,
    1.613915,
    0.491979,
    0.385979,
    0.321979,
    0.428829,
    0.79998,
    0.42998,
    0.521799,
    0.72798,
    0.377143,
    0.68598,
    0.486186,
    0.365051,
    0.64698,
    0.405396,
    0.431687,
    0.593222,
    0.438981,
    0.666981,
    0.669979,
    0.566978,
    0.47798,
    0.52181,
    0.38198,
    0.56011,
    0.45998,
    0.60898,
    0.51642,
    0.61098,
    0.50743,
    0.493265,
    0.366959,
    0.416834,
    0.375081,
    0.671649,
    0.60798,
    0.60298,
    0.500638,
    0.411817,
    0.512294,
    0.450982,
    0.594131,
    0.670896,
    0.53486,
    0.701959,
    0.493636,
    0.460318,
    0.433762,
    0.443722,
    0.481658,
    0.48098,
    0.572084,
    0.399441,
    0.313929,
    0.316301,
    0.37498,
    0.41798,
    0.444847,
    0.44798,
    0.309315,
    0.465344,
    0.480854,
    0.46898,
    0.63943,
    0.31698,
    0.59298,
    0.687952,
    0.58498,
    0.493323,
    0.44898,
    0.756917,
    0.405122,
    0.600324,
    0.640676,
    0.413848,
    0.605293,
    0.388996,
    0.354993,
    0.34798,
    0.304859,
    0.381961,
    0.61198,
    0.452649,
    0.53798,
    0.335123,
    0.278038,
    0.292383,
    0.310002,
    0.301436,
    0.36898,
    0.539801,
    0.638968,
    0.584852,
    0.374865,
    0.67498,
    0.558988,
    0.519793,
    0.403715,
    0.608156,
    0.44498,
    0.529141,
    0.444084,
    0.545414,
    0.47885,
    0.428322,
    0.48498,
    0.597458,
    0.53198,
    0.65566,
    0.395718,
    0.67021,
    0.466657,
    0.42898,
    0.434966,
    0.437408,
    0.54598,
    0.568615,
    0.629507,
    0.63298,
    0.54498,
    0.437713,
    0.707252,
    0.499225,
    0.40698,
    0.400706,
    0.5438,
    0.531747,
    0.57471,
    0.490979,
    0.510091,
    0.40298,
    0.523748,
    0.520979,
    0.421741,
    0.557871,
    0.56798,
    0.650981,
    0.426982,
    0.626165,
    0.582316,
    0.398088,
    0.61298,
    0.625934,
    0.61016,
    0.47998,
    0.450331,
    0.385571,
    0.454364,
    0.519982,
    0.423369,
    0.49598,
    0.428134,
    0.30298,
    0.51398,
    0.58998,
    0.430466,
    0.42098,
    0.338392,
    0.42898,
    0.43898,
    0.34698,
    0.478979,
    0.527173,
    0.470766,
    0.810956,
    0.487532,
    0.444738,
    0.681298,
    0.540936,
    0.649938,
    0.591982,
    0.499253,
    0.518038,
    0.430188,
    0.547655,
    0.467398,
    0.374996,
    0.488498,
    0.51809,
    0.338161,
    0.351964,
    0.31498,
    0.573132,
    0.34896,
    0.516116,
    0.49545,
    0.384099,
    0.409971,
    0.35098,
    0.412965,
    0.65398,
    0.438482,
    0.42898,
    0.512964,
    0.40698,
    0.45498,
    0.533786,
    0.584027,
    0.457521,
    0.596981,
    0.615673,
    0.52398,
    0.36598,
    0.420903,
    0.921412,
    0.371124,
    0.529723,
    0.67984,
    0.46898,
    0.48198,
    0.37198,
    0.486958,
    0.549883,
    0.40098,
    0.45698,
    0.399766,
    0.630135,
    0.413223,
    0.667061,
    0.475191,
    0.42998,
    0.414424,
    0.52211,
    0.560182,
    0.34698,
    0.518111,
    0.363981,
    0.4343,
    0.408009,
    0.358886,
    0.429066,
    0.349874,
    0.570249,
    0.409909,
    0.407743,
    0.382433,
    0.362784,
    0.664107,
    0.36598,
    0.53498,
    0.768723,
    0.360549,
    0.404528,
    0.619249,
    0.55898,
    0.70998,
    0.63498,
    0.51598,
    0.47198,
    0.604933,
    0.58398,
    0.567389,
    0.43298,
    0.419291,
    0.437217,
    0.481409,
    0.492027,
    0.541738,
    0.820158,
    0.380011,
    0.64598,
    0.527282,
    0.41101,
    0.626981,
    0.525979,
    0.573526,
    0.397582,
    0.43598,
    0.568932,
    0.44898,
    0.545778,
    0.46498,
    0.510827,
    0.389124,
    0.447568,
    0.554108,
    0.488841,
    0.393989,
    0.406983,
    0.560316,
    0.632174,
    0.818886,
    0.490515,
    0.523008,
    0.45298,
    0.571328,
    0.467581,
    0.476289,
    0.717265,
    0.699961,
    0.551974,
    0.427266,
    0.49598,
    0.406683,
    0.603317,
    0.550811,
    0.41298,
    0.37198,
    0.762545,
    0.56998,
    0.63598,
    0.45198,
    0.42398,
    0.44898,
    0.75798,
    0.508981,
    0.448359,
    0.425979,
    0.401602,
    0.650004,
    0.438598,
    0.440599,
    0.51237,
    0.452981,
    0.537423,
    0.45842,
    0.512964,
    0.717958,
    0.622293,
    0.576735,
    0.599122,
    0.641032,
    0.680849,
    0.347032,
    0.653835,
    0.359662,
    0.52298,
    0.753855,
    0.482996,
    0.576758,
    0.584119,
    0.58511,
    1.102214,
    0.725108,
    0.817776,
    0.556096,
    0.467374,
    0.494442,
    0.455061,
    0.659119,
    0.553024,
    0.75798,
    0.67898,
    0.486653,
    0.463045,
    0.543127,
    0.590234,
    0.381744,
    0.38498,
    0.49998,
    0.391788,
    0.524858,
    0.42998,
    0.59998,
    0.560972,
    0.530981,
    0.422082,
    0.488261,
    0.471903,
    0.68498,
    0.770846,
    0.45598,
    0.41398,
    0.54138,
    0.36198,
    0.42275,
    0.466193,
    0.51098,
    0.4246,
    0.66598,
    0.490764,
    0.50698,
    0.659097,
    0.454519,
    0.57298,
    0.682974,
    0.63698,
    0.60698,
    0.709959,
    0.830979,
    0.494574,
    0.448391,
    0.511901,
    0.444484,
    0.663012,
    0.689979,
    0.451962,
    0.714599,
    0.431979,
    0.438602,
    0.573385,
    0.427602,
    0.456414,
    0.48598,
    0.789598,
    0.697536,
    0.467353,
    0.57298,
    0.415728,
    0.538759,
    0.680915,
    0.577157,
    0.696675,
    0.474979,
    0.60869,
    0.70398,
    0.533485,
    0.502243,
    0.52098,
    0.48598,
    0.377384,
    0.60338,
    0.410803,
    0.32998,
    0.453323,
    0.582267,
    0.414017,
    0.436015,
    0.399757,
    0.49698,
    0.34398,
    0.61198,
    0.37398,
    0.362357,
    0.64598,
    0.58098,
    0.443216,
    0.35198,
    0.37598,
    0.52498,
    0.41798,
    0.408981,
    0.481675,
    0.64198,
    0.564562,
    0.680018,
    0.53393,
    0.762926,
    0.588304,
    0.75298,
    0.497976,
    0.43517,
    0.51699,
    0.594403,
    0.352413,
    0.66498,
    0.507625,
    0.609323,
    0.36514,
    0.76698,
    0.58798,
    0.469973,
    0.445029,
    0.417728,
    0.634542,
    0.362125,
    0.381057,
    0.55198,
    0.390095,
    0.511156,
    0.56383,
    0.715831,
    0.558981,
    0.518062,
    0.720054,
    0.49498,
    0.57998,
    0.584977,
    0.53398,
    0.604544,
    0.46798,
    0.515906,
    0.49598,
    0.690063,
    0.528528,
    0.523493,
    0.532173,
    0.583523,
    0.396659,
    0.430943,
    0.513304,
    0.846036,
    0.436263,
    0.469358,
    0.570319,
    0.35498
  ],
  "5242880": [
    0.392978,
    0.439868,
    0.43798,
    0.568395,
    0.50498,
    0.40403,
    0.413088,
    0.685413,
    0.578005,
    0.46398,
    0.612621,
    0.463979,
    0.394895,
    0.436865,
    0.704978,
    0.505982,
    0.347984,
    0.43098,
    0.368982,
    0.615976,
    0.532379,
    0.44898,
    0.353986,
    0.539203,
    0.38798,
    0.37206,
    0.35598,
    0.57898,
    0.54498,
    0.576979,
    0.513177,
    0.667653,
    0.518173,
    0.624211,
    0.587486,
    0.76616,
    0.43935,
    0.68898,
    0.65598,
    0.59798,
    0.539209,
    0.418543,
    0.62398,
    0.443167,
    0.47382,
    0.447136,
    0.441795,
    0.340574,
    0.750977,
    0.72395,
    0.44098
  ],
  "ALL": [
    0.50084,
    0.41272,
    0.506985,
    0.576449,
    0.554683,
    0.378932,
    0.62194,
    0.39598,
    0.679794,
    0.64198,
    0.439452,
    0.507015,
    0.461006,
    0.812988,
    0.392978,
    0.439868,
    0.443264,
    0.551727,
    0.712599,
    0.482979,
    0.541101,
    0.57098,
    0.324979,
    0.385178,
    0.323559,
    0.361827,
    0.39698,
    0.34952,
    0.362944,
    0.33298,
    0.528979,
    0.397377,
    0.417981,
    0.509978,
    0.434305,
    0.61336,
    0.349391,
    0.394186,
    0.494509,
    0.549978,
    0.619835,
    0.40298,
    0.368217,
    0.415972,
    0.45298,
    0.42098,
    0.61598,
    0.43798,
    0.609938,
    0.42798,
    0.406965,
    0.63798,
    0.450957,
    0.436978,
    0.518938,
    0.406542,
    0.555964,
    0.624019,
    0.475568,
    0.410738,
    0.505125,
    0.480282,
    0.36398,
    0.50698,
    0.36711,
    0.46098,
    0.373643,
    0.523024,
    0.57798,
    0.51498,
    0.39998,
    0.59994,
    0.42003,
    0.650903,
    0.51198,
    0.670034,
    0.402453,
    0.32198,
    0.37598,
    0.57498,
    0.636592,
    0.391967,
    0.569105,
    0.492076,
    0.396388,
    0.550505,
    0.405381,
    0.423182,
    0.48198,
    0.55098,
    0.556385,
    0.574697,
    0.455815,
    0.487418,
    0.616327,
    0.399211,
    0.62098,
    0.471539,
    0.484838,
    0.416688,
    0.575676,
    0.463979,
    0.607981,
    0.660978,
    0.528615,
    0.432295,
    0.512979,
    0.850981,
    0.664133,
    0.588966,
    0.39398,
    0.568395,
    0.40498,
    0.50901,
    0.44498,
    0.369979,
    0.529979,
    0.471932,
    0.62498,
    0.44198,
    0.41898,
    0.482959,
    0.450624,
    0.57798,
    0.50798,
    0.326095,
    0.38298,
    0.50498,
    0.46298,
    0.355027,
    0.383228,
    0.54256,
    0.40998,
    0.4752,
    0.65898,
    0.63398,
    0.575298,
    0.42198,
    0.474206,
    0.70998,
    0.734839,
    0.367979,
    0.40403,
    0.413088,
    0.429894,
    0.367027,
    0.630566,
    0.526981,
    0.520092,
    0.767211,
    0.481816,
    0.52698,
    0.365963,
    0.48498,
    0.634406,
    0.449992,
    0.57298,
    0.66698,
    0.410952,
    0.69998,
    0.387689,
    0.545374,
    0.413174,
    0.393034,
    0.50398,
    0.508095,
    0.660058,
    0.63598,
    0.52198,
    0.397968,
    0.54298,
    0.44298,
    0.537689,
    0.665071,
    0.408665,
    0.685413,
    0.67198,
    0.570965,
    0.49098,
    0.371236,
    0.425564,
    0.665855,
    0.619402,
    0.371675,
    0.39229,
    0.697978,
    0.39698,
    0.611216,
    0.44961,
    0.363923,
    0.406731,
    0.337935,
    0.448252,
    0.734272,
    0.419883,
    0.408508,
    0.401955,
    0.452176,
    0.473667,
    0.487002,
    0.53096,
    0.45998,
    0.515092,
    0.433655,
    0.392984,
    0.413118,
    0.51688,
    0.56098,
    0.605981,
    0.40544,
    0.446591,
    0.494093,
    0.52322,
    0.469981,
    0.504366,
    0.582984,
    0.440101,
    0.470326,
    0.43846,
    0.65698,
    0.650092,
    0.51206,
    0.58098,
    0.537976,
    0.618713,
    0.69698,
    0.428652,
    0.476544,
    0.398955,
    0.715212,
    0.409978,
    0.69098,
    0.373832,
    0.755382,
    0.67298,
    0.49998,
    0.45298,
    0.55298,
    0.578005,
    0.46398,
    0.574979,
    0.35698,
    0.386979,
    0.374847,
    0.586382,
    0.34698,
    0.401918,
    1.613915,
    0.491979,
    0.385979,
    0.321979,
    0.360979,
    0.36598,
    0.42798,
    0.612621,
    0.463979,
    0.428829,
    0.79998,
    0.42998,
    0.521799,
    0.72798,
    0.377143,
    0.68598,
    0.486186,
    0.365051,
    0.64698,
    0.405396,
    0.431687,
    0.593222,
    0.435301,
    0.394895,
    0.436865,
    0.444732,
    0.62057,
    0.438981,
    0.666981,
    0.669979,
    0.566978,
    0.47798,
    0.52181,
    0.38198,
    0.56011,
    0.45998,
    0.60898,
    0.51642,
    0.61098,
    0.452876,
    0.704978,
    0.637147,
    0.41098,
    0.50743,
    0.493265,
    0.366959,
    0.416834,
    0.375081,
    0.671649,
    0.60798,
    0.60298,
    0.500638,
    0.411817,
    0.512294,
    0.568307,
    0.43298,
    0.48598,
    0.734076,
    0.511988,
    0.450982,
    0.594131,
    0.670896,
    0.53486,
    0.701959,
    0.493636,
    0.460318,
    0.433762,
    0.443722,
    0.481658,
    0.48098,
    0.572084,
    0.399441,
    0.544864,
    0.313929,
    0.316301,
    0.37498,
    0.41798,
    0.444847,
    0.44798,
    0.309315,
    0.465344,
    0.480854,
    0.46898,
    0.63943,
    0.31698,
    0.59298,
    0.58998,
    0.581501,
    0.505982,
    0.700311,
    0.687952,
    0.58498,
    0.493323,
    0.44898,
    0.756917,
    0.405122,
    0.600324,
    0.640676,
    0.413848,
    0.605293,
    0.345745,
    0.36398,
    0.666303,
    0.52998,
    0.36818,
    0.388996,
    0.354993,
    0.34798,
    0.304859,
    0.381961,
    0.61198,
    0.452649,
    0.53798,
    0.335123,
    0.278038,
    0.292383,
    0.310002,
    0.301436,
    0.386668,
    0.346973,
    0.347984,
    0.36898,
    0.539801,
    0.638968,
    0.584852,
    0.374865,
    0.67498,
    0.558988,
    0.519793,
    0.403715,
    0.608156,
    0.44498,
    0.529141,
    0.444084,
    0.528226,
    0.404403,
    0.43098,
    0.41398,
    0.545414,
    0.47885,
    0.428322,
    0.48498,
    0.597458,
    0.53198,
    0.65566,
    0.395718,
    0.67021,
    0.466657,
    0.42898,
    0.434966,
    0.54898,
    0.43398,
    0.556682,
    0.604128,
    0.437408,
    0.54598,
    0.568615,
    0.629507,
    0.63298,
    0.54498,
    0.437713,
    0.707252,
    0.499225,
    0.40698,
    0.400706,
    0.5438,
    0.577437,
    0.444411,
    0.413012,
    0.531747,
    0.57471,
    0.490979,
    0.510091,
    0.40298,
    0.523748,
    0.520979,
    0.421741,
    0.557871,
    0.56798,
    0.420033,
    0.333059,
    0.609715,
    0.692251,
    0.719471,
    0.368982,
    0.64698,
    0.32398,
    0.54998,
    0.650981,
    0.426982,
    0.626165,
    0.582316,
    0.398088,
    0.61298,
    0.625934,
    0.61016,
    0.47998,
    0.450331,
    0.385571,
    0.615976,
    0.532379,
    0.454364,
    0.519982,
    0.423369,
    0.49598,
    0.428134,
    0.30298,
    0.51398,
    0.58998,
    0.430466,
    0.42098,
    0.338392,
    0.42898,
    0.43898,
    0.34698,
    0.478979,
    0.283182,
    0.527173,
    0.470766,
    0.810956,
    0.487532,
    0.444738,
    0.681298,
    0.540936,
    0.649938,
    0.591982,
    0.499253,
    0.518038,
    0.430188,
    0.547655,
    0.467398,
    0.472779,
    0.44898,
    0.374996,
    0.488498,
    0.51809,
    0.338161,
    0.351964,
    0.31498,
    0.573132,
    0.34896,
    0.516116,
    0.49545,
    0.384099,
    0.409971,
    0.35098,
    0.52098,
    0.367056,
    0.353986,
    0.412965,
    0.65398,
    0.438482,
    0.42898,
    0.512964,
    0.40698,
    0.45498,
    0.533786,
    0.584027,
    0.457521,
    0.596981,
    0.615673,
    0.533541,
    0.34598,
    0.539203,
    0.38798,
    0.434032,
    0.52398,
    0.36598,
    0.420903,
    0.921412,
    0.371124,
    0.529723,
    0.67984,
    0.46898,
    0.48198,
    0.37198,
    0.486958,
    0.393979,
    0.719844,
    0.474719,
    0.37206,
    0.353703,
    0.549883,
    0.40098,
    0.45698,
    0.399766,
    0.630135,
    0.413223,
    0.667061,
    0.475191,
    0.44498,
    0.62498,
    0.58898,
    0.70598,
    0.35598,
    0.57898,
    0.54498,
    0.48398,
    0.42998,
    0.414424,
    0.52211,
    0.560182,
    0.34698,
    0.518111,
    0.363981,
    0.4343,
    0.408009,
    0.358886,
    0.429066,
    0.349874,
    0.570249,
    0.363094,
    0.576979,
    0.407114,
    0.409909,
    0.407743,
    0.382433,
    0.362784,
    0.664107,
    0.36598,
    0.53498,
    0.768723,
    0.360549,
    0.404528,
    0.41889,
    0.553979,
    0.62398,
    0.47198,
    0.513177,
    0.480319,
    0.44598,
    0.434153,
    0.42098,
    0.619249,
    0.55898,
    0.70998,
    0.63498,
    0.51598,
    0.47198,
    0.604933,
    0.58398,
    0.567389,
    0.43298,
    0.401849,
    0.49098,
    0.372059,
    0.419291,
    0.437217,
    0.481409,
    0.492027,
    0.541738,
    0.820158,
    0.380011,
    0.64598,
    0.527282,
    0.41101,
    0.626981,
    0.525979,
    0.573526,
    0.667653,
    0.518173,
    0.630414,
    0.397582,
    0.43598,
    0.568932,
    0.44898,
    0.545778,
    0.46498,
    0.510827,
    0.389124,
    0.447568,
    0.554108,
    0.488841,
    0.393989,
    0.446142,
    0.442918,
    0.6462,
    0.406983,
    0.560316,
    0.632174,
    0.818886,
    0.490515,
    0.523008,
    0.45298,
    0.571328,
    0.467581,
    0.476289,
    0.717265,
    0.699961,
    0.551974,
    0.418282,
    0.624211,
    0.587486,
    0.427266,
    0.49598,
    0.406683,
    0.603317,
    0.550811,
    0.41298,
    0.37198,
    0.762545,
    0.56998,
    0.63598,
    0.45198,
    0.42398,
    0.44898,
    0.75798,
    0.49998,
    0.60798,
    0.508981,
    0.448359,
    0.425979,
    0.401602,
    0.650004,
    0.438598,
    0.440599,
    0.51237,
    0.452981,
    0.537423,
    0.45842,
    0.512964,
    0.717958,
    0.622293,
    0.442361,
    0.76616,
    0.576735,
    0.599122,
    0.641032,
    0.680849,
    0.347032,
    0.653835,
    0.359662,
    0.52298,
    0.753855,
    0.482996,
    0.576758,
    0.584119,
    0.370189,
    0.433447,
    0.470913,
    0.43935,
    0.58511,
    1.102214,
    0.725108,
    0.817776,
    0.556096,
    0.467374,
    0.494442,
    0.455061,
    0.659119,
    0.553024,
    0.75798,
    0.67898,
    0.601358,
    0.447673,
    0.676658,
    0.43598,
    0.65498,
    0.33598,
    0.414911,
    0.486653,
    0.463045,
    0.543127,
    0.590234,
    0.381744,
    0.38498,
    0.49998,
    0.391788,
    0.524858,
    0.42998,
    0.54498,
    0.426979,
    0.68898,
    0.64598,
    0.59998,
    0.560972,
    0.530981,
    0.422082,
    0.488261,
    0.471903,
    0.68498,
    0.770846,
    0.45598,
    0.68998,
    0.485329,
    0.60398,
    0.614434,
    0.70498,
    0.65598,
    0.82698,
    0.41398,
    0.54138,
    0.36198,
    0.42275,
    0.466193,
    0.51098,
    0.4246,
    0.66598,
    0.490764,
    0.395314,
    0.625979,
    0.59798,
    0.539209,
    0.418543,
    0.62398,
    0.487704,
    0.50698,
    0.659097,
    0.454519,
    0.57298,
    0.682974,
    0.63698,
    0.60698,
    0.709959,
    0.830979,
    0.494574,
    0.448391,
    0.511901,
    0.444484,
    0.663012,
    0.689979,
    0.422606,
    0.572263,
    0.451962,
    0.714599,
    0.431979,
    0.438602,
    0.573385,
    0.427602,
    0.456414,
    0.48598,
    0.789598,
    0.697536,
    0.467353,
    0.57298,
    0.443167,
    0.47382,
    0.37998,
    0.39038,
    0.447856,
    0.415728,
    0.538759,
    0.680915,
    0.577157,
    0.696675,
    0.474979,
    0.60869,
    0.70398,
    0.533485,
    0.502243,
    0.52098,
    0.48598,
    0.447136,
    0.377384,
    0.60338,
    0.410803,
    0.32998,
    0.453323,
    0.582267,
    0.414017,
    0.436015,
    0.399757,
    0.568761,
    0.600389,
    0.632172,
    0.567777,
    0.475573,
    0.441795,
    0.340574,
    0.35498,
    0.49698,
    0.34398,
    0.61198,
    0.37398,
    0.362357,
    0.64598,
    0.58098,
    0.443216,
    0.35198,
    0.37598,
    0.52498,
    0.41798,
    0.572981,
    0.41498,
    0.57298,
    0.538561,
    0.408981,
    0.481675,
    0.64198,
    0.564562,
    0.680018,
    0.53393,
    0.762926,
    0.588304,
    0.75298,
    0.497976,
    0.43517,
    0.51699,
    0.594403,
    0.771944,
    0.750977,
    0.352413,
    0.66498,
    0.507625,
    0.609323,
    0.36514,
    0.76698,
    0.58798,
    0.469973,
    0.445029,
    0.417728,
    0.634542,
    0.362125,
    0.381057,
    0.55198,
    0.390095,
    0.511156,
    0.56383,
    0.715831,
    0.558981,
    0.518062,
    0.720054,
    0.49498,
    0.57998,
    0.584977,
    0.53398,
    0.604544,
    0.46798,
    0.515906,
    0.49598,
    0.718083,
    0.628775,
    0.429986,
    0.471165,
    0.690063,
    0.528528,
    0.523493,
    0.532173,
    0.583523,
    0.396659,
    0.430943,
    0.513304,
    0.846036,
    0.436263,
    0.469358,
    0.570319,
    0.35498,
    0.72395,
    0.44098
  ]
}