{
  "1000": [
    0.50084,
    0.41272,
    0.443264,
    0.551727,
    0.417981,
    0.509978,
    0.434305,
    0.609938,
    0.42798,
    0.36711,
    0.46098,
    0.636592,
    0.429894,
    0.387689,
    0.545374,
    0.67198,
    0.448252,
    0.618713,
    0.574979,
    0.35698,
    0.444732,
    0.62057,
    0.637147,
    0.41098,
    0.734076,
    0.511988,
    0.700311,
    0.41398,
    0.604128,
    0.64698,
    0.32398,
    0.54998,
    0.434032,
    0.353703,
    0.48398,
    0.407114,
    0.480319,
    0.44598,
    0.434153,
    0.42098,
    0.372059,
    0.630414,
    0.65498,
    0.33598,
    0.414911,
    0.64598,
    0.82698,
    0.487704,
    0.422606,
    0.572263,
    0.37998,
    0.39038,
    0.447856,
    0.35498,
    0.538561,
    0.471165
  ],
  "1048576": [
    1.860966,
    3.678324,
    1.394738,
    2.298735,
    1.715213,
    1.662972,
    1.952964,
    2.496269,
    1.616197,
    2.356891,
    1.824554,
    1.301965,
    2.638002,
    1.558965,
    2.630442,
    1.772342,
    3.54799,
    3.211383,
    1.622971,
    2.804966,
    1.850594,
    1.513336,
    1.794377,
    1.431918,
    2.510856,
    2.752965,
    2.000964,
    1.99197,
    2.896773,
    1.511453,
    1.822389,
    1.982969,
    1.971356,
    1.778964,
    6.146296,
    1.852461,
    2.15197,
    2.318556,
    3.171964,
    2.18054,
    1.490999,
    2.045106,
    2.714846,
    2.264965,
    1.569165,
    1.481085,
    1.364042,
    2.16297,
    1.767948,
    2.399964,
    1.690033,
    2.23469,
    2.620282,
    2.080313,
    1.653001,
    2.186401,
    1.556966,
    2.977699,
    3.004367,
    4.100456,
    1.34131,
    2.073332,
    2.20269,
    1.859315,
    2.185724,
    1.472969,
    1.557162,
    3.00665,
    2.371994,
    1.741966,
    2.278967,
    2.395052,
    7.083963,
    1.443077,
    1.763891,
    2.201964,
    3.074099,
    2.029496,
    2.213862,
    3.879964,
    2.262533,
    1.789083,
    2.504201,
    1.788313,
    1.900817,
    2.867881,
    1.960352,
    1.529969,
    1.790432,
    2.081936,
    2.520342,
    1.77462,
    2.834768,
    1.771966,
    2.355576,
    1.743063,
    3.358972,
    1.959106,
    2.670969,
    2.393972,
    2.919973,
    1.608966,
    2.553967,
    2.482066,
    2.578548,
    2.881748,
    2.402284,
    1.926383,
    2.357964,
    1.88998,
    2.974014,
    3.665666,
    3.888321,
    2.681987,
    1.904207
  ],
  "51200": [
    1.27531,
    1.15203,
    1.444348,
    0.519621,
    1.231346,
    0.551591,
    0.856938,
    1.756972,
    0.766438,
    0.822971,
    1.640171,
    1.063059,
    0.756087,
    0.864017,
    0.482823,
    0.576972,
    0.476342,
    0.489025,
    0.924972,
    0.700504,
    0.62107,
    1.442354,
    0.511586,
    0.65402,
    0.942491,
    1.257963,
    1.197828,
    0.490351,
    0.581964,
    0.708964,
    0.635963,
    0.681112,
    1.385964,
    0.511964,
    1.163964,
    0.86294,
    0.619008,
    0.81199,
    0.568534,
    1.340677,
    1.516989,
    0.989552,
    0.612188,
    0.817427,
    0.672168,
    0.568448,
    0.810972,
    1.626298,
    0.746968,
    0.636971,
    1.666926,
    0.541855,
    1.492972,
    1.285276,
    1.342964,
    0.753444,
    0.508,
    0.641182,
    0.584334,
    1.462125,
    0.907998,
    0.463592,
    1.47545,
    0.615966,
    0.643881,
    1.015972,
    1.072204,
    1.130462,
    1.201983,
    0.770919,
    0.999402,
    1.305446,
    1.209533,
    0.716581,
    0.95889,
    0.578036,
    1.1978,
    0.625039,
    1.032115,
    1.782873,
    1.246216,
    0.605371,
    0.925963,
    2.095855,
    1.855927,
    0.611967,
    0.817023,
    0.561964,
    0.433966,
    1.223972,
    0.973439,
    1.865966,
    0.806964,
    0.7676,
    1.213943,
    0.679683,
    0.785972,
    0.824971,
    0.874972,
    0.443037,
    0.460983,
    1.218987,
    0.620964,
    0.625184,
    1.892964,
    1.501045,
    1.286284,
    0.64206,
    0.903409,
    1.601972,
    1.89573,
    0.405013,
    1.109551,
    0.786216,
    1.250003,
    2.011753,
    0.770059,
    1.211972,
    0.504946,
    0.707965,
    1.589414,
    0.682988,
    0.856494,
    0.574993,
    0.555034,
    0.74801,
    0.767081,
    1.888965,
    1.17301,
    1.2059,
    0.54627,
    1.059002,
    0.587963,
    0.976751,
    1.092051,
    0.625963,
    1.721978,
    1.131891,
    0.555966,
    0.616203,
    1.272896,
    0.971274,
    0.554659,
    0.787964,
    1.816945,
    0.576849,
    0.607965,
    0.578939,
    0.732159,
    0.759653,
    0.646364,
    1.190936,
    0.733963,
    1.116842,
    0.757954,
    0.665642,
    0.617081,
    1.151823,
    1.229991,
    0.632921,
    0.616575,
    0.731982,
    1.271214,
    0.833967,
    1.184984,
    1.26699,
    0.727965,
    0.96831,
    0.599448,
    1.864973,
    1.297965,
    1.192507,
    1.313972,
    0.619637,
    0.654,
    0.540941,
    1.607207,
    0.521472,
    1.444386,
    0.461073,
    1.638486,
    1.051887,
    0.938963,
    0.545937,
    0.507381,
    1.301373,
    0.643562,
    0.633827,
    2.326384,
    1.205067,
    0.563059,
    0.454964,
    0.688414,
    1.906993,
    0.719965,
    1.153833,
    1.516965,
    0.603127,
    1.855966,
    0.669643,
    0.589383,
    1.131049,
    0.625491,
    0.732009,
    0.996885,
    0.761469,
    1.317964,
    1.905072,
    1.266921,
    0.668032,
    0.833321,
    0.625064,
    0.814967,
    0.620975,
    1.177973,
    0.763973,
    0.943246,
    1.196392,
    1.139522,
    0.544944,
    0.649001,
    0.709527,
    1.902633,
    1.219003,
    1.17597,
    0.582519,
    0.709207,
    1.052689,
    0.704988,
    0.962217,
    1.315961,
    1.049814,
    1.293943,
    0.695541,
    0.650845,
    0.654905,
    0.595971,
    0.805944,
    0.891977,
    1.342684,
    0.579513,
    0.524921,
    0.478487,
    0.740025,
    0.671964,
    0.740831,
    1.131039,
    0.404307,
    0.819992,
    1.097901,
    1.221974,
    1.496426,
    0.449964,
    1.07926,
    1.343936,
    1.459964,
    0.934253,
    0.704965,
    1.722965,
    0.500107,
    1.488965,
    1.647966,
    0.600965,
    1.763287,
    0.570965,
    0.581964,
    0.636993,
    0.525189,
    0.599959,
    1.508404,
    1.146044,
    0.952261,
    0.564971,
    0.375954,
    0.393594,
    0.459988,
    0.477004,
    0.586365,
    1.1481,
    1.503952,
    1.651798,
    0.601853,
    1.633964,
    1.183036,
    1.257666,
    0.771695,
    1.904964,
    0.732964,
    1.035139,
    0.804572,
    1.25298,
    0.636928,
    0.71608,
    0.832966,
    1.466355,
    1.271064,
    1.307779,
    0.469049,
    1.728369,
    0.805641,
    0.68806,
    0.670401,
    0.974789,
    1.247153,
    1.043199,
    1.345972,
    1.304964,
    1.134903,
    0.714214,
    1.653147,
    0.995964,
    0.651012,
    0.634816,
    1.227951,
    1.137674,
    1.255965,
    0.895964,
    1.236964,
    0.551966,
    0.759731,
    0.895885,
    0.544732,
    1.369714,
    1.076962,
    1.530009,
    0.973966,
    1.848668,
    1.045977,
    0.549113,
    1.398404,
    1.215336,
    1.831739,
    0.670635,
    0.726315,
    0.534563,
    0.888348,
    1.145527,
    1.056976,
    0.898965,
    0.682964,
    0.437964,
    1.163971,
    1.348276,
    0.546629,
    0.792964,
    0.577756,
    0.844994,
    0.920002,
    0.510571,
    1.034967,
    1.020259,
    0.667758,
    1.743941,
    0.635501,
    0.629722,
    1.356966,
    1.162141,
    1.022078,
    1.268966,
    0.793321,
    0.807301,
    0.571078,
    1.141597,
    0.576575,
    0.566541,
    1.083396,
    1.100594,
    0.515656,
    0.598964,
    0.459627,
    1.205376,
    0.566943,
    1.195823,
    1.196443,
    0.637083,
    0.652537,
    0.48412,
    0.574012,
    1.416974,
    0.597972,
    0.634214,
    0.697966,
    0.662912,
    0.704966,
    1.141191,
    1.215538,
    0.785137,
    1.08109,
    1.341011,
    1.102964,
    0.508523,
    0.72768,
    2.010813,
    0.569935,
    0.779714,
    1.297965,
    0.583333,
    0.987964,
    0.525715,
    0.861942,
    1.296867,
    0.696002,
    0.665965,
    0.555964,
    1.500119,
    0.64324,
    1.413045,
    0.733921,
    0.520966,
    0.588409,
    1.375091,
    1.043966,
    0.526708,
    0.826964,
    0.511762,
    0.615206,
    0.888629,
    0.517862,
    0.783965,
    0.494963,
    1.065964,
    0.650972,
    0.765964,
    0.554036,
    0.521458,
    1.799573,
    0.612779,
    0.716971,
    1.613964,
    0.638496,
    0.629964,
    1.287248,
    1.273966,
    1.946965,
    1.293964,
    0.896972,
    0.770972,
    1.683964,
    1.396964,
    1.292966,
    0.780965,
    0.632998,
    0.5232,
    0.857158,
    0.879992,
    1.135742,
    2.308066,
    0.556964,
    1.553913,
    1.237964,
    0.546927,
    0.915043,
    1.236973,
    1.259966,
    0.507928,
    0.680059,
    1.278966,
    0.690115,
    1.230656,
    0.813972,
    1.084162,
    0.600097,
    0.595115,
    1.29773,
    0.801835,
    0.631396,
    0.545757,
    1.304949,
    1.188209,
    1.809878,
    0.789499,
    1.037998,
    0.698744,
    1.124039,
    0.589565,
    0.682255,
    1.458365,
    1.369016,
    1.036724,
    0.665966,
    1.104964,
    0.640702,
    0.965364,
    1.184795,
    0.595964,
    0.618964,
    1.877727,
    1.244079,
    1.534964,
    0.870964,
    0.621964,
    0.644131,
    1.817077,
    1.320967,
    0.676341,
    0.613963,
    0.609964,
    1.145964,
    0.592583,
    0.697965,
    1.207965,
    0.670376,
    1.196795,
    0.683765,
    1.200392,
    1.205941,
    1.244966,
    1.402981,
    1.45892,
    1.911375,
    0.901833,
    0.511576,
    1.347268,
    0.54863,
    0.862966,
    2.054867,
    1.180971,
    0.81674,
    1.245183,
    1.258995,
    2.600235,
    2.035966,
    2.037263,
    0.756362,
    0.58701,
    0.749957,
    0.696599,
    1.287618,
    1.109733,
    1.622266,
    1.39801,
    0.858032,
    0.712966,
    1.238972,
    1.198972,
    0.533028,
    0.622964,
    1.134966,
    0.533965,
    1.214859,
    0.67807,
    1.107964,
    1.452815,
    1.024966,
    0.592031,
    0.826253,
    0.707332,
    1.437123,
    1.489536,
    0.597122,
    0.572964,
    1.150964,
    0.483964,
    0.62155,
    0.75837,
    0.782893,
    0.643272,
    1.233972,
    0.839748,
    0.619986,
    1.183964,
    0.743504,
    1.017966,
    1.491275,
    1.320965,
    1.160099,
    1.341943,
    2.076965,
    0.648557,
    0.731559,
    0.768976,
    0.653617,
    0.994964,
    1.201965,
    0.740565,
    1.697965,
    0.696971,
    0.640619,
    0.950971,
    0.694971,
    0.763972,
    0.952994,
    2.007566,
    1.344602,
    0.773337,
    1.258525,
    0.574975,
    0.998701,
    1.880124,
    1.498077,
    1.39608,
    0.770973,
    1.364921,
    1.431045,
    0.870342,
    0.879027,
    1.119296,
    0.661163,
    0.49137,
    1.297893,
    0.67385,
    0.505384,
    0.794309,
    1.617464,
    0.66419,
    0.728656,
    0.543803,
    0.767964,
    0.597964,
    1.321971,
    0.565964,
    0.837014,
    1.839964,
    1.491935,
    0.733601,
    0.622964,
    0.688964,
    0.839966,
    0.580966,
    0.578856,
    0.807781,
    1.038964,
    1.259547,
    1.309971,
    0.805945,
    1.560949,
    0.952289,
    1.895002,
    0.831942,
    0.616154,
    0.619982,
    1.378179,
    0.461867,
    1.265971,
    1.129206,
    1.548642,
    0.49711,
    1.882592,
    1.371823,
    0.732369,
    0.655693,
    0.592746,
    1.34503,
    0.561756,
    0.625964,
    0.694919,
    0.571371,
    1.067964,
    1.117819,
    1.696596,
    1.273962,
    1.224807,
    1.288217,
    0.806083,
    1.054964,
    1.236959,
    1.000967,
    1.23153,
    0.832972,
    0.812834,
    0.769034,
    1.819029,
    1.192976,
    1.141447,
    1.18817,
    1.301597,
    0.651684,
    0.767433,
    0.719293,
    2.122349,
    0.576867,
    0.650527,
    1.309965,
    0.472974
  ],
  "5242880": [
    3.308962,
    3.42686,
    3.939984,
    5.837379,
    4.380718,
    3.141302,
    3.475966,
    4.984709,
    4.131325,
    4.969731,
    5.096433,
    4.767171,
    3.213469,
    3.907112,
    4.819823,
    3.67398,
    3.618292,
    15.269964,
    3.417505,
    4.558106,
    3.858403,
    3.545247,
    2.916166,
    5.351777,
    3.080276,
    3.002044,
    3.748974,
    5.022984,
    4.082966,
    5.485873,
    6.16054,
    4.548033,
    9.475868,
    4.526075,
    15.472604,
    5.714291,
    3.836965,
    4.746582,
    4.229967,
    4.308602,
    4.76594,
    3.175716,
    4.361803,
    3.571154,
    5.04839,
    3.394405,
    3.433779,
    2.819717,
    5.141911,
    4.925963,
    3.351162
  ],
  "ALL": [
    0.50084,
    0.41272,
    1.27531,
    1.15203,
    1.444348,
    0.519621,
    1.231346,
    0.551591,
    0.856938,
    1.756972,
    0.766438,
    0.822971,
    1.860966,
    3.678324,
    3.308962,
    3.42686,
    0.443264,
    0.551727,
    1.640171,
    1.063059,
    0.756087,
    0.864017,
    0.482823,
    0.576972,
    0.476342,
    0.489025,
    0.924972,
    0.700504,
    0.62107,
    1.394738,
    2.298735,
    1.715213,
    0.417981,
    0.509978,
    0.434305,
    1.442354,
    0.511586,
    0.65402,
    0.942491,
    1.257963,
    1.197828,
    0.490351,
    0.581964,
    0.708964,
    0.635963,
    0.681112,
    1.385964,
    3.939984,
    0.609938,
    0.42798,
    0.511964,
    1.163964,
    0.86294,
    0.619008,
    0.81199,
    0.568534,
    1.340677,
    1.516989,
    0.989552,
    0.612188,
    0.817427,
    0.672168,
    1.662972,
    1.952964,
    0.36711,
    0.46098,
    0.568448,
    0.810972,
    1.626298,
    0.746968,
    0.636971,
    1.666926,
    0.541855,
    1.492972,
    1.285276,
    1.342964,
    0.753444,
    0.508,
    0.641182,
    2.496269,
    0.636592,
    0.584334,
    1.462125,
    0.907998,
    0.463592,
    1.47545,
    0.615966,
    0.643881,
    1.015972,
    1.072204,
    1.130462,
    1.201983,
    0.770919,
    0.999402,
    1.305446,
    1.616197,
    1.209533,
    0.716581,
    0.95889,
    0.578036,
    1.1978,
    0.625039,
    1.032115,
    1.782873,
    1.246216,
    0.605371,
    0.925963,
    2.095855,
    1.855927,
    2.356891,
    1.824554,
    5.837379,
    0.611967,
    0.817023,
    0.561964,
    0.433966,
    1.223972,
    0.973439,
    1.865966,
    0.806964,
    0.7676,
    1.213943,
    0.679683,
    0.785972,
    0.824971,
    1.301965,
    2.638002,
    4.380718,
    0.874972,
    0.443037,
    0.460983,
    1.218987,
    0.620964,
    0.625184,
    1.892964,
    1.501045,
    1.286284,
    0.64206,
    0.903409,
    1.601972,
    1.89573,
    1.558965,
    3.141302,
    3.475966,
    0.429894,
    0.405013,
    1.109551,
    0.786216,
    1.250003,
    2.011753,
    0.770059,
    1.211972,
    0.504946,
    0.707965,
    1.589414,
    0.682988,
    0.856494,
    2.630442,
    1.772342,
    3.54799,
    0.387689,
    0.545374,
    0.574993,
    0.555034,
    0.74801,
    0.767081,
    1.888965,
    1.17301,
    1.2059,
    0.54627,
    1.059002,
    0.587963,
    0.976751,
    1.092051,
    0.625963,
    4.984709,
    0.67198,
    1.721978,
    1.131891,
    0.555966,
    0.616203,
    1.272896,
    0.971274,
    0.554659,
    0.787964,
    3.211383,
    1.622971,
    2.804966,
    1.850594,
    1.513336,
    1.794377,
    1.431918,
    0.448252,
    1.816945,
    0.576849,
    0.607965,
    0.578939,
    0.732159,
    0.759653,
    0.646364,
    1.190936,
    0.733963,
    1.116842,
    0.757954,
    0.665642,
    0.617081,
    1.151823,
    2.510856,
    1.229991,
    0.632921,
    0.616575,
    0.731982,
    1.271214,
    0.833967,
    1.184984,
    1.26699,
    0.727965,
    0.96831,
    0.599448,
    1.864973,
    1.297965,
    1.192507,
    2.752965,
    2.000964,
    0.618713,
    1.313972,
    0.619637,
    0.654,
    0.540941,
    1.607207,
    0.521472,
    1.444386,
    0.461073,
    1.638486,
    1.051887,
    0.938963,
    1.99197,
    2.896773,
    4.131325,
    4.969731,
    0.574979,
    0.35698,
    0.545937,
    0.507381,
    1.301373,
    0.643562,
    0.633827,
    2.326384,
    1.205067,
    0.563059,
    0.454964,
    1.511453,
    1.822389,
    1.982969,
    5.096433,
    4.767171,
    0.688414,
    1.906993,
    0.719965,
    1.153833,
    1.516965,
    0.603127,
    1.855966,
    0.669643,
    0.589383,
    1.131049,
    0.625491,
    0.732009,
    0.996885,
    1.971356,
    3.213469,
    3.907112,
    0.444732,
    0.62057,
    0.761469,
    1.317964,
    1.905072,
    1.266921,
    0.668032,
    0.833321,
    0.625064,
    0.814967,
    0.620975,
    1.177973,
    0.763973,
    0.943246,
    1.778964,
    4.819823,
    0.637147,
    0.41098,
    1.196392,
    1.139522,
    0.544944,
    0.649001,
    0.709527,
    1.902633,
    1.219003,
    1.17597,
    0.582519,
    0.709207,
    1.052689,
    6.146296,
    1.852461,
    2.15197,
    0.734076,
    0.511988,
    0.704988,
    0.962217,
    1.315961,
    1.049814,
    1.293943,
    0.695541,
    0.650845,
    0.654905,
    0.595971,
    0.805944,
    0.891977,
    1.342684,
    0.579513,
    2.318556,
    0.524921,
    0.478487,
    0.740025,
    0.671964,
    0.740831,
    1.131039,
    0.404307,
    0.819992,
    1.097901,
    1.221974,
    1.496426,
    0.449964,
    1.07926,
    3.171964,
    2.18054,
    3.67398,
    0.700311,
    1.343936,
    1.459964,
    0.934253,
    0.704965,
    1.722965,
    0.500107,
    1.488965,
    1.647966,
    0.600965,
    1.763287,
    1.490999,
    2.045106,
    2.714846,
    2.264965,
    1.569165,
    0.570965,
    0.581964,
    0.636993,
    0.525189,
    0.599959,
    1.508404,
    1.146044,
    0.952261,
    0.564971,
    0.375954,
    0.393594,
    0.459988,
    0.477004,
    1.481085,
    1.364042,
    3.618292,
    0.586365,
    1.1481,
    1.503952,
    1.651798,
    0.601853,
    1.633964,
    1.183036,
    1.257666,
    0.771695,
    1.904964,
    0.732964,
    1.035139,
    0.804572,
    2.16297,
    1.767948,
    15.269964,
    0.41398,
    1.25298,
    0.636928,
    0.71608,
    0.832966,
    1.466355,
    1.271064,
    1.307779,
    0.469049,
    1.728369,
    0.805641,
    0.68806,
    0.670401,
    2.399964,
    1.690033,
    2.23469,
    0.604128,
    0.974789,
    1.247153,
    1.043199,
    1.345972,
    1.304964,
    1.134903,
    0.714214,
    1.653147,
    0.995964,
    0.651012,
    0.634816,
    1.227951,
    2.620282,
    2.080313,
    1.653001,
    1.137674,
    1.255965,
    0.895964,
    1.236964,
    0.551966,
    0.759731,
    0.895885,
    0.544732,
    1.369714,
    1.076962,
    2.186401,
    1.556966,
    2.977699,
    3.004367,
    4.100456,
    3.417505,
    0.64698,
    0.32398,
    0.54998,
    1.530009,
    0.973966,
    1.848668,
    1.045977,
    0.549113,
    1.398404,
    1.215336,
    1.831739,
    0.670635,
    0.726315,
    0.534563,
    4.558106,
    3.858403,
    0.888348,
    1.145527,
    1.056976,
    0.898965,
    0.682964,
    0.437964,
    1.163971,
    1.348276,
    0.546629,
    0.792964,
    0.577756,
    0.844994,
    0.920002,
    0.510571,
    1.034967,
    1.34131,
    1.020259,
    0.667758,
    1.743941,
    0.635501,
    0.629722,
    1.356966,
    1.162141,
    1.022078,
    1.268966,
    0.793321,
    0.807301,
    0.571078,
    1.141597,
    0.576575,
    2.073332,
    3.545247,
    0.566541,
    1.083396,
    1.100594,
    0.515656,
    0.598964,
    0.459627,
    1.205376,
    0.566943,
    1.195823,
    1.196443,
    0.637083,
    0.652537,
    0.48412,
    2.20269,
    1.859315,
    2.916166,
    0.574012,
    1.416974,
    0.597972,
    0.634214,
    0.697966,
    0.662912,
    0.704966,
    1.141191,
    1.215538,
    0.785137,
    1.08109,
    1.341011,
    2.185724,
    1.472969,
    5.351777,
    3.080276,
    0.434032,
    1.102964,
    0.508523,
    0.72768,
    2.010813,
    0.569935,
    0.779714,
    1.297965,
    0.583333,
    0.987964,
    0.525715,
    0.861942,
    1.557162,
    3.00665,
    2.371994,
    3.002044,
    0.353703,
    1.296867,
    0.696002,
    0.665965,
    0.555964,
    1.500119,
    0.64324,
    1.413045,
    0.733921,
    1.741966,
    2.278967,
    2.395052,
    7.083963,
    3.748974,
    5.022984,
    4.082966,
    0.48398,
    0.520966,
    0.588409,
    1.375091,
    1.043966,
    0.526708,
    0.826964,
    0.511762,
    0.615206,
    0.888629,
    0.517862,
    0.783965,
    0.494963,
    1.065964,
    1.443077,
    5.485873,
    0.407114,
    0.650972,
    0.765964,
    0.554036,
    0.521458,
    1.799573,
    0.612779,
    0.716971,
    1.613964,
    0.638496,
    0.629964,
    1.763891,
    2.201964,
    3.074099,
    2.029496,
    6.16054,
    0.480319,
    0.44598,
    0.434153,
    0.42098,
    1.287248,
    1.273966,
    1.946965,
    1.293964,
    0.896972,
    0.770972,
    1.683964,
    1.396964,
    1.292966,
    0.780965,
    2.213862,
    3.879964,
    0.372059,
    0.632998,
    0.5232,
    0.857158,
    0.879992,
    1.135742,
    2.308066,
    0.556964,
    1.553913,
    1.237964,
    0.546927,
    0.915043,
    1.236973,
    1.259966,
    4.548033,
    9.475868,
    0.630414,
    0.507928,
    0.680059,
    1.278966,
    0.690115,
    1.230656,
    0.813972,
    1.084162,
    0.600097,
    0.595115,
    1.29773,
    0.801835,
    0.631396,
    2.262533,
    1.789083,
    2.504201,
    0.545757,
    1.304949,
    1.188209,
    1.809878,
    0.789499,
    1.037998,
    0.698744,
    1.124039,
    0.589565,
    0.682255,
    1.458365,
    1.369016,
    1.036724,
    1.788313,
    4.526075,
    15.472604,
    0.665966,
    1.104964,
    0.640702,
    0.965364,
    1.184795,
    0.595964,
    0.618964,
    1.877727,
    1.244079,
    1.534964,
    0.870964,
    0.621964,
    0.644131,
    1.817077,
    1.900817,
    2.867881,
    1.320967,
    0.676341,
    0.613963,
    0.609964,
    1.145964,
    0.592583,
    0.697965,
    1.207965,
    0.670376,
    1.196795,
    0.683765,
    1.200392,
    1.205941,
    1.244966,
    1.960352,
    5.714291,
    1.402981,
    1.45892,
    1.911375,
    0.901833,
    0.511576,
    1.347268,
    0.54863,
    0.862966,
    2.054867,
    1.180971,
    0.81674,
    1.245183,
    1.529969,
    1.790432,
    2.081936,
    3.836965,
    1.258995,
    2.600235,
    2.035966,
    2.037263,
    0.756362,
    0.58701,
    0.749957,
    0.696599,
    1.287618,
    1.109733,
    1.622266,
    1.39801,
    2.520342,
    1.77462,
    2.834768,
    1.771966,
    0.65498,
    0.33598,
    0.414911,
    0.858032,
    0.712966,
    1.238972,
    1.198972,
    0.533028,
    0.622964,
    1.134966,
    0.533965,
    1.214859,
    0.67807,
    2.355576,
    1.743063,
    4.746582,
    0.64598,
    1.107964,
    1.452815,
    1.024966,
    0.592031,
    0.826253,
    0.707332,
    1.437123,
    1.489536,
    0.597122,
    3.358972,
    1.959106,
    2.670969,
    2.393972,
    2.919973,
    4.229967,
    0.82698,
    0.572964,
    1.150964,
    0.483964,
    0.62155,
    0.75837,
    0.782893,
    0.643272,
    1.233972,
    0.839748,
    1.608966,
    2.553967,
    4.308602,
    4.76594,
    3.175716,
    4.361803,
    0.487704,
    0.619986,
    1.183964,
    0.743504,
    1.017966,
    1.491275,
    1.320965,
    1.160099,
    1.341943,
    2.076965,
    0.648557,
    0.731559,
    0.768976,
    0.653617,
    0.994964,
    1.201965,
    0.422606,
    0.572263,
    0.740565,
    1.697965,
    0.696971,
    0.640619,
    0.950971,
    0.694971,
    0.763972,
    0.952994,
    2.007566,
    1.344602,
    0.773337,
    1.258525,
    3.571154,
    5.04839,
    0.37998,
    0.39038,
    0.447856,
    0.574975,
    0.998701,
    1.880124,
    1.498077,
    1.39608,
    0.770973,
    1.364921,
    1.431045,
    0.870342,
    0.879027,
    1.119296,
    0.661163,
    3.394405,
    0.49137,
    1.297893,
    0.67385,
    0.505384,
    0.794309,
    1.617464,
    0.66419,
    0.728656,
    0.543803,
    2.482066,
    2.578548,
    2.881748,
    2.402284,
    1.926383,
    3.433779,
    2.819717,
    0.35498,
    0.767964,
    0.597964,
    1.321971,
    0.565964,
    0.837014,
    1.839964,
    1.491935,
    0.733601,
    0.622964,
    0.688964,
    0.839966,
    0.580966,
    2.357964,
    1.88998,
    2.974014,
    0.538561,
    0.578856,
    0.807781,
    1.038964,
    1.259547,
    1.309971,
    0.805945,
    1.560949,
    0.952289,
    1.895002,
    0.831942,
    0.616154,
    0.619982,
    1.378179,
    3.665666,
    5.141911,
    0.461867,
    1.265971,
    1.129206,
    1.548642,
    0.49711,
    1.882592,
    1.371823,
    0.732369,
    0.655693,
    0.592746,
    1.34503,
    0.561756,
    0.625964,
    0.694919,
    0.571371,
    1.067964,
    1.117819,
    1.696596,
    1.273962,
    1.224807,
    1.288217,
    0.806083,
    1.054964,
    1.236959,
    1.000967,
    1.23153,
    0.832972,
    0.812834,
    0.769034,
    3.888321,
    2.681987,
    1.904207,
    0.471165,
    1.819029,
    1.192976,
    1.141447,
    1.18817,
    1.301597,
    0.651684,
    0.767433,
    0.719293,
    2.122349,
    0.576867,
    0.650527,
    1.309965,
    0.472974,
    4.925963,
    3.351162
  ]
}