{
  "1000": [
    0.658989,
    0.790988,
    0.993024,
    1.619942,
    0.938182,
    0.72598,
    0.841512,
    0.709656,
    1.46802,
    0.76198,
    1.069582,
    1.133854,
    0.810001,
    2.353207,
    0.659634,
    1.107992,
    0.739685,
    0.958754,
    0.621034,
    0.962551,
    0.872994,
    0.630084,
    1.145797,
    0.858023,
    0.902398,
    0.854188,
    0.856049,
    0.87498,
    1.23495,
    0.963584,
    0.633784,
    0.554039,
    1.08098
  ],
  "1048576": [
    11.990347,
    40.112056,
    3.507723,
    5.464396,
    3.071971,
    4.10351,
    14.136084,
    3.713842,
    38.385888,
    5.719633,
    6.578728,
    14.840964,
    5.382972,
    11.147964,
    14.956872,
    10.396798,
    5.054964,
    6.151541,
    5.255927,
    7.238385,
    5.351682,
    12.666964,
    6.911218,
    7.652202,
    5.590966,
    3.972762,
    14.618968,
    3.63694,
    3.435971,
    3.808233,
    4.903966,
    3.964964,
    3.67563,
    3.467977,
    3.438669,
    4.030726
  ],
  "51200": [
    1.032498,
    1.293966,
    1.07602,
    0.952845,
    1.127964,
    1.100451,
    0.783965,
    1.051947,
    0.680725,
    0.58543,
    0.717068,
    0.797964,
    0.802964,
    0.872447,
    0.907964,
    0.859965,
    0.586869,
    0.77656,
    1.223973,
    1.010991,
    0.951664,
    3.570964,
    0.670277,
    0.859523,
    0.663961,
    0.755964,
    0.753836,
    0.66795,
    0.825619,
    1.017964,
    0.770597,
    0.818964,
    1.063965,
    0.694157,
    0.977964,
    0.757061,
    0.868964,
    0.967549,
    1.009964,
    0.823847,
    0.817064,
    0.891056,
    0.930337,
    1.644964,
    0.77537,
    0.945637,
    0.916001,
    0.923768,
    0.88628,
    0.896122,
    1.619988,
    0.837927,
    0.873649,
    0.718304,
    0.710964,
    1.124946,
    6.170493,
    0.838981,
    1.15072,
    1.224974,
    1.09746,
    0.621964,
    0.895964,
    0.676682,
    0.697964,
    0.863964,
    1.185964,
    1.070964,
    0.804964,
    0.768965,
    3.854964,
    0.702956,
    0.719964,
    0.710966,
    0.815986,
    0.940405,
    1.253799,
    0.962002,
    1.362223,
    0.768764,
    0.754379,
    5.941942,
    1.001298,
    0.826964,
    1.084967,
    0.974964,
    0.715155,
    0.69619,
    0.697966,
    0.838247,
    0.807783,
    1.009217,
    0.788061,
    0.800964,
    0.738966,
    1.248948,
    0.765292,
    0.50931,
    0.734399,
    0.808373,
    0.815852,
    0.814136,
    0.807953,
    0.775304,
    0.877003,
    0.865762,
    1.47302,
    1.014992,
    1.121028,
    0.643985,
    0.803706,
    0.94196,
    0.820076,
    0.965998,
    0.950103,
    1.415681,
    0.681949,
    0.715242,
    0.908373,
    0.837364,
    0.730911,
    0.83837,
    0.89523,
    1.007367,
    0.926679,
    0.921026,
    0.78603,
    0.843032,
    0.869337,
    0.774964,
    0.758761,
    0.851152,
    1.076069,
    1.03899,
    0.860969,
    0.818798,
    0.724099,
    0.91659,
    0.984826,
    0.846367,
    0.693662,
    0.597964,
    0.79433,
    2.241928,
    1.068112,
    0.832963,
    0.700983,
    0.790079,
    0.6275,
    1.346963,
    1.201971,
    0.774965,
    0.881966,
    0.660964,
    1.012965,
    0.759979,
    0.901068,
    0.991969,
    0.823001,
    0.772113,
    0.86926,
    1.054969,
    0.896964,
    0.767054,
    1.042407,
    0.745965,
    0.926965,
    0.636975,
    1.091307,
    1.408968,
    0.958244,
    0.810063,
    1.021962,
    0.996627,
    1.033014,
    0.954966,
    0.898964,
    0.529263,
    0.819964,
    0.843995,
    0.793905,
    1.073996,
    0.984166,
    0.920128,
    0.973539,
    0.872972,
    0.779844,
    0.903043,
    1.020963,
    0.761035,
    0.98197,
    1.039997,
    0.841181,
    0.632252,
    5.433964,
    0.921964,
    1.316966,
    1.052918,
    1.134254,
    1.054965,
    0.797012,
    0.956985,
    0.860123,
    0.656966,
    0.529491,
    0.798899,
    0.867963,
    1.043034,
    1.052006,
    0.864195,
    0.655911,
    1.119964,
    1.060994,
    1.054571,
    0.720963,
    1.054516,
    0.949413,
    0.857965,
    1.229964,
    1.134964,
    0.756321,
    1.280964,
    2.251964,
    1.402133,
    1.161077,
    0.697446,
    0.815964,
    1.115413,
    1.192964,
    1.18202,
    1.037136,
    1.035964,
    0.648634,
    0.690688,
    0.8647,
    0.836527,
    1.0938,
    0.794378,
    0.643629,
    0.630718,
    1.388964,
    1.057964,
    0.916964,
    0.761483,
    1.0698,
    1.01731,
    1.145179,
    1.150417,
    0.778966,
    0.696259,
    0.834754,
    0.849447,
    0.699796,
    0.893979,
    0.786025,
    1.204346,
    0.773507,
    1.28545,
    0.867969,
    0.735891,
    0.936794,
    0.694639,
    0.891898,
    0.648964,
    0.780923,
    1.047555,
    1.108413,
    0.764963,
    0.905964,
    0.928847,
    0.870964,
    1.115041,
    0.956965,
    1.044971,
    0.828992,
    0.968965,
    1.702715,
    1.291992,
    0.668429,
    1.135058,
    0.852985,
    0.831966,
    1.045228,
    0.844966,
    0.912654,
    0.861954,
    0.767955,
    0.659239
  ],
  "5242880": [
    88.387675,
    49.739854,
    29.25202,
    16.864968,
    52.962053,
    15.108304,
    10.022966,
    7.528861,
    16.541969,
    15.420965
  ],
  "ALL": [
    1.032498,
    1.293966,
    1.07602,
    0.952845,
    1.127964,
    1.100451,
    0.783965,
    1.051947,
    11.990347,
    0.658989,
    0.680725,
    0.58543,
    0.717068,
    0.797964,
    0.802964,
    0.872447,
    0.907964,
    40.112056,
    0.790988,
    0.859965,
    0.586869,
    0.77656,
    1.223973,
    3.507723,
    5.464396,
    3.071971,
    1.010991,
    0.951664,
    3.570964,
    0.670277,
    0.859523,
    0.663961,
    88.387675,
    0.755964,
    0.753836,
    0.66795,
    0.825619,
    1.017964,
    0.770597,
    0.818964,
    1.063965,
    4.10351,
    0.993024,
    0.694157,
    0.977964,
    0.757061,
    0.868964,
    0.967549,
    1.009964,
    14.136084,
    1.619942,
    0.938182,
    0.823847,
    0.817064,
    0.891056,
    0.930337,
    1.644964,
    3.713842,
    0.72598,
    0.841512,
    0.77537,
    0.945637,
    0.916001,
    38.385888,
    49.739854,
    29.25202,
    0.709656,
    0.923768,
    0.88628,
    0.896122,
    1.619988,
    0.837927,
    0.873649,
    0.718304,
    5.719633,
    0.710964,
    1.124946,
    6.170493,
    0.838981,
    1.15072,
    1.224974,
    1.09746,
    0.621964,
    0.895964,
    0.676682,
    0.697964,
    0.863964,
    1.185964,
    1.070964,
    0.804964,
    0.768965,
    3.854964,
    1.46802,
    0.702956,
    0.719964,
    0.710966,
    0.815986,
    0.940405,
    1.253799,
    0.962002,
    1.362223,
    0.768764,
    0.754379,
    5.941942,
    1.001298,
    0.826964,
    1.084967,
    0.974964,
    0.715155,
    0.69619,
    0.76198,
    0.697966,
    0.838247,
    0.807783,
    1.009217,
    0.788061,
    0.800964,
    0.738966,
    1.248948,
    0.765292,
    0.50931,
    0.734399,
    0.808373,
    0.815852,
    0.814136,
    0.807953,
    0.775304,
    1.069582,
    1.133854,
    0.877003,
    0.865762,
    1.47302,
    1.014992,
    1.121028,
    0.810001,
    0.643985,
    0.803706,
    0.94196,
    0.820076,
    0.965998,
    0.950103,
    1.415681,
    0.681949,
    0.715242,
    0.908373,
    6.578728,
    0.837364,
    0.730911,
    0.83837,
    0.89523,
    1.007367,
    0.926679,
    16.864968,
    52.962053,
    2.353207,
    0.659634,
    0.921026,
    0.78603,
    0.843032,
    0.869337,
    0.774964,
    0.758761,
    0.851152,
    1.076069,
    1.03899,
    0.860969,
    0.818798,
    0.724099,
    0.91659,
    0.984826,
    0.846367,
    15.108304,
    1.107992,
    0.739685,
    0.958754,
    0.693662,
    0.597964,
    0.79433,
    2.241928,
    1.068112,
    0.832963,
    0.621034,
    0.700983,
    0.790079,
    0.6275,
    1.346963,
    1.201971,
    0.774965,
    0.881966,
    0.660964,
    1.012965,
    14.840964,
    5.382972,
    11.147964,
    0.759979,
    0.901068,
    0.991969,
    0.823001,
    0.772113,
    0.86926,
    1.054969,
    0.896964,
    0.767054,
    1.042407,
    0.745965,
    14.956872,
    10.022966,
    0.926965,
    0.636975,
    1.091307,
    1.408968,
    0.958244,
    10.396798,
    0.810063,
    1.021962,
    0.996627,
    1.033014,
    0.954966,
    0.898964,
    5.054964,
    6.151541,
    0.962551,
    0.872994,
    0.529263,
    0.819964,
    0.843995,
    0.793905,
    1.073996,
    0.984166,
    0.920128,
    0.973539,
    5.255927,
    0.630084,
    1.145797,
    0.872972,
    0.779844,
    0.903043,
    1.020963,
    7.238385,
    5.351682,
    0.761035,
    0.98197,
    1.039997,
    0.841181,
    0.632252,
    12.666964,
    5.433964,
    0.921964,
    1.316966,
    1.052918,
    1.134254,
    6.911218,
    7.652202,
    7.528861,
    0.858023,
    1.054965,
    0.797012,
    0.956985,
    0.860123,
    5.590966,
    16.541969,
    0.902398,
    0.656966,
    0.529491,
    0.798899,
    0.867963,
    1.043034,
    1.052006,
    0.864195,
    3.972762,
    0.655911,
    1.119964,
    1.060994,
    14.618968,
    3.63694,
    3.435971,
    1.054571,
    0.720963,
    1.054516,
    0.949413,
    0.857965,
    1.229964,
    1.134964,
    3.808233,
    0.854188,
    0.756321,
    1.280964,
    2.251964,
    4.903966,
    1.402133,
    1.161077,
    0.697446,
    0.815964,
    1.115413,
    1.192964,
    1.18202,
    1.037136,
    0.856049,
    0.87498,
    1.23495,
    1.035964,
    0.648634,
    0.690688,
    0.8647,
    0.836527,
    1.0938,
    0.794378,
    0.963584,
    0.643629,
    0.630718,
    1.388964,
    1.057964,
    0.916964,
    3.964964,
    0.761483,
    1.0698,
    1.01731,
    1.145179,
    1.150417,
    0.778966,
    0.696259,
    0.834754,
    0.849447,
    0.699796,
    0.893979,
    3.67563,
    0.786025,
    1.204346,
    0.773507,
    1.28545,
    0.867969,
    3.467977,
    0.735891,
    0.936794,
    0.694639,
    0.891898,
    0.648964,
    3.438669,
    15.420965,
    0.633784,
    0.780923,
    1.047555,
    1.108413,
    0.764963,
    0.905964,
    0.928847,
    0.870964,
    1.115041,
    0.956965,
    1.044971,
    0.828992,
    0.968965,
    1.702715,
    1.291992,
    0.554039,
    1.08098,
    0.668429,
    1.135058,
    0.852985,
    0.831966,
    1.045228,
    0.844966,
    0.912654,
    0.861954,
    0.767955,
    0.659239,
    4.030726
  ]
}