{
  "net_scale": 0.1,
  "num_dir_authorities": 3,
  "num_exit_circuits_ten_minutes": 224096,
  "num_hs_circuits_ten_minutes": 11800,
  "num_public_relays": 6649,
  "num_sampled_relays": 665,
  "num_tgen_exit_emulated_users": 75234.3,
  "num_tgen_exit_markov_clients": 752,
  "num_tgen_exit_perf_clients": 100,
  "num_tgen_exit_servers": 75,
  "num_tgen_hs_emulated_users": 3959.7000000000003,
  "num_tgen_hs_markov_clients": 100,
  "num_tgen_hs_perf_clients": 100,
  "num_tgen_onionservice_servers": 10,
  "tornettools_generate_seed": 1
}