[
  17.817332255384734,
  22.737284883968794,
  36.06576592416268,
  23.114706732158314,
  34.18423593959645,
  13.674442296417464,
  15.150453472010476,
  23.993473775133168,
  42.31483293575015,
  6.145667688383919,
  36.86007454950079,
  27.207737880653266,
  34.85413544317034,
  39.40246166879275,
  55.939752886141626,
  11.63966506863765,
  25.420470469357188,
  11.746395324934653,
  14.952460520831563,
  24.521674094690432,
  18.516589707090716,
  29.827151656152633,
  11.778354917168716,
  6.9502664992810805,
  7.903271855757384,
  25.01031675566171,
  29.138378157871696,
  43.00612837329318,
  28.277044341940133,
  22.98652415021693,
  21.27387993022168,
  136.84336566257824,
  16.9834072111547,
  55.14997345907517,
  32.25689390304388,
  7.704657369071389,
  4.459241694801695,
  15.008310852134372,
  17.973569865512772,
  13.452884634787814,
  20.14991537035544,
  8.822718500137858,
  12.840638051304765,
  43.895265895573196,
  2.868827180416238,
  29.52912125026298,
  29.297590273200022,
  3.1188755517973097,
  44.6979813274183,
  31.616429477578045,
  14.32990669439503,
  26.837892420308226,
  26.055067384918022,
  35.72162140439555,
  35.707271785899245,
  22.85472678602548,
  5.550814235063106,
  37.28960505647045,
  40.243270570599286,
  8.350556355817211,
  35.582598330286544,
  20.708918036691003,
  21.118599414486827,
  29.298341347650457,
  25.804370615272962,
  3.605182088734347,
  13.778446032410345,
  37.04595550780743,
  37.73745111820796
]