[
  0.436879,
  0.768256,
  0.451399,
  0.442033,
  0.210409,
  0.337991,
  0.346761,
  0.440007,
  0.242018,
  0.226694,
  0.392353,
  0.356603,
  0.37816,
  0.746838,
  0.293761,
  0.298974,
  0.35037,
  0.61324,
  0.624378,
  0.676634,
  0.251124,
  0.293131,
  0.309176,
  0.367642,
  0.412622,
  0.568837,
  0.249958,
  0.339135,
  0.273027,
  0.219926,
  0.300937,
  0.305423,
  0.38696,
  0.388452,
  0.419458,
  0.228616,
  0.318095,
  0.474113,
  0.285868,
  0.430658,
  0.269174,
  0.228975,
  0.267778,
  0.281679,
  0.363192,
  0.279444,
  0.319473,
  0.332427,
  0.346788,
  0.409958,
  0.431968,
  0.353829,
  0.400077,
  0.453088,
  0.508026,
  0.326056,
  0.338559,
  0.368672,
  0.458403,
  0.05328,
  0.461471,
  0.480525,
  0.294086,
  0.363001,
  0.389481,
  0.498007,
  0.268627,
  0.32301,
  0.296402,
  0.461948,
  0.241426,
  0.319938,
  0.280325,
  0.435515,
  0.317831,
  0.43167,
  0.271426,
  0.471646,
  0.260061,
  0.300834,
  0.397626,
  0.435819,
  0.395726,
  0.421668,
  0.427487,
  0.527955,
  0.55078,
  0.558434,
  0.475619,
  0.295451,
  0.319687,
  0.272778,
  0.331987,
  0.363681,
  0.395915,
  0.55832,
  0.331432,
  0.344464,
  0.319287,
  0.32516,
  0.369194,
  0.407001,
  0.408183,
  0.416967,
  0.382607,
  0.409414,
  0.327391,
  0.390598,
  0.038356,
  0.446377,
  0.480569,
  0.484552,
  0.394901,
  0.311533,
  0.419392,
  0.38432,
  0.545522,
  0.253505,
  0.296395,
  0.295137,
  0.347952,
  0.277463,
  0.426287,
  0.047994,
  0.322589,
  0.378254,
  0.462433,
  0.530226,
  0.377418,
  0.469327,
  0.666804,
  0.925837,
  0.606194,
  0.776212,
  0.413952,
  0.451051,
  0.461878,
  0.79999,
  0.852262,
  0.870286,
  0.436131,
  1.040361,
  0.39854,
  0.524334,
  0.997097,
  0.450716,
  0.841816,
  0.808492,
  0.484715,
  0.495723,
  0.82567,
  0.471256,
  0.523837,
  0.565069,
  0.708009,
  0.725283,
  0.818184,
  0.497028,
  0.779651,
  0.390174,
  0.448082,
  0.749725,
  0.782968,
  0.819002,
  0.440698,
  0.474411,
  0.738941,
  0.865122,
  0.080438,
  0.639266,
  0.713026,
  0.462673,
  0.814618,
  0.61467,
  0.695684,
  0.519958,
  0.747583,
  0.629782,
  0.758026,
  0.384543,
  0.786537,
  0.481676,
  0.831648,
  0.538599,
  0.773511,
  0.572771,
  0.880861,
  0.702504,
  0.081439,
  0.538999,
  0.468782,
  0.867092,
  0.3231,
  0.477378,
  0.362122,
  0.344396,
  0.284957,
  0.323949,
  0.355562,
  0.376583,
  0.359325,
  0.330971,
  0.427095,
  0.434463,
  0.264199,
  0.300751,
  0.30448,
  0.310898,
  0.323858,
  0.326511,
  0.327005,
  0.327848,
  0.329002,
  0.330677,
  0.330893,
  0.332352,
  0.337544,
  0.339876,
  0.339368,
  0.340044,
  0.343712,
  0.345612,
  0.347605,
  0.354524,
  0.361204,
  0.360727,
  0.361655,
  0.361629,
  0.361679,
  0.363988,
  0.363671,
  0.363643,
  0.364669,
  0.365569,
  0.367427,
  0.367792,
  0.368223,
  0.374404,
  0.375287,
  0.375142,
  0.374623,
  0.375161,
  0.375311,
  0.377244,
  0.377871,
  0.377716,
  0.378822,
  0.379938,
  0.381985,
  0.381424,
  0.38128,
  0.381243,
  0.381054,
  0.382235,
  0.382417,
  0.383091,
  0.385961,
  0.385029,
  0.38685,
  0.386957,
  0.387727,
  0.387329,
  0.390423,
  0.390787,
  0.391491,
  0.394975,
  0.394529,
  0.394931,
  0.395992,
  0.397873,
  0.397923,
  0.398551,
  0.397827,
  0.398065,
  0.399119,
  0.399342,
  0.400396,
  0.401358,
  0.403048,
  0.404,
  0.407052,
  0.406503,
  0.407918,
  0.410017,
  0.409748,
  0.410774,
  0.411471,
  0.413096,
  0.413181,
  0.413296,
  0.413577,
  0.412905,
  0.413307,
  0.414724,
  0.41659,
  0.416842,
  0.417076,
  0.418999,
  0.42109,
  0.422807,
  0.422799,
  0.423133,
  0.425798,
  0.430369,
  0.431434,
  0.435311,
  0.437142,
  0.44378,
  0.445868,
  0.44637,
  0.482252,
  0.483567,
  0.493396,
  0.494983,
  0.496741,
  0.497703,
  0.498949,
  0.501691,
  0.503206,
  0.503718,
  0.504268,
  0.508036,
  0.50849,
  0.514784,
  0.516712,
  0.518572,
  0.520699,
  0.525691,
  0.52716,
  0.528051,
  0.528843,
  0.530957,
  0.553722,
  0.555432,
  0.556704,
  0.557682,
  0.560586,
  0.563446,
  0.565637,
  0.577324,
  0.596783,
  0.600538,
  0.602687,
  0.605331,
  0.607847,
  0.654682,
  0.663667,
  0.698421,
  0.706835,
  0.724452,
  0.784713,
  0.348167,
  0.353751,
  0.371744,
  0.835043,
  0.375176,
  0.420056,
  0.412142,
  0.431552,
  0.453714,
  0.468056,
  0.470332,
  0.455512,
  0.458019,
  0.506929,
  0.516019,
  0.555025,
  0.565326,
  0.575323,
  1.108717,
  1.002476,
  0.475859,
  0.409155,
  0.396284,
  0.341056,
  0.392619,
  0.349794,
  0.380541,
  0.387395,
  0.396476,
  0.400511,
  0.572655,
  0.39538,
  0.334421,
  0.375437,
  0.410051,
  0.348196,
  0.353597,
  0.359583,
  0.36221,
  0.398224,
  0.488611,
  0.383383,
  0.314521,
  0.385562,
  0.403539,
  0.588494,
  1.442395,
  0.536259,
  0.342874,
  0.292228,
  0.294394,
  0.300173,
  0.30974,
  0.322745,
  0.323346,
  0.326007,
  0.325992,
  0.329382,
  0.331686,
  0.333396,
  0.335796,
  0.338222,
  0.339931,
  0.341404,
  0.342098,
  0.341541,
  0.343847,
  0.343489,
  0.345166,
  0.347006,
  0.34826,
  0.349047,
  0.348647,
  0.348698,
  0.350727,
  0.352413,
  0.352376,
  0.352101,
  0.356105,
  0.357096,
  0.361672,
  0.361899,
  0.362429,
  0.362245,
  0.362093,
  0.362914,
  0.363891,
  0.363789,
  0.363633,
  0.363789,
  0.365297,
  0.364758,
  0.366277,
  0.366774,
  0.36639,
  0.366504,
  0.367365,
  0.368187,
  0.369297,
  0.370897,
  0.372337,
  0.374051,
  0.374574,
  0.378962,
  0.379694,
  0.379693,
  0.379453,
  0.386445,
  0.387449,
  0.388017,
  0.388587,
  0.388485,
  0.388693,
  0.388894,
  0.3894,
  0.389452,
  0.38992,
  0.39146,
  0.392949,
  0.392941,
  0.393079,
  0.394754,
  0.396785,
  0.397284,
  0.397217,
  0.397536,
  0.397215,
  0.400985,
  0.401021,
  0.400825,
  0.401572,
  0.40193,
  0.403971,
  0.404619,
  0.405219,
  0.406321,
  0.408441,
  0.40781,
  0.408165,
  0.409607,
  0.409736,
  0.410285,
  0.414061,
  0.414137,
  0.414887,
  0.414142,
  0.416137,
  0.416356,
  0.41553,
  0.419295,
  0.424346,
  0.42453,
  0.425117,
  0.424785,
  0.425592,
  0.42916,
  0.433373,
  0.433509,
  0.440742,
  0.44144,
  0.444613,
  0.443704,
  0.444613,
  0.444411,
  0.445231,
  0.444725,
  0.451518,
  0.451503,
  0.450906,
  0.451028,
  0.459202,
  0.462713,
  0.465622,
  0.46812,
  0.468287,
  0.469242,
  0.469852,
  0.469853,
  0.47138,
  0.471329,
  0.477876,
  0.477889,
  0.4786,
  0.623481,
  0.632808,
  0.634241,
  0.639239,
  0.671606,
  0.393232,
  0.388025,
  0.419351,
  0.439284,
  0.410019,
  0.42317,
  0.476342,
  0.470178,
  0.468263,
  0.480254,
  0.451805,
  0.528114,
  0.507019,
  0.46997,
  0.526866,
  0.626019,
  0.684126,
  0.360858,
  0.372262,
  0.380731,
  0.337779,
  0.395593,
  0.372606,
  1.477942,
  0.347877,
  0.358952,
  0.383932,
  0.412381,
  0.431319,
  0.515822,
  0.561341,
  0.301937,
  0.479298,
  0.423772,
  0.430108,
  0.41398,
  0.335635,
  0.340692,
  0.344529,
  0.371022,
  0.379444,
  0.434286,
  0.47096,
  0.323974,
  0.335522,
  0.398821,
  0.416426,
  0.4598,
  0.57029,
  0.332279,
  0.337713,
  0.373038,
  0.314027,
  0.325473,
  0.329587,
  0.334996,
  0.337539,
  0.338605,
  0.33903,
  0.342227,
  0.343297,
  0.346033,
  0.347449,
  0.347592,
  0.347764,
  0.347893,
  0.348565,
  0.350304,
  0.352745,
  0.354062,
  0.356798,
  0.356733,
  0.358921,
  0.361389,
  0.362682,
  0.364537,
  0.364129,
  0.364473,
  0.365179,
  0.368729,
  0.369358,
  0.369487,
  0.370365,
  0.370853,
  0.374086,
  0.375723,
  0.376122,
  0.375225,
  0.377152,
  0.376383,
  0.379395,
  0.382436,
  0.381891,
  0.385253,
  0.384912,
  0.39248,
  0.396053,
  0.397585,
  0.398462,
  0.399064,
  0.400102,
  0.400314,
  0.401721,
  0.405546,
  0.405054,
  0.407789,
  0.409023,
  0.40909,
  0.410694,
  0.411393,
  0.411107,
  0.412061,
  0.413276,
  0.416534,
  0.417439,
  0.420284,
  0.422989,
  0.426148,
  0.426518,
  0.428087,
  0.428593,
  0.430638,
  0.43223,
  0.434811,
  0.437976,
  0.439887,
  0.441913,
  0.442849,
  0.44647,
  0.446383,
  0.447133,
  0.44716,
  0.447663,
  0.448579,
  0.450113,
  0.452032,
  0.489,
  0.489337,
  0.489715,
  0.489962,
  0.49155,
  0.498936,
  0.500895,
  0.504141,
  0.503207,
  0.50438,
  0.504857,
  0.506478,
  0.512758,
  0.514315,
  0.515371,
  0.534673,
  0.540939,
  0.544084,
  0.553514,
  0.552834,
  0.559948,
  0.563849,
  0.565255,
  0.567263,
  0.577701,
  0.597227,
  0.60299,
  0.617477,
  0.626148,
  0.63194,
  0.643414,
  0.657164,
  0.663633,
  0.666537,
  0.67158,
  0.700844,
  0.738482,
  0.744463,
  0.758041,
  0.759334,
  0.791941,
  0.331319,
  0.363981,
  0.855497,
  0.4139,
  0.429404,
  0.456949,
  0.448612,
  0.940721,
  0.477937,
  0.471016,
  0.467939,
  0.464973,
  0.972681,
  0.488081,
  0.977962,
  0.511888,
  0.544019,
  0.54902,
  0.562103,
  0.565926,
  0.56385,
  0.716117,
  0.405984,
  0.959639,
  2.605591,
  0.322332,
  0.367491,
  0.422905,
  0.424492,
  0.477971,
  0.503486,
  0.411612,
  0.340586,
  0.391277,
  0.39729,
  0.503713,
  0.522323,
  0.719499,
  0.451718,
  0.330938,
  0.63619,
  0.338998,
  0.425165,
  0.38574,
  0.395783,
  0.417778,
  0.423346,
  0.494408,
  0.579761,
  0.43799,
  0.311461,
  0.395328,
  0.314687,
  0.347298,
  0.384501,
  0.413888,
  0.534904,
  0.55491,
  0.303427,
  0.33116,
  0.336058,
  0.33625,
  0.34082,
  0.341922,
  0.348609,
  0.348521,
  0.350521,
  0.362552,
  0.362287,
  0.36419,
  0.363554,
  0.366184,
  0.366439,
  0.369289,
  0.369476,
  0.370144,
  0.37277,
  0.372807,
  0.375379,
  0.377992,
  0.378508,
  0.37955,
  0.382305,
  0.385251,
  0.387915,
  0.388101,
  0.391702,
  0.397272,
  0.407093,
  0.410175,
  0.410205,
  0.41105,
  0.411066,
  0.415949,
  0.416906,
  0.418235,
  0.419253,
  0.419626,
  0.419099,
  0.420741,
  0.42091,
  0.420702,
  0.420494,
  0.420793,
  0.423131,
  0.42254,
  0.423193,
  0.423851,
  0.425321,
  0.426233,
  0.425957,
  0.426819,
  0.426807,
  0.428596,
  0.43063,
  0.430815,
  0.431298,
  0.431075,
  0.430787,
  0.431367,
  0.433538,
  0.434172,
  0.440206,
  0.440454,
  0.440802,
  0.443057,
  0.444833,
  0.444945,
  0.447074,
  0.449996,
  0.451347,
  0.46474,
  0.467324,
  0.469175,
  0.468239,
  0.472273,
  0.476228,
  0.476601,
  0.477086,
  0.484126,
  0.484637,
  0.48598,
  0.48613,
  0.48625,
  0.490646,
  0.491499,
  0.491474,
  0.495314,
  0.498499,
  0.507035,
  0.506901,
  0.506463,
  0.510481,
  0.512676,
  0.514482,
  0.514953,
  0.519569,
  0.523423,
  0.526847,
  0.530849,
  0.532267,
  0.534402,
  0.609482,
  0.620927,
  0.630841,
  0.633779,
  0.633622,
  0.644996,
  0.650598,
  0.652333,
  0.66163,
  0.668614,
  0.670215,
  0.68594,
  0.690239,
  0.715808,
  0.730681,
  0.790367,
  0.31598,
  0.909826,
  0.376835,
  0.401107,
  0.396481,
  0.377016,
  0.456623,
  0.50402,
  0.507354,
  0.515012,
  0.540019,
  0.506019,
  0.502016,
  0.532427,
  0.532019,
  0.55811,
  0.565049,
  0.575487,
  0.647012,
  0.418309,
  0.431098,
  0.522521,
  0.331577,
  0.396912,
  0.636387,
  0.326907,
  0.329112,
  0.366841,
  0.446905,
  0.638925,
  0.706891,
  0.405372,
  0.439925,
  0.328094,
  0.355487,
  0.360187,
  0.387003,
  0.533062,
  0.765061,
  0.474216,
  0.291937,
  0.511259,
  0.371729,
  0.371751,
  0.377313,
  0.436333,
  0.473558,
  0.309282,
  0.324356,
  0.361283,
  0.368112,
  0.413135,
  0.473302,
  0.340241,
  0.363645,
  0.346675,
  0.384696,
  0.397801,
  0.410848,
  0.417743,
  0.434865,
  0.444606,
  0.592513,
  0.447217,
  0.439973,
  0.56893,
  0.387888,
  0.626158,
  0.371251,
  0.405037,
  0.407023,
  0.432025,
  0.453003,
  0.453066,
  0.470119,
  0.888812,
  0.688988,
  0.350198,
  0.349331,
  0.375402,
  0.402502,
  0.420566,
  0.447802,
  0.625119,
  0.421879,
  0.430416,
  0.400986,
  0.405018,
  0.417002,
  0.48363,
  0.513597,
  0.474847,
  0.31603,
  0.350054,
  0.362028,
  0.375909,
  0.393657,
  0.521014,
  0.308673,
  0.429644,
  0.391153,
  0.28671,
  0.327533,
  0.337991,
  0.400481,
  0.452502,
  0.36266,
  0.495379,
  0.042334,
  0.297325,
  0.334163,
  0.40005,
  0.559513,
  0.312649,
  0.402983,
  0.294339,
  0.353459,
  0.355431,
  0.401764,
  0.401776,
  0.555372,
  0.481631,
  0.502105,
  0.267936,
  0.35246,
  0.337297,
  0.401616,
  0.280598,
  0.307124,
  0.336929,
  0.343768,
  0.305672,
  0.34504,
  0.342174,
  0.474541,
  0.03971,
  0.553026,
  0.47421,
  0.359501,
  0.451242,
  0.316481,
  0.389968,
  0.375469,
  0.54794,
  0.400446,
  0.466245,
  0.276429,
  0.429917,
  0.31841,
  0.477219,
  0.288133,
  0.420826,
  0.268322,
  0.273564,
  0.275547,
  0.302845,
  0.157822,
  0.325803,
  0.16095,
  0.168518,
  0.220919,
  0.319937,
  0.225805,
  0.26979,
  0.192096,
  0.241786,
  0.235461,
  0.287753,
  0.419768,
  0.207749,
  0.26132,
  0.217135,
  0.272328,
  0.174714,
  0.282047,
  0.323597,
  0.406703,
  0.18678,
  0.386659,
  0.249067,
  0.266408,
  0.300026,
  0.209651,
  0.321646,
  0.348222,
  0.364637,
  0.369616,
  0.403188,
  0.261598,
  0.273891,
  0.130944,
  0.274665,
  0.440693,
  0.238545,
  0.341807,
  0.411023,
  0.369668,
  0.425879,
  0.259449,
  0.378039,
  0.379776,
  0.409424,
  0.402621,
  0.450406,
  0.408395,
  0.372108,
  0.539578,
  0.461505,
  0.06639,
  0.309391,
  0.464567,
  0.395686,
  0.538341,
  0.564606,
  0.452026,
  0.446506,
  0.494305,
  0.06809,
  0.471498,
  0.499026,
  0.297262,
  0.503477,
  0.442251,
  0.466453,
  0.333233,
  0.421434,
  0.408422,
  0.499026,
  0.786301,
  1.490132,
  0.501225,
  0.458591,
  1.243183,
  0.522354,
  0.749238,
  0.848099,
  0.688845,
  0.073164,
  0.729304,
  0.441037,
  0.745635,
  0.378983,
  0.499206,
  0.613517,
  0.694581,
  0.714247,
  0.753149,
  0.364762,
  0.487936,
  0.845254,
  1.079837,
  0.502895,
  0.474325,
  0.862319,
  0.375986,
  0.44462,
  0.752086,
  0.79936,
  0.735055,
  0.419976,
  0.760185,
  0.421369,
  0.717463,
  0.569404,
  0.698852,
  0.726444,
  0.60968,
  0.660243,
  0.685127,
  0.784336,
  0.880565,
  0.944743,
  0.477588,
  0.735184,
  0.396134,
  0.650464,
  0.718678,
  0.401796,
  0.714543,
  0.538599,
  0.412922,
  0.756401,
  0.448355,
  0.652057,
  0.691564,
  0.824521,
  0.432585,
  0.842901,
  0.83515,
  0.425104,
  0.474773,
  0.753909,
  0.757682,
  0.778925,
  0.374576,
  0.705133,
  0.802966,
  0.549694,
  0.757108,
  0.743558,
  0.414024,
  0.608575,
  0.646256,
  0.688108,
  0.738828,
  0.843952,
  0.349918,
  0.476213,
  0.621775,
  0.736783,
  0.800927,
  0.4555,
  0.471805,
  0.707106,
  0.574588,
  0.705796,
  0.338168,
  0.763124,
  0.479574,
  0.753046,
  0.757919,
  0.454106,
  0.705464,
  0.352674,
  0.3708,
  0.633754,
  0.203601,
  0.267889,
  0.312763,
  0.445756,
  0.447554,
  0.341157,
  0.35679,
  0.241977,
  0.318322,
  0.391001,
  0.465114,
  0.404652,
  0.496765,
  0.277958,
  0.308975,
  0.312328,
  0.336086,
  0.461119,
  0.486992,
  0.298624,
  0.365392,
  0.313903,
  0.345776,
  0.370887,
  0.304026,
  0.356726,
  0.395614,
  0.278741,
  0.410708,
  0.461578,
  0.471015,
  0.367549,
  0.419026,
  0.047483,
  0.230537,
  0.355079,
  0.478523,
  0.455886,
  0.326505,
  0.350618,
  0.234373,
  0.281067,
  0.328585,
  0.390958,
  0.339567,
  0.336026,
  0.271174,
  0.376549,
  0.068945,
  0.317418,
  0.401529,
  0.335796,
  0.883414,
  0.821282,
  0.812786,
  0.230646,
  0.370782,
  0.835581,
  1.029928,
  0.959099,
  0.853749,
  0.827662,
  0.484794,
  0.975102,
  0.341581,
  0.905351,
  0.265747,
  0.814607,
  0.262782,
  0.351764,
  0.352795,
  0.789625,
  0.92241,
  0.944223,
  0.268631,
  0.827667,
  0.290983,
  0.328959,
  0.366924,
  0.874381,
  0.884013,
  0.92605,
  0.348731,
  0.349803,
  0.95376,
  0.959985,
  0.371595,
  0.858797,
  0.282332,
  0.827715,
  0.252473,
  0.851798,
  0.490541,
  0.94702,
  0.039256,
  0.493298,
  0.946079,
  0.664629,
  0.955914,
  0.281487,
  0.843063,
  0.323501,
  0.964977,
  0.246589,
  0.828975,
  0.410905,
  0.886636,
  0.03928,
  0.289531,
  0.933923,
  0.457968,
  0.991557,
  0.457186,
  1.111426,
  0.255397,
  0.325628,
  0.338884,
  0.344722,
  0.363913,
  0.552356,
  0.272998,
  0.428044,
  0.286925,
  0.295953,
  0.259564,
  0.260068,
  0.260297,
  0.26791,
  0.269362,
  0.270409,
  0.274637,
  0.277191,
  0.278289,
  0.283027,
  0.285511,
  0.287064,
  0.288806,
  0.289838,
  0.291308,
  0.293706,
  0.298367,
  0.298332,
  0.301594,
  0.303835,
  0.306735,
  0.307521,
  0.308855,
  0.310815,
  0.312993,
  0.31488,
  0.317986,
  0.320565,
  0.32227,
  0.324323,
  0.323432,
  0.323889,
  0.324654,
  0.327728,
  0.328394,
  0.328919,
  0.329701,
  0.330095,
  0.332043,
  0.335965,
  0.336266,
  0.337156,
  0.337446,
  0.339017,
  0.339712,
  0.339393,
  0.339292,
  0.342787,
  0.342952,
  0.344622,
  0.34498,
  0.347515,
  0.346446,
  0.348362,
  0.349541,
  0.353558,
  0.35351,
  0.356515,
  0.35835,
  0.36061,
  0.361858,
  0.365503,
  0.365867,
  0.370457,
  0.369995,
  0.370038,
  0.369948,
  0.371184,
  0.370882,
  0.370788,
  0.373108,
  0.37291,
  0.373527,
  0.373961,
  0.377769,
  0.378838,
  0.381052,
  0.38113,
  0.381877,
  0.385468,
  0.386622,
  0.387137,
  0.387237,
  0.390433,
  0.39062,
  0.392762,
  0.392583,
  0.39429,
  0.396475,
  0.397571,
  0.39692,
  0.398162,
  0.399826,
  0.398772,
  0.398877,
  0.39905,
  0.401696,
  0.401702,
  0.401233,
  0.402679,
  0.404297,
  0.405197,
  0.405473,
  0.409488,
  0.4111,
  0.419034,
  0.419335,
  0.42008,
  0.419541,
  0.420368,
  0.428773,
  0.433972,
  0.433754,
  0.43528,
  0.435666,
  0.435545,
  0.436049,
  0.436403,
  0.437644,
  0.438214,
  0.438963,
  0.440548,
  0.443909,
  0.446966,
  0.452363,
  0.456917,
  0.456605,
  0.459965,
  0.615603,
  0.618434,
  0.619886,
  0.628437,
  0.628367,
  0.634332,
  0.670486,
  0.729218,
  0.74588,
  0.746292,
  0.746185,
  0.766966,
  0.779823,
  0.780853,
  0.790932,
  0.8188,
  0.292291,
  0.873789,
  0.418382,
  0.9069,
  0.3401,
  0.478759,
  0.477017,
  0.437195,
  0.408903,
  0.403805,
  0.389669,
  0.485735,
  0.503448,
  0.433654,
  0.541523,
  0.530344,
  0.538015,
  0.546546,
  1.074224,
  0.483002,
  0.532019,
  0.446649,
  0.330961,
  0.298288,
  0.256656,
  0.362415,
  0.320346,
  0.332999,
  0.360668,
  0.375057,
  0.40281,
  0.464379,
  0.281984,
  0.422661,
  0.432927,
  0.377215,
  0.26824,
  0.317208,
  0.351058,
  0.411019,
  0.523163,
  0.580611,
  0.596435,
  0.612131,
  0.388021,
  0.433733,
  0.338707,
  0.453889,
  0.481159,
  0.506722,
  0.384967,
  0.430795,
  0.252805,
  0.255974,
  0.258704,
  0.259544,
  0.263148,
  0.265941,
  0.272529,
  0.274894,
  0.280115,
  0.285359,
  0.286275,
  0.296347,
  0.297436,
  0.298084,
  0.299997,
  0.303629,
  0.305221,
  0.305413,
  0.313051,
  0.3149,
  0.315181,
  0.316609,
  0.31945,
  0.320068,
  0.320947,
  0.322415,
  0.322514,
  0.32235,
  0.322471,
  0.324153,
  0.324083,
  0.323937,
  0.326639,
  0.326321,
  0.326463,
  0.330263,
  0.331563,
  0.336108,
  0.33633,
  0.337091,
  0.337046,
  0.339054,
  0.338814,
  0.339789,
  0.340589,
  0.340734,
  0.340568,
  0.340646,
  0.339824,
  0.340422,
  0.340507,
  0.340249,
  0.342418,
  0.34327,
  0.342793,
  0.344013,
  0.349654,
  0.349165,
  0.351248,
  0.352379,
  0.357796,
  0.357262,
  0.358995,
  0.361811,
  0.363921,
  0.363857,
  0.363917,
  0.366327,
  0.3666,
  0.366954,
  0.368123,
  0.379415,
  0.381027,
  0.382566,
  0.383191,
  0.384963,
  0.387098,
  0.387016,
  0.389822,
  0.39229,
  0.394053,
  0.396271,
  0.395913,
  0.396565,
  0.397043,
  0.39796,
  0.401719,
  0.403551,
  0.404384,
  0.407359,
  0.410976,
  0.411415,
  0.413044,
  0.413491,
  0.418783,
  0.419783,
  0.419215,
  0.419786,
  0.421651,
  0.422224,
  0.422618,
  0.42735,
  0.430196,
  0.430812,
  0.430796,
  0.434486,
  0.435749,
  0.435298,
  0.435704,
  0.439529,
  0.441513,
  0.455625,
  0.460625,
  0.460858,
  0.464927,
  0.532836,
  0.54401,
  0.544645,
  0.546112,
  0.560096,
  0.56811,
  0.574535,
  0.576384,
  0.583221,
  0.596267,
  0.613811,
  0.623009,
  0.629593,
  0.64016,
  0.64643,
  0.65945,
  0.686489,
  0.696504,
  0.726071,
  0.775349,
  0.331802,
  0.81066,
  0.812954,
  0.828096,
  0.373566,
  0.376022,
  0.379016,
  0.347614,
  0.393372,
  0.388179,
  0.440311,
  0.419961,
  0.917433,
  0.427481,
  0.465698,
  0.447861,
  0.489629,
  0.490683,
  0.495702,
  0.516468,
  0.539019,
  0.551512,
  0.395193,
  0.485797,
  0.313314,
  0.498112,
  0.469234,
  0.535189,
  0.357709,
  0.056049,
  0.337707,
  0.357013,
  0.374421,
  0.384743,
  0.504429,
  0.536728,
  0.377817,
  0.38425,
  0.349652,
  0.479266,
  0.52147,
  0.344111,
  0.362148,
  0.402848,
  0.411871,
  0.617876,
  0.631883,
  0.436688,
  0.350805,
  0.377244,
  0.258812,
  0.41394,
  0.458914,
  0.503199,
  0.350636,
  0.31807,
  0.261279,
  0.262093,
  0.263936,
  0.273024,
  0.275763,
  0.280595,
  0.281048,
  0.281764,
  0.280695,
  0.28554,
  0.290474,
  0.298316,
  0.300235,
  0.300436,
  0.303779,
  0.305621,
  0.305908,
  0.307286,
  0.311047,
  0.311106,
  0.313101,
  0.315716,
  0.319463,
  0.321391,
  0.321199,
  0.320767,
  0.321696,
  0.322845,
  0.323626,
  0.323922,
  0.328433,
  0.328665,
  0.33106,
  0.334443,
  0.335288,
  0.343409,
  0.342339,
  0.346481,
  0.346566,
  0.348593,
  0.349078,
  0.350572,
  0.35099,
  0.351681,
  0.351839,
  0.353384,
  0.352952,
  0.353879,
  0.355225,
  0.356932,
  0.358072,
  0.357921,
  0.358746,
  0.360822,
  0.361123,
  0.362605,
  0.367111,
  0.3675,
  0.367293,
  0.371158,
  0.372917,
  0.373684,
  0.374967,
  0.374079,
  0.37643,
  0.377597,
  0.378425,
  0.378827,
  0.379866,
  0.380247,
  0.381198,
  0.382938,
  0.388463,
  0.388659,
  0.390665,
  0.392297,
  0.392021,
  0.400749,
  0.40144,
  0.401656,
  0.402341,
  0.401561,
  0.403819,
  0.40515,
  0.409098,
  0.411959,
  0.413685,
  0.4152,
  0.416294,
  0.417218,
  0.417857,
  0.419242,
  0.421032,
  0.421343,
  0.423613,
  0.423614,
  0.423167,
  0.427413,
  0.428387,
  0.428501,
  0.42912,
  0.429671,
  0.431318,
  0.43235,
  0.438862,
  0.443827,
  0.443032,
  0.442925,
  0.449259,
  0.450556,
  0.452632,
  0.462689,
  0.604458,
  0.607867,
  0.614273,
  0.644924,
  0.656536,
  0.707686,
  0.711473,
  0.711724,
  0.713096,
  0.750553,
  0.774082,
  0.787818,
  0.799083,
  0.318652,
  0.830314,
  0.384019,
  0.367004,
  0.332529,
  0.935018,
  0.465912,
  0.461621,
  0.487588,
  0.411019,
  0.472181,
  0.483602,
  0.466018,
  0.478249,
  0.553987,
  0.546114,
  0.497679,
  0.543135,
  0.524878,
  0.592799,
  0.366008,
  0.320019,
  0.429623,
  0.352555,
  0.366263,
  0.405673,
  0.417162,
  0.431972,
  0.594032,
  0.536052,
  0.263347,
  0.409294,
  0.432302,
  0.442616,
  0.565134,
  0.712724,
  0.30226,
  0.375528,
  0.386792,
  0.362685,
  0.36984,
  0.392737,
  0.40283,
  0.276969,
  0.287983,
  0.40996,
  0.411709,
  0.426786,
  0.542053,
  0.270565,
  0.320266,
  0.328537,
  0.285055,
  0.287744,
  0.460278,
  0.713558,
  0.797107,
  0.804885,
  0.407556,
  0.263187,
  0.264821,
  0.264341,
  0.265412,
  0.274621,
  0.278397,
  0.2947,
  0.294757,
  0.294617,
  0.295038,
  0.298163,
  0.301365,
  0.30515,
  0.305384,
  0.311909,
  0.317494,
  0.319645,
  0.320885,
  0.330422,
  0.330485,
  0.331118,
  0.332694,
  0.336757,
  0.337273,
  0.338276,
  0.339633,
  0.339564,
  0.339841,
  0.340593,
  0.342289,
  0.343845,
  0.347987,
  0.348556,
  0.35023,
  0.351996,
  0.352649,
  0.352859,
  0.353038,
  0.353473,
  0.356042,
  0.356601,
  0.358275,
  0.359195,
  0.361132,
  0.362838,
  0.364616,
  0.363973,
  0.36639,
  0.367186,
  0.37078,
  0.371683,
  0.37166,
  0.373268,
  0.37545,
  0.387388,
  0.387961,
  0.389824,
  0.393012,
  0.392453,
  0.399454,
  0.406136,
  0.406985,
  0.410032,
  0.411843,
  0.411696,
  0.413199,
  0.415297,
  0.416285,
  0.416452,
  0.416392,
  0.416695,
  0.41715,
  0.417753,
  0.417738,
  0.42141,
  0.421365,
  0.422155,
  0.425098,
  0.426334,
  0.429126,
  0.433057,
  0.442484,
  0.44489,
  0.446148,
  0.447349,
  0.449422,
  0.452327,
  0.454443,
  0.464319,
  0.46605,
  0.466185,
  0.469968,
  0.471106,
  0.471395,
  0.534251,
  0.536171,
  0.536358,
  0.556545,
  0.563472,
  0.574255,
  0.577925,
  0.590033,
  0.590475,
  0.591769,
  0.593936,
  0.595981,
  0.597315,
  0.633758,
  0.666044,
  0.686522,
  0.705908,
  0.718158,
  0.728111,
  0.732007,
  0.783578,
  0.360791,
  0.424526,
  0.402019,
  0.410408,
  0.418303,
  0.42105,
  0.41517,
  0.437748,
  0.444241,
  0.492019,
  0.499333,
  0.483232,
  0.490743,
  0.498809,
  0.518019,
  0.526419,
  0.546019,
  0.539886,
  0.394623,
  0.448185,
  0.359621,
  0.382033,
  0.422491,
  0.312863,
  0.329033,
  0.339817,
  0.388487,
  0.398782,
  0.407413,
  0.461407,
  0.334941,
  0.37627,
  0.404485,
  0.423709,
  0.45952,
  0.784149,
  0.850844,
  0.309573,
  0.29827,
  0.365467,
  0.356392,
  0.428756,
  0.448537,
  0.611347,
  0.62182,
  0.640466,
  0.939929,
  0.284482,
  0.387991,
  0.404691,
  0.414653,
  0.512407,
  0.559592,
  0.316022,
  0.816741,
  0.282301,
  0.307274,
  0.308932,
  0.332946,
  0.339545,
  0.389669,
  0.413976,
  0.577253,
  0.535039,
  0.251656,
  0.252523,
  0.254918,
  0.25588,
  0.26947,
  0.27323,
  0.278049,
  0.283349,
  0.282812,
  0.28896,
  0.293616,
  0.300392,
  0.302098,
  0.302105,
  0.30456,
  0.309597,
  0.312211,
  0.312804,
  0.313144,
  0.313136,
  0.31491,
  0.316881,
  0.31668,
  0.319212,
  0.319813,
  0.319462,
  0.320381,
  0.323059,
  0.323556,
  0.326578,
  0.329289,
  0.330972,
  0.330743,
  0.333431,
  0.335921,
  0.340538,
  0.342033,
  0.34359,
  0.350192,
  0.35118,
  0.350951,
  0.35886,
  0.36627,
  0.367989,
  0.367816,
  0.368597,
  0.369675,
  0.371821,
  0.372075,
  0.37731,
  0.377535,
  0.377278,
  0.377694,
  0.381388,
  0.381051,
  0.381277,
  0.381414,
  0.383292,
  0.385326,
  0.386111,
  0.386969,
  0.389103,
  0.389396,
  0.389675,
  0.392002,
  0.393687,
  0.40482,
  0.406602,
  0.408326,
  0.408777,
  0.412659,
  0.412662,
  0.412945,
  0.4129,
  0.412423,
  0.418543,
  0.420673,
  0.422022,
  0.423869,
  0.423276,
  0.423455,
  0.423676,
  0.423665,
  0.42334,
  0.426195,
  0.433462,
  0.436802,
  0.436354,
  0.440656,
  0.444027,
  0.446141,
  0.447519,
  0.451256,
  0.452648,
  0.466911,
  0.46818,
  0.472821,
  0.734048,
  0.744825,
  0.769271,
  0.781184,
  0.828682,
  0.322553,
  0.906772,
  0.423783,
  0.296019,
  0.388329,
  0.310019,
  0.462902,
  0.427742,
  0.473896,
  0.485657,
  0.456494,
  0.486373,
  0.507968,
  0.522169,
  0.454611,
  0.524019,
  0.623298,
  0.684213,
  0.398605,
  1.013316,
  0.397739,
  0.068293,
  0.439729,
  0.522692,
  0.314637,
  0.27239,
  0.369678,
  0.374976,
  0.418698,
  0.423004,
  0.453706,
  0.464335,
  0.399572,
  0.320285,
  0.332657,
  0.34967,
  0.356882,
  0.584919,
  0.791952,
  0.299939,
  0.35463,
  0.434061,
  0.289582,
  0.29811,
  0.31309,
  0.350067,
  0.402265,
  0.456804,
  0.502902,
  0.637769,
  0.304409,
  0.339763,
  0.357283,
  0.359708,
  0.364749,
  0.397032,
  0.406734,
  0.287475,
  0.657991,
  0.356471,
  0.578974,
  0.363415,
  0.372496,
  0.456474,
  0.461012,
  0.476059,
  0.644488,
  0.374484,
  0.491918,
  0.44446,
  0.458995,
  0.245681,
  0.255258,
  0.261019,
  0.269005,
  0.275351,
  0.291692,
  0.296183,
  0.303539,
  0.324175,
  0.33257,
  0.339709,
  0.339232,
  0.339581,
  0.341519,
  0.343147,
  0.343438,
  0.345323,
  0.360211,
  0.362505,
  0.362132,
  0.3643,
  0.370004,
  0.369918,
  0.372083,
  0.380402,
  0.384114,
  0.385749,
  0.387474,
  0.388398,
  0.388139,
  0.387874,
  0.392724,
  0.399154,
  0.398787,
  0.398253,
  0.400631,
  0.403786,
  0.4075,
  0.406855,
  0.410227,
  0.412125,
  0.411674,
  0.415508,
  0.416323,
  0.415949,
  0.417072,
  0.419196,
  0.423044,
  0.425078,
  0.428363,
  0.429192,
  0.430253,
  0.429821,
  0.430209,
  0.43139,
  0.431293,
  0.432847,
  0.434344,
  0.433878,
  0.433999,
  0.434005,
  0.435143,
  0.435907,
  0.435917,
  0.436176,
  0.436734,
  0.436611,
  0.438381,
  0.43782,
  0.44138,
  0.441638,
  0.441948,
  0.441583,
  0.443275,
  0.443219,
  0.444836,
  0.447123,
  0.44828,
  0.447699,
  0.448772,
  0.449965,
  0.452335,
  0.452959,
  0.453828,
  0.453684,
  0.454014,
  0.456205,
  0.456328,
  0.457442,
  0.457626,
  0.458928,
  0.462143,
  0.461306,
  0.462495,
  0.463294,
  0.463307,
  0.466875,
  0.467721,
  0.469301,
  0.468843,
  0.472655,
  0.473434,
  0.475228,
  0.483684,
  0.486842,
  0.487934,
  0.488227,
  0.490812,
  0.491908,
  0.495281,
  0.496549,
  0.495926,
  0.497302,
  0.49861,
  0.499362,
  0.500023,
  0.500409,
  0.504139,
  0.574961,
  0.576904,
  0.579552,
  0.583312,
  0.589729,
  0.596597,
  0.602596,
  0.602778,
  0.602758,
  0.606188,
  0.60755,
  0.610905,
  0.620191,
  0.624982,
  0.633271,
  0.638243,
  0.643308,
  0.65128,
  0.65204,
  0.652843,
  0.65464,
  0.654499,
  0.660614,
  0.670236,
  0.675063,
  0.688661,
  0.689525,
  0.694453,
  0.695238,
  0.708748,
  0.789884,
  0.79073,
  0.814359,
  0.867162,
  0.867468,
  0.867438,
  0.868354,
  0.360019,
  0.390005,
  0.412361,
  0.416568,
  0.951915,
  0.401467,
  0.426646,
  0.971505,
  0.47237,
  0.430945,
  0.466127,
  0.499345,
  0.495477,
  0.509784,
  1.09795,
  0.528446,
  0.561019,
  0.634977,
  0.640019,
  0.646968,
  0.766009,
  0.454684,
  1.573438,
  0.342008,
  1.435199,
  0.371765,
  0.863439,
  0.435481,
  0.45438,
  0.468913,
  0.508788,
  0.514387,
  0.564861,
  0.490988,
  0.510422,
  0.577937,
  0.535461,
  0.39852,
  0.502992,
  0.543439,
  0.550766,
  0.553959,
  0.587086,
  0.650984,
  0.676938,
  0.365563,
  0.602976,
  0.410389,
  0.458913,
  0.458919,
  0.48541,
  0.479854,
  0.909918,
  0.236692,
  0.260286,
  0.261008,
  0.280771,
  0.28084,
  0.286979,
  0.288918,
  0.291017,
  0.291516,
  0.291851,
  0.297412,
  0.301435,
  0.301781,
  0.305106,
  0.312498,
  0.315307,
  0.31787,
  0.320791,
  0.323546,
  0.324972,
  0.326609,
  0.327976,
  0.32991,
  0.333041,
  0.335886,
  0.335956,
  0.336716,
  0.337243,
  0.337967,
  0.336953,
  0.337795,
  0.339628,
  0.344384,
  0.344692,
  0.344705,
  0.347532,
  0.347591,
  0.35375,
  0.357524,
  0.358394,
  0.361237,
  0.361351,
  0.364932,
  0.365886,
  0.365454,
  0.36726,
  0.367661,
  0.368319,
  0.369445,
  0.369306,
  0.371278,
  0.371801,
  0.371513,
  0.377175,
  0.379199,
  0.38126,
  0.383297,
  0.384878,
  0.385388,
  0.385094,
  0.387336,
  0.38728,
  0.387705,
  0.387982,
  0.38756,
  0.388995,
  0.388825,
  0.392928,
  0.392744,
  0.394289,
  0.39452,
  0.394845,
  0.398345,
  0.398907,
  0.399989,
  0.404506,
  0.405091,
  0.406192,
  0.408473,
  0.408181,
  0.409177,
  0.40991,
  0.413874,
  0.416105,
  0.416597,
  0.418347,
  0.41804,
  0.418008,
  0.419779,
  0.419324,
  0.420342,
  0.421557,
  0.422785,
  0.422138,
  0.42239,
  0.422397,
  0.427145,
  0.426819,
  0.436188,
  0.436457,
  0.43802,
  0.437783,
  0.442067,
  0.441854,
  0.442464,
  0.443369,
  0.443858,
  0.44486,
  0.446048,
  0.446816,
  0.447446,
  0.448757,
  0.45458,
  0.457538,
  0.457689,
  0.462661,
  0.462699,
  0.465634,
  0.46551,
  0.467492,
  0.471158,
  0.470872,
  0.472158,
  0.475134,
  0.475012,
  0.478132,
  0.479666,
  0.481796,
  0.487951,
  0.491785,
  0.492138,
  0.495731,
  0.495766,
  0.50021,
  0.501131,
  0.511714,
  0.515591,
  0.515316,
  0.518166,
  0.519658,
  0.527967,
  0.529936,
  0.530095,
  0.533835,
  0.540057,
  0.541493,
  0.541122,
  0.544404,
  0.544714,
  0.546183,
  0.754813,
  0.386961,
  0.376726,
  0.321018,
  0.489019,
  0.521261,
  0.509019,
  0.522018,
  0.39802,
  0.475818,
  0.499019,
  0.499926,
  0.440018,
  0.640019,
  0.540018,
  0.646019,
  0.713019,
  0.675012,
  0.4598,
  0.369008,
  0.374006,
  0.421384,
  0.4619,
  0.484486,
  0.574424,
  0.349974,
  0.309493,
  0.379967,
  0.426188,
  0.494471,
  0.593866,
  0.659463,
  0.47688,
  0.501364,
  0.470423,
  0.483896,
  0.482446,
  0.360411,
  0.444907,
  0.456359,
  0.522878,
  0.539382,
  0.539883,
  0.553362,
  0.55839,
  0.502986,
  0.356856,
  0.445352,
  0.090513,
  0.41142,
  0.583736,
  0.585924,
  0.692904,
  0.374819,
  0.467428,
  0.273773,
  0.2768,
  0.277751,
  0.287406,
  0.296044,
  0.295948,
  0.30054,
  0.303899,
  0.319429,
  0.324318,
  0.325572,
  0.341753,
  0.343878,
  0.346199,
  0.348116,
  0.352079,
  0.353081,
  0.353459,
  0.353361,
  0.356842,
  0.356527,
  0.356625,
  0.360676,
  0.362318,
  0.364597,
  0.367159,
  0.368046,
  0.368234,
  0.369281,
  0.369362,
  0.370744,
  0.371546,
  0.373472,
  0.374639,
  0.375922,
  0.376624,
  0.377267,
  0.376781,
  0.383896,
  0.382901,
  0.385519,
  0.385786,
  0.386259,
  0.388664,
  0.389702,
  0.388736,
  0.389423,
  0.390758,
  0.396691,
  0.399852,
  0.400845,
  0.400032,
  0.400774,
  0.401061,
  0.400994,
  0.401373,
  0.401731,
  0.401607,
  0.401877,
  0.405914,
  0.406927,
  0.40886,
  0.413725,
  0.414492,
  0.415091,
  0.415958,
  0.41641,
  0.419837,
  0.421811,
  0.421017,
  0.42198,
  0.422724,
  0.435802,
  0.438486,
  0.438961,
  0.440429,
  0.445591,
  0.4492,
  0.450005,
  0.452857,
  0.453011,
  0.455292,
  0.457309,
  0.460457,
  0.4607,
  0.461229,
  0.462698,
  0.464412,
  0.466541,
  0.470379,
  0.470489,
  0.471522,
  0.498355,
  0.500495,
  0.502904,
  0.505057,
  0.504517,
  0.504966,
  0.506182,
  0.50914,
  0.514465,
  0.514721,
  0.514228,
  0.51496,
  0.526073,
  0.526917,
  0.529919,
  0.531133,
  0.535962,
  0.539103,
  0.540461,
  0.543468,
  0.545303,
  0.545293,
  0.547659,
  0.547609,
  0.553862,
  0.556224,
  0.557703,
  0.559308,
  0.560749,
  0.564849,
  0.565404,
  0.578879,
  0.582731,
  0.583595,
  0.586981,
  0.590893,
  0.591692,
  0.594383,
  0.612114,
  0.621831,
  0.626496,
  0.627818,
  0.656361,
  0.675344,
  0.677502,
  0.689056,
  0.733055,
  0.768146,
  0.768929,
  0.785835,
  0.790927,
  0.793634,
  0.89502,
  0.407033,
  0.448019,
  0.469017,
  0.94324,
  0.943463,
  0.494863,
  0.500828,
  0.504019,
  0.517384,
  0.525854,
  0.524012,
  0.557011,
  0.566019,
  0.578027,
  0.591019,
  0.593821,
  0.594008,
  0.602019,
  0.687019,
  0.785019,
  0.32668,
  0.340645,
  0.454499,
  0.579544,
  0.662016,
  0.309237,
  0.358811,
  0.507044,
  0.594967,
  0.470986,
  0.385472,
  0.405213,
  0.487696,
  0.561666,
  0.574192,
  0.655184,
  0.391489,
  0.413318,
  0.448824,
  0.536506,
  0.53799,
  0.375968,
  0.384329,
  0.397433,
  0.405456,
  0.424944,
  0.459426,
  0.50698,
  0.467026,
  0.355301,
  0.424818,
  0.394027,
  0.413995,
  0.443492,
  0.460559,
  0.406693,
  0.410262,
  0.418866,
  0.419519,
  0.42131,
  0.424255,
  0.426924,
  0.427203,
  0.42744,
  0.432514,
  0.43411,
  0.434701,
  0.437956,
  0.439308,
  0.443595,
  0.445067,
  0.446836,
  0.447515,
  0.45277,
  0.453484,
  0.454649,
  0.456953,
  0.457262,
  0.461718,
  0.462488,
  0.46397,
  0.46372,
  0.467878,
  0.47119,
  0.471681,
  0.472032,
  0.473397,
  0.474764,
  0.474884,
  0.47563,
  0.476237,
  0.476011,
  0.476608,
  0.476544,
  0.484791,
  0.48785,
  0.489363,
  0.489625,
  0.489558,
  0.49203,
  0.492561,
  0.491973,
  0.49308,
  0.494809,
  0.495292,
  0.495779,
  0.49702,
  0.496755,
  0.498952,
  0.501072,
  0.503264,
  0.503203,
  0.507947,
  0.507904,
  0.510384,
  0.513954,
  0.512997,
  0.514964,
  0.520098,
  0.522044,
  0.522524,
  0.525038,
  0.529265,
  0.531003,
  0.53004,
  0.532295,
  0.533611,
  0.533792,
  0.536344,
  0.537673,
  0.541841,
  0.542241,
  0.541356,
  0.543798,
  0.543859,
  0.547371,
  0.5482,
  0.548277,
  0.548844,
  0.549345,
  0.549293,
  0.557268,
  0.559579,
  0.560644,
  0.561412,
  0.561088,
  0.562046,
  0.56315,
  0.564977,
  0.603549,
  0.604532,
  0.604397,
  0.609667,
  0.611054,
  0.611683,
  0.613413,
  0.613878,
  0.614888,
  0.615263,
  0.616859,
  0.616924,
  0.624022,
  0.625782,
  0.639972,
  0.654462,
  0.659369,
  0.659663,
  0.66107,
  0.665357,
  0.665166,
  0.665149,
  0.667864,
  0.675743,
  0.675937,
  0.675729,
  0.676285,
  0.681007,
  0.681415,
  0.682801,
  0.690482,
  0.692707,
  0.710406,
  0.717692,
  0.724767,
  0.728202,
  0.728125,
  0.747153,
  0.756996,
  0.757586,
  0.768719,
  0.777123,
  0.790446,
  0.792207,
  0.794082,
  0.81262,
  0.814136,
  0.81472,
  0.903457,
  0.327019,
  0.319019,
  0.933549,
  0.397288,
  0.41318,
  0.454207,
  0.438017,
  0.466019,
  0.481016,
  0.494019,
  0.482019,
  0.481868,
  0.508012,
  0.498012,
  0.578444,
  0.561527,
  0.601597,
  0.635019,
  0.632019,
  1.275818,
  0.409388,
  0.415258,
  0.429007,
  0.537281,
  0.676784,
  0.471327,
  0.359501,
  0.36597,
  0.428981,
  0.487472,
  0.564985,
  0.591584,
  0.384489,
  0.446498,
  0.356988,
  0.385543,
  0.403486,
  0.481974,
  0.522472,
  0.600458,
  0.440489,
  0.610265,
  0.625769,
  0.397524,
  0.47647,
  0.628986,
  0.448045,
  0.289575,
  0.353996,
  0.360989,
  0.385954,
  0.412493,
  0.427626,
  0.432471,
  0.617485,
  0.611247,
  0.389004,
  0.415565,
  0.323945,
  0.490473,
  0.224002,
  0.356643,
  0.375496,
  0.38706,
  0.394519,
  0.427993,
  0.467463,
  0.539026,
  0.278998,
  0.348188,
  0.437008,
  0.461485,
  0.541503,
  0.509026,
  0.402945,
  0.601448,
  0.381892,
  0.393385,
  0.423868,
  0.498026,
  0.348822,
  0.361323,
  0.392283,
  0.395339,
  0.400806,
  0.400801,
  0.470059,
  0.62865,
  0.41218,
  0.977919,
  0.235845,
  0.797091,
  0.342771,
  0.816397,
  0.8322,
  1.648444,
  0.316435,
  0.940067,
  0.289249,
  0.60372,
  0.783683,
  0.793158,
  0.326856,
  0.35311,
  0.794614,
  0.346535,
  0.439898,
  0.756184,
  0.82802,
  0.918715,
  0.33313,
  0.822963,
  0.420979,
  0.442049,
  0.345919,
  0.360004,
  0.776857,
  0.849037,
  0.353618,
  0.774048,
  0.403101,
  0.758905,
  0.803921,
  1.074958,
  0.78626,
  0.803316,
  0.358972,
  0.818851,
  0.327097,
  0.762638,
  0.472903,
  0.800513,
  0.967284,
  0.505647,
  0.320995,
  0.55202,
  0.805719,
  0.450086,
  0.852142,
  0.356892,
  0.712803,
  0.397958,
  0.408982,
  0.782837,
  0.399062,
  0.775894,
  0.392142,
  0.741382,
  0.334016,
  0.835895,
  0.34405,
  0.755198,
  0.332198,
  0.347308,
  0.797306,
  0.809228,
  0.767808,
  0.490033,
  0.578536,
  0.386631,
  0.741335,
  0.366925,
  0.771878,
  0.049007,
  0.439981,
  0.7718,
  0.307953,
  0.776064,
  0.348935,
  0.727335,
  0.610892,
  0.834532,
  0.497321,
  0.576473,
  0.772334,
  0.363468,
  0.297121,
  0.336924,
  0.390107,
  0.4522,
  0.46099,
  0.387114,
  0.304541,
  0.44846,
  0.459536,
  0.770005,
  0.394738,
  0.299871,
  0.352015,
  0.362017,
  0.389715,
  0.371774,
  0.491455,
  0.371205,
  0.372776,
  0.422977,
  0.428222,
  0.309427,
  0.359765,
  0.307085,
  0.359293,
  0.4118,
  0.502788,
  0.352609,
  0.387406,
  0.392232,
  0.394347,
  0.345401,
  0.366388,
  0.358182,
  0.369416,
  0.539942,
  0.323002,
  0.470866,
  0.801339,
  0.505954,
  0.371127,
  0.392326,
  0.308135,
  0.38604,
  0.37329,
  0.380814,
  0.474817,
  0.489607,
  0.372377,
  0.400056,
  0.313091,
  0.34887,
  0.296759,
  0.304953,
  0.06071,
  0.256337,
  0.537672,
  0.305355,
  0.401027,
  0.326011,
  0.356666,
  0.38465,
  0.590542,
  0.386348,
  0.260668,
  0.368319,
  0.299966,
  0.513994,
  0.238699,
  0.308308,
  0.267655,
  0.285988,
  0.424204,
  0.472978,
  0.282291,
  0.266026,
  0.283065,
  0.320075,
  0.413717,
  0.292266,
  0.332608,
  0.347275,
  0.282078,
  0.338248,
  0.447578,
  0.455531,
  0.314558,
  0.341211,
  0.472544,
  0.382026,
  0.193128,
  0.315526,
  0.252501,
  0.323219,
  0.27115,
  0.335483,
  0.392472,
  0.438125,
  0.300887,
  0.304454,
  0.376089,
  0.438026,
  0.355471,
  0.441071,
  0.048897,
  0.241115,
  0.262244,
  0.239068,
  0.247593,
  0.281092,
  0.31057,
  0.309098,
  0.363079,
  0.194997,
  0.263016,
  0.339271,
  0.343386,
  0.312444,
  0.290024,
  0.245802,
  0.250819,
  0.296787,
  0.404947,
  0.332053,
  0.34843,
  0.332907,
  0.233028,
  0.362836,
  0.434437,
  0.040995,
  0.198006,
  0.262012,
  0.214937,
  0.308058,
  0.239937,
  0.305021,
  0.347825,
  0.369536,
  0.399941,
  0.234921,
  0.308436,
  0.317449,
  0.303026,
  0.364887,
  0.441236,
  0.353944,
  0.365323,
  0.054772,
  0.211814,
  0.368913,
  0.352756,
  0.441116,
  0.190967,
  0.283905,
  0.318888,
  0.307262,
  0.196826,
  0.232658,
  0.229888,
  0.273708,
  0.284727,
  0.287718,
  0.30457,
  0.383651,
  0.291575,
  0.310957,
  0.416987,
  0.455105,
  0.285634,
  0.340883,
  0.299606,
  0.372613,
  0.293192,
  0.365589,
  0.238582,
  0.332577,
  0.259922,
  0.242577,
  0.267555,
  0.266444,
  0.262801,
  0.329516,
  0.408618,
  0.221416,
  0.348498,
  0.396716,
  0.45648,
  0.261227,
  0.270469,
  0.304026,
  0.216523,
  0.375026,
  0.308279,
  0.381433,
  0.471418,
  0.416494,
  0.385025,
  0.419027,
  0.314977,
  0.314991,
  0.453083,
  0.457942,
  0.335658,
  0.384025,
  0.282958,
  0.294648,
  0.26143,
  0.313634,
  0.301609,
  0.300026,
  0.363595,
  0.323028,
  0.40858,
  0.420572,
  0.275555,
  0.310562,
  0.457026,
  0.516026,
  0.360975,
  0.255526,
  0.254031,
  0.294498,
  0.358505,
  0.266487,
  0.29748,
  0.378469,
  0.480462,
  0.327444,
  0.346451,
  0.436426,
  0.449026,
  0.321944,
  0.372936,
  0.340462,
  0.286485,
  0.313941,
  0.395524,
  0.410872,
  0.448863,
  0.486569,
  0.202097,
  0.276138,
  0.356463,
  0.330023,
  0.337712,
  0.298444,
  0.44312,
  0.449465,
  0.483092,
  0.389661,
  0.523406,
  0.305389,
  0.328397,
  0.261722,
  0.33224,
  0.438027,
  0.475352,
  0.333009,
  0.307026,
  0.305985,
  0.484026,
  0.338159,
  0.417345,
  0.211173,
  0.36228,
  0.388087,
  0.261272,
  0.387264,
  0.371249,
  0.376246,
  0.334233,
  0.314026,
  0.319886,
  0.323212,
  0.201329,
  0.278114,
  0.260683,
  0.280547,
  0.319571,
  0.496001,
  0.272994,
  0.299096,
  0.364002,
  0.426649,
  0.397008,
  0.290624,
  0.337067,
  0.406612,
  0.417045,
  0.243345,
  0.261027,
  0.285013,
  0.318951,
  0.373553,
  0.414707,
  0.350534,
  0.387977,
  0.039509,
  0.271986,
  0.324153,
  0.271505,
  0.273242,
  0.392025,
  0.409872,
  0.213898,
  0.280469,
  0.399447,
  0.420533,
  0.244429,
  0.245539,
  0.262559,
  0.336032,
  0.198452,
  0.240115,
  0.267305,
  0.273655,
  0.248428,
  0.254137,
  0.426627,
  0.352026,
  0.314412,
  0.340259,
  0.274401,
  0.339063,
  0.265373,
  0.296049,
  0.362695,
  0.451024,
  0.356338,
  0.386001,
  0.037134,
  0.381246,
  0.447319,
  0.316343,
  0.393977,
  0.308283,
  0.335509,
  0.29494,
  0.282027,
  0.279025,
  0.351257,
  0.371908,
  0.418232,
  0.321441,
  0.329026,
  0.37687,
  0.410197,
  0.315876,
  0.365178,
  0.377679,
  0.706376,
  0.323212,
  0.382432,
  0.222422,
  0.222451,
  0.237716,
  0.543117,
  0.395214,
  0.187353,
  0.24166,
  0.166712,
  0.259564,
  0.264865,
  0.790881,
  0.303205,
  0.384366,
  0.39065,
  0.251657,
  0.259685,
  0.277963,
  0.366946,
  0.37798,
  0.308027,
  0.388716,
  0.396633,
  0.243726,
  0.30669,
  0.309709,
  0.419997,
  0.421028,
  0.404026,
  0.248587,
  0.263606,
  0.269299,
  0.375024,
  0.277295,
  0.364004,
  0.43399,
  0.32182,
  0.282596,
  0.409292,
  0.411714,
  0.415034,
  0.163273,
  0.295577,
  0.032991,
  0.363559,
  0.160679,
  0.2111,
  0.243237,
  0.228226,
  0.280516,
  0.222211,
  0.317026,
  0.220957,
  0.326026,
  0.268168,
  0.321472,
  0.318447,
  0.214417,
  0.251574,
  0.266132,
  0.306945,
  0.314641,
  0.290355,
  1.540554,
  0.51336,
  1.358817,
  0.459107,
  1.620408,
  0.367521,
  1.544202,
  0.385049,
  1.61949,
  0.552045,
  1.651468,
  0.277471,
  1.551258,
  0.361019,
  1.499119,
  0.370967,
  0.378279,
  1.406298,
  0.350267,
  1.455702,
  0.455507,
  1.612391,
  0.280955,
  1.470006,
  0.301937,
  1.524034,
  0.343727,
  1.62033,
  0.471685,
  1.626927,
  0.05595,
  0.324373,
  1.631655,
  0.472672,
  0.886054,
  0.273322,
  0.2523,
  0.760465,
  0.763782,
  0.763509,
  0.7854,
  0.358661,
  0.803407,
  0.33127,
  0.327972,
  0.730357,
  0.302993,
  0.465011,
  0.284636,
  0.757361,
  0.30453,
  0.309495,
  0.317516,
  0.786183,
  0.807877,
  0.831217,
  0.285631,
  0.785094,
  0.282002,
  0.426986,
  0.741277,
  0.355592,
  0.449609,
  0.707258,
  0.571829,
  0.254948,
  0.758734,
  0.339595,
  0.759975,
  0.487603,
  0.55562,
  0.633788,
  0.81568,
  0.244961,
  0.278921,
  0.390944,
  0.729613,
  0.790944,
  0.782464,
  0.584577,
  0.486998,
  0.817773,
  0.039999,
  0.316544,
  0.813838,
  0.531525,
  0.822177,
  0.368505,
  0.753014,
  0.399487,
  0.689462,
  0.774128,
  0.314569,
  0.797838,
  0.523433,
  0.801989,
  0.341415,
  0.764961,
  0.396694,
  0.363882,
  0.329822,
  0.338789,
  0.324764,
  0.403169,
  0.054025,
  0.510713,
  0.443028,
  0.462721,
  0.528512,
  0.351595,
  0.245028,
  0.374698,
  0.495579,
  0.36868,
  0.462556,
  0.398549,
  0.423654,
  0.426522,
  0.494641,
  0.483514,
  0.395026,
  0.318677,
  0.382989,
  0.210829,
  0.29884,
  0.428751,
  0.320356,
  0.389459,
  0.503549,
  0.524487,
  0.390529,
  0.400402,
  0.047875,
  0.411972,
  0.509681,
  0.266821,
  0.386968,
  0.262988,
  0.286694,
  0.339298,
  0.561304,
  0.281992,
  0.248402,
  0.272305,
  0.372609,
  0.275461,
  0.303769,
  0.31263,
  0.345447,
  0.446022,
  0.2372,
  0.28836,
  0.357888,
  0.362147,
  0.438491,
  0.443213,
  0.468925,
  0.494633,
  0.286981,
  0.294997,
  0.31297,
  0.33969,
  0.348037,
  0.399961,
  0.284197,
  0.321738,
  0.345613,
  0.404597,
  0.315574,
  0.334867,
  0.31072,
  0.412595,
  0.402006,
  0.466877,
  0.350557,
  0.375898,
  0.263541,
  0.320934,
  0.414824,
  0.433516,
  0.04103,
  0.288505,
  0.356979,
  0.29849,
  0.368023,
  0.277772,
  0.332463,
  0.365454,
  0.379747,
  0.328728,
  0.353992,
  0.28541,
  0.289906,
  0.301687,
  0.361578,
  1.126768,
  0.316002,
  0.305995,
  0.434003,
  0.446876,
  0.538905,
  0.322032,
  0.355676,
  0.411778,
  0.364008,
  0.369992,
  0.454195,
  0.532891,
  0.319761,
  0.420657,
  0.324373,
  0.345166,
  0.424059,
  0.334098,
  0.290736,
  0.387753,
  0.348114,
  0.364104,
  0.378086,
  0.387984,
  0.455966,
  0.395029,
  0.440285,
  0.517523,
  0.503605,
  0.542708,
  0.3467,
  0.430265,
  0.307561,
  0.442835,
  0.397549,
  0.409026,
  0.170024,
  0.388542,
  0.513636,
  0.273342,
  0.309505,
  0.337304,
  0.428488,
  0.404592,
  0.473789,
  0.475858,
  0.512511,
  0.368442,
  0.508547,
  0.389539,
  0.419419,
  0.304479,
  0.312799,
  0.277342,
  0.359808,
  0.368328,
  0.405862,
  0.466302,
  0.489769,
  0.308294,
  0.363391,
  0.296736,
  0.336269,
  0.346255,
  0.400708,
  0.380697,
  0.405761,
  0.283881,
  0.443312,
  0.267037,
  0.390657,
  0.337115,
  0.380965,
  0.494026,
  0.259628,
  0.394026,
  0.316031,
  0.387914,
  0.305774,
  0.355129,
  0.304756,
  0.321541,
  0.260093,
  0.366546,
  0.367071,
  0.379538,
  0.36979,
  0.380166,
  0.43102,
  0.315765,
  0.330454,
  0.335264,
  0.338026,
  0.337417,
  0.355865,
  0.400564,
  0.416845,
  0.270772,
  0.360764,
  0.275781,
  0.31007,
  0.310177,
  0.31248,
  0.336947,
  0.399182,
  0.471746,
  0.476493,
  0.413071,
  0.440922,
  0.053268,
  0.366867,
  0.446733,
  0.468598,
  0.498027,
  0.416084,
  0.397028,
  0.292219,
  0.41468,
  0.336828,
  0.392664,
  0.325043,
  0.452639,
  0.325617,
  0.343625,
  0.412358,
  0.468603,
  0.347337,
  0.353592,
  0.324574,
  0.350951,
  0.054265,
  0.331642,
  0.387549,
  0.33054,
  0.427531,
  0.33768,
  0.451164,
  0.646272,
  0.20392,
  0.28831,
  0.356004,
  0.224645,
  0.464964,
  0.505658,
  0.294688,
  0.416997,
  0.476918,
  0.571674,
  0.371943,
  0.456638,
  0.285042,
  0.302673,
  0.336967,
  0.351996,
  0.367702,
  0.415688,
  0.303036,
  0.340631,
  0.274992,
  0.3153,
  0.43231,
  0.341026,
  0.278903,
  0.289586,
  0.317894,
  0.425611,
  0.264993,
  0.299286,
  0.402969,
  0.342982,
  0.430889,
  0.450581,
  0.056021,
  0.456636,
  0.474026,
  0.265674,
  0.371967,
  0.424706,
  0.459999,
  0.467683,
  0.485527,
  0.38958,
  0.459872,
  0.245449,
  0.354722,
  0.423841,
  0.457534,
  0.414817,
  0.475524,
  0.308599,
  0.353805,
  0.315479,
  0.325787,
  0.055712,
  0.273462,
  0.431769,
  0.362444,
  0.417751,
  0.317732,
  0.356026,
  0.285707,
  0.291026,
  0.246678,
  0.400671,
  0.291324,
  0.264946,
  0.167995,
  0.252996,
  0.292011,
  0.295018,
  0.19467,
  0.299663,
  0.196829,
  0.302809,
  0.377833,
  0.485826,
  0.231001,
  0.284642,
  0.345991,
  0.378982,
  0.392999,
  0.394975,
  0.350632,
  0.404625,
  0.286971,
  0.332996,
  0.388962,
  0.395026,
  0.468834,
  0.337026,
  0.05484,
  0.262613,
  0.282606,
  0.191591,
  0.253598,
  0.293571,
  0.281026,
  0.297559,
  0.369677,
  0.306544,
  0.350572,
  0.304519,
  0.414526,
  0.303508,
  0.310501,
  0.340938,
  0.347563,
  0.266945,
  0.370026,
  0.346026,
  0.374026,
  0.362978,
  0.231429,
  0.305436,
  0.216411,
  0.256418,
  0.544296,
  1.033618,
  1.320172,
  0.598651,
  0.35237,
  0.776467,
  1.479043,
  0.068521,
  0.304258,
  0.721382,
  0.391522,
  0.351163,
  0.469259,
  0.646854,
  0.366864,
  0.401836,
  0.611426,
  0.685417,
  0.688557,
  0.936039,
  0.373364,
  0.365111,
  0.548254,
  0.769316,
  0.61885,
  0.462974,
  0.296134,
  0.304921,
  0.740597,
  0.809743,
  0.429987,
  0.411013,
  0.34421,
  0.452097,
  0.740067,
  0.783296,
  0.810558,
  0.531758,
  0.846844,
  0.430895,
  0.509915,
  0.793161,
  0.366009,
  0.504933,
  0.951305,
  0.438167,
  0.750763,
  0.478455,
  0.690503,
  0.405076,
  0.353115,
  0.536987,
  0.851973,
  0.693061,
  0.389511,
  0.581181,
  0.520963,
  0.660954,
  0.670455,
  0.786062,
  0.127379,
  0.576137,
  0.624141,
  0.327742,
  0.692976,
  0.707552,
  0.71836,
  0.419023,
  0.736766,
  0.346242,
  0.785224,
  0.420035,
  0.499051,
  0.704042,
  0.732934,
  0.485514,
  0.695225,
  0.460102,
  0.705747,
  0.290088,
  0.656995,
  0.738687,
  0.773875,
  0.424052,
  0.657551,
  0.283034,
  0.676106,
  0.367448,
  0.394538,
  0.75193,
  0.278695,
  0.366477,
  0.362699,
  0.367726,
  0.396917,
  0.440025,
  0.282461,
  0.405673,
  0.405082,
  0.423253,
  0.434429,
  0.478468,
  0.316657,
  0.372448,
  0.281719,
  0.411934,
  0.379417,
  0.403632,
  0.362406,
  0.428621,
  0.343597,
  0.390487,
  0.431379,
  0.336026,
  0.298004,
  0.344171,
  0.394562,
  0.357552,
  0.458337,
  0.460944,
  0.320563,
  0.469087,
  0.518462,
  0.471289,
  0.51449,
  0.409477,
  0.458262,
  0.323459,
  0.394244,
  0.347172,
  0.410441,
  0.544225,
  0.282939,
  0.435738,
  0.383994,
  0.476686,
  0.447853,
  0.35916,
  0.450991,
  0.474956,
  0.542708,
  0.557698,
  0.373669,
  0.409716,
  0.588966,
  0.346962,
  0.452671,
  0.425986,
  0.34401,
  0.353316,
  0.408295,
  0.419675,
  0.06905,
  0.309607,
  0.441644,
  0.36259,
  0.376962,
  0.413698,
  0.454682,
  0.519653,
  0.625991,
  0.403837,
  0.521934,
  0.282711,
  0.298111,
  0.343537,
  0.456986,
  0.528027,
  0.509027,
  0.355939,
  0.372411,
  0.438745,
  0.447042,
  0.386324,
  0.412254,
  0.482975,
  0.530963,
  0.322525,
  0.435599,
  0.384133,
  0.483858,
  0.378684,
  0.409039,
  0.41871,
  0.427975,
  0.504994,
  0.492024,
  0.403878,
  0.448027,
  0.362757,
  0.40005,
  0.411506,
  0.388024,
  0.47329,
  0.493849,
  0.330824,
  0.369532,
  0.338813,
  0.457727,
  0.278724,
  0.447489,
  0.320774,
  0.375856,
  0.066618,
  0.383215,
  0.417152,
  0.315742,
  0.379436,
  0.391256,
  0.451423,
  0.288678,
  0.366695,
  0.068013,
  0.328661,
  0.371084,
  0.344372,
  0.397718,
  0.369631,
  0.560904,
  0.359613,
  0.372614,
  0.719057,
  0.274595,
  0.393237,
  0.42257,
  0.519622,
  0.323552,
  0.425567,
  0.527534,
  0.538549,
  0.551525,
  0.55252,
  0.482298,
  0.538505,
  0.295491,
  0.29949,
  0.448475,
  0.294026,
  0.270447,
  0.355618,
  0.289436,
  0.436437,
  0.065942,
  0.451117,
  0.463023,
  0.28784,
  0.477777,
  0.353975,
  0.451422,
  0.324295,
  0.364757,
  0.387309,
  0.40585,
  0.336204,
  0.449678,
  0.773651,
  0.458946,
  0.483294,
  0.503574,
  1.020545,
  0.358321,
  0.332634,
  0.37483,
  0.076009,
  0.508902,
  0.526878,
  0.57319,
  0.585217,
  0.589183,
  0.738908,
  0.4551,
  0.403677,
  0.407419,
  0.328994,
  0.40211,
  0.490984,
  0.534023,
  0.578183,
  0.327026,
  0.308603,
  0.37918,
  0.383594,
  0.466189,
  0.43687,
  0.515945,
  0.351663,
  0.540922,
  0.372743,
  0.418629,
  0.585999,
  0.607406,
  0.422907,
  0.435357,
  0.471811,
  0.428852,
  0.40357,
  0.460188,
  0.376112,
  0.439549,
  0.378117,
  0.544743,
  0.43744,
  0.489513,
  0.412498,
  0.523582,
  0.467026,
  0.368992,
  0.463001,
  0.062939,
  0.519638,
  0.510026,
  0.385261,
  0.40243,
  0.498291,
  0.530404,
  0.285474,
  0.454685,
  0.302194,
  0.310819,
  0.319628,
  0.376794,
  0.336891,
  0.34766,
  0.274043,
  0.330296,
  0.423059,
  0.471025,
  0.324076,
  0.36101,
  0.260281,
  0.305966,
  0.381702,
  0.419011,
  0.419987,
  0.432581,
  0.326624,
  0.409476,
  0.278176,
  0.336198,
  0.400882,
  0.274163,
  0.422578,
  0.372919,
  0.054865,
  0.280558,
  0.360851,
  0.319841,
  0.477534,
  0.393515,
  0.467823,
  0.393559,
  0.421798,
  0.055985,
  0.327612,
  0.365542,
  0.271472,
  0.362765,
  0.311938,
  0.278897,
  0.348463,
  0.373157,
  0.366405,
  0.434712,
  0.234684,
  0.256444,
  0.271052,
  0.301023,
  0.216662,
  0.260669,
  0.26265,
  0.274644,
  0.304662,
  0.359028,
  0.226436,
  0.244613,
  0.05584,
  0.262628,
  0.295026,
  0.14459,
  0.378577,
  0.260553,
  0.35956,
  0.398542,
  0.42955,
  0.241304,
  0.214936,
  0.455948,
  0.206524,
  0.327496,
  0.271586,
  0.415481,
  0.226465,
  0.349472,
  0.388455,
  0.310991,
  0.071989,
  0.289937,
  0.291944,
  0.334415,
  0.370026,
  0.212893,
  0.416693,
  0.276044,
  0.326177,
  0.40665,
  0.427864,
  0.072951,
  0.467639,
  0.493226,
  0.272828,
  0.375614,
  0.36081,
  0.467596,
  0.340891,
  0.408578,
  0.209767,
  0.402567,
  0.351756,
  0.423542,
  0.335731,
  0.404531,
  0.292729,
  0.411516,
  0.028222,
  0.300702,
  0.346489,
  0.365477,
  0.495677,
  0.276458,
  0.303657,
  0.382639,
  0.431439,
  0.362626,
  0.392574,
  0.283827,
  0.335788,
  0.331993,
  0.203893,
  0.262861,
  0.279841,
  0.331987,
  0.437006,
  0.308822,
  0.418694,
  0.228019,
  0.246187,
  0.267177,
  0.405279,
  0.295649,
  0.439796,
  0.264815,
  0.327958,
  0.380835,
  0.340026,
  0.416026,
  0.331018,
  0.472405,
  0.336026,
  0.287805,
  0.347951,
  0.273768,
  0.305606,
  0.381749,
  0.428589,
  0.202571,
  0.304028,
  0.356811,
  0.257706,
  0.33522,
  0.330695,
  0.449536,
  0.379523,
  0.38367,
  0.335498,
  0.421659,
  0.26648,
  0.243025,
  0.297465,
  0.468626,
  0.2926,
  0.362454,
  0.047023,
  0.327429,
  0.439026,
  0.236572,
  0.423411,
  0.243676,
  0.251989,
  1.395125,
  0.292999,
  0.264449,
  0.266256,
  0.286291,
  0.297007,
  0.359593,
  0.415003,
  0.413662,
  0.409402,
  0.336657,
  0.754408,
  0.227375,
  0.234398,
  0.23619,
  0.239577,
  0.243028,
  0.245259,
  0.249497,
  0.250693,
  0.252494,
  0.252435,
  0.253402,
  0.252429,
  0.25342,
  0.25654,
  0.259453,
  0.259853,
  0.262065,
  0.263034,
  0.265331,
  0.266464,
  0.26841,
  0.268883,
  0.271785,
  0.272045,
  0.277597,
  0.2784,
  0.278572,
  0.279844,
  0.281256,
  0.28329,
  0.283386,
  0.282421,
  0.283284,
  0.284684,
  0.285109,
  0.285494,
  0.285725,
  0.285939,
  0.286272,
  0.286076,
  0.286346,
  0.288439,
  0.288426,
  0.287982,
  0.288815,
  0.289233,
  0.290918,
  0.290215,
  0.290863,
  0.296766,
  0.298603,
  0.300466,
  0.302848,
  0.30523,
  0.305971,
  0.307025,
  0.30833,
  0.309237,
  0.31231,
  0.312805,
  0.313945,
  0.313109,
  0.313906,
  0.313687,
  0.314062,
  0.314278,
  0.314212,
  0.315447,
  0.316168,
  0.315856,
  0.318784,
  0.319123,
  0.319417,
  0.321764,
  0.326984,
  0.327113,
  0.327931,
  0.329489,
  0.329743,
  0.335994,
  0.338129,
  0.339207,
  0.339486,
  0.341188,
  0.343251,
  0.347546,
  0.349317,
  0.349508,
  0.353227,
  0.352894,
  0.352836,
  0.355123,
  0.357173,
  0.359027,
  0.359223,
  0.359601,
  0.359908,
  0.360176,
  0.360375,
  0.36614,
  0.365473,
  0.369343,
  0.372554,
  0.373138,
  0.37545,
  0.375642,
  0.379671,
  0.380284,
  0.37956,
  0.380618,
  0.390667,
  0.391408,
  0.394584,
  0.39751,
  0.396486,
  0.402151,
  0.406324,
  0.427681,
  0.42946,
  0.431457,
  0.435525,
  0.43507,
  0.438427,
  0.441249,
  0.44527,
  0.453172,
  0.465347,
  0.501361,
  0.522595,
  0.545003,
  0.559875,
  0.564467,
  0.56439,
  0.57268,
  0.587958,
  0.591511,
  0.593731,
  0.610448,
  0.61223,
  0.646227,
  0.650692,
  0.689551,
  0.700548,
  0.278009,
  0.711432,
  0.302972,
  0.297949,
  0.300587,
  0.332012,
  0.346977,
  0.358019,
  0.363617,
  0.366058,
  0.370012,
  0.801707,
  0.804242,
  0.381914,
  0.829368,
  0.424966,
  0.450784,
  0.443153,
  0.480024,
  0.486967,
  0.50754,
  0.293153,
  0.233546,
  0.352747,
  0.528975,
  0.250639,
  0.319367,
  0.254629,
  0.255362,
  0.261217,
  0.266649,
  0.268615,
  0.500126,
  0.488672,
  0.257628,
  0.278344,
  0.32383,
  0.240496,
  0.298015,
  0.313086,
  0.315294,
  0.333731,
  0.350689,
  0.413723,
  0.461709,
  0.32196,
  0.268257,
  0.258589,
  0.268609,
  0.276317,
  0.297325,
  0.496864,
  0.324718,
  0.214475,
  0.215154,
  0.230249,
  0.231615,
  0.232654,
  0.234504,
  0.23487,
  0.241086,
  0.25001,
  0.250367,
  0.251429,
  0.251843,
  0.253136,
  0.26085,
  0.261548,
  0.262139,
  0.263605,
  0.264272,
  0.266426,
  0.268817,
  0.270998,
  0.274843,
  0.27475,
  0.275614,
  0.275202,
  0.279889,
  0.282893,
  0.284597,
  0.284974,
  0.28592,
  0.285273,
  0.286303,
  0.287796,
  0.288254,
  0.287731,
  0.287781,
  0.287753,
  0.288075,
  0.288661,
  0.288973,
  0.289068,
  0.289029,
  0.290765,
  0.291438,
  0.291407,
  0.291407,
  0.291479,
  0.291839,
  0.293503,
  0.293133,
  0.293581,
  0.293552,
  0.296437,
  0.296138,
  0.298162,
  0.299651,
  0.299627,
  0.299032,
  0.302904,
  0.306105,
  0.307867,
  0.310148,
  0.311831,
  0.314185,
  0.315591,
  0.315657,
  0.315922,
  0.315862,
  0.321315,
  0.322035,
  0.322299,
  0.332324,
  0.333855,
  0.334792,
  0.335419,
  0.337616,
  0.338216,
  0.338649,
  0.34021,
  0.340357,
  0.340195,
  0.346556,
  0.346447,
  0.346844,
  0.350272,
  0.350494,
  0.354851,
  0.354982,
  0.356284,
  0.356509,
  0.357561,
  0.360818,
  0.360631,
  0.363551,
  0.363508,
  0.363392,
  0.368674,
  0.369673,
  0.373063,
  0.373315,
  0.377507,
  0.383068,
  0.385527,
  0.386333,
  0.389256,
  0.389599,
  0.39067,
  0.395634,
  0.400665,
  0.40294,
  0.403821,
  0.405213,
  0.429096,
  0.430792,
  0.432998,
  0.433412,
  0.432768,
  0.43545,
  0.437282,
  0.438671,
  0.439697,
  0.451934,
  0.456356,
  0.476034,
  0.476972,
  0.486599,
  0.500336,
  0.500531,
  0.507572,
  0.551345,
  0.551903,
  0.552194,
  0.553133,
  0.555118,
  0.557813,
  0.571744,
  0.572871,
  0.58273,
  0.588687,
  0.617839,
  0.644859,
  0.327012,
  0.339004,
  0.385019,
  0.409237,
  0.441012,
  0.443016,
  0.447019,
  0.482045,
  0.481051,
  0.504019,
  0.512019,
  0.496008,
  0.50303,
  0.497051,
  0.500014,
  0.531057,
  0.558097,
  0.565011,
  0.271472,
  0.414286,
  0.375307,
  0.385591,
  0.331504,
  0.344015,
  0.392749,
  0.285627,
  0.291885,
  0.320142,
  0.332592,
  0.365613,
  0.519877,
  0.289322,
  0.319573,
  0.521163,
  0.540891,
  0.311999,
  0.306657,
  0.310055,
  0.314627,
  0.331618,
  0.383294,
  0.40892,
  0.590566,
  0.655648,
  0.457463,
  0.402504,
  0.488884,
  0.255862,
  0.303472,
  0.332841,
  0.391577,
  0.293439,
  0.666007,
  0.230292,
  0.245931,
  0.250589,
  0.258013,
  0.258171,
  0.258292,
  0.260531,
  0.259957,
  0.26367,
  0.263842,
  0.265422,
  0.264914,
  0.274882,
  0.276225,
  0.276324,
  0.277859,
  0.281981,
  0.283568,
  0.284124,
  0.288726,
  0.288446,
  0.29101,
  0.291858,
  0.292479,
  0.292884,
  0.292313,
  0.292615,
  0.295802,
  0.296243,
  0.296457,
  0.296927,
  0.297593,
  0.299574,
  0.298837,
  0.299674,
  0.300405,
  0.300641,
  0.303654,
  0.303809,
  0.304356,
  0.304057,
  0.304602,
  0.304063,
  0.306502,
  0.306888,
  0.308411,
  0.308071,
  0.307936,
  0.30843,
  0.309998,
  0.312195,
  0.312073,
  0.312308,
  0.311943,
  0.31248,
  0.314073,
  0.314123,
  0.313923,
  0.314576,
  0.316337,
  0.316694,
  0.316964,
  0.317112,
  0.317422,
  0.31866,
  0.31913,
  0.319063,
  0.320613,
  0.323711,
  0.324154,
  0.324588,
  0.324902,
  0.324982,
  0.326646,
  0.32669,
  0.328367,
  0.330232,
  0.329949,
  0.329439,
  0.329898,
  0.331428,
  0.332816,
  0.336816,
  0.336474,
  0.337345,
  0.344698,
  0.345388,
  0.346289,
  0.349918,
  0.352575,
  0.353536,
  0.354598,
  0.355529,
  0.354786,
  0.355222,
  0.355563,
  0.356158,
  0.356814,
  0.356602,
  0.356908,
  0.357173,
  0.358266,
  0.357778,
  0.358763,
  0.358652,
  0.361271,
  0.361709,
  0.362094,
  0.363403,
  0.364755,
  0.364142,
  0.370342,
  0.37274,
  0.37319,
  0.373106,
  0.372828,
  0.373564,
  0.37796,
  0.378162,
  0.381074,
  0.385742,
  0.392456,
  0.394708,
  0.397543,
  0.558513,
  0.567965,
  0.571848,
  0.577925,
  0.591604,
  0.620146,
  0.626296,
  0.638781,
  0.319019,
  0.339019,
  0.352019,
  0.783039,
  0.325019,
  0.326796,
  0.361019,
  0.406264,
  0.422019,
  0.417089,
  0.422019,
  0.433019,
  0.421033,
  0.494019,
  0.415215,
  0.505019,
  0.459111,
  0.459019,
  0.32773,
  0.844163,
  0.34773,
  0.286093,
  0.319184,
  0.633531,
  0.232126,
  0.382842,
  0.478187,
  0.561828,
  0.279634,
  0.223552,
  0.245895,
  0.31156,
  0.32589,
  0.372809,
  0.469583,
  0.382828,
  0.373305,
  0.417513,
  0.195255,
  0.25185,
  0.365736,
  0.36794,
  0.46045,
  0.345003,
  0.368275,
  0.421239,
  0.461267,
  0.470954,
  0.520247,
  0.525573,
  0.535975,
  0.269238,
  0.271501,
  0.329217,
  0.272881,
  0.311889,
  0.407588,
  0.407631,
  0.47586,
  0.497647,
  2.044221,
  0.223967,
  0.239618,
  0.253029,
  0.254423,
  0.257288,
  0.269646,
  0.282274,
  0.285887,
  0.286402,
  0.2927,
  0.2993,
  0.302843,
  0.302893,
  0.303124,
  0.308502,
  0.309434,
  0.311791,
  0.312035,
  0.313769,
  0.314632,
  0.314393,
  0.31506,
  0.317221,
  0.317329,
  0.317522,
  0.317082,
  0.317324,
  0.319632,
  0.322576,
  0.323256,
  0.323726,
  0.323316,
  0.323843,
  0.325567,
  0.327183,
  0.332298,
  0.33315,
  0.336671,
  0.338774,
  0.341565,
  0.341842,
  0.343212,
  0.345101,
  0.345159,
  0.345944,
  0.346577,
  0.346167,
  0.347861,
  0.34957,
  0.34975,
  0.350101,
  0.351721,
  0.352372,
  0.354465,
  0.354652,
  0.354877,
  0.35704,
  0.357701,
  0.357573,
  0.359393,
  0.35984,
  0.359693,
  0.35932,
  0.360364,
  0.360674,
  0.362623,
  0.362911,
  0.368474,
  0.368566,
  0.370407,
  0.376769,
  0.377158,
  0.38373,
  0.383333,
  0.384811,
  0.384903,
  0.386775,
  0.387212,
  0.387945,
  0.388609,
  0.388135,
  0.39032,
  0.390199,
  0.390271,
  0.392694,
  0.398595,
  0.401491,
  0.401452,
  0.401746,
  0.401568,
  0.405821,
  0.407592,
  0.407417,
  0.409923,
  0.410204,
  0.414797,
  0.416245,
  0.416346,
  0.416318,
  0.416704,
  0.416907,
  0.420517,
  0.420773,
  0.420463,
  0.420989,
  0.423259,
  0.42694,
  0.429129,
  0.586207,
  0.587641,
  0.613198,
  0.628093,
  0.631227,
  0.634475,
  0.646364,
  0.647183,
  0.650861,
  0.659979,
  0.715242,
  0.286016,
  0.318518,
  0.774439,
  0.387005,
  0.366033,
  0.391019,
  0.399074,
  0.472019,
  0.504019,
  0.510019,
  0.520019,
  0.390161,
  0.528012,
  0.555019,
  0.506018,
  0.570019,
  0.572019,
  0.714012,
  0.769019,
  0.393297,
  1.678754,
  0.326415,
  0.268168,
  0.300483,
  0.320032,
  0.307172,
  0.239984,
  0.267258,
  0.29297,
  0.299241,
  0.584384,
  0.825356,
  0.351817,
  0.254722,
  0.275994,
  0.355125,
  0.369702,
  0.303979,
  0.271187,
  0.285459,
  0.314316,
  0.322293,
  0.369324,
  0.415029,
  0.625021,
  0.838052,
  0.358815,
  0.27975,
  0.290054,
  0.290263,
  0.3825,
  0.382535,
  0.399792,
  0.460478,
  0.494784,
  0.286122,
  0.329163,
  0.249493,
  0.279975,
  0.292261,
  0.302331,
  0.30335,
  0.332553,
  0.372954,
  0.548238,
  0.234978,
  0.224837,
  0.249684,
  0.249763,
  0.254209,
  0.2555,
  0.259987,
  0.261828,
  0.263638,
  0.269169,
  0.272811,
  0.274953,
  0.278114,
  0.279317,
  0.279136,
  0.280118,
  0.282429,
  0.284708,
  0.285156,
  0.28559,
  0.287116,
  0.286928,
  0.286745,
  0.288389,
  0.288482,
  0.289815,
  0.290957,
  0.291189,
  0.291347,
  0.291929,
  0.29344,
  0.2947,
  0.297159,
  0.297433,
  0.297823,
  0.301782,
  0.309846,
  0.318174,
  0.318447,
  0.319797,
  0.337325,
  0.341477,
  0.34352,
  0.343296,
  0.343029,
  0.350198,
  0.360979,
  0.363875,
  0.369178,
  0.371713,
  0.371793,
  0.373178,
  0.376211,
  0.378679,
  0.380173,
  0.38583,
  0.389968,
  0.39172,
  0.393287,
  0.395463,
  0.397623,
  0.401217,
  0.406514,
  0.40843,
  0.411299,
  0.413887,
  0.421964,
  0.422334,
  0.424453,
  0.424488,
  0.42535,
  0.428522,
  0.436038,
  0.439496,
  0.44193,
  0.441432,
  0.441943,
  0.494295,
  0.497555,
  0.500647,
  0.506135,
  0.507118,
  0.510375,
  0.523474,
  0.559744,
  0.561938,
  0.564984,
  0.565669,
  0.568247,
  0.568065,
  0.57575,
  0.5756,
  0.577594,
  0.579226,
  0.5849,
  0.590114,
  0.595693,
  0.603256,
  0.602889,
  0.609284,
  0.632181,
  0.631558,
  0.637426,
  0.639601,
  0.650846,
  0.694221,
  0.696946,
  0.771831,
  0.771868,
  0.803155,
  0.366019,
  0.369019,
  0.395085,
  0.408603,
  0.407831,
  0.432636,
  0.441015,
  0.444019,
  0.443674,
  0.460647,
  0.460825,
  0.455805,
  0.536357,
  0.507343,
  0.529019,
  0.580026,
  0.647019,
  0.701019,
  0.31136,
  0.27241,
  0.272423,
  0.305151,
  0.382014,
  0.229003,
  0.249858,
  0.279389,
  0.286169,
  0.449542,
  0.630873,
  0.571284,
  0.819001,
  0.242927,
  0.272786,
  0.392233,
  0.412214,
  0.225027,
  0.297506,
  0.294384,
  0.285189,
  0.294203,
  0.305903,
  0.309917,
  0.322932,
  0.339175,
  0.352224,
  0.40894,
  0.403386,
  0.30728,
  0.310996,
  0.389266,
  0.467246,
  0.507974,
  0.513982,
  0.373475,
  0.730077,
  0.474457,
  0.90906,
  0.346999,
  1.879,
  0.335445,
  0.846064,
  0.369303,
  0.847806,
  0.405834,
  0.899067,
  1.442862,
  0.280435,
  0.52842,
  0.9201,
  0.590217,
  1.223637,
  0.45797,
  0.93271,
  0.285408,
  0.351891,
  0.827819,
  0.836742,
  0.793221,
  0.290657,
  0.792804,
  0.333848,
  0.745428,
  0.694203,
  0.850828,
  0.523209,
  0.828622,
  0.462752,
  0.607872,
  0.344995,
  0.802728,
  0.329355,
  0.865596,
  0.579337,
  0.852811,
  0.070333,
  0.336449,
  0.81172,
  0.454729,
  0.906652,
  0.535283,
  0.777191,
  0.706272,
  0.730033,
  0.357096,
  0.850835,
  0.337967,
  0.748826,
  0.366211,
  0.798915,
  0.301231,
  0.357131,
  0.300973,
  0.363026,
  0.215368,
  0.46496,
  0.450642,
  0.466026,
  0.283624,
  0.446931,
  0.339609,
  0.372417,
  0.430592,
  0.494409,
  0.347873,
  0.41858,
  0.055594,
  0.213507,
  0.406202,
  0.367544,
  0.404837,
  0.290526,
  0.336103,
  0.306501,
  0.423808,
  0.28649,
  0.344514,
  0.267759,
  0.355597,
  0.274938,
  0.327245,
  0.323417,
  0.221887,
  0.288511,
  0.375633,
  0.318985,
  0.538486,
  0.308954,
  0.354937,
  0.372469,
  0.375484,
  0.378982,
  0.456016,
  0.541814,
  0.378948,
  0.48845,
  0.357432,
  0.528933,
  0.321737,
  0.504405,
  0.318002,
  0.464391,
  0.41241,
  0.44737,
  0.284326,
  0.30587,
  0.376851,
  0.462335,
  0.070487,
  0.394823,
  0.396324,
  0.381812,
  0.496027,
  0.283855,
  0.328796,
  0.353826,
  0.431264,
  0.336366,
  0.385008,
  0.247236,
  0.363736,
  0.343458,
  0.366939
]