[
  1.5301583694785428,
  6.015589399929923,
  3.5382167210814894,
  15.036774311174726,
  0.6709136619658537,
  15.007522520663487,
  0.9703013792470243,
  15.723919422774902,
  11.689053639606062,
  4.191125814977517,
  8.113335179117081,
  7.774273955696353,
  4.110920866828775,
  5.742782220059107,
  9.864425797939566,
  3.701938427509104,
  8.51873109241013,
  0.7942784154344182,
  5.438355223846106,
  10.308361756493305,
  1.356512054813939,
  10.087254753618806,
  0.5648906880029647,
  9.454711341753532,
  5.705975368730833,
  4.949276106503472,
  9.720144878759411,
  14.158414965444619,
  9.708466875317797,
  3.7008424042522665,
  13.928376804377676,
  4.4003529083032475,
  15.064296299643953,
  4.962643699551628,
  0.5984875173084461,
  20.036416186418815,
  12.499355501981949,
  15.02804609101733,
  9.221997692195066,
  7.4763839721280405,
  0.7190982795214111,
  5.769370842897877,
  7.141059126184303,
  4.916919427055966
]