[
  0.302226,
  0.310981,
  0.208979,
  0.648286,
  0.28798,
  0.246317,
  0.32098,
  0.209022,
  0.22561,
  0.29268,
  0.335982,
  0.301981,
  0.191689,
  0.425616,
  0.204067,
  0.15798,
  0.465177,
  0.29698,
  0.244613,
  0.394979,
  0.47298,
  0.285774,
  0.20898,
  0.31798,
  0.317526,
  0.23098,
  0.42598,
  0.125911,
  0.37898,
  0.36498,
  0.43398,
  0.254685,
  0.222981,
  0.269617,
  0.387177,
  0.34775,
  0.259546,
  0.367018,
  0.241973,
  0.379147,
  0.285769,
  0.393456,
  0.275967,
  0.267981,
  0.431986,
  0.234519,
  0.20905,
  0.489897,
  0.164486,
  0.327316,
  0.299239,
  0.25198,
  0.27079,
  0.396534,
  0.363772,
  0.414889,
  0.340281,
  0.366981,
  0.229685,
  0.20198,
  0.361985,
  0.32198,
  0.357358,
  0.494914,
  0.413369,
  0.219284,
  0.210855,
  0.258765,
  0.26998,
  0.253702,
  0.46898,
  0.449213,
  0.31098,
  0.21798,
  0.31698,
  0.24998,
  0.205101,
  0.218094,
  0.31098,
  0.448362,
  0.197368,
  0.212979,
  0.275329,
  0.174301,
  0.35331,
  0.181359,
  0.404979,
  0.310979,
  0.171328,
  0.210602,
  0.196775,
  0.22098,
  0.17798,
  0.49798,
  0.21898,
  0.11298,
  0.26005,
  0.246876,
  0.27598,
  0.241419,
  0.32998,
  0.47598,
  0.470673,
  0.201065,
  0.40298,
  0.21798,
  0.36598,
  0.25898,
  0.506874,
  0.381104,
  0.44898,
  0.38398,
  0.327298,
  0.262858,
  0.57198,
  0.50696,
  0.611981,
  0.281118,
  0.606482,
  0.405707,
  0.388406,
  0.259226,
  0.378895,
  0.406273,
  0.365368,
  0.410544,
  0.301474,
  0.359525,
  0.295923,
  0.20798,
  0.44398,
  0.30898,
  0.34198,
  0.196976,
  0.27998,
  0.23298,
  0.30198,
  0.27398,
  0.18698,
  0.149253,
  0.19598,
  0.323037,
  0.275859,
  0.27498,
  0.42198,
  0.248871,
  0.252237,
  0.38194,
  0.45787,
  0.262507,
  0.176177,
  0.140895,
  0.189081,
  0.292761,
  0.237098,
  0.365082,
  0.214926,
  0.210922,
  0.59365,
  0.411818,
  0.459494,
  0.37198,
  0.194998,
  0.311489,
  0.20498,
  0.362981,
  0.12998,
  0.50398,
  0.201467,
  0.264985,
  0.439991,
  0.541561,
  0.400422,
  0.318619,
  0.196933,
  0.257715,
  0.442545,
  0.478259,
  0.26198,
  0.224979,
  0.31798,
  0.238775,
  0.389176,
  0.42998,
  0.31698,
  0.25998,
  0.39298,
  0.27807,
  0.39298,
  0.507008,
  0.24598,
  0.14898,
  0.163361,
  0.18598,
  0.319969,
  0.384561,
  0.33498,
  0.631705,
  0.356601,
  0.33098,
  0.23698,
  0.26098,
  0.50198,
  0.304392,
  0.30798,
  0.295209,
  0.35398,
  0.578788,
  0.339477,
  0.428996,
  0.44898,
  0.523381,
  0.29898,
  0.22698,
  0.50289,
  0.320522,
  0.352112,
  0.44398,
  0.174975,
  0.391806,
  0.283919,
  0.311612,
  0.23798,
  0.154848,
  0.27498,
  0.395978,
  0.16098,
  0.383976,
  0.242844,
  0.342029,
  0.207981,
  0.203979,
  0.514958,
  0.30698,
  0.42598,
  0.31598,
  0.27798,
  0.37098,
  0.46998,
  0.527865,
  0.302823,
  0.155967,
  0.244899,
  0.44968,
  0.308261,
  0.416981,
  0.198979,
  0.148119,
  0.14298,
  0.292636,
  0.33898,
  0.143979,
  0.284749,
  0.227951,
  0.170737,
  0.278651,
  0.386742,
  0.480979,
  0.161978,
  0.176981,
  0.154991,
  0.430983,
  0.155103,
  0.50498,
  0.290968,
  0.50498,
  0.34108,
  0.35094,
  0.392981,
  0.20298,
  0.302167,
  0.275084,
  0.562712,
  0.381979,
  0.22698,
  0.533141,
  0.38498,
  0.21798,
  0.37398,
  0.334444,
  0.46798,
  0.326832,
  0.281979,
  0.423671,
  0.21998,
  0.29498,
  0.40298,
  0.18098,
  0.30598,
  0.211375,
  0.318979,
  0.31606,
  0.325456,
  0.379981,
  0.20598,
  0.282436,
  0.439981,
  0.34198,
  0.33398,
  0.174689,
  0.483897,
  0.376041,
  0.261024,
  0.25498,
  0.301979,
  0.405261,
  0.216003,
  0.411615,
  0.150627,
  0.23398,
  0.157506,
  0.346617,
  0.49398,
  0.16796,
  0.33698,
  0.425759,
  0.309432,
  0.218281,
  0.25198,
  0.204909,
  0.15598,
  0.382978,
  0.21598,
  0.17498,
  0.210934,
  0.299863,
  0.21598,
  0.504979,
  0.226002,
  0.21498,
  0.39298,
  0.350704,
  0.332176,
  0.325931,
  0.21498,
  0.444368,
  0.125977,
  0.158979,
  0.19898,
  0.371979,
  0.20298,
  0.292052,
  0.41998,
  0.150717,
  0.238366,
  0.25098,
  0.207979,
  0.13798,
  0.259571,
  0.29398,
  0.24998,
  0.18698,
  0.413272,
  0.331998,
  0.196954,
  0.26078,
  0.361649,
  0.253981,
  0.290577,
  0.200966,
  0.31598,
  0.29498,
  0.217452,
  0.579406,
  0.441491,
  0.606102,
  0.196445,
  0.47198,
  0.33098,
  0.373077,
  0.345461,
  0.3678,
  0.40924,
  0.207092,
  0.36798,
  0.141391,
  0.29598,
  0.24298,
  0.41898,
  0.25598,
  0.33998,
  0.19598,
  0.323981,
  0.51698,
  0.763979,
  0.24098,
  0.212982,
  0.2468,
  0.506977,
  0.23098,
  0.24498,
  0.269979,
  0.47098,
  0.451743,
  0.389924,
  0.411921,
  0.38498,
  0.459048,
  0.23698,
  0.46198,
  0.193696,
  0.203313,
  0.189263,
  0.329981,
  0.348922,
  0.22798,
  0.217316,
  0.454981,
  0.304979,
  0.209297,
  0.42698,
  0.24398,
  0.18798,
  0.31998,
  0.260028,
  0.28298,
  0.615922,
  0.278982,
  0.199978,
  0.512979,
  0.267979,
  0.48098,
  0.244981,
  0.321997,
  0.46598,
  0.33598,
  0.459606,
  0.220554,
  0.156234,
  0.17296,
  0.21798,
  0.26698,
  0.417741,
  0.39898,
  0.175502,
  0.266282,
  0.204729,
  0.40698,
  0.31298,
  0.221536,
  0.32698,
  0.245763,
  0.354909,
  0.254445,
  0.210508,
  0.186409,
  0.23698,
  0.21798,
  0.475607,
  0.475214,
  0.191981,
  0.20098,
  0.239793,
  0.24198,
  0.574986,
  0.244979,
  0.203814,
  0.236981,
  0.278441,
  0.254472,
  0.31098,
  0.313976,
  0.25098,
  0.221676,
  0.222528,
  0.280987,
  0.510981,
  0.232979,
  0.42198,
  0.16598,
  0.27998,
  0.12698,
  0.40498,
  0.369529,
  0.40598,
  0.172794,
  0.24098,
  0.45798,
  0.44298,
  0.258806,
  0.24398,
  0.678012,
  0.423155,
  0.166331,
  0.266629,
  0.461807,
  0.262094,
  0.37498,
  0.19298,
  0.31098,
  0.26198,
  0.15698,
  0.20998,
  0.29998,
  0.45398,
  0.462368,
  0.48272,
  0.331501,
  0.370246,
  0.50498,
  0.219291,
  0.176025,
  0.343426,
  0.45118,
  0.536729,
  0.222762,
  0.30798,
  0.290976,
  0.24998,
  0.603961,
  0.26398,
  0.233612,
  0.254303,
  0.463979,
  0.380635,
  0.339454,
  0.46298,
  0.316979,
  0.250378,
  0.39798,
  0.578064,
  0.153799,
  0.300751,
  0.50598,
  0.490042,
  0.33298,
  0.424905,
  0.23198,
  0.390499,
  0.202624,
  0.526981,
  0.411982,
  0.432754,
  0.334981,
  0.213979,
  0.222979,
  0.193981,
  0.329934,
  0.48998,
  0.290415,
  0.38298,
  0.231979,
  0.355362,
  0.349963,
  0.598664,
  0.240376,
  0.463027,
  0.340772,
  0.500653,
  0.34698,
  0.493737,
  0.317306,
  0.40098,
  0.30598,
  0.198981,
  0.39898,
  0.389981,
  0.16898,
  0.358609,
  0.29498,
  0.37098,
  0.226981,
  0.308979,
  0.429929,
  0.622893,
  0.241608,
  0.318979,
  0.26498,
  0.50398,
  0.235795,
  0.19598,
  0.48698,
  0.226229,
  0.238976,
  0.46198,
  0.30098,
  0.381903,
  0.234979,
  0.180399,
  0.165762,
  0.588644,
  0.23398,
  0.28998,
  0.18333,
  0.359803,
  0.254274,
  0.258547,
  0.23098,
  0.20198,
  0.15998,
  0.296737,
  0.391792,
  0.242048,
  0.291567,
  0.272027,
  0.162979,
  0.256529,
  0.207089,
  0.28836,
  0.539508,
  0.15999,
  0.176981,
  0.300254,
  0.30098,
  0.265948,
  0.221981,
  0.15698,
  0.403028,
  0.301349,
  0.268412,
  0.273753,
  0.22498,
  0.417853,
  0.23298,
  0.438952,
  0.41798,
  0.208976,
  0.23679,
  0.30298,
  0.393952,
  0.681756,
  0.33446,
  0.310047,
  0.268992,
  0.295037,
  0.556979,
  0.18798,
  0.173347,
  0.187892,
  0.171008,
  0.169982,
  0.26898,
  0.37398,
  0.273013,
  0.17298,
  0.160981,
  0.572252,
  0.293313,
  0.45398,
  0.459521,
  0.426978,
  0.208247,
  0.22098,
  0.322981,
  0.349049,
  0.23998,
  0.185862,
  0.38098,
  0.182004,
  0.21998,
  0.32498,
  0.28813,
  0.34476,
  0.35153,
  0.40111,
  0.22598,
  0.42098,
  0.41198,
  0.197722,
  0.29298,
  0.226876,
  0.307085,
  0.43698,
  0.218677,
  0.379544,
  0.500979,
  0.25598,
  0.290867,
  0.32098,
  0.17598,
  0.406902,
  0.67798,
  0.203918,
  0.384387,
  0.233854,
  0.510344,
  0.44998,
  0.490979,
  0.36398,
  0.283656,
  0.414113,
  0.421527,
  0.18398,
  0.20498,
  0.44098,
  0.205982,
  0.291705,
  0.556767,
  0.355618,
  0.151784,
  0.32498,
  0.369438,
  0.332867,
  0.174011,
  0.201731,
  0.302979,
  0.524712,
  0.27798,
  0.251331,
  0.332909,
  0.324409,
  0.486856,
  0.40998,
  0.16198
]