{
  "ALL": [
    [
      0.0,
      6.25
    ],
    [
      0.0,
      6.25
    ],
    [
      0.0,
      6.25
    ],
    [
      0.0,
      6.25
    ],
    [
      0.0,
      6.25
    ],
    [
      0.0,
      6.25
    ],
    [
      0.0,
      6.25
    ],
    [
      0.0,
      6.25
    ],
    [
      0.0,
      6.25
    ],
    [
      0.0,
      6.25
    ],
    [
      0.0,
      6.25
    ],
    [
      0.0,
      6.25
    ],
    [
      0.0,
      6.25
    ],
    [
      0.0,
      6.25
    ],
    [
      0.0,
      6.25
    ],
    [
      0.0,
      6.25
    ],
    [
      0.0,
      6.25
    ],
    [
      0.0,
      6.25
    ],
    [
      0.0,
      6.25
    ],
    [
      0.0,
      6.25
    ],
    [
      0.0,
      6.25
    ],
    [
      0.0,
      6.25
    ],
    [
      0.0,
      6.25
    ],
    [
      0.0,
      6.25
    ],
    [
      0.0,
      6.25
    ],
    [
      0.0,
      6.25
    ],
    [
      0.0,
      6.25
    ],
    [
      0.0,
      6.25
    ],
    [
      0.0,
      6.25
    ],
    [
      0.0,
      6.25
    ],
    [
      0.0,
      6.25
    ],
    [
      0.0,
      6.25
    ],
    [
      0.0,
      6.25
    ],
    [
      0.0,
      6.25
    ],
    [
      0.0,
      6.25
    ],
    [
      0.0,
      6.25
    ],
    [
      0.0,
      6.25
    ],
    [
      0.0,
      6.25
    ],
    [
      0.0,
      6.25
    ],
    [
      0.0,
      6.25
    ],
    [
      0.0,
      6.25
    ],
    [
      0.0,
      6.25
    ],
    [
      0.0,
      6.25
    ],
    [
      0.0,
      6.25
    ],
    [
      0.0,
      6.25
    ],
    [
      0.0,
      6.25
    ],
    [
      0.0,
      6.25
    ],
    [
      0.0,
      6.25
    ],
    [
      0.0,
      6.25
    ],
    [
      0.0,
      6.25
    ],
    [
      0.0,
      6.25
    ],
    [
      0.0,
      6.25
    ],
    [
      0.0,
      6.25
    ],
    [
      0.0,
      6.25
    ],
    [
      0.0,
      6.25
    ],
    [
      0.0,
      6.25
    ],
    [
      0.0,
      6.25
    ],
    [
      0.0,
      6.25
    ],
    [
      0.0,
      6.25
    ],
    [
      0.0,
      6.25
    ],
    [
      0.0,
      6.25
    ],
    [
      0.0,
      6.25
    ],
    [
      0.0,
      6.25
    ],
    [
      0.0,
      6.25
    ],
    [
      0.0,
      6.25
    ],
    [
      0.0,
      6.25
    ],
    [
      0.0,
      6.25
    ],
    [
      0.0,
      6.25
    ],
    [
      0.0,
      6.25
    ],
    [
      0.0,
      6.25
    ],
    [
      0.0,
      6.25
    ],
    [
      0.0,
      6.25
    ],
    [
      0.0,
      6.25
    ],
    [
      0.0,
      6.25
    ],
    [
      0.0,
      6.25
    ],
    [
      0.0,
      6.25
    ],
    [
      0.0,
      6.25
    ],
    [
      0.0,
      6.25
    ],
    [
      0.0,
      6.25
    ],
    [
      0.0,
      6.25
    ],
    [
      0.0,
      6.25
    ],
    [
      0.0,
      6.25
    ],
    [
      0.0,
      6.25
    ],
    [
      0.0,
      6.25
    ],
    [
      0.0,
      6.25
    ],
    [
      0.0,
      6.25
    ],
    [
      0.0,
      6.25
    ],
    [
      0.0,
      6.25
    ],
    [
      0.0,
      6.25
    ],
    [
      0.0,
      6.25
    ],
    [
      0.0,
      6.25
    ],
    [
      0.0,
      6.25
    ],
    [
      0.0,
      6.25
    ],
    [
      0.0,
      6.25
    ],
    [
      0.0,
      6.25
    ],
    [
      0.0,
      6.25
    ],
    [
      0.0,
      6.25
    ],
    [
      0.0,
      6.25
    ],
    [
      0.0,
      6.25
    ],
    [
      0.0,
      6.25
    ],
    [
      0.0,
      6.25
    ],
    [
      0.0,
      6.25
    ],
    [
      0.0,
      6.25
    ],
    [
      0.0,
      6.25
    ],
    [
      0.0,
      6.25
    ],
    [
      0.0,
      6.25
    ]
  ]
}