[
  22.53197427975136,
  54.05588026622526,
  30.399872320536264,
  50.2597802391109,
  55.55555555555551,
  61.52095172912316,
  68.37606837606837,
  36.65353248419318,
  33.054982832068255,
  61.07336437896026,
  41.13935442068075,
  42.56926818106838,
  61.759370054425574,
  55.72971090212458,
  137.93103448275903,
  40.37773369875187,
  31.496062992125985,
  59.64852108948019,
  28.368794326241133,
  58.39416058394179,
  77.46833481814315,
  39.70006600135973,
  47.1909582124065,
  30.347517004093135,
  77.37916759360452,
  24.322910965984427,
  24.884597678266978,
  98.90952251427991,
  27.681660899653988,
  22.29213282767347,
  81.82385369894935,
  36.697247706422026,
  34.04255319148938,
  50.865993540018685,
  3.4257676824210583,
  66.11570247933885,
  47.90419161676652,
  39.29388881794162,
  71.20478496154941,
  111.15279340863891,
  42.90763595016272,
  45.81193057201919,
  51.77021788790449,
  24.615384615384603,
  84.27617301898314,
  6.815285321920002,
  39.02439024390247,
  18.284418704046118,
  51.83831629148686,
  44.373939185516306,
  80.80808080808083,
  54.421768707482904,
  63.147757859922486,
  60.72014087072698,
  51.94805194805183,
  32.189661485472385,
  60.28227173741054,
  33.047609212021094,
  60.92824176326341,
  65.81870238428253,
  58.82569212103392,
  46.7836257309942,
  29.32712575838116,
  42.785095811873866,
  20.69038647055629,
  18.639285556184614,
  31.689568982249888,
  27.30375426621159,
  59.079831622479766,
  158.1496491054664,
  55.09414211533961,
  32.38866396761135,
  116.8019622729662,
  32.13729050503753,
  32.51860674029421,
  38.61376580751039,
  87.4527208727782,
  56.737588652482444,
  21.857923497267727,
  50.99211534416498,
  38.0952380952381,
  39.981009020715135,
  21.07098551633134,
  31.997312225773058,
  40.9626216077828,
  29.85074626865674,
  25.681111221682585,
  46.974545668066135,
  49.49269982677561,
  29.700360488125394,
  25.316455696202546,
  46.78362573099408,
  88.37728261950237,
  38.7799817734085,
  37.021268718878964,
  43.808970982032825,
  34.48275862068962,
  44.06087009203208,
  55.55555555555551,
  68.66481271672355,
  32.38866396761135,
  32.12851405622489,
  102.43409006517379,
  41.02122335543349
]