[
  3.3955896112169137,
  9.039450092298999,
  3.4553440826362163,
  2.452816057519472,
  10.413010189806112,
  12.293543543543537,
  6.396484374999995,
  5.17833063902023,
  5.733543417366944,
  6.269564871139849,
  11.235022257350943,
  7.292024773735707,
  5.321728120303875,
  9.04034838604248,
  5.2912908099891744,
  6.564831266797952,
  7.289869240892002,
  6.906123950058276,
  4.879320619785466,
  1.609171501223854,
  6.250000000000006,
  4.804166055449606,
  4.48775220482238,
  4.979897938702405,
  5.524576690908455,
  4.264322916666667,
  4.357120506112477,
  0.14596651942544725,
  4.630938914027148,
  5.398802537354765,
  4.833234946871313,
  1.4731018351925154,
  5.407802823748231,
  4.903886813201293,
  7.717780446467117,
  7.380527846337178,
  6.8002491694352125,
  0.7828934786766113,
  5.757735583684949,
  0.1462766408844596,
  4.711264914929658,
  3.3309519993034993,
  4.8701202138986694,
  6.068815737782688,
  6.329471099731583,
  5.231047794047171,
  12.005131964809378,
  13.24838187702261,
  5.530592366127586,
  7.836398022978479,
  7.353971458956084,
  8.565835837260096,
  4.938404896726274,
  5.652703424830612,
  9.401755530241763,
  5.539580514208398,
  4.09375,
  0.41582021330624674,
  6.23477002741395,
  6.700081833060569,
  5.288085193232284,
  5.261889460154238,
  6.392568926532505,
  0.8020670062695926,
  6.087550689315205,
  7.912401620459854,
  9.140630058745645,
  6.874048127992046,
  10.376928049074142,
  6.086066457244045,
  10.475199844423312,
  5.799350614394719,
  0.16672436262930687,
  6.360132244142073,
  7.8575157678148395,
  0.64245919648462,
  9.152257799120912,
  6.01138032305434,
  5.750949301738179,
  11.277548209366378,
  10.838542452667827,
  5.985014619883048,
  8.057024544525957,
  5.515020389577674,
  10.916666666666666,
  4.073833030314789,
  5.339706415604268,
  7.070379965457678,
  6.465381092264449,
  7.105280514305163,
  9.547169723315742,
  7.1934007851020345,
  9.52034883720927,
  6.426609105180529,
  6.76857628009794,
  11.218027764533094,
  6.007886750142352,
  7.089763550432372,
  5.345598230386631,
  6.845735785953169,
  6.685747415524816,
  7.857485604606514,
  0.12758537046849097,
  5.65435082872928,
  0.15940561050119575,
  8.090415019762842,
  5.5841707600201325,
  6.392988209572892,
  6.2409387286550375,
  5.9194506460605965,
  6.675129303878789,
  2.885879545590725,
  4.436962348547171,
  8.045987177521749,
  4.574022346368717,
  4.986297198538369,
  0.9162376902417185,
  13.122045035659895,
  6.457018927444792,
  7.934946522094789,
  5.688086524219595,
  6.457018927444792,
  3.7626378676470553,
  7.965749466355599,
  5.302784974093263,
  2.281065111836964,
  4.363692373944588,
  5.916499137907372,
  5.743816321347849,
  9.43199517081848,
  7.009845890410963,
  4.207227335698454,
  5.344321148825065,
  5.108592293466245,
  7.356442671410726,
  7.9182785299806655,
  4.622175603719644,
  8.074457593688368,
  10.744750656168023,
  7.675973149328736,
  8.869320114480582,
  5.76147122114338,
  0.2835126887986742,
  8.120376964015456,
  6.604324531869345,
  6.906100648983683,
  8.280121438410058,
  4.6952220273724965,
  6.70603055410856,
  10.113218640684586,
  11.094173441734425,
  7.499770999358802,
  7.60920074349442,
  7.511467889908258,
  6.272936922027879,
  10.37634940067473,
  4.50519603861896,
  8.968062197550424,
  9.485429222189016,
  11.431766838032638,
  7.567005545286501,
  1.0799641748677993,
  10.602521036696698,
  11.584718783162371,
  7.119589981182534,
  5.554613297150596,
  6.848289579558935,
  7.781359711231959,
  7.753314393939387,
  8.546450939457216,
  6.487717908082415,
  9.017070484581485,
  9.888285024154586,
  5.815407082047139,
  7.1072048611111045,
  6.8002491694352125,
  9.432603686635922,
  4.410394255579308,
  6.55,
  5.150627951978211,
  6.127203361037646,
  0.37347763672930745,
  10.485905662068893,
  6.223907100917363,
  0.40674826040910406,
  6.711065573770498,
  3.7135931797791866,
  4.509439116651132,
  6.346899224806197,
  9.714641670621752,
  0.3822214171906504,
  7.347714961607916,
  6.1436999218108514,
  10.03370098039217,
  7.933624031007752,
  1.417923733627419,
  3.3012196066034933,
  8.963408492767975,
  6.801152977139822,
  6.1810272848474,
  8.636603375527455,
  4.395331259005397,
  6.543822631435935,
  5.073900783937038,
  0.10166766006059703,
  5.4802543507362795,
  4.937576965894387,
  3.878001276957735,
  6.269142419601851,
  5.562160326086958,
  6.986338774500186,
  6.055843195266271,
  5.260476298783492,
  10.496794871794881,
  6.4696929947942285
]