[
  4.9781955036938195,
  10.369141435089166,
  10.178117048346062,
  18.998810199511265,
  11.834179477165959,
  13.136288998357964,
  11.80505138148614,
  11.815268280435397,
  2.9314767314034453,
  0.7928642220019821,
  5.177993527508091,
  9.594316327007887,
  12.15805471124621,
  2.642007926023773,
  10.309411203752623,
  12.699622186239933,
  12.10551163944946,
  13.580521458072688,
  12.451439386393043,
  11.751174750250815,
  2.6360793591691136,
  3.341687552213865,
  11.747430249632876,
  21.798365122615856,
  6.339144215530901,
  14.434987522757655,
  13.864818024263432,
  13.582342954159625,
  10.694829718258077,
  11.994002998500752,
  14.126239136039182,
  5.641136294083712,
  9.019165727170233,
  25.54580202642065,
  8.504603648262371,
  9.345794392523347,
  14.388489208633116,
  21.89231716494492,
  15.503875968992247,
  14.362657091561928,
  11.19192614447938,
  13.035897603024328,
  15.119329306551975,
  17.59622385036168,
  15.748031496062964,
  15.009380863039365,
  22.375181448737113,
  12.676239340074975,
  10.666666666666666,
  14.874229096595139,
  15.81027667984189,
  12.748455444944986,
  0.3229061553985873,
  11.366768683415598,
  14.07972291105309,
  6.878761822871882,
  7.337039761252737,
  13.201320132013205,
  13.675213675213698,
  1.1820035817663537,
  12.166467694226254,
  7.70712909441233,
  4.92824779229899,
  8.425043441630242,
  10.443864229765014,
  6.240692592063873,
  20.671834625323022
]