{
  "1048576": [
    1.880845,
    1.99458,
    1.634453,
    1.787678,
    2.032143,
    1.351268,
    0.70401,
    1.922125,
    2.391195,
    0.776033,
    1.910105,
    1.471,
    1.101131,
    0.803737,
    1.834536,
    2.304624,
    1.770623,
    0.739,
    1.454344,
    2.628048,
    1.613803,
    1.501888,
    1.723215,
    1.98016,
    1.205338,
    1.86367,
    1.054613,
    2.085594,
    1.200122,
    2.981937,
    1.549739,
    2.853329,
    1.947634,
    2.077593,
    1.14248,
    2.178,
    1.370889,
    2.097,
    2.115741,
    2.488436,
    1.960173,
    0.818379,
    0.781869,
    0.778,
    2.588925,
    1.352597,
    2.590412,
    1.433807,
    2.300245,
    1.167579,
    1.886223,
    1.971897,
    1.18034,
    1.370529,
    0.946697,
    0.997869,
    2.731579,
    1.243131,
    1.623656,
    1.625484,
    0.740656,
    2.288836,
    1.869604,
    1.246,
    1.772,
    1.573349,
    1.049308,
    0.910929,
    1.521597,
    1.871313,
    1.742,
    1.0415,
    0.820641,
    0.816984,
    0.621067,
    1.794146,
    2.42,
    0.817165,
    1.899496,
    2.614687,
    1.29565,
    1.012198,
    0.926111,
    1.485622,
    1.573359,
    1.569398,
    0.765699,
    2.38708,
    0.895126,
    2.925932,
    2.830099,
    1.591932,
    1.644086,
    1.799,
    1.949874,
    1.151795,
    1.755347,
    1.373385,
    0.802,
    1.891697,
    1.884131,
    1.48919,
    1.251152,
    0.672678,
    0.91564,
    0.688261,
    1.639948,
    2.805768,
    1.142309,
    2.19,
    0.862794,
    2.383021,
    1.159209,
    0.979297,
    2.621232,
    1.097911,
    1.905881,
    1.801734,
    1.863829,
    1.554,
    0.90296,
    0.968614,
    0.75908,
    0.741181,
    2.038346,
    1.415487,
    2.051,
    0.850021,
    2.146021,
    2.045
  ],
  "51200": [
    1.083233,
    1.454535,
    1.027176,
    0.5423,
    0.681552,
    0.896989,
    0.646608,
    0.816233,
    0.271,
    0.482682,
    0.825178,
    1.28028,
    0.934398,
    0.40499,
    0.352207,
    1.669922,
    0.656836,
    0.698,
    0.718181,
    1.464226,
    0.508982,
    1.494371,
    0.900359,
    0.448786,
    1.38622,
    1.522586,
    1.450612,
    1.344901,
    1.209539,
    0.595222,
    0.726,
    0.920503,
    1.376746,
    0.441145,
    1.714511,
    0.804176,
    1.491619,
    0.700201,
    1.121377,
    0.697259,
    1.228728,
    1.605556,
    0.532985,
    0.765649,
    0.759741,
    0.712819,
    0.903853,
    1.21,
    1.446581,
    0.334784,
    1.015722,
    0.241796,
    0.377247,
    1.389134,
    0.548684,
    0.4503,
    0.346455,
    0.495442,
    1.763647,
    1.741764,
    0.77282,
    1.212166,
    0.191709,
    0.211691,
    1.575799,
    1.101086,
    1.797422,
    0.249479,
    1.230116,
    0.560327,
    0.294867,
    1.690278,
    0.376641,
    0.406773,
    1.416408,
    1.592818,
    1.02916,
    1.165,
    1.034924,
    1.081,
    1.460294,
    0.744,
    0.937578,
    0.721342,
    0.870586,
    0.501388,
    0.525,
    0.588,
    0.257897,
    0.91,
    0.919,
    0.356,
    0.44,
    0.400033,
    0.848983,
    0.470745,
    0.317318,
    0.743355,
    0.353779,
    0.366304,
    0.669717,
    0.295645,
    0.49791,
    0.339387,
    0.273,
    0.239943,
    0.53,
    0.812,
    0.706,
    0.28569,
    0.262097,
    0.305,
    0.280206,
    0.729,
    0.434,
    1.740748,
    0.578005,
    1.242196,
    0.459891,
    0.518222,
    0.422115,
    0.882354,
    0.950424,
    0.363651,
    0.898807,
    0.325,
    0.411694,
    1.516711,
    0.331915,
    0.986209,
    0.386921,
    0.290304,
    1.470058,
    1.786398,
    0.414,
    0.418461,
    1.21,
    1.435,
    0.332008,
    0.256949,
    1.28239,
    0.291744,
    0.628821,
    0.257449,
    1.384034,
    0.728684,
    0.882897,
    0.303862,
    1.82208,
    0.343508,
    1.41917,
    0.714413,
    1.076262,
    1.133383,
    0.707475,
    0.706064,
    0.285206,
    0.57277,
    0.86,
    1.099332,
    0.924661,
    1.331097,
    0.360601,
    0.903563,
    0.749533,
    0.480696,
    1.102767,
    0.59472,
    1.687253,
    0.534552,
    0.6987,
    1.613301,
    0.597631,
    1.354098,
    0.460896,
    0.951697,
    0.628176,
    0.887713,
    0.550014,
    1.215904,
    1.598076,
    0.469551,
    0.633144,
    1.677,
    0.488385,
    0.305977,
    0.501,
    1.312696,
    0.481121,
    1.132,
    0.383868,
    1.803533,
    0.632075,
    1.952714,
    1.14133,
    1.471097,
    1.539275,
    0.335392,
    0.699074,
    0.472387,
    1.093821,
    0.27931,
    0.739095,
    1.046632,
    0.588765,
    1.002,
    1.562,
    1.085236,
    0.95,
    1.216,
    1.738967,
    0.139356,
    0.618,
    0.858,
    0.431,
    1.288598,
    1.666,
    0.949026,
    1.401703,
    1.202052,
    0.900337,
    0.232,
    1.024,
    0.528026,
    0.639784,
    0.529237,
    0.368422,
    1.075746,
    0.917135,
    0.713768,
    0.691679,
    0.992064,
    0.433,
    0.55387,
    0.903915,
    0.459103,
    0.633217,
    1.166189,
    0.474095,
    0.855503,
    0.995,
    0.994818,
    1.222986,
    1.114516,
    0.356809,
    1.046111,
    0.614,
    0.93061,
    0.287987,
    0.543968,
    1.473,
    0.26234,
    1.675359,
    0.826769,
    0.359,
    1.526624,
    0.927,
    0.57744,
    0.974939,
    0.578745,
    1.197017,
    0.600053,
    1.468792,
    0.620053,
    0.386592,
    0.474103,
    0.30089,
    0.665549,
    0.810806,
    0.322989,
    1.692384,
    0.429022,
    0.516514,
    0.957914,
    0.898119,
    0.519165,
    0.690128,
    0.812196,
    1.772271,
    1.024526,
    0.242624,
    0.675681,
    0.969482,
    1.469,
    2.027443,
    0.446386,
    0.514,
    1.484498,
    0.789343,
    0.40409,
    1.57574,
    0.793,
    1.293329,
    1.088655,
    1.753505,
    0.61499,
    0.364399,
    0.889,
    0.508894,
    0.797877,
    1.084026,
    0.591866,
    1.066969,
    0.458011,
    1.597325,
    0.42871,
    0.487295,
    0.705606,
    0.308976,
    0.497,
    0.71,
    0.451393,
    0.74115,
    0.402,
    1.00128,
    0.495163,
    0.367,
    0.764857,
    0.37296,
    0.912274,
    1.047438,
    0.345818,
    0.28594,
    0.392298,
    0.938932,
    1.272448,
    0.273526,
    0.590157,
    0.535739,
    0.255119,
    0.35435,
    0.306242,
    1.099,
    0.460559,
    0.395248,
    1.751,
    1.045372,
    0.446611,
    0.967,
    0.256352,
    1.002,
    1.113146,
    1.625,
    0.809,
    1.178,
    0.27914,
    1.134432,
    1.198,
    1.109,
    0.377407,
    1.034294,
    1.646687,
    0.499355,
    1.023168,
    0.545307,
    1.045265,
    1.394373,
    1.480598,
    1.715968,
    1.409843,
    0.985374,
    0.359764,
    0.556234,
    0.32508,
    0.865801,
    0.653711,
    0.185846,
    0.956,
    0.467,
    0.650884,
    0.819607,
    1.145103,
    0.770026,
    1.978,
    0.456957,
    0.947535,
    0.423848,
    0.65706,
    0.477,
    1.528344,
    0.267683,
    0.879062,
    0.31827,
    0.413191,
    0.637578,
    1.345498,
    0.30369,
    1.41913,
    0.28745,
    0.93983,
    1.112422,
    0.242761,
    0.582,
    0.394655,
    0.619,
    0.449523,
    0.410812,
    0.800666,
    0.872403,
    0.39392,
    1.253433,
    0.292,
    0.275597,
    1.658297,
    1.395,
    1.252308,
    0.786808,
    0.949135,
    0.309195,
    0.296259,
    0.269345,
    0.732613,
    1.100906,
    0.40442,
    0.728167,
    0.69,
    1.015345,
    1.474594,
    0.420549,
    0.797721,
    1.242336,
    1.487782,
    0.355878,
    1.081562,
    1.490889,
    0.396889,
    0.505368,
    1.651626,
    0.74648,
    2.640216,
    0.355229,
    0.375898,
    1.149407,
    1.752187,
    1.655624,
    0.566461,
    0.598802,
    0.744,
    0.712624,
    1.080992,
    0.422806,
    0.346428,
    0.613897,
    0.709629,
    0.621481,
    0.533,
    1.151,
    0.438311,
    0.830796,
    0.937009,
    0.945331,
    0.73618,
    0.29039,
    0.273,
    1.41736,
    1.008927,
    0.351681,
    0.51868,
    1.66101,
    0.97551,
    0.31192,
    0.758324,
    0.256766,
    0.516902,
    0.339,
    0.664969,
    1.491,
    0.651687,
    0.486215,
    0.595989,
    0.55625,
    0.925,
    1.15476,
    0.361894,
    0.995259,
    0.762335,
    0.420421,
    0.364412,
    0.446394,
    0.575552,
    0.962875,
    0.608633,
    0.693674,
    0.897716,
    0.584749,
    1.639772,
    1.383637,
    1.48115,
    0.693,
    0.41056,
    0.766094,
    0.316597,
    0.258084,
    0.520287,
    0.370938,
    1.024168,
    1.448644,
    1.441,
    0.53099,
    1.48821,
    0.396889,
    0.317103,
    1.529977,
    1.221663,
    0.455116,
    1.43433,
    0.465795,
    1.233,
    0.902512,
    0.307804,
    0.718,
    1.679111,
    0.393598,
    0.941,
    1.724889,
    0.611,
    0.705103,
    1.126778,
    0.456563,
    0.517,
    1.284516,
    0.493,
    0.539768,
    0.489719,
    0.825,
    1.297994,
    0.511645,
    0.277642,
    0.989385,
    0.799312,
    1.4,
    1.749925,
    1.268248,
    1.042,
    0.769,
    1.673,
    0.440366,
    0.620915,
    0.350395,
    0.36517,
    0.895242,
    0.882741,
    1.047103,
    1.056778,
    0.863035,
    0.486,
    0.294508,
    0.668244,
    0.308111,
    1.203,
    0.454904,
    0.92408,
    1.065502,
    1.324213,
    0.559151,
    0.636443,
    0.540808,
    1.437998,
    0.997215,
    0.349231,
    1.334097,
    0.626841,
    0.50696,
    0.396069,
    0.296747,
    0.63763,
    0.28704,
    0.485,
    0.315,
    0.340057,
    0.939441,
    0.892869,
    0.344061,
    0.582638,
    0.493526,
    0.677576,
    0.273,
    1.224232,
    0.942,
    0.495011,
    1.037996,
    0.987187,
    0.625568,
    0.343958,
    1.117859,
    1.070343,
    1.048053,
    0.696124,
    0.871925,
    1.049,
    1.281235,
    0.286,
    0.444902,
    0.373,
    0.81694,
    0.586305,
    0.621146,
    1.03395,
    1.491451,
    1.168738,
    0.560537,
    0.711312,
    0.69,
    0.923341,
    0.419,
    0.346964,
    0.537739,
    1.101978,
    0.396111,
    0.581976,
    1.397148,
    0.298,
    1.074397,
    0.573,
    1.241459,
    0.462638,
    1.139279,
    0.285475,
    0.435777,
    1.099581,
    1.069532,
    1.032723,
    0.997608,
    0.282063,
    1.13214,
    1.025649,
    0.293612,
    1.229485,
    0.27228,
    0.880391,
    1.709379,
    1.203735,
    1.455075,
    0.759111,
    0.876,
    0.365139,
    0.374465,
    0.604,
    0.999908,
    0.564415,
    0.309166,
    0.572558,
    1.506352,
    0.272297,
    1.615688,
    1.50261,
    1.811077,
    0.559,
    0.834403,
    0.746225,
    0.585078
  ],
  "5242880": [
    2.998051,
    1.642512,
    3.879284,
    2.220216,
    2.416599,
    3.075237,
    1.736,
    2.040304,
    3.618097,
    3.34,
    3.228398,
    4.05673,
    1.5,
    1.793783,
    2.028613,
    1.397533,
    1.824,
    4.851871,
    2.320173,
    3.037276,
    17.898243,
    1.621031,
    1.984173,
    2.009806,
    1.990184,
    3.451,
    6.484796,
    1.939874,
    1.647943,
    3.911,
    2.620359,
    2.160781,
    3.867868,
    2.521801,
    2.083734,
    1.767311,
    1.414878,
    1.866357,
    3.26215,
    4.688625,
    3.316415,
    3.669509,
    5.55799,
    3.908932,
    1.65741,
    2.957932,
    1.664643,
    1.346,
    2.421186,
    4.831948,
    2.753117,
    2.231075,
    3.733072,
    4.329,
    2.070558,
    4.013218,
    2.950119,
    1.840498,
    2.560891,
    2.462318,
    4.394797,
    3.286897,
    1.95442,
    3.067399,
    3.410235,
    1.603021,
    1.60912
  ],
  "ALL": [
    1.083233,
    1.454535,
    1.027176,
    0.5423,
    0.681552,
    0.896989,
    0.646608,
    0.816233,
    0.271,
    0.482682,
    0.825178,
    1.880845,
    1.99458,
    1.634453,
    2.998051,
    1.642512,
    1.28028,
    0.934398,
    0.40499,
    0.352207,
    1.669922,
    0.656836,
    0.698,
    0.718181,
    1.464226,
    0.508982,
    1.494371,
    0.900359,
    0.448786,
    1.787678,
    2.032143,
    1.351268,
    1.38622,
    1.522586,
    1.450612,
    1.344901,
    1.209539,
    0.595222,
    0.726,
    0.920503,
    1.376746,
    0.441145,
    1.714511,
    0.804176,
    0.70401,
    1.922125,
    3.879284,
    2.220216,
    1.491619,
    0.700201,
    1.121377,
    0.697259,
    1.228728,
    1.605556,
    0.532985,
    0.765649,
    0.759741,
    0.712819,
    0.903853,
    1.21,
    1.446581,
    0.334784,
    2.391195,
    0.776033,
    1.015722,
    0.241796,
    0.377247,
    1.389134,
    0.548684,
    0.4503,
    0.346455,
    0.495442,
    1.763647,
    1.741764,
    0.77282,
    1.212166,
    0.191709,
    0.211691,
    1.575799,
    1.910105,
    1.101086,
    1.797422,
    0.249479,
    1.230116,
    0.560327,
    0.294867,
    1.690278,
    0.376641,
    0.406773,
    1.416408,
    1.592818,
    1.02916,
    1.165,
    1.034924,
    1.081,
    1.460294,
    0.744,
    0.937578,
    0.721342,
    0.870586,
    0.501388,
    0.525,
    0.588,
    0.257897,
    0.91,
    0.919,
    0.356,
    0.44,
    1.471,
    1.101131,
    2.416599,
    3.075237,
    0.400033,
    0.848983,
    0.470745,
    0.317318,
    0.743355,
    0.353779,
    0.366304,
    0.669717,
    0.295645,
    0.49791,
    0.803737,
    1.834536,
    2.304624,
    1.736,
    2.040304,
    3.618097,
    0.339387,
    0.273,
    0.239943,
    0.53,
    0.812,
    0.706,
    0.28569,
    0.262097,
    0.305,
    0.280206,
    0.729,
    0.434,
    1.770623,
    0.739,
    1.454344,
    3.34,
    1.740748,
    0.578005,
    1.242196,
    0.459891,
    0.518222,
    0.422115,
    0.882354,
    0.950424,
    0.363651,
    0.898807,
    0.325,
    0.411694,
    1.516711,
    0.331915,
    2.628048,
    1.613803,
    0.986209,
    0.386921,
    0.290304,
    1.470058,
    1.786398,
    0.414,
    0.418461,
    1.21,
    1.435,
    0.332008,
    0.256949,
    1.28239,
    0.291744,
    1.501888,
    3.228398,
    4.05673,
    0.628821,
    0.257449,
    1.384034,
    0.728684,
    0.882897,
    0.303862,
    1.82208,
    0.343508,
    1.41917,
    0.714413,
    1.076262,
    1.133383,
    0.707475,
    0.706064,
    1.723215,
    1.5,
    0.285206,
    0.57277,
    0.86,
    1.099332,
    0.924661,
    1.331097,
    0.360601,
    0.903563,
    0.749533,
    0.480696,
    1.98016,
    1.205338,
    1.86367,
    1.054613,
    1.793783,
    2.028613,
    1.102767,
    0.59472,
    1.687253,
    0.534552,
    0.6987,
    1.613301,
    0.597631,
    1.354098,
    0.460896,
    0.951697,
    0.628176,
    0.887713,
    0.550014,
    1.215904,
    2.085594,
    1.200122,
    1.598076,
    0.469551,
    0.633144,
    1.677,
    0.488385,
    0.305977,
    0.501,
    1.312696,
    0.481121,
    1.132,
    0.383868,
    2.981937,
    1.549739,
    2.853329,
    1.947634,
    1.397533,
    1.803533,
    0.632075,
    1.952714,
    1.14133,
    1.471097,
    1.539275,
    0.335392,
    0.699074,
    0.472387,
    1.093821,
    0.27931,
    0.739095,
    1.046632,
    0.588765,
    2.077593,
    1.14248,
    1.002,
    1.562,
    1.085236,
    0.95,
    1.216,
    1.738967,
    0.139356,
    0.618,
    0.858,
    0.431,
    1.288598,
    1.666,
    0.949026,
    2.178,
    1.370889,
    1.824,
    1.401703,
    1.202052,
    0.900337,
    0.232,
    1.024,
    0.528026,
    0.639784,
    0.529237,
    0.368422,
    1.075746,
    0.917135,
    0.713768,
    0.691679,
    2.097,
    2.115741,
    4.851871,
    0.992064,
    0.433,
    0.55387,
    0.903915,
    0.459103,
    0.633217,
    1.166189,
    0.474095,
    0.855503,
    0.995,
    0.994818,
    1.222986,
    2.488436,
    1.960173,
    2.320173,
    3.037276,
    1.114516,
    0.356809,
    1.046111,
    0.614,
    0.93061,
    0.287987,
    0.543968,
    1.473,
    0.26234,
    1.675359,
    0.818379,
    0.781869,
    0.778,
    17.898243,
    1.621031,
    1.984173,
    0.826769,
    0.359,
    1.526624,
    0.927,
    0.57744,
    0.974939,
    0.578745,
    1.197017,
    0.600053,
    1.468792,
    0.620053,
    2.588925,
    1.352597,
    2.590412,
    1.433807,
    2.009806,
    0.386592,
    0.474103,
    0.30089,
    0.665549,
    0.810806,
    0.322989,
    1.692384,
    0.429022,
    0.516514,
    0.957914,
    0.898119,
    0.519165,
    2.300245,
    1.167579,
    1.886223,
    1.971897,
    0.690128,
    0.812196,
    1.772271,
    1.024526,
    0.242624,
    0.675681,
    0.969482,
    1.469,
    2.027443,
    0.446386,
    0.514,
    1.18034,
    1.370529,
    0.946697,
    1.990184,
    3.451,
    1.484498,
    0.789343,
    0.40409,
    1.57574,
    0.793,
    1.293329,
    1.088655,
    1.753505,
    0.61499,
    0.364399,
    0.889,
    0.997869,
    2.731579,
    1.243131,
    6.484796,
    1.939874,
    0.508894,
    0.797877,
    1.084026,
    0.591866,
    1.066969,
    0.458011,
    1.597325,
    0.42871,
    0.487295,
    0.705606,
    0.308976,
    0.497,
    1.623656,
    1.625484,
    0.740656,
    1.647943,
    0.71,
    0.451393,
    0.74115,
    0.402,
    1.00128,
    0.495163,
    0.367,
    0.764857,
    0.37296,
    0.912274,
    1.047438,
    0.345818,
    0.28594,
    0.392298,
    2.288836,
    1.869604,
    0.938932,
    1.272448,
    0.273526,
    0.590157,
    0.535739,
    0.255119,
    0.35435,
    0.306242,
    1.099,
    0.460559,
    0.395248,
    1.246,
    1.772,
    3.911,
    2.620359,
    2.160781,
    1.751,
    1.045372,
    0.446611,
    0.967,
    0.256352,
    1.002,
    1.113146,
    1.625,
    0.809,
    1.178,
    0.27914,
    1.134432,
    1.198,
    1.109,
    3.867868,
    2.521801,
    0.377407,
    1.034294,
    1.646687,
    0.499355,
    1.023168,
    0.545307,
    1.045265,
    1.394373,
    1.480598,
    1.715968,
    1.573349,
    1.049308,
    0.910929,
    1.521597,
    1.871313,
    1.742,
    1.409843,
    0.985374,
    0.359764,
    0.556234,
    0.32508,
    0.865801,
    0.653711,
    0.185846,
    0.956,
    0.467,
    0.650884,
    0.819607,
    1.145103,
    1.0415,
    0.820641,
    2.083734,
    0.770026,
    1.978,
    0.456957,
    0.947535,
    0.423848,
    0.65706,
    0.477,
    1.528344,
    0.267683,
    0.879062,
    0.31827,
    0.413191,
    0.637578,
    1.345498,
    0.816984,
    1.767311,
    0.30369,
    1.41913,
    0.28745,
    0.93983,
    1.112422,
    0.242761,
    0.582,
    0.394655,
    0.619,
    0.449523,
    0.410812,
    0.800666,
    0.621067,
    1.794146,
    1.414878,
    1.866357,
    0.872403,
    0.39392,
    1.253433,
    0.292,
    0.275597,
    1.658297,
    1.395,
    1.252308,
    0.786808,
    0.949135,
    0.309195,
    0.296259,
    2.42,
    0.817165,
    3.26215,
    4.688625,
    0.269345,
    0.732613,
    1.100906,
    0.40442,
    0.728167,
    0.69,
    1.015345,
    1.474594,
    0.420549,
    0.797721,
    1.242336,
    1.487782,
    0.355878,
    1.899496,
    2.614687,
    1.29565,
    1.081562,
    1.490889,
    0.396889,
    0.505368,
    1.651626,
    0.74648,
    2.640216,
    0.355229,
    0.375898,
    1.012198,
    0.926111,
    1.485622,
    1.573359,
    1.569398,
    3.316415,
    3.669509,
    1.149407,
    1.752187,
    1.655624,
    0.566461,
    0.598802,
    0.744,
    0.712624,
    1.080992,
    0.422806,
    0.346428,
    0.613897,
    0.709629,
    0.765699,
    2.38708,
    0.895126,
    5.55799,
    0.621481,
    0.533,
    1.151,
    0.438311,
    0.830796,
    0.937009,
    0.945331,
    0.73618,
    0.29039,
    0.273,
    2.925932,
    2.830099,
    1.591932,
    3.908932,
    1.65741,
    2.957932,
    1.41736,
    1.008927,
    0.351681,
    0.51868,
    1.66101,
    0.97551,
    0.31192,
    0.758324,
    0.256766,
    1.644086,
    1.799,
    1.949874,
    1.151795,
    1.755347,
    1.373385,
    0.802,
    0.516902,
    0.339,
    0.664969,
    1.491,
    0.651687,
    0.486215,
    0.595989,
    0.55625,
    0.925,
    1.15476,
    0.361894,
    0.995259,
    0.762335,
    0.420421,
    1.891697,
    1.664643,
    0.364412,
    0.446394,
    0.575552,
    0.962875,
    0.608633,
    0.693674,
    0.897716,
    0.584749,
    1.639772,
    1.383637,
    1.48115,
    0.693,
    1.884131,
    1.48919,
    1.346,
    2.421186,
    0.41056,
    0.766094,
    0.316597,
    0.258084,
    0.520287,
    0.370938,
    1.024168,
    1.448644,
    1.441,
    1.251152,
    0.672678,
    0.91564,
    0.688261,
    1.639948,
    4.831948,
    2.753117,
    0.53099,
    1.48821,
    0.396889,
    0.317103,
    1.529977,
    1.221663,
    0.455116,
    1.43433,
    0.465795,
    1.233,
    0.902512,
    0.307804,
    0.718,
    2.805768,
    1.142309,
    2.231075,
    1.679111,
    0.393598,
    0.941,
    1.724889,
    0.611,
    0.705103,
    1.126778,
    0.456563,
    0.517,
    1.284516,
    0.493,
    0.539768,
    2.19,
    0.862794,
    2.383021,
    3.733072,
    0.489719,
    0.825,
    1.297994,
    0.511645,
    0.277642,
    0.989385,
    0.799312,
    1.4,
    1.749925,
    1.268248,
    1.042,
    0.769,
    1.673,
    0.440366,
    1.159209,
    4.329,
    0.620915,
    0.350395,
    0.36517,
    0.895242,
    0.882741,
    1.047103,
    1.056778,
    0.863035,
    0.486,
    0.294508,
    0.668244,
    0.979297,
    2.621232,
    2.070558,
    4.013218,
    2.950119,
    0.308111,
    1.203,
    0.454904,
    0.92408,
    1.065502,
    1.324213,
    0.559151,
    0.636443,
    0.540808,
    1.437998,
    0.997215,
    0.349231,
    1.334097,
    0.626841,
    1.097911,
    1.905881,
    0.50696,
    0.396069,
    0.296747,
    0.63763,
    0.28704,
    0.485,
    0.315,
    0.340057,
    0.939441,
    0.892869,
    0.344061,
    1.801734,
    1.863829,
    1.554,
    1.840498,
    2.560891,
    0.582638,
    0.493526,
    0.677576,
    0.273,
    1.224232,
    0.942,
    0.495011,
    1.037996,
    0.987187,
    0.625568,
    0.343958,
    1.117859,
    1.070343,
    1.048053,
    2.462318,
    4.394797,
    0.696124,
    0.871925,
    1.049,
    1.281235,
    0.286,
    0.444902,
    0.373,
    0.81694,
    0.586305,
    0.621146,
    1.03395,
    1.491451,
    0.90296,
    0.968614,
    0.75908,
    3.286897,
    1.168738,
    0.560537,
    0.711312,
    0.69,
    0.923341,
    0.419,
    0.346964,
    0.537739,
    1.101978,
    0.396111,
    0.581976,
    1.397148,
    0.298,
    1.074397,
    0.573,
    0.741181,
    1.241459,
    0.462638,
    1.139279,
    0.285475,
    0.435777,
    1.099581,
    1.069532,
    1.032723,
    0.997608,
    0.282063,
    1.13214,
    1.025649,
    0.293612,
    1.229485,
    2.038346,
    1.415487,
    0.27228,
    0.880391,
    1.709379,
    1.203735,
    1.455075,
    0.759111,
    0.876,
    0.365139,
    0.374465,
    0.604,
    0.999908,
    0.564415,
    0.309166,
    1.95442,
    3.067399,
    3.410235,
    0.572558,
    1.506352,
    0.272297,
    1.615688,
    1.50261,
    1.811077,
    0.559,
    0.834403,
    0.746225,
    0.585078,
    2.051,
    0.850021,
    2.146021,
    2.045,
    1.603021,
    1.60912
  ]
}