[
  17.817332255384734,
  7.256716317724441,
  18.431905628643186,
  18.63355483971648,
  19.18313418842154,
  8.839407848068264,
  13.98620959733703,
  22.737284883968794,
  36.06576592416268,
  20.5628039439458,
  20.67001865469184,
  23.114706732158314,
  34.18423593959645,
  13.674442296417464,
  29.174294529090446,
  33.397344911079585,
  15.150453472010476,
  23.993473775133168,
  55.08048636069453,
  29.930598424902282,
  26.142082216848557,
  42.31483293575015,
  6.145667688383919,
  36.86007454950079,
  27.207737880653266,
  34.85413544317034,
  39.40246166879275,
  55.939752886141626,
  20.312043772454313,
  22.92105986980841,
  26.838342598152867,
  11.63966506863765,
  25.420470469357188,
  21.053407230792704,
  11.746395324934653,
  14.952460520831563,
  24.521674094690432,
  18.516589707090716,
  16.998310792864952,
  22.15888474333085,
  14.971740839166067,
  24.214834007312863,
  19.404853153773754,
  15.814964910546614,
  8.529621242168739,
  24.856222289195923,
  19.702443841878054,
  20.3731858314679,
  9.569332204152134,
  18.059261466502313,
  6.76230824629679,
  43.23553095934244,
  29.827151656152633,
  11.778354917168716,
  37.033779436068095,
  6.9502664992810805,
  7.903271855757384,
  33.68718918304356,
  41.29756963802694,
  25.01031675566171,
  29.138378157871696,
  43.00612837329318,
  28.277044341940133,
  22.98652415021693,
  21.27387993022168,
  136.84336566257824,
  16.972453707632496,
  47.73554508025548,
  26.46439050854633,
  9.496360519830775,
  17.273096288875283,
  16.9834072111547,
  55.14997345907517,
  12.15713091710356,
  19.048208635029184,
  32.25689390304388,
  7.704657369071389,
  4.459241694801695,
  19.321804656554924,
  20.72350952633828,
  15.008310852134372,
  17.973569865512772,
  13.452884634787814,
  13.411589960754343,
  5.978930249799705,
  16.836717513553573,
  20.14991537035544,
  17.702953295183452,
  6.578952778744061,
  8.822718500137858,
  12.840638051304765,
  43.895265895573196,
  33.41380491349998,
  21.21858323519738,
  31.76430882849259,
  37.381256103658195,
  37.94346423828509,
  2.868827180416238,
  20.459468514156665,
  29.52912125026298,
  29.297590273200022,
  3.1188755517973097,
  44.6979813274183,
  21.740311973476807,
  12.634258740143299,
  23.458759500797598,
  27.871262637875674,
  23.415776379335547,
  31.616429477578045,
  18.433731885978148,
  25.143158860763503,
  17.39720426927395,
  7.042241122814928,
  14.32990669439503,
  26.837892420308226,
  26.055067384918022,
  35.72162140439555,
  35.707271785899245,
  22.85472678602548,
  5.550814235063106,
  37.28960505647045,
  40.243270570599286,
  16.325597720946554,
  15.443001810691959,
  8.350556355817211,
  35.582598330286544,
  7.647408580010056,
  15.563142587567,
  28.21232596521423,
  24.042940692076048,
  20.708918036691003,
  21.118599414486827,
  29.298341347650457,
  25.804370615272962,
  3.605182088734347,
  12.80768461076646,
  19.695992357954964,
  13.51221250656608,
  30.427853657237854,
  17.61986463538994,
  22.44643718925711,
  27.3007726118649,
  20.10616052758565,
  13.778446032410345,
  37.04595550780743,
  37.73745111820796
]