[
  0.390181,
  0.92435,
  0.336294,
  0.333948,
  0.86121,
  0.379445,
  0.883377,
  0.328537,
  0.438686,
  1.035124,
  0.508482,
  0.272,
  0.781505,
  0.546325,
  0.57884,
  0.615594,
  0.648329,
  0.894871,
  0.456472,
  0.843718,
  0.472109,
  1.086739,
  0.603608,
  0.867233,
  0.243935,
  0.297403,
  0.780937,
  0.765621,
  0.840081,
  0.799642,
  0.299838,
  0.668266,
  0.7378,
  0.575846,
  0.630846,
  0.833691,
  0.806046,
  0.355841,
  0.646697,
  0.685838,
  0.32014,
  0.775486,
  0.284621,
  0.782959,
  0.342806,
  0.850095,
  0.057147,
  0.653019,
  0.821234,
  0.254092,
  0.789545,
  0.323403,
  0.702324,
  0.799855,
  0.847583,
  0.528978,
  0.806622,
  0.353806,
  0.747838,
  0.404172,
  0.339937,
  0.362539,
  0.209134,
  0.367296,
  0.647439,
  0.173893,
  0.535132,
  0.041143,
  0.256,
  0.267857,
  0.715539,
  0.264461,
  0.221947,
  0.342386,
  0.240539,
  0.748396,
  0.252262,
  0.502469,
  0.256112,
  0.280604,
  0.278396,
  0.329877,
  0.153461,
  0.59394,
  0.240198,
  0.244152,
  0.296539,
  0.299396,
  0.449404,
  0.146078,
  0.273471,
  0.338079,
  0.304713,
  0.407557,
  0.416735,
  0.181313,
  0.263447,
  0.228841,
  0.315641,
  0.173247,
  0.23455,
  0.192573,
  0.277804,
  0.024792,
  0.258443,
  0.270032,
  0.234525,
  0.15857,
  0.242833,
  0.29081,
  0.361136,
  0.237918,
  0.261284,
  0.345826,
  0.362508,
  0.225396,
  0.247539,
  0.35736,
  0.327319,
  0.154421,
  0.257539,
  0.27916,
  0.223,
  0.038522,
  0.993352,
  1.075299,
  1.030318,
  1.027773,
  1.087212,
  1.189146,
  0.977352,
  1.096671,
  1.036176,
  1.00423,
  1.072259,
  0.992689,
  1.027278,
  1.112358,
  1.008794,
  1.029432,
  1.044463,
  1.074545,
  1.087166,
  1.00012,
  1.002808,
  1.010352,
  1.039457,
  1.364249,
  1.027084,
  1.033056,
  1.045148,
  1.266352,
  0.983759,
  1.107805,
  1.030002,
  1.076,
  1.030455,
  1.106263,
  0.966223,
  1.148276,
  1.031893,
  1.003663,
  1.08697,
  1.098352,
  1.146155,
  1.118209,
  1.119,
  0.282657,
  0.924427,
  1.126053,
  0.995986,
  1.041277,
  0.977352,
  1.049737,
  1.069972,
  1.091352,
  1.102352,
  0.864497,
  0.282629,
  0.983339,
  0.988608,
  1.151352,
  1.148066,
  0.262016,
  0.405209,
  0.434,
  0.38975,
  0.382356,
  0.609583,
  0.277103,
  0.400531,
  1.447397,
  0.487186,
  0.500562,
  0.338371,
  0.497596,
  0.245103,
  0.381905,
  0.737103,
  0.279103,
  0.379111,
  0.311992,
  0.702111,
  0.28873,
  0.385042,
  0.360103,
  0.492265,
  0.497535,
  0.524111,
  0.268,
  0.314111,
  0.672673,
  0.040039,
  0.236992,
  0.283973,
  0.813574,
  0.441469,
  0.435,
  0.349789,
  0.367351,
  0.49924,
  0.377747,
  0.495231,
  0.390103,
  0.503934,
  0.303969,
  0.330222,
  0.355041,
  0.50445,
  0.387111,
  0.290108,
  0.246065,
  0.383978,
  0.042637,
  0.242103,
  0.383624,
  0.300711,
  0.394111,
  0.233103,
  0.368111,
  0.240706,
  0.354947,
  0.213977,
  0.256631,
  0.261556,
  0.347927,
  0.300235,
  0.678397,
  0.396854,
  0.462164,
  0.338054,
  0.225358,
  0.358978,
  0.415755,
  0.43359,
  0.622816,
  0.614184,
  0.236414,
  0.298142,
  0.331226,
  0.260656,
  0.369037,
  0.243484,
  0.278422,
  0.487777,
  0.580745,
  0.248977,
  0.567842,
  0.297667,
  0.446759,
  0.240337,
  0.266374,
  0.274149,
  0.273407,
  0.336014,
  0.245444,
  0.286871,
  0.305,
  0.254515,
  0.245,
  0.26016,
  0.487416,
  0.252977,
  0.342638,
  0.287975,
  0.306,
  0.273844,
  0.27851,
  0.26608,
  0.298494,
  0.04407,
  0.285977,
  0.403014,
  0.281336,
  0.356014,
  0.391363,
  0.393252,
  0.312493,
  0.259899,
  0.239014,
  0.251977,
  0.259,
  0.260282,
  0.042861,
  1.137435,
  1.250236,
  1.321042,
  1.070865,
  1.1579,
  1.768191,
  1.265811,
  1.196674,
  1.080469,
  1.315522,
  1.397849,
  1.534415,
  1.351466,
  1.060649,
  1.22903,
  1.333454,
  1.21992,
  1.100531,
  1.188214,
  1.777617,
  1.110347,
  1.188224,
  1.732502,
  1.085032,
  1.237326,
  1.367462,
  1.499531,
  1.29926,
  1.176,
  1.234738,
  1.272537,
  1.14418,
  1.163673,
  1.36237,
  1.332757,
  1.106642,
  1.274567,
  1.176,
  1.312762,
  1.188429,
  1.380531,
  0.313499,
  1.253642,
  1.339323,
  1.236059,
  1.282581,
  1.069903,
  1.229407,
  1.108531,
  1.2735,
  1.118531,
  1.259001,
  1.091414,
  1.167456,
  1.363206,
  1.227,
  1.234531,
  1.316752,
  0.305714,
  0.877847,
  1.157626,
  1.211521,
  0.91602,
  0.833485,
  1.190243,
  0.710102,
  0.910248,
  1.164947,
  1.190115,
  1.170769,
  1.164,
  0.804871,
  1.204284,
  0.859546,
  1.330038,
  0.916818,
  1.245344,
  0.866543,
  1.588788,
  0.796379,
  1.174726,
  1.13951,
  1.176977,
  1.018977,
  1.291682,
  0.924182,
  1.442067,
  0.802737,
  0.917768,
  1.082065,
  0.994246,
  1.131657,
  1.1971,
  1.055135,
  1.189989,
  0.889708,
  1.217947,
  0.933173,
  0.885515,
  1.175935,
  0.816056,
  1.093935,
  0.350359,
  0.841686,
  1.177838,
  0.937986,
  1.18107,
  0.970688,
  1.205916,
  1.03664,
  1.205492,
  0.342195,
  0.872082,
  1.172584,
  0.893116,
  1.22302,
  0.275403,
  0.376111,
  0.684698,
  0.355947,
  0.647849,
  0.217397,
  0.270311,
  0.200889,
  0.556657,
  0.371326,
  0.376138,
  0.484043,
  0.364111,
  0.411236,
  0.607049,
  0.320929,
  0.415222,
  0.359104,
  0.36749,
  0.548103,
  0.360399,
  0.559458,
  0.380103,
  0.512111,
  0.650942,
  0.255282,
  0.245778,
  0.399111,
  1.447883,
  0.231785,
  0.068549,
  0.247498,
  0.386111,
  0.333033,
  0.390643,
  0.394665,
  0.497262,
  0.390312,
  0.261855,
  0.325556,
  0.357169,
  0.456529,
  0.487338,
  0.514821,
  0.409551,
  0.522108,
  0.227297,
  0.355592,
  0.067363,
  0.458916,
  0.513,
  0.22312,
  0.373557,
  0.242893,
  0.409363,
  0.268968,
  0.337932,
  0.362695,
  0.494531,
  0.398125,
  0.477343,
  0.87224,
  1.185936,
  0.94633,
  0.949184,
  0.882051,
  1.009265,
  1.044711,
  1.138354,
  0.257059,
  0.885,
  1.323614,
  0.881,
  1.63457,
  1.177,
  0.884172,
  0.899146,
  1.392591,
  0.943634,
  0.9808,
  1.178962,
  1.04915,
  0.918775,
  1.255285,
  1.009565,
  0.97991,
  0.978578,
  1.076824,
  0.991868,
  0.938493,
  0.860305,
  1.199503,
  0.915326,
  1.195148,
  0.839719,
  0.974524,
  1.222812,
  0.973457,
  1.015681,
  0.255156,
  0.931849,
  1.103723,
  1.036612,
  1.038163,
  1.020872,
  1.034639,
  0.908646,
  1.001229,
  0.962866,
  1.141578,
  0.871754,
  0.875824,
  0.965257,
  1.206784,
  0.914927,
  0.924951,
  0.854578,
  0.89571,
  0.256683,
  0.989568,
  1.024526,
  0.496916,
  0.707698,
  0.28504,
  0.54308,
  0.47283,
  0.358576,
  0.612063,
  0.497512,
  0.966082,
  0.458932,
  0.454121,
  0.762714,
  0.536521,
  0.541479,
  0.322376,
  0.312304,
  0.528406,
  0.25615,
  0.30791,
  0.331415,
  0.408971,
  0.442413,
  0.254111,
  0.307222,
  0.340673,
  0.06814,
  0.600868,
  0.404382,
  0.45354,
  0.401541,
  0.794222,
  0.32229,
  0.461347,
  0.778444,
  0.665591,
  0.293472,
  0.350111,
  0.380898,
  0.411056,
  0.334556,
  0.455111,
  0.491222,
  0.261883,
  0.403415,
  0.391101,
  0.46075,
  0.424355,
  0.500297,
  0.300155,
  0.372944,
  0.256761,
  0.329858,
  0.370351,
  0.526028,
  0.412111,
  0.416222,
  0.384431,
  0.440822,
  0.067923,
  0.285593,
  0.427724,
  0.366276,
  0.480409,
  1.085561,
  1.316549,
  1.090451,
  2.177441,
  0.824145,
  0.986907,
  0.261969,
  0.836697,
  1.14746,
  0.834113,
  1.081106,
  1.338229,
  1.308681,
  1.214625,
  0.957634,
  0.959561,
  0.976846,
  1.392287,
  0.985671,
  1.250348,
  1.025561,
  1.351962,
  2.001664,
  1.136231,
  1.00664,
  0.829561,
  0.933333,
  1.087549,
  1.47579,
  1.091401,
  1.124,
  1.139549,
  1.02038,
  1.056323,
  0.254012,
  1.015,
  1.035076,
  0.947687,
  1.103172,
  0.989561,
  1.140533,
  0.979561,
  1.010744,
  1.092768,
  0.882876,
  0.951012,
  1.03,
  0.967673,
  1.034549,
  0.897275,
  1.013954,
  1.064213,
  1.181561,
  0.251122,
  1.123,
  1.131698,
  0.920561,
  0.994549,
  1.065962,
  1.089561,
  0.275103,
  0.844554,
  0.231023,
  0.834406,
  0.33199,
  0.426103,
  0.944261,
  0.312937,
  0.319937,
  0.871117,
  0.59382,
  0.292,
  0.258,
  0.422103,
  0.938946,
  0.622207,
  0.818129,
  0.229897,
  0.453103,
  0.97478,
  0.376126,
  0.737256,
  0.251341,
  0.761956,
  0.327103,
  0.707103,
  0.866246,
  0.763776,
  0.829309,
  0.283675,
  0.807856,
  0.264878,
  0.840563,
  0.259103,
  0.834831,
  0.273236,
  0.826611,
  0.155452,
  0.394103,
  0.767775,
  0.332103,
  0.842779,
  0.274149,
  0.844884,
  0.393103,
  0.835089,
  0.473103,
  0.611103,
  0.769445,
  0.285214,
  0.822142,
  0.682103,
  0.438103,
  0.839686,
  0.694214,
  0.155629,
  0.377072,
  0.559826,
  0.368581,
  0.427463,
  0.444215,
  0.326104,
  0.395124,
  0.337303,
  0.439063,
  0.441964,
  0.371899,
  1.440081,
  0.556724,
  0.361388,
  0.842971,
  0.538216,
  0.284178,
  0.279223,
  0.357826,
  0.373245,
  0.379126,
  0.601716,
  0.367379,
  0.592801,
  0.243031,
  0.314242,
  0.412413,
  0.464826,
  0.374305,
  0.460105,
  0.431877,
  0.44926,
  0.054806,
  0.34538,
  0.365258,
  0.346403,
  0.38468,
  0.470826,
  0.544709,
  0.381357,
  0.444731,
  0.28325,
  0.440923,
  0.296207,
  0.362166,
  0.336366,
  0.392415,
  0.34323,
  0.466413,
  0.054806,
  0.259701,
  0.399683,
  0.393209,
  0.493243,
  0.284709,
  0.389206,
  0.297959,
  0.388689,
  0.287512,
  0.829949,
  0.765433,
  0.259,
  0.262,
  0.759452,
  0.822145,
  0.82307,
  0.715521,
  0.802252,
  0.268103,
  0.730124,
  0.855419,
  0.337,
  0.766917,
  0.813833,
  0.429,
  0.861989,
  0.780827,
  0.74576,
  0.303103,
  0.739903,
  0.308,
  0.861145,
  0.839425,
  0.278204,
  0.773064,
  0.670349,
  0.154983,
  0.993929,
  0.734558,
  0.368708,
  0.282433,
  0.723653,
  0.284138,
  0.320138,
  0.767628,
  0.806592,
  0.380565,
  0.258103,
  0.724205,
  0.407103,
  0.698408,
  0.366103,
  0.768837,
  0.27,
  0.716449,
  0.277149,
  0.720019,
  0.335103,
  0.651502,
  0.266103,
  0.658312,
  0.246103,
  0.80175,
  0.341,
  0.728857,
  0.580103,
  0.156461,
  0.601103,
  0.828198,
  0.940373,
  1.116531,
  0.935211,
  0.855744,
  0.958619,
  0.998448,
  1.070812,
  1.011672,
  1.163328,
  0.893406,
  0.894394,
  1.362582,
  1.102,
  0.311,
  1.095317,
  0.937647,
  0.946709,
  0.955605,
  1.112531,
  1.161449,
  1.126554,
  1.028878,
  1.127531,
  0.91557,
  1.076,
  1.107203,
  1.256,
  1.283897,
  0.943977,
  1.109792,
  1.037901,
  1.009345,
  1.021,
  0.931738,
  0.8646,
  1.042531,
  1.186968,
  1.151816,
  1.094192,
  0.966515,
  1.061531,
  0.841685,
  1.123856,
  0.909424,
  1.087341,
  0.898218,
  1.080551,
  0.98062,
  1.034985,
  0.185954,
  1.040847,
  1.116545,
  0.819749,
  1.202531,
  0.953737,
  1.088531,
  0.944101,
  1.14448,
  0.823149,
  1.078531,
  1.094043,
  1.211994,
  0.895902,
  1.108531,
  0.321947,
  0.358917,
  0.283381,
  0.334799,
  0.715562,
  1.093998,
  0.27392,
  0.292917,
  0.341285,
  0.268283,
  0.324507,
  0.367337,
  0.652989,
  0.394968,
  0.389919,
  0.294917,
  0.390358,
  0.691432,
  0.296,
  0.4359,
  0.46531,
  0.38784,
  0.324052,
  0.613418,
  0.358585,
  0.277917,
  0.283947,
  0.272425,
  0.833869,
  0.365234,
  0.224804,
  0.306295,
  0.422497,
  0.445213,
  0.448538,
  0.488852,
  0.315398,
  0.33733,
  0.379452,
  0.46114,
  0.327806,
  0.331365,
  0.408938,
  0.214392,
  0.329947,
  0.256366,
  0.041751,
  0.425917,
  0.466195,
  0.42364,
  0.435734,
  0.294028,
  0.371858,
  0.248917,
  0.324624,
  0.392397,
  0.430917,
  0.358632,
  0.36248,
  0.302917,
  0.33399,
  0.319574,
  0.560539,
  0.271201,
  0.272897,
  0.631509,
  0.341272,
  0.289539,
  0.298571,
  0.258152,
  0.313416,
  0.34582,
  0.273968,
  0.346387,
  0.546968,
  0.286775,
  0.621078,
  0.312106,
  0.55542,
  0.319806,
  0.248377,
  0.719539,
  0.575702,
  0.327,
  0.553166,
  0.229513,
  0.341142,
  0.384175,
  0.428142,
  0.248297,
  0.302463,
  0.056493,
  0.325663,
  0.299171,
  0.28648,
  0.259203,
  0.34678,
  0.248078,
  0.271642,
  0.206359,
  0.335631,
  0.359078,
  0.42935,
  0.250078,
  0.313311,
  0.228808,
  0.243453,
  0.30043,
  0.363534,
  0.282391,
  0.242,
  0.361059,
  0.402908,
  0.209539,
  0.303188,
  0.047884,
  0.281555,
  0.247,
  1.018593,
  1.060559,
  1.304589,
  1.029783,
  1.064051,
  1.142724,
  1.324526,
  1.087609,
  1.035046,
  1.552119,
  1.053036,
  1.116826,
  1.164596,
  0.975981,
  1.104098,
  1.113637,
  0.902949,
  1.010119,
  1.11767,
  0.938215,
  1.036953,
  1.041739,
  1.05961,
  1.133292,
  1.026605,
  1.033119,
  1.116758,
  1.129467,
  1.519176,
  1.126547,
  1.167957,
  0.976925,
  1.034384,
  1.009,
  1.130645,
  1.096072,
  0.996993,
  1.081028,
  1.008747,
  1.030119,
  0.887752,
  1.031734,
  1.03353,
  1.104179,
  0.226259,
  1.010306,
  1.059855,
  0.986803,
  1.023226,
  1.088342,
  1.097486,
  1.134855,
  1.021193,
  1.138228,
  0.968581,
  1.058024,
  1.147167,
  1.138536,
  0.968135,
  1.04653,
  0.819851,
  1.088579,
  0.833892,
  0.894858,
  1.06904,
  1.022655,
  0.958854,
  1.010713,
  1.05548,
  1.172902,
  1.029891,
  1.053645,
  1.049007,
  0.944244,
  0.995244,
  0.865066,
  1.088423,
  1.028548,
  1.037709,
  1.051428,
  0.887419,
  1.078987,
  1.014243,
  0.998021,
  0.917825,
  1.264416,
  0.864829,
  1.137918,
  0.952297,
  1.129466,
  0.940748,
  1.015877,
  1.072707,
  0.937729,
  0.94044,
  0.870854,
  1.141881,
  1.032452,
  1.115527,
  1.074041,
  1.095225,
  0.264148,
  0.895026,
  1.01849,
  0.88926,
  1.041744,
  0.884184,
  1.047267,
  0.845448,
  1.02299,
  0.889854,
  0.980549,
  0.996835,
  1.103962,
  0.920117,
  1.013951,
  0.903789,
  0.964153,
  1.033957,
  1.115076,
  0.964517,
  1.233879,
  1.048856,
  0.822562,
  0.829363,
  1.100954,
  0.850363,
  0.9818,
  1.081397,
  1.055424,
  1.179795,
  1.215,
  1.109282,
  1.030738,
  1.120959,
  1.351326,
  1.061,
  1.208618,
  1.101815,
  0.941578,
  1.10056,
  1.032962,
  0.974236,
  1.182043,
  0.966122,
  1.076309,
  1.110817,
  0.991673,
  1.025957,
  1.113717,
  1.215578,
  0.909,
  0.927103,
  1.015152,
  0.914897,
  0.96505,
  0.829703,
  1.163163,
  0.887578,
  0.971056,
  0.25675,
  0.856918,
  1.107119,
  1.015859,
  0.889578,
  1.10507,
  0.864542,
  1.030348,
  0.878578,
  1.002997,
  0.256808,
  0.846086,
  1.08078,
  0.912123,
  1.101578,
  1.014259,
  1.051149,
  0.242794,
  1.037182,
  0.401144,
  0.415598,
  0.243311,
  0.49369,
  0.233146,
  0.243989,
  0.3591,
  0.2427,
  0.384103,
  0.465147,
  0.224049,
  0.223363,
  0.267781,
  0.448655,
  0.445748,
  0.222014,
  0.241522,
  0.360813,
  0.439626,
  0.352137,
  0.210316,
  0.244087,
  0.237073,
  0.266433,
  0.547545,
  0.243903,
  0.270103,
  0.327253,
  0.625209,
  0.238131,
  0.292804,
  0.351135,
  0.189103,
  0.307103,
  0.374373,
  0.266527,
  0.265505,
  0.266,
  0.257627,
  0.240644,
  0.277103,
  0.34163,
  0.383195,
  0.18002,
  0.226692,
  0.039631,
  0.284206,
  0.246103,
  0.331254,
  0.344379,
  0.260318,
  0.229992,
  0.244258,
  0.284364,
  0.35151,
  0.362833,
  0.194169,
  0.267103,
  0.401352,
  0.360755,
  0.255206,
  0.248612,
  0.311244,
  0.286498,
  0.379615,
  0.882928,
  0.770262,
  0.753632,
  0.221368,
  0.857981,
  0.737403,
  0.313405,
  0.787716,
  0.263285,
  0.31661,
  0.309103,
  0.231284,
  0.177103,
  0.746432,
  0.206,
  1.165582,
  0.294103,
  0.757049,
  0.432691,
  0.297897,
  0.722734,
  0.407826,
  0.86455,
  0.249075,
  0.755432,
  0.505897,
  0.269086,
  0.614355,
  0.26472,
  0.232795,
  0.762872,
  0.04021,
  0.30429,
  0.737735,
  0.274033,
  0.746835,
  0.222103,
  0.708188,
  0.312011,
  0.338004,
  0.367103,
  0.243781,
  0.272517,
  0.773219,
  0.656009,
  0.748766,
  0.308103,
  0.786233,
  0.238774,
  0.78332,
  0.370582,
  0.763303,
  0.144179,
  0.226463,
  0.552103,
  0.76669,
  1.205997,
  1.309078,
  2.038707,
  1.123433,
  1.295663,
  0.997556,
  1.836425,
  1.253655,
  0.928592,
  1.476795,
  0.973839,
  1.156,
  1.100924,
  1.132979,
  1.103677,
  1.076296,
  1.130691,
  2.004451,
  1.209344,
  0.979855,
  1.457853,
  1.067016,
  0.992912,
  1.192049,
  1.296582,
  1.158796,
  1.166144,
  0.993326,
  1.135964,
  1.21473,
  1.017717,
  1.14898,
  0.955936,
  1.121115,
  1.082064,
  1.160853,
  1.179486,
  0.955539,
  1.211712,
  1.080888,
  1.255471,
  0.97683,
  1.103815,
  0.328,
  1.08433,
  1.257853,
  0.917515,
  1.077215,
  1.068853,
  1.260874,
  1.032021,
  1.126905,
  1.082486,
  1.250853,
  0.940533,
  1.136853,
  0.913868,
  1.116989,
  0.275748,
  0.240077,
  1.237497,
  0.741419,
  0.958977,
  0.218931,
  0.574213,
  0.954773,
  0.039713,
  0.252954,
  0.700552,
  0.869451,
  0.868084,
  0.275846,
  0.370453,
  0.363876,
  0.851248,
  0.494652,
  0.699756,
  0.97998,
  0.597405,
  0.867716,
  0.558375,
  0.843341,
  0.247092,
  0.238938,
  0.265103,
  0.814359,
  0.228246,
  0.269,
  0.288234,
  0.922608,
  0.304839,
  0.297997,
  0.750544,
  0.853326,
  0.521243,
  0.831012,
  0.269875,
  0.814431,
  0.246206,
  0.795875,
  0.517962,
  0.882226,
  0.154449,
  0.28045,
  0.487866,
  0.700672,
  0.704916,
  0.849505,
  0.283749,
  0.888351,
  0.487103,
  0.693205,
  0.519195,
  0.283532,
  0.751892,
  0.468727,
  0.697248,
  0.155119,
  0.588212,
  0.819276,
  1.100984,
  1.10751,
  0.28186,
  1.424637,
  0.940959,
  1.1261,
  0.970248,
  0.972907,
  0.899984,
  0.969648,
  1.124368,
  1.022948,
  1.162368,
  1.169993,
  0.952526,
  0.974525,
  0.905442,
  0.961352,
  1.127794,
  1.044897,
  1.093352,
  1.193984,
  0.957284,
  0.971632,
  1.047833,
  0.911,
  0.854984,
  0.910984,
  0.976352,
  1.078352,
  0.966148,
  0.967128,
  1.024802,
  1.186315,
  1.155093,
  0.989807,
  0.894984,
  1.041845,
  0.921984,
  0.974068,
  1.094758,
  1.097831,
  0.261,
  0.935087,
  0.982715,
  0.927984,
  0.996231,
  1.036984,
  1.083,
  0.884984,
  1.015352,
  0.957023,
  0.986984,
  0.875275,
  1.017352,
  0.879035,
  0.964352,
  0.294,
  0.867984,
  0.994897,
  0.26737,
  0.789191,
  0.691578,
  0.205949,
  0.260939,
  0.769947,
  0.23373,
  0.815716,
  0.227975,
  0.774364,
  0.774364,
  0.786556,
  0.713279,
  0.228103,
  0.737716,
  0.354915,
  0.899458,
  1.625811,
  0.884613,
  0.188054,
  0.758172,
  0.280447,
  0.284388,
  0.204969,
  0.244103,
  0.81447,
  0.877394,
  0.307521,
  0.19953,
  0.684932,
  0.745804,
  0.619978,
  0.041936,
  0.379199,
  0.826621,
  0.775951,
  0.552731,
  0.699252,
  0.297103,
  0.763432,
  0.184546,
  0.850022,
  0.225387,
  0.272848,
  0.750613,
  0.03941,
  0.342882,
  0.872157,
  0.546103,
  0.819228,
  0.652709,
  0.739432,
  0.262103,
  0.836303,
  0.224103,
  0.819026,
  0.229103,
  0.793912,
  0.045366,
  0.219,
  0.797345,
  0.463899,
  0.972515,
  0.301357,
  0.269299,
  0.409324,
  0.879203,
  0.839899,
  0.602304,
  0.765124,
  1.075361,
  0.697655,
  0.366,
  0.433861,
  0.749491,
  0.469639,
  1.017702,
  0.984904,
  0.370903,
  0.952548,
  0.261,
  0.365208,
  0.840336,
  0.829469,
  0.839117,
  0.323712,
  0.996122,
  0.81408,
  0.283846,
  0.155985,
  0.934266,
  0.542934,
  0.945124,
  0.318127,
  0.900149,
  0.903711,
  0.370903,
  0.775221,
  0.326781,
  0.873995,
  0.331302,
  0.86857,
  0.34,
  0.845813,
  0.616903,
  0.733709,
  0.278903,
  0.83515,
  0.062,
  0.228497,
  0.79538,
  0.308,
  0.791242,
  0.353873,
  0.704072,
  0.265903,
  0.819132,
  0.36672,
  0.860712,
  0.419903,
  0.308441,
  0.342038,
  0.137,
  0.154,
  0.196366,
  0.332403,
  0.148895,
  0.158338,
  0.235038,
  0.244218,
  0.248,
  0.343,
  0.199206,
  0.218897,
  0.2893,
  0.243338,
  0.74796,
  0.181833,
  0.570206,
  0.134338,
  0.25524,
  0.461577,
  0.384675,
  1.0973,
  0.660248,
  0.236038,
  0.25553,
  0.261338,
  0.378338,
  0.2447,
  0.324578,
  0.224035,
  0.162338,
  0.247445,
  0.348038,
  0.383338,
  0.142794,
  0.271568,
  0.02,
  0.289051,
  0.349292,
  0.233525,
  0.237356,
  0.236338,
  0.253556,
  0.197286,
  0.244338,
  0.195038,
  0.203728,
  0.30765,
  0.353338,
  0.167497,
  0.173,
  0.227338,
  0.304826,
  0.161441,
  0.172434,
  0.482103,
  1.159248,
  0.706523,
  0.816564,
  0.180525,
  0.265864,
  0.825449,
  0.765402,
  0.337392,
  0.240704,
  0.250709,
  0.248103,
  0.821508,
  0.470897,
  0.816753,
  0.257413,
  0.216103,
  0.832248,
  0.823121,
  0.403223,
  0.192522,
  0.35888,
  0.193103,
  0.433103,
  0.817005,
  0.940281,
  0.321086,
  0.273073,
  0.84355,
  0.494134,
  0.251103,
  0.836382,
  0.430412,
  0.83576,
  0.216053,
  0.840753,
  0.467103,
  0.319503,
  0.789225,
  0.487103,
  0.154893,
  0.569329,
  0.774124,
  0.244206,
  0.362989,
  0.696533,
  0.734454,
  0.796577,
  0.822248,
  0.862716,
  0.820248,
  0.289693,
  0.323379,
  0.260699,
  0.481,
  0.287136,
  0.218256,
  0.300594,
  0.591638,
  0.228062,
  0.262804,
  0.593605,
  0.275309,
  0.247225,
  0.272718,
  0.291103,
  0.540379,
  0.266,
  0.375103,
  0.454301,
  0.447351,
  0.357544,
  0.510563,
  0.271894,
  0.37,
  0.264103,
  0.36488,
  0.345495,
  0.289276,
  0.318275,
  0.274355,
  0.261002,
  0.488379,
  0.359922,
  0.230682,
  0.337528,
  0.300379,
  0.258,
  0.233858,
  0.347806,
  0.430516,
  0.446,
  0.432064,
  0.276,
  0.337103,
  0.264,
  0.040105,
  0.234835,
  0.373825,
  0.216642,
  0.32575,
  0.274349,
  0.341103,
  0.236103,
  0.287181,
  0.241214,
  0.348391,
  0.388119,
  0.47441,
  0.242103,
  0.336012,
  0.911608,
  1.108301,
  1.17,
  0.835149,
  1.040498,
  0.912062,
  0.880424,
  0.958106,
  1.073312,
  1.170422,
  0.905719,
  0.861961,
  0.946106,
  0.886206,
  0.915631,
  0.283,
  1.148,
  0.987693,
  1.077106,
  1.155696,
  1.143,
  0.92387,
  1.033355,
  0.875168,
  0.957106,
  0.990106,
  1.332559,
  1.227761,
  1.142,
  0.848052,
  1.014106,
  0.884968,
  0.985399,
  1.042531,
  1.082132,
  0.921239,
  0.923475,
  0.928106,
  1.055567,
  1.013,
  0.903239,
  1.043,
  0.89572,
  0.917106,
  0.877125,
  1.074106,
  1.008953,
  1.105106,
  1.025345,
  1.044106,
  1.108106,
  0.962629,
  0.964106,
  1.102345,
  0.257239,
  0.951345,
  0.982106,
  0.856286,
  1.128,
  0.902561,
  1.165435,
  1.690644,
  1.082541,
  0.896516,
  0.888459,
  0.844103,
  0.88847,
  1.278561,
  1.078541,
  0.962179,
  1.015466,
  1.098793,
  0.936863,
  1.259105,
  0.851561,
  0.959102,
  1.063568,
  1.081541,
  0.897541,
  0.851672,
  1.199561,
  0.26343,
  1.197387,
  0.8799,
  0.881355,
  0.902013,
  0.914561,
  1.255102,
  0.935922,
  2.171061,
  0.987541,
  0.875541,
  0.872102,
  0.959507,
  1.052352,
  1.090155,
  1.118134,
  0.892618,
  1.135561,
  0.970102,
  0.992561,
  0.83326,
  0.955336,
  0.879178,
  0.959561,
  0.991041,
  1.017561,
  0.982091,
  0.856,
  0.860102,
  1.068512,
  0.980903,
  1.004561,
  0.902027,
  0.964672,
  0.246204,
  0.951561,
  0.922047,
  0.905458,
  0.939561,
  0.246487,
  0.305964,
  0.635201,
  0.186827,
  0.357769,
  0.195501,
  0.342797,
  0.292774,
  0.379692,
  0.472495,
  0.604902,
  0.339779,
  0.233789,
  0.208374,
  0.289539,
  0.474968,
  0.231045,
  0.338163,
  0.279504,
  0.335539,
  0.415706,
  0.465222,
  0.238096,
  0.476856,
  0.288801,
  0.408824,
  0.416046,
  0.664539,
  0.401841,
  0.46878,
  0.039559,
  0.349808,
  0.268495,
  0.319433,
  0.220588,
  0.253516,
  0.350821,
  0.315019,
  0.255764,
  0.30012,
  0.300424,
  0.23501,
  0.308105,
  0.322137,
  0.321683,
  0.262,
  0.248539,
  0.320934,
  0.35607,
  0.220219,
  0.215041,
  0.341824,
  0.241893,
  0.371424,
  0.06077,
  0.245539,
  0.378147,
  0.365468,
  0.455925,
  0.038189,
  0.274539,
  0.436561,
  0.315285,
  0.837876,
  0.46016,
  0.380737,
  0.425254,
  0.781349,
  0.80016,
  0.797755,
  0.546245,
  0.409901,
  0.867947,
  0.707598,
  0.075256,
  0.412022,
  0.429284,
  0.429864,
  0.369114,
  0.809423,
  0.944405,
  1.572697,
  0.413004,
  0.564554,
  0.740188,
  0.383595,
  0.743065,
  0.416452,
  0.803876,
  0.818381,
  0.745113,
  0.510623,
  0.859219,
  0.393435,
  0.813579,
  0.706181,
  0.460231,
  0.483406,
  0.554974,
  0.857071,
  0.465701,
  0.366557,
  0.838897,
  0.357529,
  0.85711,
  0.367386,
  0.787636,
  0.428688,
  0.805527,
  0.808456,
  0.4925,
  0.159863,
  0.675557,
  0.709136,
  0.583557,
  0.769494,
  0.489207,
  0.844528,
  0.52956,
  0.490461,
  0.885192,
  0.41173,
  0.813803,
  0.334824,
  0.646919,
  0.747919,
  1.2009,
  0.783,
  0.267015,
  0.227202,
  0.308458,
  0.801739,
  0.612087,
  0.293764,
  0.262621,
  0.744472,
  0.354944,
  1.369559,
  0.776613,
  0.426806,
  0.844979,
  0.300393,
  0.377605,
  0.77287,
  0.885,
  0.338309,
  0.695258,
  0.403212,
  0.579068,
  0.274142,
  0.246668,
  0.24549,
  0.504206,
  0.41329,
  0.752912,
  0.271597,
  0.78582,
  0.800796,
  0.195458,
  0.764901,
  0.327645,
  0.756431,
  0.215219,
  0.75234,
  0.270386,
  0.694728,
  0.202906,
  0.762632,
  0.040442,
  0.472206,
  0.563457,
  0.808708,
  0.312327,
  0.69494,
  0.562637,
  0.758716,
  0.552693,
  0.734716,
  0.209548,
  0.747738,
  0.552178,
  0.660716,
  0.039752,
  0.371997,
  0.742124,
  0.768525,
  0.344627,
  0.817661,
  0.774138,
  0.396424,
  0.771817,
  0.404284,
  0.885873,
  0.155248,
  0.318439,
  0.937649,
  0.412872,
  0.80242,
  0.310597,
  0.666352,
  0.344469,
  0.397776,
  0.310283,
  0.810178,
  0.378457,
  0.495451,
  0.690001,
  0.753711,
  0.320264,
  0.25287,
  0.841427,
  0.899699,
  0.936838,
  0.294937,
  0.663609,
  0.32123,
  0.70796,
  0.400111,
  0.410702,
  0.371052,
  0.343111,
  0.815498,
  0.609793,
  0.753503,
  0.400222,
  0.780158,
  0.734663,
  0.776596,
  0.068222,
  0.507222,
  0.806744,
  0.66424,
  0.728844,
  0.400451,
  0.705514,
  0.329591,
  0.795009,
  0.56927,
  0.83847,
  0.37595,
  0.79059,
  0.066222,
  0.347111,
  0.672861,
  0.379547,
  0.795064,
  0.757848,
  0.837983,
  0.975499,
  0.811805,
  1.045988,
  1.182716,
  0.705427,
  0.989372,
  0.955801,
  0.95799,
  0.877249,
  0.901638,
  0.857344,
  0.886236,
  0.84469,
  0.865972,
  1.218482,
  0.965237,
  0.947987,
  0.829555,
  0.863578,
  0.939889,
  0.834,
  1.257875,
  0.898782,
  0.829618,
  0.982681,
  1.739415,
  0.919759,
  0.956877,
  0.847867,
  0.875578,
  0.910588,
  0.984489,
  0.899511,
  0.165617,
  0.947222,
  0.980578,
  0.875959,
  0.912573,
  0.831311,
  0.889403,
  0.882316,
  0.965578,
  0.836077,
  0.845,
  0.833996,
  0.842696,
  0.164696,
  0.882347,
  0.907519,
  0.941854,
  0.833713,
  0.933,
  0.784941,
  0.904191,
  0.863997,
  0.875,
  0.800451,
  0.876614,
  1.017634,
  1.251494,
  0.953808,
  0.96302,
  1.150478,
  1.190044,
  1.109455,
  1.154939,
  0.932104,
  0.992474,
  0.971848,
  1.026084,
  1.086006,
  1.015874,
  1.280293,
  0.961624,
  1.343239,
  0.970874,
  1.089147,
  0.989781,
  1.029987,
  1.021629,
  0.94402,
  0.970941,
  1.097566,
  1.283874,
  1.045537,
  0.96293,
  0.966444,
  1.003,
  0.998455,
  1.036122,
  0.973404,
  0.98379,
  1.041284,
  0.977559,
  1.01725,
  0.279797,
  0.996255,
  1.003307,
  0.969866,
  0.972295,
  0.958705,
  0.982862,
  1.018874,
  1.003825,
  0.997161,
  1.025352,
  1.057626,
  1.082522,
  1.066621,
  1.164301,
  1.157352,
  1.099856,
  0.963417,
  1.017463,
  0.965455,
  1.023874,
  0.969632,
  1.309614,
  0.968167,
  1.050616,
  1.342338,
  0.963103,
  1.144434,
  1.129167,
  1.086515,
  1.166352,
  0.969507,
  0.974064,
  0.279935,
  1.06125,
  0.961929,
  0.960519,
  1.053352,
  1.119626,
  0.939,
  1.093833,
  1.100352,
  1.187767,
  1.088167,
  0.992835,
  1.011394,
  1.106,
  1.115714,
  1.242855,
  1.024,
  1.766805,
  1.024722,
  0.952519,
  1.027352,
  1.007675,
  1.017417,
  1.01308,
  0.281124,
  1.080519,
  1.139455,
  0.981,
  0.99427,
  0.94459,
  1.031352,
  1.02,
  1.023885,
  0.998,
  1.12,
  0.965519,
  0.985352,
  0.979519,
  1.008352,
  0.968519,
  1.023352,
  0.278167,
  1.000519,
  1.058352,
  0.992519,
  1.016352,
  0.98756,
  0.975,
  0.923392,
  1.080352,
  0.934722,
  1.316791,
  1.013882,
  0.881998,
  0.879837,
  0.995206,
  1.366909,
  0.837856,
  0.898215,
  1.706475,
  1.949619,
  0.916314,
  1.285275,
  1.538056,
  0.869584,
  0.89694,
  1.284137,
  0.962797,
  1.024578,
  1.145722,
  0.99326,
  1.238248,
  0.917081,
  0.842218,
  0.910578,
  1.05166,
  0.985653,
  1.090939,
  0.905164,
  0.986215,
  0.886578,
  2.098069,
  0.823091,
  0.883681,
  1.028024,
  0.930406,
  0.971802,
  0.263623,
  0.947434,
  1.154978,
  0.912578,
  1.004722,
  1.011099,
  1.095981,
  0.858808,
  0.977191,
  0.850248,
  0.906784,
  0.920153,
  0.931578,
  1.021145,
  0.963564,
  0.900043,
  0.961735,
  1.107688,
  0.279842,
  0.984784,
  1.028913,
  0.812578,
  0.946722,
  0.971328,
  0.977861,
  0.227539,
  0.329942,
  0.037078,
  0.451331,
  0.763658,
  0.236,
  0.367413,
  0.47597,
  0.221911,
  0.376734,
  0.450785,
  0.49054,
  0.780376,
  0.27221,
  0.348682,
  0.381845,
  0.368413,
  0.60751,
  0.343884,
  0.261,
  0.308137,
  0.430413,
  0.490522,
  0.496702,
  0.187539,
  0.406413,
  0.184,
  0.444055,
  0.431354,
  0.506797,
  0.31245,
  0.564197,
  0.36293,
  0.237048,
  0.418922,
  0.246539,
  0.363452,
  0.379539,
  0.457413,
  0.040614,
  0.435599,
  0.371903,
  0.454539,
  0.518208,
  0.472315,
  0.492635,
  0.278176,
  0.379772,
  0.246539,
  0.456413,
  0.080221,
  0.420874,
  0.271709,
  0.289539,
  0.363413,
  0.380617,
  0.579177,
  0.397413,
  0.259689,
  0.396799,
  0.66425,
  0.642592,
  0.416401,
  0.632656,
  0.413085,
  0.374692,
  0.961659,
  0.309072,
  0.175112,
  0.391754,
  0.321323,
  0.53395,
  0.558303,
  0.411756,
  0.311901,
  0.455301,
  0.608549,
  0.562187,
  0.181898,
  0.492707,
  0.649195,
  0.375924,
  0.434313,
  0.2186,
  0.452446,
  0.964691,
  0.345863,
  0.398415,
  0.038291,
  0.251539,
  0.317671,
  0.304554,
  0.411174,
  0.240441,
  0.286539,
  0.430625,
  0.256325,
  0.420414,
  0.190004,
  0.447515,
  0.42386,
  0.244,
  0.281539,
  0.367299,
  0.348344,
  0.571747,
  0.08239,
  0.429539,
  0.505419,
  0.34167,
  0.421203,
  0.386487,
  0.482539,
  0.212,
  0.390936,
  0.161935,
  0.472888,
  0.246873,
  0.437035,
  0.276845,
  0.421195,
  1.187119,
  1.201846,
  1.14192,
  1.100194,
  1.205504,
  1.193953,
  1.019444,
  1.688986,
  1.584119,
  2.166945,
  1.205151,
  1.044105,
  1.101551,
  1.054858,
  1.194831,
  1.181017,
  1.018465,
  1.419481,
  1.111625,
  0.99026,
  0.987415,
  1.370945,
  2.158758,
  1.134222,
  1.227064,
  1.313451,
  2.149825,
  1.143778,
  1.332303,
  2.276236,
  1.188826,
  1.14881,
  1.018538,
  1.006218,
  1.008304,
  1.10347,
  1.316254,
  1.109011,
  1.126119,
  1.2628,
  1.125945,
  1.35723,
  1.031299,
  1.072215,
  0.304381,
  1.053463,
  1.07696,
  1.017222,
  1.295056,
  1.013564,
  1.064945,
  1.015201,
  1.089945,
  1.045119,
  1.100408,
  1.043119,
  1.290945,
  1.003119,
  1.007485,
  1.013119,
  1.065091,
  1.003352,
  1.021325,
  0.998466,
  1.011287,
  1.005027,
  1.032726,
  1.017689,
  1.031556,
  0.953128,
  0.999455,
  1.016041,
  0.928087,
  1.089261,
  1.185331,
  1.019387,
  1.00507,
  1.087539,
  1.241463,
  1.160309,
  1.021673,
  1.119757,
  1.243768,
  1.092689,
  1.101314,
  1.056021,
  0.980154,
  0.884325,
  1.105352,
  1.04239,
  1.015677,
  0.971233,
  0.984,
  1.058618,
  1.128287,
  1.269836,
  1.044766,
  1.039502,
  0.998606,
  1.017041,
  1.071352,
  1.146029,
  1.168571,
  0.281517,
  0.948878,
  1.042293,
  0.966352,
  0.999325,
  1.090352,
  1.170377,
  0.895312,
  1.135904,
  0.924325,
  1.001446,
  1.107598,
  1.148439,
  1.007352,
  1.030325,
  1.046145,
  1.014451,
  0.971703,
  0.983973,
  0.978905,
  1.023269,
  1.134777,
  1.438843,
  0.976,
  1.071289,
  1.099,
  0.974905,
  1.061352,
  0.981091,
  0.981334,
  1.154292,
  1.115706,
  1.03581,
  0.965237,
  1.096352,
  1.083172,
  0.986751,
  1.078352,
  1.214943,
  1.123477,
  1.724539,
  0.965588,
  1.797707,
  0.903905,
  0.952352,
  1.214956,
  0.972,
  0.95522,
  0.940046,
  0.993043,
  0.967676,
  0.986639,
  0.993387,
  0.922493,
  1.009421,
  0.954563,
  1.026636,
  1.086708,
  1.056865,
  0.289773,
  1.101352,
  1.154905,
  0.991785,
  1.074905,
  1.058905,
  1.00372,
  0.949511,
  1.034352,
  1.114352,
  1.133743,
  1.010427,
  0.950342,
  0.971905,
  1.059897,
  1.024808,
  1.040765,
  1.012905,
  1.070835,
  0.316319,
  0.395406,
  0.394933,
  0.35197,
  0.608022,
  0.416351,
  0.582111,
  0.277598,
  0.310897,
  0.324897,
  0.342812,
  0.383763,
  0.383871,
  0.34958,
  0.521249,
  0.500082,
  0.52418,
  0.575734,
  0.503926,
  0.432802,
  0.517296,
  0.482047,
  0.427398,
  0.344726,
  0.292111,
  0.327802,
  0.678912,
  0.51042,
  0.333243,
  0.306795,
  0.33116,
  0.291802,
  0.447227,
  0.311802,
  0.377187,
  0.46006,
  0.537235,
  0.057433,
  0.437802,
  0.514483,
  0.332319,
  0.378835,
  0.235802,
  0.402444,
  0.264861,
  0.417111,
  0.337802,
  0.386265,
  0.437406,
  0.493325,
  0.431935,
  0.337,
  0.068222,
  0.290802,
  0.415407,
  0.320141,
  0.296,
  0.367802,
  0.498517,
  1.220463,
  1.251575,
  1.700858,
  1.033088,
  1.113593,
  0.999259,
  2.165109,
  1.242587,
  0.998352,
  1.120774,
  1.192593,
  1.126407,
  1.128,
  1.227407,
  1.122062,
  1.398746,
  1.087256,
  1.482352,
  1.083109,
  1.129482,
  1.331739,
  1.416352,
  1.063818,
  0.966352,
  1.070593,
  1.111755,
  1.057701,
  1.12408,
  1.143206,
  1.127239,
  1.866159,
  1.333193,
  1.28803,
  1.106293,
  1.036352,
  1.032721,
  1.097314,
  1.118433,
  1.141131,
  1.187202,
  0.983352,
  1.061945,
  0.991326,
  1.115704,
  0.282733,
  1.041986,
  1.070063,
  1.008352,
  1.070945,
  1.117154,
  1.20342,
  1.144352,
  1.303025,
  1.123025,
  1.195352,
  1.016733,
  1.108248,
  1.200352,
  1.305551,
  0.977788,
  1.536725,
  1.148244,
  1.196049,
  1.206398,
  1.195012,
  0.934175,
  1.208379,
  2.108326,
  1.030538,
  1.154338,
  1.104264,
  1.336583,
  1.135592,
  0.964549,
  1.143377,
  1.058055,
  1.112219,
  1.021113,
  1.13173,
  1.137944,
  0.99399,
  0.99152,
  1.013549,
  1.084549,
  1.114564,
  1.25264,
  1.226031,
  1.124032,
  1.184703,
  1.429073,
  1.230549,
  1.256862,
  1.293207,
  1.120302,
  1.017824,
  1.137599,
  1.245347,
  0.936378,
  1.038481,
  1.115549,
  1.226831,
  1.051549,
  1.29564,
  0.294221,
  1.00426,
  1.087553,
  1.001549,
  1.040832,
  1.067736,
  1.081549,
  1.06164,
  1.023653,
  1.035792,
  1.050743,
  1.091047,
  1.240617,
  1.149108,
  1.201086,
  0.223103,
  0.245326,
  0.195,
  0.196765,
  0.259,
  0.209526,
  0.182555,
  0.223716,
  0.23732,
  0.412,
  0.274445,
  0.267256,
  0.429,
  0.234863,
  0.271103,
  0.229097,
  0.232636,
  0.538076,
  0.383239,
  0.203103,
  0.548306,
  1.261,
  0.211,
  0.242126,
  0.265817,
  0.361103,
  0.447103,
  0.189,
  0.225163,
  0.27139,
  0.346826,
  0.281373,
  0.254429,
  0.252943,
  0.234,
  0.280206,
  0.275103,
  0.279116,
  0.182,
  0.241792,
  0.266206,
  0.281779,
  0.249111,
  0.277889,
  0.214103,
  0.253782,
  0.356103,
  0.36,
  0.040341,
  0.207128,
  0.252103,
  0.188655,
  0.235309,
  0.348206,
  0.362728,
  0.231719,
  0.240986,
  0.217103,
  0.248815,
  0.237103,
  0.315434,
  0.463589,
  0.609351,
  0.413603,
  0.535,
  0.451,
  0.506399,
  0.253103,
  0.536638,
  0.474897,
  0.478116,
  0.47875,
  0.352814,
  0.805094,
  1.943103,
  0.249103,
  0.319739,
  0.448287,
  0.809494,
  0.638237,
  0.268103,
  0.391573,
  0.279103,
  0.58168,
  0.956059,
  0.440891,
  0.611208,
  0.734668,
  0.630822,
  0.34549,
  0.306081,
  0.361,
  0.225206,
  0.427935,
  0.039348,
  0.22559,
  0.451618,
  0.340627,
  0.554626,
  0.267919,
  0.447987,
  0.500254,
  0.624415,
  0.455035,
  0.370076,
  0.327889,
  0.262103,
  0.48139,
  0.393284,
  0.560877,
  0.24232,
  0.508195,
  0.578126,
  0.366,
  0.454103,
  0.590384,
  0.083092,
  0.532103,
  0.571195,
  0.416103,
  0.56597,
  0.491103,
  0.591133,
  0.329002,
  0.491997,
  0.607403,
  0.766907,
  0.14537,
  0.282618,
  0.426255,
  0.93849,
  1.109386,
  0.777014,
  0.348146,
  0.809716,
  0.709159,
  0.289085,
  0.731432,
  0.583987,
  0.324505,
  0.773933,
  0.301141,
  0.806026,
  0.387,
  0.297657,
  0.731584,
  0.377,
  0.817692,
  0.382649,
  0.750081,
  0.329569,
  1.022085,
  1.030403,
  0.952629,
  0.552151,
  0.574543,
  0.347048,
  0.322967,
  0.268063,
  0.679944,
  0.054806,
  0.345806,
  0.808215,
  0.273302,
  0.683,
  0.402205,
  0.882481,
  0.727142,
  0.807033,
  0.460487,
  0.850817,
  0.447474,
  0.889879,
  0.359403,
  0.801852,
  0.312416,
  0.793194,
  0.057045,
  0.473403,
  0.73578,
  0.456403,
  0.647127,
  0.849908,
  0.412403,
  0.743997,
  0.99134,
  1.14657,
  1.039116,
  1.109179,
  1.117189,
  1.230902,
  0.929529,
  1.14716,
  0.972965,
  1.148993,
  1.17517,
  0.972229,
  0.97429,
  1.124049,
  1.162792,
  1.15922,
  1.328412,
  1.989389,
  0.925528,
  1.096715,
  0.941285,
  1.003132,
  1.150388,
  1.199745,
  0.944633,
  0.944687,
  0.92598,
  0.237574,
  0.91363,
  0.958867,
  1.036198,
  0.928258,
  1.179224,
  1.005641,
  0.904102,
  1.07065,
  1.124548,
  1.163209,
  1.032897,
  1.180695,
  0.97859,
  1.049757,
  0.969209,
  1.135219,
  0.87234,
  0.973417,
  0.261159,
  1.091548,
  1.15582,
  0.939209,
  1.065461,
  1.007344,
  1.035923,
  0.9278,
  0.966209,
  0.879209,
  1.093757,
  0.262103,
  1.016209,
  1.156698,
  1.293319,
  1.323352,
  1.02685,
  1.033364,
  0.968248,
  0.974587,
  1.05029,
  1.031352,
  1.170905,
  1.020251,
  1.052164,
  1.127825,
  0.981107,
  0.971282,
  1.049352,
  1.10168,
  1.087733,
  1.124052,
  1.06745,
  0.967516,
  0.983352,
  1.040179,
  0.935365,
  1.039663,
  1.058181,
  1.085521,
  1.136246,
  1.136845,
  1.171166,
  1.039255,
  1.195905,
  0.995558,
  1.046684,
  0.969,
  0.281772,
  0.897132,
  0.955158,
  1.082352,
  1.184369,
  1.03397,
  1.059447,
  1.094,
  1.105558,
  1.154883,
  1.061435,
  1.002188,
  1.075934,
  0.955508,
  0.960103,
  1.125509,
  1.156573,
  0.281248,
  1.003352,
  1.039215,
  0.952278,
  1.035824,
  1.007602,
  1.009352,
  0.938905,
  0.980128,
  0.907515,
  1.246039,
  1.098384,
  1.121497,
  1.03781,
  0.940213,
  1.144634,
  1.29813,
  1.017746,
  1.021557,
  1.050653,
  1.130334,
  1.137078,
  1.086429,
  1.361045,
  1.062678,
  1.127358,
  1.056826,
  1.043,
  1.034154,
  1.064623,
  1.015999,
  1.1636,
  1.256498,
  1.031242,
  1.12155,
  1.028976,
  1.356202,
  1.041874,
  1.094214,
  0.963082,
  1.038841,
  1.053671,
  1.227429,
  1.107738,
  1.048857,
  1.145856,
  1.068226,
  1.155261,
  0.892793,
  1.15681,
  0.35106,
  1.160629,
  1.208318,
  1.031399,
  1.053943,
  1.125634,
  1.187068,
  1.021953,
  1.08536,
  0.320716,
  1.164145,
  1.192276,
  1.017946,
  1.050542,
  0.922402,
  1.182605,
  1.160758,
  1.12497,
  0.904634,
  0.324672,
  1.060841,
  1.171733,
  1.094668,
  1.115777,
  1.165127,
  1.188527,
  0.245749,
  1.059347,
  0.998379,
  1.132724,
  0.882575,
  1.111,
  1.058888,
  0.978383,
  1.078963,
  1.003721,
  1.109284,
  0.960821,
  1.084924,
  0.933965,
  0.994427,
  1.000237,
  1.069354,
  0.939657,
  1.06204,
  1.082172,
  1.156379,
  1.09291,
  1.208691,
  1.113108,
  0.265644,
  0.971463,
  1.154252,
  0.974092,
  0.985585,
  1.027602,
  1.094821,
  1.130872,
  1.037525,
  0.974,
  0.930617,
  1.144708,
  1.073987,
  0.951896,
  1.025379,
  1.060472,
  0.9986,
  1.100778,
  0.976159,
  1.025507,
  0.243908,
  0.978385,
  0.998392,
  0.95809,
  1.012188,
  0.988987,
  1.136805,
  1.055864,
  1.153403,
  0.211103,
  0.842773,
  0.252318,
  0.973436,
  0.156106,
  0.871487,
  0.249452,
  1.030094,
  0.285243,
  0.941889,
  0.220852,
  0.820805,
  0.840482,
  0.312797,
  0.901533,
  0.313436,
  0.937346,
  0.385325,
  1.063332,
  0.877186,
  0.285466,
  0.834996,
  0.96321,
  0.836987,
  0.263683,
  0.192521,
  0.413206,
  0.866872,
  0.98247,
  0.66991,
  0.331,
  1.053347,
  0.570103,
  0.823248,
  0.342483,
  0.752405,
  0.753267,
  0.829023,
  0.232364,
  0.207103,
  0.87329,
  0.326103,
  0.783459,
  0.711651,
  0.821824,
  0.234206,
  0.867459,
  0.261103,
  0.84815,
  0.307235,
  0.880907,
  0.271103,
  0.813642,
  0.353206,
  0.156007,
  0.323103,
  0.827132,
  0.25397,
  0.85493,
  0.209973,
  0.89042,
  1.044061,
  1.292071,
  0.97005,
  1.090373,
  1.14721,
  1.069389,
  1.091064,
  1.032659,
  1.131325,
  1.150438,
  0.974001,
  1.104602,
  1.107705,
  1.056511,
  1.117571,
  1.183535,
  1.01797,
  1.020612,
  1.020084,
  1.004857,
  1.048739,
  1.462716,
  1.174402,
  1.32076,
  1.126994,
  0.952307,
  0.995432,
  1.033429,
  1.244341,
  1.300619,
  0.999887,
  1.09081,
  1.334031,
  1.088777,
  1.015206,
  1.127216,
  0.970548,
  1.022361,
  1.066354,
  1.072404,
  1.163189,
  1.138314,
  1.080396,
  1.122215,
  0.294472,
  0.990111,
  1.064427,
  1.144986,
  1.203897,
  1.044131,
  1.233806,
  1.129848,
  1.181452,
  1.094182,
  1.124326,
  1.022129,
  0.998237,
  0.958885,
  1.035229,
  1.005119,
  1.113502,
  0.225268,
  1.097975,
  1.061207,
  1.221025,
  1.416457,
  1.072473,
  1.230032,
  1.196246,
  1.203276,
  1.278999,
  0.975596,
  1.187155,
  1.118608,
  1.136493,
  1.257234,
  1.08384,
  1.195833,
  1.198416,
  1.082945,
  1.154228,
  1.062866,
  1.080538,
  1.274473,
  1.109467,
  1.607472,
  1.081564,
  1.147467,
  1.323445,
  2.713101,
  1.157178,
  1.375945,
  1.29831,
  1.251033,
  1.168542,
  1.11295,
  1.103067,
  1.075,
  1.194883,
  1.15109,
  1.106196,
  1.079945,
  1.158885,
  1.216584,
  1.247,
  1.106224,
  1.123277,
  1.184154,
  1.245821,
  0.302224,
  1.208945,
  1.324364,
  1.089945,
  1.106427,
  1.104945,
  1.199472,
  1.217945,
  1.234472,
  1.099472,
  1.104175,
  1.176055,
  1.088965,
  1.166472,
  1.347945,
  1.140609,
  1.16644,
  1.029776,
  1.144754,
  0.955985,
  0.334015,
  0.989933,
  1.138125,
  1.399,
  1.043366,
  1.229754,
  1.073101,
  1.221754,
  1.11094,
  1.066546,
  1.277,
  1.056743,
  1.351841,
  1.056921,
  1.630542,
  1.069105,
  1.324481,
  1.197165,
  0.982863,
  1.196754,
  1.050114,
  1.281853,
  1.045881,
  0.98666,
  1.886754,
  1.030377,
  1.404,
  1.44,
  0.971735,
  1.111,
  1.039022,
  1.133754,
  1.165996,
  1.231,
  1.032728,
  1.040045,
  1.349754,
  0.337021,
  0.86445,
  1.142609,
  1.155929,
  1.307754,
  1.086686,
  1.356327,
  0.993256,
  1.24392,
  1.263084,
  1.319,
  1.001493,
  1.223,
  1.154634,
  1.26908,
  1.150754,
  1.156634,
  1.182576,
  1.314754,
  1.050758,
  1.354965,
  1.155753,
  1.249754,
  1.059104,
  1.178434,
  1.261925,
  1.017637,
  1.010504,
  1.035909,
  1.139613,
  1.165634,
  1.154518,
  1.168689,
  1.174848,
  1.177793,
  1.206105,
  1.077712,
  1.206998,
  0.973758,
  1.131463,
  1.144709,
  1.001642,
  1.145711,
  1.152226,
  1.04538,
  1.166116,
  1.279045,
  1.018869,
  1.145135,
  1.154961,
  1.27131,
  1.064827,
  1.176944,
  0.975562,
  1.198702,
  1.098855,
  1.039,
  1.09478,
  1.044066,
  1.205567,
  1.043933,
  1.04624,
  1.046336,
  1.067139,
  0.221032,
  1.03362,
  1.142677,
  1.045515,
  1.063372,
  1.013933,
  1.137734,
  1.142367,
  1.167634,
  1.165743,
  1.186832,
  1.015068,
  1.108964,
  0.222615,
  1.02889,
  1.057833,
  1.007134,
  1.577754,
  1.264428,
  0.938711,
  1.157113,
  1.013974,
  1.158598,
  1.737562,
  1.090352,
  1.237497,
  1.030598,
  1.098402,
  1.296317,
  0.994352,
  1.166754,
  1.08614,
  1.227237,
  1.094769,
  0.974352,
  1.137282,
  0.962296,
  1.46855,
  0.968864,
  1.122031,
  1.298754,
  1.077912,
  0.947578,
  1.262598,
  0.983223,
  1.164754,
  1.091284,
  1.109402,
  1.172402,
  0.999723,
  1.140126,
  0.966,
  1.068166,
  0.332545,
  1.049,
  1.100402,
  1.062352,
  1.122754,
  1.180165,
  1.212494,
  1.104352,
  1.193754,
  0.335402,
  1.026765,
  1.181657,
  1.020186,
  1.090754,
  1.01923,
  1.072655,
  1.153791,
  1.087287,
  0.995455,
  1.111414,
  0.984103,
  1.143754,
  0.598255,
  1.350222,
  0.473204,
  0.362316,
  0.477392,
  0.374111,
  0.442408,
  0.394079,
  0.435011,
  0.482829,
  0.603302,
  0.895926,
  0.394593,
  0.417273,
  0.317391,
  0.531111,
  0.567704,
  0.418698,
  0.388,
  0.370413,
  0.438711,
  0.403276,
  0.370503,
  0.276005,
  0.283111,
  0.364433,
  0.368111,
  0.382539,
  0.067438,
  0.408069,
  0.324448,
  0.36354,
  0.424427,
  0.4211,
  0.428413,
  0.308111,
  0.438494,
  0.360991,
  0.370211,
  0.398111,
  0.453909,
  0.419656,
  0.389621,
  0.413354,
  0.472007,
  0.513957,
  0.351619,
  0.362701,
  0.439265,
  0.558107,
  0.081331,
  0.341855,
  0.472111,
  0.454877,
  0.562679,
  0.360436,
  0.482553,
  0.336948,
  0.361056,
  1.020352,
  1.040549,
  0.282212,
  0.972464,
  0.984,
  0.996803,
  1.144166,
  1.346747,
  1.059059,
  1.124537,
  0.954977,
  1.123352,
  1.140549,
  1.011788,
  1.544581,
  1.36839,
  1.034094,
  1.038243,
  2.148812,
  1.007781,
  1.016745,
  1.000002,
  1.281631,
  1.261639,
  1.301625,
  1.066,
  0.283,
  1.019352,
  1.381549,
  1.043697,
  1.037452,
  1.028029,
  1.221935,
  1.091352,
  1.141927,
  1.064266,
  1.235212,
  1.11103,
  1.083774,
  1.218803,
  1.188352,
  1.162775,
  0.97587,
  0.973503,
  1.027966,
  0.965908,
  0.998019,
  1.01,
  1.027352,
  1.029173,
  0.294197,
  1.148463,
  1.24245,
  1.105579,
  1.159989,
  0.957352,
  0.974941,
  0.983352,
  1.013896,
  1.106352,
  1.138272,
  0.28273,
  0.952469,
  1.018843,
  0.616098,
  0.73841,
  0.175891,
  0.278375,
  0.257236,
  0.401748,
  0.403765,
  0.601417,
  0.174103,
  0.62082,
  0.330713,
  0.567379,
  0.473555,
  0.429176,
  0.223275,
  0.323116,
  0.274185,
  0.329079,
  0.335699,
  0.528103,
  0.62508,
  0.381174,
  0.310746,
  0.587146,
  0.579558,
  0.50693,
  0.423385,
  0.451089,
  0.647462,
  0.350635,
  0.240874,
  0.498866,
  0.238013,
  0.227103,
  0.273024,
  0.060311,
  0.358103,
  0.440121,
  0.32541,
  0.190312,
  0.357986,
  0.256181,
  0.220295,
  0.276204,
  0.37341,
  0.394663,
  0.249603,
  0.332566,
  0.343775,
  0.173319,
  0.056196,
  0.221023,
  0.275872,
  0.201831,
  0.347626,
  0.34882,
  0.226939,
  0.223821,
  0.305823,
  0.243103,
  0.263902,
  0.322909,
  0.777753,
  0.33888,
  0.825553,
  0.279899,
  0.325977,
  0.057152,
  0.848697,
  0.440403,
  0.8342,
  0.944297,
  0.313143,
  0.390731,
  0.369422,
  0.908221,
  0.858155,
  0.904,
  0.413155,
  0.350403,
  0.81673,
  0.854076,
  0.378348,
  0.860084,
  0.832399,
  0.858579,
  0.329465,
  0.827124,
  0.420896,
  0.34327,
  0.270236,
  0.309816,
  0.928961,
  0.348278,
  0.832753,
  0.358922,
  0.28672,
  0.795696,
  0.728099,
  0.850538,
  0.054903,
  0.247631,
  0.821086,
  0.280284,
  0.859141,
  0.468667,
  0.723827,
  0.309403,
  0.713624,
  0.305096,
  0.812776,
  0.338252,
  0.824834,
  0.156395,
  0.584881,
  0.849583,
  0.392893,
  0.830434,
  0.286195,
  0.851276,
  0.268975,
  0.756787,
  0.310964,
  0.392436,
  0.060394,
  0.442989,
  0.349875,
  0.376526,
  0.333143,
  0.319325,
  0.544788,
  0.363968,
  0.339196,
  0.542004,
  0.363,
  0.590892,
  0.325409,
  0.434729,
  0.519675,
  0.283486,
  0.35698,
  0.500547,
  0.297111,
  0.311017,
  0.435619,
  0.306449,
  0.419177,
  0.461672,
  0.492196,
  0.519539,
  0.271715,
  0.353797,
  0.640383,
  0.535652,
  0.453111,
  0.460643,
  0.369449,
  0.33761,
  0.319692,
  0.266556,
  0.362052,
  0.328771,
  0.340459,
  0.061099,
  0.345499,
  0.398111,
  0.287921,
  0.362864,
  0.346956,
  0.353266,
  0.338111,
  0.361694,
  0.294111,
  0.333577,
  0.346994,
  0.387593,
  0.506111,
  0.475304,
  0.060188,
  0.283477,
  0.389111,
  0.319175,
  0.321474,
  0.477015,
  0.710526,
  0.499585,
  0.789655,
  0.811791,
  0.87354,
  0.364912,
  0.794108,
  0.39323,
  0.581107,
  0.77909,
  0.429216,
  0.858049,
  0.161604,
  0.377404,
  0.868988,
  1.449,
  0.834667,
  0.511313,
  0.840188,
  0.399696,
  0.931193,
  0.388963,
  0.398111,
  0.852119,
  0.570178,
  0.90391,
  0.483,
  0.402766,
  0.637111,
  0.765018,
  0.386061,
  0.755985,
  0.810996,
  0.810517,
  0.38608,
  0.776978,
  0.811326,
  0.379222,
  0.759868,
  0.387986,
  0.40468,
  0.379048,
  0.867045,
  0.416222,
  0.715949,
  0.843794,
  0.628111,
  0.712752,
  0.066222,
  0.47278,
  0.704371,
  0.409111,
  0.80426,
  0.513755,
  0.341111,
  0.699073,
  0.746262,
  0.775222,
  0.686278,
  0.840437,
  0.956119,
  0.976612,
  0.89164,
  3.828881,
  0.957382,
  1.308835,
  1.238561,
  0.296564,
  0.979048,
  1.109119,
  1.027537,
  0.862398,
  0.955103,
  1.044814,
  0.97867,
  0.832732,
  0.849107,
  1.0985,
  0.861299,
  1.043904,
  1.128695,
  0.869348,
  1.516119,
  0.983905,
  0.973337,
  0.95148,
  0.973522,
  0.896739,
  1.057732,
  0.940295,
  1.242763,
  0.863501,
  0.855955,
  0.894784,
  1.038877,
  1.019931,
  0.991795,
  0.858382,
  0.297628,
  0.886501,
  1.024269,
  1.015966,
  1.114796,
  1.054612,
  1.074067,
  1.105897,
  1.101002,
  0.880501,
  1.094795,
  0.259291,
  0.863279,
  1.013998,
  0.897501,
  0.957185,
  0.932389,
  1.090119,
  1.002399,
  1.193236,
  0.912501,
  1.025814,
  0.336308,
  0.520103,
  0.44778,
  0.269346,
  0.365551,
  0.250128,
  0.432701,
  0.356781,
  0.344701,
  0.628802,
  0.3351,
  0.485011,
  0.306499,
  0.292103,
  0.412772,
  0.572103,
  0.566555,
  0.645563,
  0.36224,
  0.548103,
  0.233045,
  0.251198,
  0.338294,
  0.239464,
  0.252473,
  0.379796,
  0.416802,
  0.055593,
  0.236154,
  0.516578,
  0.269252,
  0.328301,
  0.35821,
  0.39545,
  0.360201,
  0.327604,
  0.332702,
  0.316798,
  0.395802,
  0.293014,
  0.384141,
  0.225103,
  0.366178,
  0.296501,
  0.302612,
  0.338014,
  0.45836,
  0.418336,
  0.354103,
  0.380343,
  0.31699,
  0.321103,
  0.241908,
  0.299604,
  0.053604,
  0.30666,
  0.369116,
  0.264954,
  0.271103,
  0.418642,
  0.979365,
  1.104546,
  0.277657,
  1.070807,
  0.961528,
  0.868934,
  0.908572,
  1.301367,
  0.954519,
  1.280561,
  1.064025,
  0.952731,
  0.95517,
  0.940966,
  0.965842,
  1.111362,
  0.937132,
  0.972042,
  1.007033,
  1.057,
  0.97972,
  0.883215,
  1.058396,
  1.373939,
  1.001061,
  0.986346,
  1.219783,
  1.036449,
  1.264934,
  0.956693,
  1.385251,
  0.852561,
  0.990452,
  0.921695,
  0.914,
  0.928,
  0.851837,
  1.00767,
  0.969266,
  0.92242,
  0.796153,
  0.944884,
  1.032519,
  0.93362,
  1.050597,
  1.155607,
  0.253404,
  1.077725,
  1.058,
  0.981561,
  1.053491,
  1.049141,
  1.068,
  0.963617,
  0.966568,
  0.935519,
  0.804111,
  0.944149,
  1.028847,
  0.279782,
  0.909176,
  1.067,
  0.986352,
  1.680578,
  0.962121,
  0.944368,
  1.035677,
  1.140128,
  1.224951,
  0.954578,
  1.005455,
  1.051744,
  1.40512,
  1.345377,
  1.49438,
  0.841305,
  0.938566,
  0.900754,
  1.007897,
  0.842024,
  0.844578,
  1.361352,
  0.911194,
  1.227,
  0.952578,
  0.954578,
  1.055352,
  1.210352,
  1.310226,
  0.844226,
  0.864445,
  1.292914,
  0.912578,
  1.015352,
  1.012,
  1.023226,
  1.109,
  0.920385,
  1.124841,
  0.919,
  1.036,
  0.262,
  0.977578,
  0.980352,
  1.236,
  0.955821,
  1.015578,
  1.236352,
  0.972578,
  1.065,
  0.282,
  0.817978,
  0.970455,
  0.895578,
  0.990712,
  0.873853,
  1.0151,
  1.077578,
  1.137707,
  0.895578,
  1.047352,
  0.351784,
  0.699576,
  0.282898,
  0.468465,
  0.735435,
  0.577068,
  0.659148,
  0.308,
  0.386784,
  0.761989,
  0.215647,
  0.394865,
  0.211368,
  0.244632,
  0.409784,
  0.850453,
  0.354037,
  0.824564,
  0.262374,
  0.206,
  0.186835,
  0.760481,
  0.219948,
  0.73972,
  1.386068,
  0.19841,
  0.753967,
  0.738894,
  0.281,
  0.751055,
  0.244,
  0.205784,
  0.760716,
  0.548,
  0.707171,
  0.214035,
  0.804195,
  0.343682,
  0.145715,
  0.641784,
  0.697592,
  0.378068,
  0.738065,
  0.221411,
  0.722636,
  0.177784,
  0.749716,
  0.764049,
  0.214706,
  0.315784,
  0.145284,
  0.149007,
  0.788904,
  0.29639,
  0.815493,
  0.334,
  0.763047,
  0.361784,
  0.596982,
  0.472129,
  0.63868,
  1.090243,
  1.262935,
  0.342583,
  1.033423,
  1.000089,
  1.186672,
  0.964,
  1.133807,
  1.125,
  1.063455,
  1.260935,
  0.974864,
  1.013505,
  1.513583,
  0.976417,
  0.966753,
  1.193935,
  1.013363,
  1.091946,
  1.311114,
  1.022352,
  1.185843,
  1.115174,
  1.318832,
  0.988352,
  1.140935,
  1.145352,
  1.256935,
  1.230417,
  1.007417,
  1.153583,
  0.9746,
  0.965765,
  1.580048,
  1.290798,
  1.321,
  1.108326,
  1.096518,
  1.257385,
  1.024352,
  1.273935,
  1.216935,
  1.319352,
  0.965903,
  1.150583,
  0.282811,
  0.989802,
  1.202935,
  0.960293,
  1.097,
  1.146646,
  1.288935,
  1.007255,
  1.132935,
  0.999257,
  1.195935,
  1.126527,
  1.153935,
  1.080352,
  1.270022,
  0.96661,
  1.195935,
  1.043352,
  1.208931,
  0.283016,
  0.875656,
  1.15198,
  1.11128,
  0.988468,
  1.31646,
  1.249954,
  1.186815,
  0.923178,
  0.887506,
  1.13998,
  0.8961,
  1.161731,
  0.898948,
  0.966285,
  1.54798,
  0.96253,
  1.252341,
  1.16789,
  0.975135,
  1.209206,
  1.33098,
  0.877386,
  1.027105,
  1.287101,
  1.88605,
  0.932875,
  1.46198,
  1.12849,
  1.185169,
  1.018258,
  1.142958,
  1.147474,
  1.161815,
  1.058024,
  0.914019,
  0.323642,
  0.899558,
  1.11598,
  1.016987,
  1.126903,
  1.123427,
  1.232,
  1.141572,
  0.901811,
  0.954973,
  1.15098,
  0.922406,
  1.122594,
  1.155979,
  1.023646,
  1.217097,
  1.10298,
  1.027899,
  0.840925,
  1.155001,
  0.894167,
  1.142154,
  0.321911,
  0.959942,
  1.203125,
  0.892095,
  1.0905,
  1.00256,
  1.129065,
  0.905091,
  1.417346,
  0.913029,
  1.03309,
  1.611683,
  0.901929,
  0.278376,
  0.980866,
  1.118598,
  0.902708,
  0.984012,
  1.323323,
  0.958351,
  0.923787,
  0.896948,
  0.917481,
  1.086554,
  1.008376,
  1.086061,
  1.171551,
  1.390761,
  1.122,
  1.252583,
  1.126278,
  1.203972,
  0.918425,
  1.109554,
  0.893784,
  0.92392,
  0.993061,
  1.029386,
  0.928,
  1.06949,
  1.295574,
  1.294199,
  0.917672,
  0.969376,
  0.974866,
  0.253864,
  1.016205,
  1.030376,
  0.878557,
  0.904286,
  0.938984,
  1.07756,
  1.202706,
  1.22809,
  1.077793,
  1.13156,
  0.936121,
  1.199284,
  0.914225,
  0.943662,
  0.91407,
  0.966866,
  1.03061,
  1.063376,
  1.061866,
  1.117376,
  1.073376,
  1.083135,
  0.894599,
  0.934967,
  0.974866,
  0.90389,
  1.291871,
  1.134636,
  1.01754,
  1.696476,
  0.932472,
  1.251657,
  1.062805,
  1.102,
  0.737758,
  2.453207,
  0.677457,
  0.786467,
  1.214657,
  1.046001,
  1.098309,
  0.961732,
  1.417795,
  1.058098,
  1.085616,
  1.211502,
  0.960967,
  0.968657,
  1.140331,
  0.965779,
  0.935978,
  1.122029,
  0.965398,
  1.025657,
  0.962923,
  0.976302,
  1.171035,
  0.738845,
  0.943853,
  0.861652,
  0.997959,
  1.048565,
  1.067755,
  0.932892,
  0.953657,
  0.967188,
  1.033657,
  0.163308,
  0.929496,
  0.938783,
  0.730304,
  1.084657,
  0.871571,
  1.043657,
  0.793189,
  1.007755,
  0.940168,
  0.960746,
  0.971678,
  1.017657,
  1.031617,
  1.293141,
  1.095276,
  1.267377,
  2.821299,
  1.330682,
  1.022194,
  1.112338,
  1.395681,
  1.206083,
  1.205001,
  1.622119,
  1.163,
  0.965892,
  1.149564,
  1.340561,
  1.120325,
  1.272216,
  1.197078,
  2.276343,
  1.216291,
  1.284028,
  1.166894,
  1.266628,
  1.218081,
  1.184877,
  1.295119,
  1.315477,
  1.203007,
  1.211603,
  1.005295,
  1.035119,
  1.293359,
  1.073775,
  1.167363,
  1.271275,
  1.345491,
  1.355868,
  0.305076,
  1.024128,
  1.27482,
  1.104017,
  1.333953,
  1.038707,
  1.231032,
  1.041612,
  1.295632,
  1.079634,
  1.275146,
  1.152723,
  1.31349,
  1.089187,
  1.320135,
  1.030119,
  1.185801,
  1.250188,
  1.26521,
  1.258714,
  1.310119,
  0.306015,
  1.052119,
  1.274307,
  0.548601,
  0.799814,
  0.939161,
  0.931217,
  0.940726,
  0.724344,
  0.343233,
  0.862582,
  0.835556,
  0.33023,
  0.946446,
  0.342647,
  0.956476,
  0.383505,
  0.69302,
  0.383732,
  0.300045,
  0.760716,
  0.333594,
  0.908665,
  0.60736,
  0.8513,
  0.89161,
  0.478562,
  0.276847,
  0.81478,
  0.066222,
  0.596721,
  0.40125,
  0.388822,
  0.399447,
  0.712825,
  0.339176,
  0.323435,
  0.465669,
  0.68993,
  0.32089,
  0.339787,
  0.275584,
  0.766438,
  0.82535,
  0.270096,
  0.819938,
  0.459009,
  0.832957,
  0.154248,
  0.358111,
  0.825918,
  0.291843,
  0.763897,
  0.337529,
  0.79568,
  0.313857,
  0.835115,
  0.066222,
  0.271901,
  0.82218,
  1.037327,
  1.303155,
  0.827016,
  1.271437,
  0.783898,
  0.994731,
  2.160217,
  0.767426,
  1.258629,
  0.840367,
  0.687336,
  0.753502,
  1.480498,
  1.317703,
  0.89426,
  1.356904,
  1.277,
  1.369918,
  0.92043,
  1.402505,
  0.207296,
  0.782334,
  0.887999,
  1.321751,
  1.434439,
  0.755567,
  1.202728,
  1.080575,
  1.578,
  1.310312,
  1.318217,
  1.145431,
  0.930208,
  1.40991,
  1.375035,
  1.348,
  0.798485,
  1.082478,
  1.409813,
  0.815637,
  1.361505,
  0.833007,
  1.330961,
  0.951111,
  1.240537,
  0.690208,
  1.352879,
  0.83628,
  1.322778,
  0.803208,
  1.344491,
  0.808181,
  1.332804,
  0.924353,
  1.101398,
  0.770213,
  1.359297,
  0.209,
  0.806114,
  1.397896,
  0.282223,
  0.673975,
  0.352298,
  0.454683,
  0.294165,
  0.306655,
  0.289068,
  0.290388,
  0.309446,
  0.394524,
  0.378333,
  0.641247,
  0.56877,
  0.406223,
  0.506375,
  0.38209,
  0.562004,
  0.703718,
  0.513156,
  0.55183,
  0.29682,
  0.324805,
  0.270517,
  0.308179,
  0.637223,
  0.685223,
  0.383586,
  0.357165,
  0.336251,
  0.489223,
  0.295559,
  0.375393,
  0.329692,
  0.341175,
  0.307,
  0.272223,
  0.305403,
  0.474403,
  0.345746,
  0.269026,
  0.321088,
  0.289816,
  0.265609,
  0.048567,
  0.396833,
  0.510648,
  0.445223,
  0.515273,
  0.284223,
  0.315531,
  0.296223,
  0.410739,
  0.412047,
  0.482732,
  0.301223,
  0.318991,
  0.412223,
  0.432806,
  0.268763,
  0.760432,
  0.774541,
  0.771131,
  0.261345,
  0.28625,
  0.830216,
  0.599012,
  0.764965,
  0.767457,
  0.779459,
  0.311856,
  0.048526,
  0.392564,
  0.378369,
  0.85191,
  0.245015,
  0.914336,
  0.367763,
  0.856233,
  0.268841,
  0.763777,
  0.772902,
  0.784165,
  0.254963,
  0.296327,
  0.762432,
  0.740014,
  0.808093,
  0.408093,
  0.254361,
  0.481379,
  0.711724,
  0.760259,
  0.580132,
  0.765452,
  0.272614,
  0.755716,
  0.778429,
  0.772502,
  0.53094,
  0.650916,
  0.768367,
  0.26141,
  0.049289,
  0.253517,
  0.795256,
  0.490191,
  0.823905,
  0.307526,
  0.713024,
  0.425561,
  0.698545,
  0.514763,
  0.781901,
  0.281908,
  0.699812,
  0.246103,
  0.321457,
  0.238421,
  0.372404,
  0.232222,
  0.627064,
  0.437,
  0.459502,
  0.438454,
  0.298819,
  0.330216,
  0.256156,
  0.562113,
  0.690618,
  0.338402,
  0.251495,
  0.055852,
  0.278103,
  0.200744,
  0.315476,
  0.542895,
  0.257456,
  0.366778,
  0.543709,
  0.574318,
  0.319544,
  0.297211,
  0.254206,
  0.320484,
  0.482206,
  0.540828,
  0.438305,
  0.297972,
  0.306759,
  0.318789,
  0.331893,
  0.350216,
  0.261591,
  0.318162,
  0.33063,
  0.350715,
  0.419608,
  0.278876,
  0.316719,
  0.37776,
  0.433626,
  0.278082,
  0.306994,
  0.331098,
  0.454837,
  0.039098,
  0.232869,
  0.319238,
  0.337326,
  0.437216,
  0.200506,
  0.314834,
  0.310261,
  0.343382,
  0.272506,
  0.284601,
  0.291711,
  0.279915,
  0.055587,
  0.22757,
  0.642476,
  2.279502,
  0.232371,
  0.266694,
  0.285103,
  0.622103,
  0.217429,
  0.252078,
  0.257188,
  0.20814,
  0.201044,
  0.709768,
  0.256594,
  0.332103,
  0.26126,
  0.26826,
  0.326646,
  0.245206,
  0.399313,
  0.245897,
  0.348103,
  0.277121,
  0.362626,
  0.247982,
  0.407309,
  0.466669,
  0.601103,
  0.650395,
  0.319015,
  0.231115,
  0.212248,
  0.197103,
  0.244206,
  0.220023,
  0.277556,
  0.165468,
  0.422963,
  0.252281,
  0.327,
  0.299101,
  0.381757,
  0.232103,
  0.287103,
  0.03968,
  0.366103,
  0.427154,
  0.26294,
  0.368006,
  0.336103,
  0.424485,
  0.329472,
  0.371991,
  0.263225,
  0.270738,
  0.228524,
  0.271103,
  0.36838,
  0.36091,
  0.040206,
  0.279103,
  0.763561,
  1.186021,
  0.278876,
  0.272605,
  1.282117,
  0.39685,
  0.235223,
  0.797293,
  0.608567,
  0.768793,
  0.263,
  0.317,
  0.339,
  0.754469,
  0.304103,
  0.918958,
  0.567629,
  0.807738,
  0.570894,
  0.24181,
  0.764248,
  0.384,
  0.940119,
  0.278735,
  0.774928,
  0.609103,
  0.824232,
  0.427,
  0.540242,
  0.042871,
  0.835,
  0.638,
  0.307309,
  0.699722,
  0.798398,
  0.289434,
  0.363613,
  0.430103,
  0.667576,
  0.313103,
  0.734455,
  0.356309,
  0.489206,
  0.765991,
  0.640103,
  0.7191,
  0.484103,
  0.353103,
  0.746161,
  0.78004,
  0.80767,
  0.259855,
  0.156232,
  0.395587,
  0.367817,
  0.331103,
  0.947063,
  1.191042,
  1.397566,
  1.041737,
  0.990018,
  1.04914,
  1.230399,
  1.267732,
  1.358322,
  1.329886,
  1.049767,
  1.107524,
  1.184846,
  0.239516,
  1.389496,
  1.303507,
  1.278132,
  1.047291,
  1.04452,
  1.841632,
  1.015297,
  1.033906,
  1.152063,
  0.95613,
  1.154577,
  1.119008,
  1.258781,
  1.023552,
  1.212315,
  1.555067,
  1.032044,
  1.08865,
  1.158581,
  1.135228,
  1.164384,
  0.982982,
  1.154442,
  1.229307,
  1.048053,
  1.164926,
  0.306934,
  1.10923,
  1.325469,
  1.187692,
  1.329059,
  0.894928,
  1.234123,
  0.89719,
  1.337448,
  1.16619,
  1.25494,
  1.053505,
  1.178336,
  1.019594,
  1.238525,
  1.055613,
  1.202507,
  0.237308,
  1.176571,
  1.191392,
  1.11146,
  1.146423,
  1.104162,
  1.243847,
  0.554531,
  0.606103,
  0.418273,
  0.26883,
  0.30513,
  0.699,
  0.523313,
  1.628938,
  0.372403,
  0.542103,
  0.257195,
  0.674156,
  0.290544,
  0.286886,
  0.308103,
  0.68214,
  0.274052,
  0.314588,
  0.420275,
  0.616208,
  1.172791,
  0.262198,
  0.278757,
  0.36,
  0.328,
  0.644103,
  0.859002,
  0.255,
  0.39584,
  0.378874,
  0.957186,
  0.348103,
  0.448366,
  0.498,
  0.314,
  0.337026,
  0.040728,
  0.399185,
  0.574629,
  0.453103,
  0.46732,
  0.41493,
  0.539103,
  0.306403,
  0.403103,
  0.316727,
  0.417,
  0.340403,
  0.544103,
  0.422193,
  0.453103,
  0.282103,
  0.306047,
  0.042,
  0.256247,
  0.291,
  0.282151,
  0.32732,
  0.377877,
  0.482,
  0.292521,
  0.530103,
  0.175636,
  0.251452,
  0.20187,
  0.347449,
  0.516944,
  0.34391,
  0.252198,
  0.320656,
  0.222954,
  0.248806,
  0.230917,
  0.813745,
  0.238947,
  0.430695,
  0.265077,
  0.276049,
  0.390533,
  0.603679,
  0.566878,
  0.349104,
  0.574103,
  0.317706,
  0.559691,
  0.251068,
  0.278403,
  0.352848,
  1.162481,
  1.004332,
  0.314179,
  0.373829,
  0.635188,
  0.268715,
  0.350515,
  0.307503,
  0.326648,
  0.243793,
  0.298695,
  0.283855,
  0.23205,
  0.322292,
  0.055906,
  0.348346,
  0.441503,
  0.387281,
  0.395209,
  0.238712,
  0.311993,
  0.300403,
  0.368792,
  0.258537,
  0.288017,
  0.177309,
  0.287129,
  0.238243,
  0.334403,
  0.038206,
  0.175976,
  0.303731,
  0.161103,
  0.348202,
  0.476091,
  0.803193,
  0.236922,
  0.469314,
  0.352493,
  0.30151,
  0.826334,
  0.061,
  0.268,
  0.336544,
  0.835334,
  0.843282,
  0.909519,
  0.489381,
  0.492903,
  1.047642,
  0.408663,
  0.952624,
  0.849184,
  0.856137,
  0.407903,
  1.010986,
  0.752567,
  1.172186,
  0.807268,
  0.236411,
  0.827093,
  0.819982,
  0.368795,
  0.890781,
  0.305646,
  0.352806,
  0.834338,
  0.345,
  0.76991,
  0.72321,
  0.784221,
  0.613749,
  0.677474,
  0.452903,
  0.64356,
  0.354719,
  0.243737,
  0.490909,
  0.769873,
  0.414957,
  0.419903,
  0.384903,
  0.844763,
  0.758367,
  0.356903,
  0.403066,
  0.061769,
  0.848468,
  0.449903,
  0.249186,
  0.679623,
  0.059806,
  0.387193,
  0.310642,
  0.581129,
  0.358252,
  0.391512,
  0.229681,
  0.294086,
  0.294101,
  0.413723,
  0.310965,
  0.633487,
  0.573736,
  0.649636,
  0.344455,
  0.322903,
  0.339111,
  0.525203,
  0.309,
  0.226587,
  0.389573,
  0.348643,
  0.367111,
  0.628622,
  0.526208,
  0.587059,
  0.372923,
  0.596982,
  0.396009,
  0.270368,
  0.311903,
  0.287,
  0.251479,
  0.284845,
  0.402053,
  0.248397,
  0.397103,
  0.061129,
  0.258903,
  0.363111,
  0.292903,
  0.333111,
  0.490477,
  0.529233,
  0.417903,
  0.518111,
  0.286903,
  0.431391,
  0.34318,
  0.369111,
  0.368111,
  0.487903,
  0.069208,
  0.410903,
  0.469111,
  0.342903,
  0.380111,
  0.266757,
  0.399111,
  0.304582,
  0.352484,
  0.290612,
  0.608805,
  0.333418,
  0.307304,
  0.408112,
  0.397729,
  0.312612,
  0.329931,
  0.288655,
  0.336796,
  0.521796,
  0.653321,
  0.320366,
  0.337579,
  0.263612,
  0.344101,
  0.39495,
  0.464612,
  0.630695,
  0.274073,
  0.320452,
  0.337049,
  0.452434,
  0.058818,
  0.268842,
  0.297821,
  0.31742,
  0.413697,
  0.464682,
  0.777048,
  0.275243,
  0.339609,
  0.346151,
  0.316113,
  0.31353,
  0.32957,
  0.408612,
  0.411902,
  0.364925,
  0.265593,
  0.26073,
  0.343117,
  0.404402,
  0.490552,
  0.315818,
  0.331763,
  0.411612,
  0.446188,
  0.313682,
  0.327934,
  0.32038,
  0.304092,
  0.379409,
  0.383807,
  0.446066,
  0.46152,
  0.052203,
  0.357559,
  0.359717,
  0.382612,
  0.383796,
  0.213496,
  0.294103,
  0.69196,
  0.41029,
  0.426278,
  0.308801,
  0.33,
  0.225103,
  0.54005,
  0.040698,
  0.229654,
  0.284073,
  0.767012,
  0.281988,
  0.24973,
  0.413137,
  0.43342,
  0.214936,
  0.237136,
  0.240641,
  0.218184,
  0.305149,
  0.3659,
  0.236714,
  0.261943,
  0.205206,
  0.420103,
  0.339107,
  0.541,
  0.238,
  0.357206,
  0.37296,
  0.264441,
  0.244621,
  0.242663,
  0.302093,
  0.042177,
  0.297,
  0.226992,
  0.293103,
  0.306897,
  0.372217,
  0.282357,
  0.312103,
  0.26798,
  0.269243,
  0.214124,
  0.234103,
  0.245593,
  0.321,
  0.360154,
  0.343,
  0.039,
  0.366159,
  0.367584,
  0.349538,
  0.41918,
  0.362603,
  0.378917,
  0.227103,
  0.239469,
  0.257103,
  0.377688,
  0.220181,
  0.303636,
  0.444817,
  0.498753,
  0.681513,
  0.328567,
  0.237982,
  0.565103,
  0.244584,
  0.287436,
  0.320649,
  0.174492,
  0.288103,
  0.296863,
  0.241724,
  0.336217,
  0.211815,
  0.380299,
  0.198973,
  0.295103,
  0.168262,
  0.229181,
  0.279234,
  0.28354,
  0.381106,
  0.375,
  0.230501,
  0.221181,
  0.280465,
  0.291106,
  0.555103,
  0.286436,
  0.377136,
  0.285897,
  0.281181,
  0.320003,
  0.039181,
  0.20685,
  0.229515,
  0.333258,
  0.236718,
  0.272103,
  0.322,
  0.373986,
  0.372,
  0.241877,
  0.30985,
  0.171912,
  0.338461,
  0.346103,
  0.382571,
  0.369321,
  0.039749,
  0.349103,
  0.257256,
  0.273103,
  0.27038,
  0.215922,
  0.266103,
  0.377057,
  0.540206,
  0.239148,
  0.422654,
  0.463939,
  0.482835,
  0.279627,
  0.385103,
  0.419449,
  0.277215,
  0.290346,
  1.057018,
  0.261638,
  0.27,
  0.286623,
  0.291449,
  0.525214,
  0.393225,
  0.281507,
  0.254103,
  0.291993,
  0.252654,
  0.401924,
  0.273103,
  0.283103,
  0.298237,
  0.313271,
  0.347792,
  0.445944,
  0.241364,
  0.254087,
  0.291645,
  0.419137,
  0.344811,
  0.303398,
  0.3361,
  0.300065,
  0.239,
  0.415057,
  0.431412,
  0.275654,
  0.301475,
  0.315051,
  0.411905,
  0.413201,
  0.226103,
  0.307449,
  0.045898,
  0.381363,
  0.407111,
  0.417103,
  0.452262,
  0.373103,
  0.414449,
  0.333711,
  0.25091,
  0.236879,
  0.24558,
  0.336449,
  0.278124,
  1.310356,
  1.366874,
  0.278154,
  1.173518,
  1.214,
  1.02045,
  1.092,
  0.853883,
  1.045056,
  0.940334,
  1.011482,
  1.159,
  0.877279,
  0.913896,
  1.136825,
  1.130874,
  1.256199,
  0.959636,
  1.032,
  0.886356,
  1.064874,
  0.982,
  1.040482,
  0.970724,
  1.104,
  0.863562,
  0.900356,
  1.162874,
  1.486874,
  1.061,
  1.196,
  0.92558,
  0.977356,
  1.017523,
  1.046467,
  0.910482,
  1.045884,
  0.962874,
  0.992563,
  0.277078,
  1.084218,
  1.157568,
  1.057827,
  1.106874,
  1.090356,
  1.13521,
  0.997163,
  1.119,
  0.277,
  0.981356,
  1.057,
  1.028874,
  0.969818,
  1.188202,
  1.065362,
  0.975982,
  1.014874,
  0.90617,
  1.031874,
  1.001835,
  0.889223,
  0.260036,
  0.31012,
  0.230026,
  0.169389,
  0.221645,
  0.34,
  0.221,
  0.167057,
  0.231929,
  0.23943,
  0.307289,
  0.229944,
  0.308832,
  0.314924,
  0.512662,
  0.522966,
  0.243243,
  0.16812,
  0.364535,
  0.018424,
  0.280092,
  0.143212,
  0.17972,
  0.316268,
  0.34745,
  0.211994,
  0.311844,
  0.360135,
  0.354106,
  0.143337,
  0.193908,
  0.227118,
  0.25908,
  0.226741,
  0.265514,
  0.345414,
  0.428023,
  0.187421,
  0.153585,
  0.207492,
  0.174102,
  0.198212,
  0.226714,
  0.237921,
  0.28619,
  0.33712,
  0.214,
  0.254329,
  0.159212,
  0.188263,
  0.131782,
  0.221862,
  0.157465,
  0.272373,
  0.331212,
  0.347,
  0.308005,
  0.018424,
  0.245292,
  0.294115,
  0.20245,
  0.278358,
  0.298103,
  0.822614,
  0.889879,
  0.800735,
  0.234935,
  0.775431,
  0.845202,
  0.691595,
  0.225716,
  0.72397,
  0.281781,
  0.773579,
  0.834334,
  0.374968,
  0.24765,
  0.225629,
  0.772845,
  0.26267,
  0.364624,
  0.375103,
  0.686633,
  0.235613,
  0.301011,
  0.819862,
  0.801151,
  0.658619,
  0.236336,
  0.817054,
  0.155248,
  0.251855,
  0.254071,
  0.745888,
  0.771165,
  0.750372,
  0.347103,
  0.758276,
  0.822874,
  0.356103,
  0.836599,
  0.236756,
  0.755337,
  0.253426,
  0.760124,
  0.235434,
  0.640119,
  0.756141,
  0.316589,
  0.155986,
  0.693103,
  0.799972,
  0.278722,
  0.726239,
  0.301103,
  0.699516,
  0.636103,
  0.758852,
  0.560103,
  0.729628,
  0.242103,
  0.791994,
  0.369103,
  0.831943,
  0.156983,
  1.125158,
  1.148026,
  1.007388,
  1.600311,
  1.136,
  1.269103,
  1.091,
  1.139991,
  1.236257,
  0.961463,
  1.059352,
  1.016897,
  0.968992,
  1.012897,
  1.335194,
  1.098836,
  1.206352,
  1.295199,
  1.326,
  0.966,
  1.100066,
  1.181352,
  1.073964,
  1.335897,
  1.00445,
  0.974897,
  0.964352,
  3.058352,
  1.012897,
  0.964596,
  1.12,
  0.973879,
  0.994455,
  0.996352,
  0.977,
  0.999,
  1.047699,
  0.956313,
  0.997,
  1.10052,
  1.103352,
  0.967,
  1.013,
  0.285,
  0.966891,
  1.049352,
  1.078967,
  1.169,
  1.029352,
  1.048897,
  0.999352,
  1.0376,
  1.004352,
  1.062507,
  0.997352,
  1.025,
  1.011352,
  1.026,
  1.068455,
  1.100401,
  1.011455,
  1.146352,
  1.289247,
  3.001377,
  0.962214,
  1.092794,
  0.295675,
  0.903478,
  1.016675,
  0.995726,
  1.033702,
  1.163,
  1.660876,
  0.9424,
  1.210726,
  0.9568,
  1.039994,
  0.937,
  0.882232,
  0.98345,
  0.926413,
  0.957156,
  1.008,
  0.938702,
  0.942948,
  1.01431,
  0.893194,
  0.975488,
  1.044702,
  1.05048,
  1.092322,
  1.025287,
  1.014706,
  0.991567,
  1.022675,
  1.01163,
  1.148377,
  1.069097,
  0.971325,
  1.186,
  1.149675,
  1.015,
  0.953702,
  1.145765,
  1.101,
  0.863757,
  0.882027,
  1.020377,
  0.946629,
  0.260754,
  0.921702,
  0.977745,
  1.039377,
  1.109702,
  0.905994,
  1.213407,
  1.047377,
  1.151702,
  0.987377,
  0.997702,
  0.943377,
  1.021702,
  0.921,
  0.961325,
  1.057312,
  1.095352,
  1.111489,
  0.968654,
  1.013035,
  0.281507,
  1.00504,
  1.079948,
  1.292766,
  1.259352,
  1.465552,
  1.041892,
  1.278414,
  0.989206,
  0.962,
  1.196064,
  0.975791,
  1.310059,
  1.390649,
  1.17999,
  0.973143,
  1.105255,
  1.147312,
  0.974624,
  1.010664,
  1.106752,
  0.965282,
  1.057312,
  1.27469,
  1.014063,
  0.955809,
  0.988769,
  1.097455,
  1.110312,
  1.032266,
  1.010973,
  1.049103,
  1.17,
  1.002773,
  1.209312,
  1.097,
  1.18496,
  1.140352,
  1.142585,
  1.034312,
  1.000424,
  0.970312,
  0.991952,
  1.071312,
  1.034867,
  0.282587,
  0.992071,
  1.09143,
  0.97323,
  0.995415,
  1.007487,
  1.04426,
  0.954383,
  0.986063,
  1.032298,
  1.294702,
  0.93578,
  1.096,
  1.22665,
  0.275404,
  1.115639,
  1.333737,
  0.940593,
  1.000352,
  1.027943,
  1.18835,
  1.028886,
  1.30735,
  0.945702,
  1.019755,
  0.977322,
  1.012998,
  1.060103,
  0.902734,
  1.057352,
  1.15635,
  1.012903,
  0.987097,
  0.973702,
  1.104352,
  1.030184,
  1.137,
  1.104,
  0.988702,
  1.03109,
  1.097505,
  0.98,
  1.05365,
  0.275812,
  0.96935,
  0.996,
  1.075702,
  1.088352,
  0.996511,
  1.038758,
  1.073702,
  1.0756,
  0.975241,
  1.061352,
  0.948024,
  1.01588,
  1.014115,
  0.949,
  1.09401,
  1.132,
  0.316165,
  0.972702,
  1.102352,
  0.896702,
  0.99667,
  1.131702,
  0.931702,
  1.010352
]