[
  22.53197427975136,
  54.05588026622526,
  30.399872320536264,
  21.218695792863098,
  50.2597802391109,
  55.55555555555551,
  61.52095172912316,
  21.559332630858393,
  21.53536375921308,
  56.737588652482266,
  21.91780821917807,
  21.755328695822445,
  73.39449541284405,
  68.37606837606837,
  23.605853071268985,
  17.929983414765342,
  36.65353248419318,
  33.054982832068255,
  61.07336437896026,
  41.13935442068075,
  42.56926818106838,
  61.759370054425574,
  55.72971090212458,
  137.93103448275903,
  40.37773369875187,
  31.496062992125985,
  59.64852108948019,
  67.0016750418757,
  22.551537310109033,
  28.368794326241133,
  58.39416058394179,
  36.3813309200384,
  77.46833481814315,
  39.70006600135973,
  47.1909582124065,
  30.347517004093135,
  77.37916759360452,
  24.322910965984427,
  28.26855123674917,
  24.884597678266978,
  25.04947270859946,
  31.74603174603172,
  36.759300102925955,
  98.90952251427991,
  27.681660899653988,
  22.29213282767347,
  81.82385369894935,
  36.697247706422026,
  34.04255319148938,
  50.865993540018685,
  28.26855123674917,
  31.007751937984494,
  3.4257676824210583,
  66.11570247933885,
  47.90419161676652,
  39.29388881794162,
  71.20478496154941,
  111.15279340863891,
  42.90763595016272,
  45.81193057201919,
  51.77021788790449,
  24.615384615384603,
  84.27617301898314,
  22.85714285714285,
  44.27889059239619,
  32.45146477799146,
  26.32739431196648,
  24.452343909990972,
  41.8532624618089,
  16.597510373443978,
  32.82738131875793,
  28.673835125448036,
  6.815285321920002,
  39.02439024390247,
  18.284418704046118,
  51.83831629148686,
  44.373939185516306,
  25.38280441914626,
  26.282072341404145,
  16.095154553721606,
  20.27610992693001,
  12.040087471235479,
  80.80808080808083,
  22.97332222956092,
  22.669182945973652,
  22.144409228682548,
  22.40689236008994,
  54.421768707482904,
  63.147757859922486,
  60.72014087072698,
  51.94805194805183,
  32.189661485472385,
  60.28227173741054,
  28.32339654171327,
  19.85111662531015,
  30.703925880722945,
  70.51751037929616,
  24.167650994951934,
  21.56252863773336,
  17.533247420420977,
  24.588072940518376,
  24.99999999999998,
  90.31689942084297,
  33.047609212021094,
  19.801980198019805,
  28.48576779826381,
  22.4307660386987,
  27.574796635874815,
  24.19762197870006,
  60.92824176326341,
  65.81870238428253,
  14.98859929665996,
  29.36501818795815,
  23.323615160349856,
  58.82569212103392,
  46.7836257309942,
  29.32712575838116,
  42.785095811873866,
  20.69038647055629,
  18.639285556184614,
  31.689568982249888,
  27.30375426621159,
  59.079831622479766,
  158.1496491054664,
  17.498310319409807,
  32.11561621838621,
  55.09414211533961,
  26.91554574633442,
  43.66192570923332,
  32.38866396761135,
  116.8019622729662,
  32.13729050503753,
  22.160664819944586,
  25.00117192993422,
  16.76723514580158,
  31.091385354402952,
  29.072831075949107,
  32.51860674029421,
  20.040782993391538,
  19.77892110930079,
  38.61376580751039,
  87.4527208727782,
  56.737588652482444,
  21.857923497267727,
  50.99211534416498,
  38.0952380952381,
  39.981009020715135,
  21.07098551633134,
  31.997312225773058,
  40.9626216077828,
  29.85074626865674,
  25.681111221682585,
  46.974545668066135,
  49.49269982677561,
  29.700360488125394,
  25.316455696202546,
  46.78362573099408,
  88.37728261950237,
  38.7799817734085,
  37.021268718878964,
  43.808970982032825,
  34.48275862068962,
  44.06087009203208,
  55.55555555555551,
  68.66481271672355,
  32.38866396761135,
  32.12851405622489,
  102.43409006517379,
  41.02122335543349,
  27.777777777777796,
  24.615384615384603,
  16.460905349794217,
  24.61538461538467,
  17.130620985010687
]