[
  16.70072919558849,
  18.955863640994902,
  13.535096505238082,
  16.062450808744398,
  22.847807895631206,
  10.97553279352004,
  13.11421663046596,
  15.966693477406155,
  24.754466634073264,
  21.91552660270987,
  18.341514412991273,
  21.561773132413556,
  21.98116214404257,
  33.23156167570157,
  17.121162184489094,
  12.474524681626752,
  19.291193329105333,
  28.446871910847527,
  26.90251202206007,
  18.606987854288672,
  17.465265952337308,
  21.063329533157653,
  14.692513246218963,
  17.705186513074153,
  17.133996418994744,
  19.554929797802018,
  22.852115391756687,
  16.278227463811465,
  15.29680583573142,
  29.200277402635297,
  38.662658637721236,
  5.536244059783135,
  19.227672466213377,
  10.415988542412608,
  21.21571341814314,
  15.809120676946545,
  24.613112635756703,
  3.9252225478521408,
  25.02839158170048,
  41.41794328848122,
  16.805804724951997,
  23.73084475874629,
  34.204990508115166,
  16.23366740868054,
  52.00275614607562,
  19.190588935186206,
  19.759917008348555,
  57.97311496793377,
  21.336007446266592,
  21.770840136720874,
  15.76463401416847,
  21.577882670262973,
  15.891366617800717,
  18.347024800590777,
  17.504168180047866,
  17.028667762177623,
  36.196474463387325,
  23.387983254204027,
  16.425924214892135,
  27.650948254706694,
  23.10849728330732,
  24.237429862937315,
  25.638560394833828,
  22.211178330774445,
  17.020045358420877,
  22.417001053599044,
  1.9476235341089732,
  14.10703359061034,
  15.34925306697264,
  14.657840203890554,
  20.51360949780121,
  22.59644444946587,
  8.427652814414657,
  11.378975351717012
]