[
  8.800880088008812,
  9.375992536709951,
  8.416463444143098,
  7.279344858962692,
  7.897334649555762,
  0.44434718178354293,
  9.37866354044547,
  8.899578271234644,
  7.82788056219838,
  7.797818170475871,
  7.677543186180411,
  9.361126517965179,
  7.776193378376971,
  1.80441454529543,
  4.392505507103775,
  10.652094601252161,
  2.688740328517019,
  5.35660600087179,
  7.8228438775490385,
  8.057944680195275,
  10.555524035587952,
  2.5457138611255834,
  7.47663551401869,
  7.2054220801152775,
  8.691948647967392,
  4.640371229698375,
  7.699711260827734,
  10.723860589812325,
  1.0692552623731884,
  3.795066413662238,
  3.937007874015748,
  8.07699802214512,
  10.139416983523429,
  12.441679626749632,
  11.299435028248556,
  8.859357696567011,
  6.191950464396294,
  1.675428810296852,
  6.225191638633863,
  6.8120587063219284,
  7.6408787010506165,
  12.463621803859938,
  0.4309079731925686,
  6.191950464396294,
  9.846541648409527,
  10.043072226009322,
  8.109888995894387,
  7.561372351274881,
  2.4860277471771943,
  10.408968367145107,
  11.477728901782214,
  11.59894333626208,
  6.41617903705985,
  3.5502885053196644,
  6.834966320703449
]