{
  "1048576": [
    6.712025,
    3.410107,
    4.742644,
    3.604653,
    3.281642,
    3.812522,
    5.218326,
    34.698233,
    5.408863,
    4.06626,
    5.221935,
    3.939052,
    4.455355,
    4.364,
    24.2266,
    4.593035,
    4.988564,
    4.126466,
    3.591513,
    5.256,
    3.102,
    3.524,
    4.300552,
    5.392499,
    5.196722,
    7.31,
    3.875991,
    3.909421,
    5.239709,
    3.835537,
    3.883446,
    2.529465,
    3.101936,
    4.766,
    4.435949,
    3.707485,
    6.222725,
    4.197,
    5.907897,
    4.488863,
    3.038,
    4.798,
    6.463308,
    4.560705,
    3.272,
    4.339204,
    4.986762,
    28.287,
    6.106188,
    3.903,
    5.291812,
    3.67284,
    4.608,
    3.107,
    3.319,
    3.842012,
    4.134981,
    2.972379,
    5.015471,
    5.464947,
    4.870221,
    3.919818,
    4.821816,
    3.811,
    8.748923,
    4.555941,
    6.184356,
    4.976,
    3.528,
    5.113753,
    2.921924,
    5.049138,
    3.601225,
    4.321,
    4.773329,
    4.974,
    4.609759,
    4.372187,
    6.814429,
    4.417051,
    4.545928,
    5.450798,
    4.705154,
    9.613728
  ],
  "51200": [
    0.947946,
    0.734333,
    1.646217,
    0.59221,
    0.609729,
    0.75816,
    0.78735,
    0.907467,
    0.825655,
    0.753275,
    0.599084,
    0.571118,
    0.712834,
    0.95681,
    0.914151,
    0.786243,
    0.82691,
    1.005348,
    0.79464,
    0.658686,
    0.602562,
    2.083636,
    0.681922,
    1.002782,
    1.280075,
    1.532876,
    0.887,
    1.052529,
    0.642248,
    0.880401,
    0.781,
    0.972992,
    0.744974,
    0.777433,
    0.695587,
    0.738583,
    1.127197,
    0.786191,
    0.98607,
    0.883001,
    1.038929,
    0.642023,
    0.712821,
    0.70067,
    0.873777,
    0.706,
    0.981,
    0.725897,
    0.884,
    0.997,
    0.872791,
    0.725,
    0.932897,
    0.553,
    1.250604,
    0.743343,
    0.596684,
    1.086575,
    1.689,
    2.058,
    1.161765,
    0.685,
    0.773,
    1.080084,
    0.75,
    0.655,
    0.986204,
    0.872,
    0.773568,
    1.051,
    0.922285,
    1.280769,
    0.986064,
    1.210749,
    0.761,
    0.598125,
    1.536,
    0.837897,
    2.298216,
    0.783307,
    2.357427,
    0.975,
    1.009,
    0.563713,
    0.993,
    1.128773,
    1.307561,
    0.97,
    1.605,
    1.129,
    0.684227,
    0.845,
    0.921139,
    1.03481,
    0.699489,
    1.286717,
    0.646969,
    0.853468,
    1.020061,
    0.908382,
    0.673939,
    0.766,
    0.614,
    0.782532,
    0.635,
    0.704,
    0.884966,
    0.591373,
    0.936468,
    0.936,
    1.025746,
    0.575,
    0.730691,
    0.808,
    1.111699,
    0.733,
    0.772206,
    1.104097,
    0.878,
    1.134548,
    0.644889,
    1.146,
    0.999897,
    0.731,
    0.929001,
    0.6,
    0.807103,
    0.743,
    1.831075,
    1.013,
    0.947,
    0.69789,
    0.551009,
    0.888383,
    0.687,
    0.627716,
    1.01849,
    0.634351,
    0.878,
    0.654859,
    1.117612,
    1.026658,
    0.953,
    0.59,
    1.210298,
    0.90368,
    0.662125,
    0.867,
    0.959954,
    2.232897,
    0.694,
    1.219,
    1.149655,
    0.710698,
    0.692376,
    1.071,
    1.017144,
    0.605302,
    0.905,
    0.661504,
    0.573902,
    1.623446,
    0.88354,
    0.506,
    0.862,
    0.608,
    0.648833,
    1.19436,
    0.999,
    0.813,
    1.141897,
    1.118297,
    0.659742,
    0.779321,
    0.753628,
    0.935,
    0.994876,
    0.777103,
    0.899,
    1.627,
    0.741,
    1.12,
    1.063421,
    0.563,
    1.111,
    0.635,
    1.015696,
    1.068,
    1.002,
    0.621,
    0.592,
    0.806688,
    0.973154,
    1.033127,
    1.188212,
    0.788772,
    0.953248,
    0.858446,
    0.701,
    0.852074,
    0.587407,
    0.668143,
    1.036097,
    0.812259,
    0.741134,
    0.88,
    1.00161,
    0.825703,
    0.852,
    0.761502,
    0.98065,
    1.156,
    0.615184,
    1.19,
    0.774,
    0.746,
    0.974,
    0.701651,
    1.033216,
    0.647512,
    0.859346,
    1.314288,
    0.86862,
    0.777005,
    1.171726,
    0.684,
    1.234597,
    0.984412,
    0.725608,
    1.121,
    0.970647,
    0.833,
    0.709,
    0.829997,
    0.615,
    0.799834,
    0.703,
    0.955842,
    0.859964,
    0.794818,
    1.03037,
    0.822,
    0.689067,
    0.615845,
    0.825,
    0.584897,
    0.596723,
    1.518757,
    1.039642,
    0.54965,
    1.685463,
    1.145785,
    0.924681,
    1.174248,
    0.973207,
    0.687759,
    1.06221,
    1.084264,
    0.785658,
    0.701959,
    0.976126,
    1.011223,
    0.53935,
    0.603113,
    0.699889,
    0.726482,
    1.00165,
    0.958951,
    1.027897,
    0.598,
    0.962957,
    1.086337,
    0.76363,
    1.167578,
    0.757237,
    0.805387,
    0.703515,
    1.489438,
    0.630857,
    0.832415,
    1.298181,
    0.660153,
    0.594165,
    0.931103,
    0.603,
    0.98,
    1.074997,
    0.603293,
    0.618703,
    0.836828,
    0.753476
  ],
  "5242880": [
    10.382,
    58.988,
    9.662037,
    11.182149,
    11.152805,
    9.16339,
    11.299663,
    17.078772,
    7.748487,
    25.775611,
    9.412144,
    10.778809,
    11.240445,
    22.475301,
    10.789927,
    8.105374,
    9.557545,
    10.982795,
    16.467,
    8.376,
    6.779,
    9.91,
    14.269,
    12.209,
    12.435759,
    45.242095,
    11.699009,
    6.722358,
    9.71219,
    11.066258,
    12.705622
  ],
  "ALL": [
    0.947946,
    0.734333,
    1.646217,
    0.59221,
    6.712025,
    3.410107,
    4.742644,
    3.604653,
    0.609729,
    0.75816,
    0.78735,
    0.907467,
    0.825655,
    0.753275,
    3.281642,
    3.812522,
    5.218326,
    34.698233,
    0.599084,
    0.571118,
    0.712834,
    0.95681,
    0.914151,
    0.786243,
    5.408863,
    4.06626,
    5.221935,
    0.82691,
    1.005348,
    0.79464,
    0.658686,
    0.602562,
    2.083636,
    0.681922,
    1.002782,
    1.280075,
    1.532876,
    3.939052,
    4.455355,
    4.364,
    0.887,
    1.052529,
    0.642248,
    0.880401,
    0.781,
    0.972992,
    24.2266,
    4.593035,
    0.744974,
    0.777433,
    0.695587,
    0.738583,
    1.127197,
    0.786191,
    0.98607,
    0.883001,
    1.038929,
    0.642023,
    0.712821,
    4.988564,
    4.126466,
    0.70067,
    0.873777,
    0.706,
    0.981,
    0.725897,
    0.884,
    0.997,
    0.872791,
    0.725,
    0.932897,
    3.591513,
    5.256,
    0.553,
    1.250604,
    0.743343,
    0.596684,
    1.086575,
    1.689,
    2.058,
    3.102,
    3.524,
    4.300552,
    1.161765,
    0.685,
    0.773,
    5.392499,
    5.196722,
    10.382,
    1.080084,
    0.75,
    0.655,
    0.986204,
    0.872,
    0.773568,
    7.31,
    58.988,
    1.051,
    0.922285,
    1.280769,
    0.986064,
    1.210749,
    3.875991,
    9.662037,
    0.761,
    0.598125,
    1.536,
    0.837897,
    2.298216,
    0.783307,
    2.357427,
    0.975,
    1.009,
    0.563713,
    3.909421,
    5.239709,
    0.993,
    1.128773,
    1.307561,
    0.97,
    1.605,
    1.129,
    0.684227,
    0.845,
    11.182149,
    11.152805,
    0.921139,
    1.03481,
    0.699489,
    1.286717,
    0.646969,
    0.853468,
    1.020061,
    3.835537,
    3.883446,
    9.16339,
    11.299663,
    17.078772,
    0.908382,
    0.673939,
    0.766,
    0.614,
    0.782532,
    0.635,
    0.704,
    0.884966,
    2.529465,
    3.101936,
    4.766,
    7.748487,
    25.775611,
    0.591373,
    0.936468,
    0.936,
    1.025746,
    0.575,
    0.730691,
    0.808,
    4.435949,
    3.707485,
    9.412144,
    1.111699,
    0.733,
    0.772206,
    1.104097,
    0.878,
    6.222725,
    4.197,
    5.907897,
    10.778809,
    11.240445,
    1.134548,
    0.644889,
    1.146,
    0.999897,
    0.731,
    0.929001,
    0.6,
    0.807103,
    0.743,
    4.488863,
    3.038,
    1.831075,
    1.013,
    0.947,
    4.798,
    6.463308,
    22.475301,
    10.789927,
    0.69789,
    0.551009,
    0.888383,
    0.687,
    0.627716,
    1.01849,
    0.634351,
    0.878,
    0.654859,
    4.560705,
    3.272,
    8.105374,
    1.117612,
    1.026658,
    0.953,
    0.59,
    1.210298,
    0.90368,
    4.339204,
    9.557545,
    10.982795,
    0.662125,
    0.867,
    0.959954,
    2.232897,
    0.694,
    1.219,
    1.149655,
    4.986762,
    28.287,
    0.710698,
    0.692376,
    1.071,
    1.017144,
    0.605302,
    0.905,
    0.661504,
    0.573902,
    1.623446,
    0.88354,
    6.106188,
    3.903,
    16.467,
    0.506,
    0.862,
    0.608,
    0.648833,
    1.19436,
    0.999,
    0.813,
    5.291812,
    8.376,
    1.141897,
    1.118297,
    0.659742,
    0.779321,
    0.753628,
    0.935,
    0.994876,
    0.777103,
    3.67284,
    0.899,
    1.627,
    0.741,
    1.12,
    1.063421,
    0.563,
    1.111,
    0.635,
    4.608,
    3.107,
    6.779,
    1.015696,
    1.068,
    1.002,
    0.621,
    0.592,
    3.319,
    9.91,
    14.269,
    0.806688,
    0.973154,
    1.033127,
    1.188212,
    3.842012,
    4.134981,
    2.972379,
    12.209,
    12.435759,
    0.788772,
    0.953248,
    0.858446,
    0.701,
    0.852074,
    5.015471,
    5.464947,
    45.242095,
    0.587407,
    0.668143,
    1.036097,
    0.812259,
    0.741134,
    0.88,
    1.00161,
    0.825703,
    4.870221,
    3.919818,
    0.852,
    0.761502,
    0.98065,
    1.156,
    0.615184,
    4.821816,
    3.811,
    1.19,
    0.774,
    0.746,
    0.974,
    0.701651,
    1.033216,
    8.748923,
    11.699009,
    0.647512,
    0.859346,
    1.314288,
    0.86862,
    0.777005,
    1.171726,
    0.684,
    1.234597,
    0.984412,
    0.725608,
    4.555941,
    6.184356,
    1.121,
    0.970647,
    0.833,
    0.709,
    0.829997,
    0.615,
    0.799834,
    0.703,
    0.955842,
    4.976,
    3.528,
    5.113753,
    0.859964,
    0.794818,
    1.03037,
    0.822,
    0.689067,
    2.921924,
    5.049138,
    3.601225,
    0.615845,
    0.825,
    0.584897,
    0.596723,
    1.518757,
    1.039642,
    0.54965,
    1.685463,
    4.321,
    4.773329,
    4.974,
    1.145785,
    0.924681,
    1.174248,
    0.973207,
    0.687759,
    1.06221,
    1.084264,
    4.609759,
    4.372187,
    6.814429,
    0.785658,
    0.701959,
    0.976126,
    1.011223,
    0.53935,
    0.603113,
    0.699889,
    0.726482,
    1.00165,
    0.958951,
    4.417051,
    1.027897,
    0.598,
    0.962957,
    1.086337,
    0.76363,
    1.167578,
    0.757237,
    0.805387,
    0.703515,
    1.489438,
    0.630857,
    0.832415,
    1.298181,
    0.660153,
    0.594165,
    0.931103,
    0.603,
    4.545928,
    6.722358,
    9.71219,
    0.98,
    1.074997,
    0.603293,
    0.618703,
    0.836828,
    0.753476,
    5.450798,
    4.705154,
    9.613728,
    11.066258,
    12.705622
  ]
}