{
  "ram": {
    "bytes_used_max": 131699953664,
    "gib_used_max": 122.6551399230957,
    "gib_used_per_minute": {
      "0": 1.793588638305664,
      "1": 3.5033315658569335,
      "2": 4.5644381205240885,
      "3": 5.377548853556315,
      "4": 7.40845709331965,
      "5": 10.721520868937175,
      "6": 12.36713358561198,
      "7": 14.32667802174886,
      "8": 15.749438011040121,
      "9": 17.352399508158367,
      "10": 19.057098960876466,
      "11": 20.684900093078614,
      "12": 22.088912381964214,
      "13": 23.34797477722168,
      "14": 24.62105967203776,
      "15": 25.77747300465902,
      "16": 26.736777160127286,
      "17": 27.602762985229493,
      "18": 28.54689776102702,
      "19": 29.41879202524821,
      "20": 30.196800490557138,
      "21": 30.973119735717773,
      "22": 31.868685913085937,
      "23": 32.535538495597194,
      "24": 33.14013697306315,
      "25": 33.85431098937988,
      "26": 34.74728800455729,
      "27": 35.418545157222425,
      "28": 35.84007396697998,
      "29": 36.41495018005371,
      "30": 37.22441374460856,
      "31": 37.78284868143373,
      "32": 38.317732111612955,
      "33": 39.17589116500596,
      "34": 39.60598659515381,
      "35": 40.197750544143936,
      "36": 40.696802075703935,
      "37": 41.360710525512694,
      "38": 41.758251953125,
      "39": 42.66564320709746,
      "40": 43.029150072733565,
      "41": 42.98790918986003,
      "42": 43.30698172251383,
      "43": 43.690696199061506,
      "44": 44.064719645182294,
      "45": 44.46281051635742,
      "46": 44.871668088234074,
      "47": 45.33842728932699,
      "48": 45.72954934438069,
      "49": 46.12881774902344,
      "50": 46.47727216300318,
      "51": 47.02689208984375,
      "52": 47.342335828145345,
      "53": 47.61788190205892,
      "54": 47.852856846178994,
      "55": 48.175052324930824,
      "56": 48.73719126383464,
      "57": 49.1424170811971,
      "58": 49.34177372819286,
      "59": 49.72639141082764,
      "60": 50.01553484598796,
      "61": 50.286169560750324,
      "62": 50.63412598432121,
      "63": 50.984334818522136,
      "64": 51.244642448425296,
      "65": 51.53553873697917,
      "66": 51.787760977017676,
      "67": 52.13019383748372,
      "68": 52.516116778055824,
      "69": 52.83275306830972,
      "70": 53.11750094095866,
      "71": 53.588119443257646,
      "72": 53.836412048339845,
      "73": 54.106453523797505,
      "74": 54.417568079630534,
      "75": 54.692725308736165,
      "76": 54.8925111134847,
      "77": 55.17786038932154,
      "78": 55.41074136098226,
      "79": 55.71901772816976,
      "80": 56.0010622660319,
      "81": 56.25979058217194,
      "82": 56.43513743082682,
      "83": 56.74780241648356,
      "84": 56.914972079002254,
      "85": 57.13108132680257,
      "86": 57.357415135701494,
      "87": 57.62005844116211,
      "88": 57.83431625366211,
      "89": 58.15060952504476,
      "90": 58.41189270019531,
      "91": 58.688693364461265,
      "92": 59.043601666466664,
      "93": 59.343467775980635,
      "94": 59.566905148824056,
      "95": 59.8474853515625,
      "96": 60.1390687328274,
      "97": 60.40021197001139,
      "98": 60.662759971618655,
      "99": 60.84821940276582,
      "100": 61.18093744913737,
      "101": 61.54163614908854,
      "102": 61.845178286234535,
      "103": 62.10882044646699,
      "104": 62.447607358296715,
      "105": 62.70939095815023,
      "106": 62.99052352905274,
      "107": 63.321221885034596,
      "108": 63.61244322458903,
      "109": 63.954429944356285,
      "110": 64.32041575113932,
      "111": 64.64932541928049,
      "112": 64.9239315032959,
      "113": 65.24490509033203,
      "114": 65.56408513387045,
      "115": 65.91841830237438,
      "116": 66.2319559733073,
      "117": 66.57276973724365,
      "118": 66.9001364627127,
      "119": 67.20860589345297,
      "120": 67.52135028839112,
      "121": 67.8990524927775,
      "122": 68.31733541973567,
      "123": 68.83084805806477,
      "124": 69.21906935373941,
      "125": 69.60145765940348,
      "126": 69.8929059303413,
      "127": 70.2729487101237,
      "128": 70.87948303222656,
      "129": 71.22616874565513,
      "130": 71.41719099680583,
      "131": 71.17863337198894,
      "132": 71.49542853037516,
      "133": 71.74845453036033,
      "134": 72.07772006988526,
      "135": 72.38455766042074,
      "136": 72.71546522776286,
      "137": 73.07334014116708,
      "138": 73.43584849039713,
      "139": 73.73999849955241,
      "140": 74.0708724975586,
      "141": 74.33339083396783,
      "142": 74.70584557851156,
      "143": 75.02681833902994,
      "144": 75.31329364776612,
      "145": 75.60867122068244,
      "146": 75.98547795613607,
      "147": 76.4244545618693,
      "148": 76.65222058053745,
      "149": 77.02675870259603,
      "150": 77.39374574025472,
      "151": 77.81080214182536,
      "152": 78.1824859360517,
      "153": 78.56892246310994,
      "154": 79.00273106892904,
      "155": 79.3178814570109,
      "156": 79.80466473897299,
      "157": 80.14130770149877,
      "158": 80.67137279510499,
      "159": 81.05315138498942,
      "160": 80.763161722819,
      "161": 81.09010463649943,
      "162": 81.41944770812988,
      "163": 81.82388426462809,
      "164": 82.1636148873022,
      "165": 82.50649147033691,
      "166": 82.75308977762857,
      "167": 83.14462591807047,
      "168": 83.38591494802701,
      "169": 83.77686945597331,
      "170": 84.14828491210938,
      "171": 84.48663628896078,
      "172": 84.91918040130098,
      "173": 85.46859258015951,
      "174": 85.78287277221679,
      "175": 86.10059185028076,
      "176": 86.48994381144895,
      "177": 86.76536191304525,
      "178": 87.06369253794352,
      "179": 87.47709565243478,
      "180": 87.88195095062255,
      "181": 88.26480782826742,
      "182": 88.65666478474935,
      "183": 88.94335381459382,
      "184": 89.30880565643311,
      "185": 89.63757266998292,
      "186": 89.92428362571587,
      "187": 90.23816363016765,
      "188": 90.62423572540283,
      "189": 90.93544336954753,
      "190": 91.21624064041396,
      "191": 91.6001927057902,
      "192": 91.92059256235758,
      "193": 92.30977230072021,
      "194": 92.62974360837775,
      "195": 92.93092759450276,
      "196": 93.07611490885417,
      "197": 93.41404577891032,
      "198": 93.75848970574847,
      "199": 94.12548224131267,
      "200": 94.49620196024577,
      "201": 94.81017212948557,
      "202": 95.123410987854,
      "203": 95.44861895243326,
      "204": 95.7731995900472,
      "205": 96.05063098972127,
      "206": 96.41347440083821,
      "207": 96.716193262736,
      "208": 97.0483803431193,
      "209": 97.4944094641734,
      "210": 97.85976060231526,
      "211": 98.213463083903,
      "212": 98.64630057017008,
      "213": 98.93431834851282,
      "214": 99.30484441121419,
      "215": 99.66020698547364,
      "216": 99.96767735885362,
      "217": 100.29269371032714,
      "218": 100.59945805867513,
      "219": 100.93249740600587,
      "220": 101.30388246956518,
      "221": 101.60550212860107,
      "222": 102.01033058166504,
      "223": 102.31725177764892,
      "224": 102.58982855586682,
      "225": 102.88228251139323,
      "226": 103.24481252034505,
      "227": 103.6269928883698,
      "228": 103.92137966156005,
      "229": 104.34439830780029,
      "230": 104.69252001444498,
      "231": 105.05018719172074,
      "232": 105.41085999806722,
      "233": 105.72818336486816,
      "234": 106.09325726826985,
      "235": 106.37924097352109,
      "236": 106.67688891092936,
      "237": 106.9901751200358,
      "238": 107.31886608317747,
      "239": 107.63378569285075,
      "240": 108.03199291229248,
      "241": 108.36664651234945,
      "242": 108.74549225629386,
      "243": 109.3114459991455,
      "244": 109.74521643320719,
      "245": 110.15717716217041,
      "246": 110.52021285234872,
      "247": 110.89535554250081,
      "248": 111.49634405771891,
      "249": 111.77135467529297,
      "250": 111.93687742847507,
      "251": 111.8452871290304,
      "252": 112.06607971191406,
      "253": 112.37130989462642,
      "254": 112.7035603205363,
      "255": 113.01835689544677,
      "256": 113.33364958682303,
      "257": 113.69444071451822,
      "258": 114.01304200490316,
      "259": 114.33778711954753,
      "260": 114.69137689622782,
      "261": 115.05008799235026,
      "262": 115.38015893300374,
      "263": 115.70864473763159,
      "264": 116.06293067932128,
      "265": 116.36716181437174,
      "266": 116.72255179087321,
      "267": 117.06170195240085,
      "268": 117.40322106679281,
      "269": 117.75191491444906,
      "270": 118.10658162434896,
      "271": 118.45080178470936,
      "272": 118.78800150553386,
      "273": 119.09578927357991,
      "274": 119.43323459625245,
      "275": 119.80415790363894,
      "276": 120.17174517313639,
      "277": 120.53510360717773,
      "278": 120.8491462448896,
      "279": 121.14051977793376,
      "280": 121.24248975118002,
      "281": 121.32623462677002,
      "282": 121.32904091527907,
      "283": 121.33421535491944,
      "284": 121.31804695129395,
      "285": 121.36169986724853,
      "286": 121.37086047156383,
      "287": 121.3888614654541,
      "288": 121.45030078887939,
      "289": 121.47950098070048,
      "290": 121.5390079498291,
      "291": 121.55105450948079,
      "292": 121.65711612701416,
      "293": 121.58454888553943,
      "294": 121.5443572362264,
      "295": 121.5198844909668,
      "296": 121.58697386919442,
      "297": 121.61715583801269,
      "298": 121.66862341562907,
      "299": 121.74674568176269,
      "300": 121.8005316136247,
      "301": 121.83261858622232,
      "302": 121.95405960083008,
      "303": 122.20800094604492,
      "304": 122.27879835764567,
      "305": 120.70153524107852,
      "306": 67.87538168565283
    }
  },
  "run_time": {
    "hours": 5.095706545833333,
    "human": "5:05:44.543565",
    "minutes": 305.74239275,
    "real_seconds_per_sim_second": {
      "2.0": 30.887229,
      "3.002334": 32.956816,
      "4.004612": 37.565215,
      "5.006118": 40.652705,
      "6.00614": 43.714656,
      "7.00806": 46.053035,
      "8.00823": 46.479776,
      "9.008242": 46.644292,
      "10.00878": 46.739371,
      "11.0102": 46.823056,
      "12.010228": 46.908077,
      "13.01026": 47.054121,
      "14.012312": 47.127377,
      "15.012394": 47.196795,
      "16.012527": 47.25577,
      "17.01287": 47.317625,
      "18.014348": 47.375307,
      "19.016512": 47.435359,
      "20.018366": 47.48993,
      "21.018564": 47.545361,
      "22.020281": 47.599437,
      "23.020878": 47.764609,
      "24.021025": 47.814705,
      "25.022556": 47.866547,
      "26.024341": 47.916255,
      "27.024801": 47.96342,
      "28.02673": 48.011782,
      "29.027078": 48.054863,
      "30.027306": 48.099432,
      "31.027709": 48.14285,
      "32.029391": 48.187907,
      "33.031358": 48.316326,
      "34.03146": 48.359734,
      "35.033477": 48.400877,
      "36.034534": 48.435729,
      "37.03513": 48.474631,
      "38.035844": 48.517242,
      "39.035989": 48.553116,
      "40.037332": 48.591224,
      "41.037792": 48.627185,
      "42.037902": 48.671329,
      "43.039436": 48.761619,
      "44.039707": 48.799671,
      "45.03984": 48.836335,
      "46.040593": 48.875937,
      "47.04214": 48.912804,
      "48.043654": 48.948628,
      "49.043908": 48.98773,
      "50.04409": 49.02391,
      "51.044344": 49.059202,
      "52.046319": 49.10034,
      "53.050219": 49.215401,
      "54.051009": 49.250148,
      "55.053204": 49.283396,
      "56.054388": 49.321746,
      "57.056316": 49.354907,
      "58.057344": 49.386953,
      "59.058601": 49.422891,
      "60.059288": 49.452871,
      "61.059827": 49.483143,
      "62.060882": 49.525872,
      "63.061426": 49.702804,
      "64.062116": 49.931229,
      "65.062488": 50.158143,
      "66.064455": 50.818212,
      "67.064719": 51.37828,
      "68.066184": 51.422819,
      "69.067163": 51.455017,
      "70.06908": 51.483362,
      "71.070856": 51.515048,
      "72.071966": 51.56261,
      "73.07284": 51.643644,
      "74.073492": 51.674778,
      "75.075644": 51.70059,
      "76.076188": 51.728526,
      "77.076732": 51.757704,
      "78.078631": 51.786777,
      "79.07866": 51.816551,
      "80.078786": 51.844114,
      "81.080874": 51.872321,
      "82.081758": 51.91376,
      "83.083672": 51.990216,
      "84.08522": 52.020304,
      "85.085604": 52.05011,
      "86.087856": 52.079606,
      "87.089336": 52.107758,
      "88.09103": 52.136652,
      "89.091382": 52.166678,
      "90.092033": 52.194236,
      "91.093615": 52.222178,
      "92.094209": 52.277973,
      "93.094321": 52.381218,
      "94.095692": 52.409444,
      "95.097889": 52.438581,
      "96.09916": 52.465709,
      "97.100058": 52.490051,
      "98.102331": 52.515692,
      "99.104319": 52.542438,
      "100.106251": 52.569749,
      "101.108091": 52.596547,
      "102.108777": 52.647873,
      "103.110424": 52.744424,
      "104.112559": 52.7866,
      "105.113576": 52.81374,
      "106.114368": 52.840694,
      "107.114947": 52.864336,
      "108.115682": 52.891101,
      "109.117308": 52.918199,
      "110.118598": 53.076849,
      "111.120605": 53.182407,
      "112.121111": 53.239758,
      "113.122516": 53.305324,
      "114.12465": 53.334806,
      "115.126996": 53.360586,
      "116.127386": 53.388151,
      "117.129648": 53.416576,
      "118.129652": 53.444625,
      "119.13706": 53.47044,
      "120.139736": 53.496683,
      "121.14136": 53.523539,
      "122.142971": 53.585651,
      "123.144308": 53.642296,
      "124.146826": 53.667076,
      "125.148522": 53.692563,
      "126.149355": 53.717002,
      "127.150278": 53.745416,
      "128.150819": 53.77356,
      "129.153371": 53.799857,
      "130.154342": 53.912422,
      "131.156826": 53.93605,
      "132.15724": 53.987504,
      "133.159987": 54.019701,
      "134.161736": 54.046627,
      "135.162424": 54.073445,
      "136.164775": 54.096791,
      "137.167622": 54.123376,
      "138.167787": 54.147433,
      "139.168788": 54.171845,
      "140.172196": 54.195545,
      "141.173963": 54.218141,
      "142.1751": 54.276145,
      "143.180914": 54.307516,
      "144.190177": 54.332794,
      "145.19833": 54.355099,
      "146.206531": 54.378977,
      "147.210736": 54.404413,
      "148.216389": 54.428888,
      "149.219258": 54.451503,
      "150.219768": 54.846524,
      "151.221344": 57.5964,
      "152.222661": 60.720832,
      "153.223682": 63.605767,
      "154.224513": 66.792117,
      "155.225982": 70.150851,
      "156.227225": 74.011718,
      "157.229148": 78.161057,
      "158.230487": 81.567217,
      "159.232314": 84.864083,
      "160.234431": 88.2599,
      "161.235767": 92.077394,
      "162.237667": 95.74146,
      "163.238404": 98.336406,
      "164.238633": 101.795564,
      "165.239697": 105.049265,
      "166.240104": 109.298504,
      "167.240805": 114.478928,
      "168.241645": 117.852955,
      "169.241912": 120.53252,
      "170.242879": 123.381331,
      "171.243818": 125.532577,
      "172.244473": 127.208672,
      "173.245151": 129.671344,
      "174.245414": 132.351677,
      "175.246895": 135.108093,
      "176.247796": 138.917255,
      "177.249257": 142.261958,
      "178.250578": 144.580706,
      "179.252376": 147.747404,
      "180.252803": 149.765481,
      "181.254132": 151.729161,
      "182.254716": 153.534376,
      "183.255693": 155.545143,
      "184.256997": 158.993787,
      "185.257779": 161.710983,
      "186.258849": 165.502504,
      "187.258932": 168.462068,
      "188.2595": 170.550188,
      "189.260058": 172.8687,
      "190.261565": 174.841031,
      "191.262014": 176.82017,
      "192.262674": 178.551856,
      "193.263956": 180.558918,
      "194.264673": 182.927651,
      "195.266081": 185.100889,
      "196.267064": 188.035834,
      "197.267548": 189.928155,
      "198.269645": 192.006704,
      "199.271505": 194.563804,
      "200.272859": 196.766172,
      "201.273986": 198.380486,
      "202.2746": 200.035358,
      "203.275528": 201.578037,
      "204.277499": 203.788378,
      "205.278543": 206.609643,
      "206.278624": 210.460068,
      "207.278839": 213.14605,
      "208.27955": 214.717471,
      "209.281398": 216.018668,
      "210.281415": 217.660421,
      "211.282258": 219.516108,
      "212.283749": 221.635669,
      "213.283827": 223.32064,
      "214.284303": 225.496642,
      "215.284933": 227.803881,
      "216.286829": 230.440651,
      "217.287644": 232.016962,
      "218.288811": 233.858587,
      "219.290104": 235.99209,
      "220.291131": 237.712991,
      "221.292091": 239.72561,
      "222.292401": 242.032365,
      "223.293981": 243.657156,
      "224.295452": 245.124866,
      "225.295779": 246.497721,
      "226.29713": 248.607153,
      "227.298746": 251.138121,
      "228.299735": 252.726682,
      "229.300828": 254.732251,
      "230.302752": 256.261284,
      "231.304782": 257.852652,
      "232.305399": 259.484422,
      "233.30593": 260.704059,
      "234.306948": 261.98501,
      "235.308867": 263.706631,
      "236.309375": 265.819739,
      "237.310954": 267.382488,
      "238.311056": 268.867584,
      "239.311104": 270.164104,
      "240.312597": 272.571048,
      "241.314334": 276.513596,
      "242.315292": 283.213974,
      "243.315955": 289.075384,
      "244.316563": 294.114862,
      "245.316841": 297.949427,
      "246.317468": 302.325347,
      "247.318143": 305.863689,
      "248.319889": 308.09989,
      "249.32022": 309.827993,
      "250.320844": 311.284391,
      "251.322046": 314.19117,
      "252.324024": 318.345651,
      "253.325018": 321.502087,
      "254.325692": 324.275069,
      "255.326024": 326.248984,
      "256.326857": 328.452709,
      "257.327748": 330.100836,
      "258.327783": 331.739754,
      "259.329502": 334.145132,
      "260.330103": 335.47521,
      "261.330221": 337.748419,
      "262.330447": 339.816165,
      "263.3305": 341.48435,
      "264.331376": 342.726125,
      "265.331966": 343.931922,
      "266.333912": 345.294033,
      "267.334613": 346.756317,
      "268.336396": 347.837184,
      "269.337036": 349.412299,
      "270.338522": 351.275759,
      "271.340187": 352.661633,
      "272.340526": 353.752654,
      "273.34212": 354.641254,
      "274.34289": 355.473528,
      "275.344089": 356.589912,
      "276.345973": 358.398393,
      "277.34722": 360.075906,
      "278.347897": 361.330752,
      "279.347987": 362.444827,
      "280.348903": 363.537398,
      "281.349961": 364.721723,
      "282.350492": 365.911988,
      "283.350636": 367.770021,
      "284.351719": 369.195438,
      "285.35269": 370.466078,
      "286.353547": 372.194174,
      "287.355258": 373.592117,
      "288.355262": 374.629557,
      "289.356461": 375.758469,
      "290.357498": 376.865601,
      "291.359491": 377.989549,
      "292.359707": 378.971897,
      "293.360311": 380.167962,
      "294.361037": 381.77059,
      "295.362484": 383.124494,
      "296.362647": 384.551303,
      "297.363489": 385.521251,
      "298.364411": 386.428986,
      "299.366142": 387.67353,
      "300.367": 391.038944,
      "301.367799": 393.810732,
      "302.369117": 397.32638,
      "303.37": 401.019532,
      "304.371": 404.648579,
      "305.372197": 408.696678,
      "306.374": 412.980833,
      "307.374465": 416.478943,
      "308.37641": 419.736255,
      "309.378": 422.76826,
      "310.379": 425.566968,
      "311.38": 428.210919,
      "312.382": 431.692853,
      "313.38302": 434.721118,
      "314.385": 437.510193,
      "315.387": 441.064171,
      "316.389": 444.935495,
      "317.391": 448.418454,
      "318.393": 451.701934,
      "319.395": 454.72729,
      "320.397": 457.624064,
      "321.399": 461.233477,
      "322.401": 464.921395,
      "323.403": 468.943316,
      "324.405": 472.803265,
      "325.407": 475.959139,
      "326.409": 480.284008,
      "327.411": 483.607482,
      "328.413": 487.099161,
      "329.415": 490.869394,
      "330.417": 494.934736,
      "331.419": 499.04659,
      "332.421": 502.373777,
      "333.423": 505.52738,
      "334.425": 509.117729,
      "335.427": 513.514291,
      "336.429": 517.88262,
      "337.431": 522.13234,
      "338.433": 526.231163,
      "339.435": 529.94442,
      "340.437": 533.773308,
      "341.439": 537.563654,
      "342.441": 541.581136,
      "343.443": 546.121096,
      "344.445": 550.4622,
      "345.447": 554.959823,
      "346.449": 560.279887,
      "347.451": 565.584766,
      "348.453": 570.237479,
      "349.455": 574.651249,
      "350.457": 579.369756,
      "351.459": 584.251339,
      "352.461": 588.840667,
      "353.463": 593.344594,
      "354.465": 598.34753,
      "355.467": 603.799843,
      "356.469": 609.27915,
      "357.471": 614.426499,
      "358.473": 619.353096,
      "359.475": 624.52919,
      "360.477": 630.103291,
      "361.479": 635.471472,
      "362.481": 641.083786,
      "363.483": 646.867176,
      "364.485": 652.624425,
      "365.487": 658.490634,
      "366.489": 664.693932,
      "367.491": 670.579501,
      "368.493": 676.128019,
      "369.495": 681.702845,
      "370.497": 687.584036,
      "371.499": 693.244969,
      "372.501": 699.166531,
      "373.503": 705.063895,
      "374.505": 710.948247,
      "375.507": 717.182109,
      "376.509": 723.540997,
      "377.511": 729.820714,
      "378.513": 736.142865,
      "379.515": 742.366864,
      "380.517": 748.675768,
      "381.519": 755.232731,
      "382.521": 761.513355,
      "383.523": 767.798483,
      "384.525": 774.397323,
      "385.527": 781.007149,
      "386.529": 787.597276,
      "387.531": 794.024221,
      "388.533": 800.710398,
      "389.535": 807.285185,
      "390.537": 814.051702,
      "391.539": 820.795772,
      "392.541": 827.533977,
      "393.543": 834.127993,
      "394.545": 840.830283,
      "395.547": 847.670983,
      "396.549": 854.821668,
      "397.551": 861.833027,
      "398.553": 868.7839,
      "399.555": 875.940999,
      "400.557": 883.184851,
      "401.559": 890.330573,
      "402.561": 897.464599,
      "403.563": 904.556948,
      "404.565": 911.615487,
      "405.567": 919.274373,
      "406.569": 926.927015,
      "407.571": 934.299471,
      "408.573": 941.884256,
      "409.575": 949.346043,
      "410.577": 956.633318,
      "411.579": 963.8491,
      "412.581": 971.654492,
      "413.583": 979.014558,
      "414.585": 986.324631,
      "415.587": 994.478499,
      "416.589": 1002.162715,
      "417.591": 1009.573513,
      "418.593": 1017.007567,
      "419.595": 1024.595899,
      "420.597": 1032.344265,
      "421.599": 1040.140761,
      "422.601": 1047.722716,
      "423.603": 1055.334542,
      "424.605": 1062.807883,
      "425.607": 1070.450984,
      "426.609": 1078.20472,
      "427.611": 1086.030668,
      "428.613": 1093.904463,
      "429.615": 1101.687138,
      "430.617": 1109.442886,
      "431.619": 1117.123017,
      "432.621": 1124.98787,
      "433.623": 1132.788112,
      "434.625": 1140.557998,
      "435.627": 1148.475026,
      "436.629": 1156.627654,
      "437.631": 1164.423356,
      "438.633": 1172.176027,
      "439.635": 1180.149155,
      "440.637": 1188.385219,
      "441.639": 1196.464563,
      "442.641": 1204.281928,
      "443.643": 1212.382549,
      "444.645": 1220.469196,
      "445.647": 1228.265582,
      "446.649": 1236.52604,
      "447.651": 1244.729645,
      "448.653": 1252.89092,
      "449.655": 1260.951657,
      "450.657": 1269.112054,
      "451.659": 1277.183489,
      "452.661": 1285.247735,
      "453.663": 1293.627173,
      "454.665": 1301.929092,
      "455.667": 1310.232867,
      "456.669": 1318.386143,
      "457.671": 1326.610339,
      "458.673": 1335.160229,
      "459.675": 1343.679928,
      "460.677": 1352.450931,
      "461.679": 1361.063876,
      "462.681": 1369.675229,
      "463.683": 1378.098376,
      "464.685": 1386.6131,
      "465.687": 1395.453602,
      "466.689": 1404.530366,
      "467.691": 1413.198922,
      "468.693": 1421.995966,
      "469.695": 1430.453893,
      "470.697": 1438.927414,
      "471.699": 1447.728486,
      "472.701": 1456.373673,
      "473.703": 1465.230201,
      "474.705": 1474.053612,
      "475.707": 1482.9937,
      "476.709": 1491.883161,
      "477.711": 1500.81784,
      "478.713": 1509.801741,
      "479.715": 1518.744274,
      "480.717": 1527.696548,
      "481.719": 1536.721128,
      "482.721": 1546.084286,
      "483.723": 1555.559162,
      "484.725": 1564.900753,
      "485.727": 1574.776781,
      "486.729": 1584.613186,
      "487.731": 1594.471257,
      "488.733": 1604.338486,
      "489.735": 1613.624213,
      "490.737": 1622.812116,
      "491.739": 1631.954457,
      "492.741": 1641.230722,
      "493.743": 1650.551618,
      "494.745": 1660.057307,
      "495.747": 1669.57817,
      "496.749": 1679.117887,
      "497.751": 1688.104594,
      "498.753": 1697.295539,
      "499.755": 1706.859559,
      "500.757": 1716.132974,
      "501.759": 1726.156239,
      "502.761": 1736.179584,
      "503.763": 1745.69883,
      "504.765": 1755.552905,
      "505.767": 1765.165498,
      "506.769": 1774.643782,
      "507.771": 1783.974226,
      "508.773": 1793.420118,
      "509.775": 1803.381732,
      "510.777": 1813.108831,
      "511.779": 1822.548472,
      "512.781": 1832.25909,
      "513.783": 1841.902824,
      "514.785": 1851.913872,
      "515.787": 1862.842992,
      "516.789": 1872.981795,
      "517.791": 1883.298662,
      "518.793": 1893.167216,
      "519.795": 1903.358166,
      "520.797": 1913.218057,
      "521.799": 1923.261684,
      "522.801": 1933.329589,
      "523.803": 1943.226192,
      "524.805": 1953.510132,
      "525.807": 1964.196994,
      "526.809": 1975.49334,
      "527.811": 1986.642921,
      "528.813": 1998.405046,
      "529.815": 2009.184489,
      "530.817": 2019.122307,
      "531.819": 2029.362803,
      "532.821": 2039.301397,
      "533.823": 2049.130798,
      "534.825": 2059.505951,
      "535.827": 2069.608148,
      "536.829": 2079.693007,
      "537.831": 2089.730281,
      "538.833": 2099.425872,
      "539.835": 2109.575921,
      "540.837": 2119.883354,
      "541.839": 2129.650345,
      "542.841": 2139.594559,
      "543.843": 2149.803406,
      "544.845": 2159.774612,
      "545.847": 2170.03949,
      "546.849": 2179.986169,
      "547.851": 2189.73254,
      "548.853": 2199.474255,
      "549.855": 2209.254927,
      "550.857": 2219.130605,
      "551.859": 2229.077678,
      "552.861": 2239.056889,
      "553.863": 2249.228513,
      "554.865": 2259.091364,
      "555.867": 2269.059435,
      "556.869": 2279.002254,
      "557.871": 2288.900617,
      "558.873": 2298.620789,
      "559.875": 2308.525971,
      "560.877": 2319.01317,
      "561.879": 2329.222508,
      "562.881": 2339.60892,
      "563.883": 2350.314663,
      "564.885": 2361.277767,
      "565.887": 2373.214249,
      "566.889": 2384.010999,
      "567.891": 2394.463314,
      "568.893": 2404.776812,
      "569.895": 2415.981995,
      "570.897": 2426.31078,
      "571.899": 2436.195052,
      "572.901": 2446.01166,
      "573.903": 2455.870829,
      "574.905": 2465.85475,
      "575.907": 2476.469657,
      "576.909": 2486.710681,
      "577.911": 2496.701216,
      "578.913": 2506.451668,
      "579.915": 2516.475807,
      "580.917": 2526.423917,
      "581.919": 2536.062481,
      "582.921": 2545.806153,
      "583.923": 2556.047068,
      "584.925": 2566.021771,
      "585.927": 2576.256329,
      "586.929": 2586.391389,
      "587.931": 2596.49489,
      "588.933": 2606.596542,
      "589.935": 2616.919528,
      "590.937": 2626.990468,
      "591.939": 2637.516396,
      "592.941": 2648.105364,
      "593.943": 2658.298024,
      "594.945": 2668.189481,
      "595.947": 2678.22813,
      "596.949": 2688.579365,
      "597.951": 2698.332293,
      "598.953": 2707.826181,
      "599.955": 2717.26499,
      "600.957": 2727.797301,
      "601.959": 2738.996997,
      "602.961": 2750.275759,
      "603.963": 2761.400996,
      "604.965": 2773.31512,
      "605.967": 2784.866286,
      "606.969": 2796.406833,
      "607.971": 2807.667132,
      "608.973": 2818.416979,
      "609.975": 2829.213047,
      "610.977": 2840.262302,
      "611.979": 2850.838674,
      "612.981": 2861.448104,
      "613.983": 2872.115653,
      "614.985": 2882.907439,
      "615.987": 2894.247699,
      "616.989": 2904.942145,
      "617.991": 2915.255612,
      "618.993": 2925.931913,
      "619.995": 2936.569168,
      "620.997": 2946.778525,
      "621.999": 2957.20443,
      "623.001": 2968.258199,
      "624.003": 2978.630903,
      "625.005": 2988.678015,
      "626.007": 2999.406941,
      "627.009": 3010.336154,
      "628.011": 3021.078988,
      "629.013": 3031.846633,
      "630.015": 3041.977003,
      "631.017": 3052.071501,
      "632.019": 3062.436685,
      "633.021": 3072.778679,
      "634.023": 3083.957244,
      "635.025": 3095.135842,
      "636.027": 3107.33108,
      "637.029": 3119.71293,
      "638.031": 3131.919491,
      "639.033": 3142.959674,
      "640.035": 3153.782035,
      "641.037": 3164.637255,
      "642.039": 3175.97327,
      "643.041": 3187.42581,
      "644.043": 3198.155327,
      "645.045": 3209.260135,
      "646.047": 3220.842623,
      "647.049": 3231.647607,
      "648.051": 3242.717155,
      "649.053": 3253.213088,
      "650.055": 3263.490218,
      "651.057": 3274.483773,
      "652.059": 3284.99314,
      "653.061": 3295.755006,
      "654.063": 3306.268537,
      "655.065": 3317.484377,
      "656.067": 3328.715694,
      "657.069": 3339.832557,
      "658.071": 3350.620132,
      "659.073": 3361.523493,
      "660.075": 3372.221225,
      "661.077": 3382.750361,
      "662.079": 3393.433528,
      "663.081": 3404.203157,
      "664.083": 3415.489139,
      "665.085": 3426.288523,
      "666.087": 3437.215408,
      "667.089": 3447.843387,
      "668.091": 3458.794314,
      "669.093": 3470.505637,
      "670.095": 3481.921305,
      "671.097": 3492.784758,
      "672.099": 3503.348395,
      "673.101": 3514.111072,
      "674.103": 3524.93608,
      "675.105": 3535.972596,
      "676.107": 3547.552303,
      "677.109": 3559.173619,
      "678.111": 3570.220975,
      "679.113": 3581.602794,
      "680.115": 3592.039887,
      "681.117": 3602.873021,
      "682.119": 3613.396817,
      "683.121": 3624.090325,
      "684.123": 3635.858405,
      "685.125": 3646.926125,
      "686.127": 3657.433529,
      "687.129": 3669.081788,
      "688.131": 3680.451887,
      "689.133": 3691.653384,
      "690.135": 3702.864676,
      "691.137": 3714.266929,
      "692.139": 3725.116809,
      "693.141": 3736.498546,
      "694.143": 3747.741493,
      "695.145": 3759.241127,
      "696.147": 3771.188531,
      "697.149": 3782.170914,
      "698.151": 3793.205777,
      "699.153": 3804.726471,
      "700.155": 3815.848842,
      "701.157": 3827.062011,
      "702.159": 3838.487651,
      "703.161": 3849.365648,
      "704.163": 3860.975287,
      "705.165": 3871.793962,
      "706.167": 3883.965575,
      "707.169": 3895.25106,
      "708.171": 3906.229922,
      "709.173": 3917.604691,
      "710.175": 3928.844281,
      "711.177": 3939.44308,
      "712.179": 3950.797551,
      "713.181": 3962.046746,
      "714.183": 3973.2923,
      "715.185": 3984.685266,
      "716.187": 3996.623125,
      "717.189": 4007.767458,
      "718.191": 4018.834546,
      "719.193": 4029.767877,
      "720.195": 4040.60643,
      "721.197": 4051.494871,
      "722.199": 4062.501737,
      "723.201": 4074.158451,
      "724.203": 4085.664989,
      "725.205": 4097.039552,
      "726.207": 4109.279798,
      "727.209": 4120.661192,
      "728.211": 4131.995203,
      "729.213": 4143.412315,
      "730.215": 4154.799042,
      "731.217": 4166.073371,
      "732.219": 4177.102728,
      "733.221": 4188.735035,
      "734.223": 4200.099355,
      "735.225": 4211.387205,
      "736.227": 4223.079369,
      "737.229": 4234.794056,
      "738.231": 4246.153222,
      "739.233": 4257.146192,
      "740.235": 4268.304421,
      "741.237": 4279.670583,
      "742.239": 4290.631118,
      "743.241": 4302.087914,
      "744.243": 4313.548996,
      "745.245": 4324.67709,
      "746.247": 4336.20418,
      "747.249": 4347.855537,
      "748.251": 4359.03533,
      "749.253": 4370.065386,
      "750.255": 4381.316078,
      "751.257": 4393.007824,
      "752.259": 4404.63635,
      "753.261": 4416.252243,
      "754.263": 4428.209687,
      "755.265": 4440.577511,
      "756.267": 4452.313988,
      "757.269": 4464.074354,
      "758.271": 4475.41911,
      "759.273": 4486.857947,
      "760.275": 4498.192219,
      "761.277": 4509.408222,
      "762.279": 4520.712768,
      "763.281": 4532.225476,
      "764.283": 4543.504337,
      "765.285": 4555.424148,
      "766.287": 4567.299019,
      "767.289": 4578.927994,
      "768.291": 4590.594147,
      "769.293": 4601.389932,
      "770.295": 4612.203995,
      "771.297": 4622.802817,
      "772.299": 4633.651012,
      "773.301": 4644.505497,
      "774.303": 4655.111833,
      "775.305": 4666.082448,
      "776.307": 4677.476219,
      "777.309": 4688.481728,
      "778.311": 4699.327009,
      "779.313": 4710.009465,
      "780.315": 4720.878553,
      "781.317": 4731.834075,
      "782.319": 4742.709356,
      "783.321": 4753.447587,
      "784.323": 4764.224438,
      "785.325": 4775.181359,
      "786.327": 4785.996935,
      "787.329": 4796.696287,
      "788.331": 4807.809895,
      "789.333": 4818.455776,
      "790.335": 4828.979267,
      "791.337": 4839.744957,
      "792.339": 4850.632245,
      "793.341": 4861.453559,
      "794.343": 4872.27573,
      "795.345": 4882.99281,
      "796.347": 4893.89652,
      "797.349": 4905.453279,
      "798.351": 4916.433867,
      "799.353": 4927.124229,
      "800.355": 4937.996226,
      "801.357": 4948.752838,
      "802.359": 4959.345759,
      "803.361": 4970.152522,
      "804.363": 4980.762687,
      "805.365": 4991.657107,
      "806.367": 5002.524505,
      "807.369": 5013.389826,
      "808.371": 5023.918357,
      "809.373": 5034.732104,
      "810.375": 5045.415805,
      "811.377": 5056.355308,
      "812.379": 5067.346073,
      "813.381": 5078.152242,
      "814.383": 5088.75913,
      "815.385": 5099.476874,
      "816.387": 5110.455063,
      "817.389": 5121.198512,
      "818.391": 5131.874295,
      "819.393": 5142.564735,
      "820.395": 5153.365192,
      "821.397": 5164.18197,
      "822.399": 5174.83855,
      "823.401": 5185.629508,
      "824.403": 5196.346432,
      "825.405": 5207.228846,
      "826.407": 5218.308514,
      "827.409": 5228.808744,
      "828.411": 5239.411012,
      "829.413": 5249.851086,
      "830.415": 5260.89359,
      "831.417": 5271.74867,
      "832.419": 5282.328284,
      "833.421": 5293.26141,
      "834.423": 5304.061484,
      "835.425": 5315.24827,
      "836.427": 5326.151155,
      "837.429": 5336.806177,
      "838.431": 5347.463131,
      "839.433": 5358.063213,
      "840.435": 5368.848682,
      "841.437": 5379.583352,
      "842.439": 5390.453644,
      "843.441": 5401.439736,
      "844.443": 5412.450208,
      "845.445": 5423.529549,
      "846.447": 5434.444102,
      "847.449": 5445.149368,
      "848.451": 5456.173836,
      "849.453": 5467.097914,
      "850.455": 5477.696419,
      "851.457": 5488.512397,
      "852.459": 5499.374906,
      "853.461": 5510.292627,
      "854.463": 5521.202224,
      "855.465": 5532.036352,
      "856.467": 5543.003913,
      "857.469": 5553.83423,
      "858.471": 5564.713346,
      "859.473": 5575.593238,
      "860.475": 5586.653295,
      "861.477": 5597.571414,
      "862.479": 5608.652698,
      "863.481": 5620.096547,
      "864.483": 5631.351677,
      "865.485": 5642.616736,
      "866.487": 5653.932747,
      "867.489": 5665.059055,
      "868.491": 5675.909285,
      "869.493": 5686.600421,
      "870.495": 5697.340926,
      "871.497": 5708.329488,
      "872.499": 5719.323278,
      "873.501": 5730.176777,
      "874.503": 5741.201296,
      "875.505": 5752.261007,
      "876.507": 5763.227623,
      "877.509": 5774.258379,
      "878.511": 5785.404669,
      "879.513": 5796.282125,
      "880.515": 5807.373661,
      "881.517": 5818.231502,
      "882.519": 5829.231779,
      "883.521": 5840.217595,
      "884.523": 5851.426908,
      "885.525": 5862.715847,
      "886.527": 5873.920684,
      "887.529": 5885.088001,
      "888.531": 5896.069874,
      "889.533": 5906.952737,
      "890.535": 5917.708788,
      "891.537": 5928.534971,
      "892.539": 5939.648838,
      "893.541": 5950.878505,
      "894.543": 5962.169974,
      "895.545": 5973.490903,
      "896.547": 5985.623418,
      "897.549": 5997.108631,
      "898.551": 6008.560146,
      "899.553": 6020.021905,
      "900.555": 6031.693315,
      "901.557": 6043.398384,
      "902.559": 6055.385302,
      "903.561": 6066.962139,
      "904.563": 6078.776842,
      "905.565": 6090.915648,
      "906.567": 6103.229268,
      "907.569": 6115.155356,
      "908.571": 6127.119326,
      "909.573": 6139.005081,
      "910.575": 6151.016147,
      "911.577": 6163.052169,
      "912.579": 6174.690014,
      "913.581": 6186.584253,
      "914.583": 6198.269831,
      "915.585": 6210.057023,
      "916.587": 6221.770108,
      "917.589": 6233.59081,
      "918.591": 6245.737217,
      "919.593": 6257.850835,
      "920.595": 6269.676588,
      "921.597": 6281.616713,
      "922.599": 6293.336092,
      "923.601": 6305.064223,
      "924.603": 6316.619184,
      "925.605": 6328.152698,
      "926.607": 6340.795114,
      "927.609": 6352.482224,
      "928.611": 6364.485813,
      "929.613": 6376.523704,
      "930.615": 6388.259674,
      "931.617": 6399.558342,
      "932.619": 6411.036841,
      "933.621": 6423.021762,
      "934.623": 6434.851325,
      "935.625": 6447.004386,
      "936.627": 6459.128256,
      "937.629": 6470.845301,
      "938.631": 6482.428118,
      "939.633": 6494.113859,
      "940.635": 6505.681243,
      "941.637": 6517.248344,
      "942.639": 6528.736601,
      "943.641": 6540.473671,
      "944.643": 6552.818211,
      "945.645": 6564.922714,
      "946.647": 6576.890001,
      "947.649": 6588.659217,
      "948.651": 6600.726376,
      "949.653": 6612.663783,
      "950.655": 6624.836609,
      "951.657": 6636.875544,
      "952.659": 6648.840585,
      "953.661": 6661.148538,
      "954.663": 6674.320427,
      "955.665": 6686.597456,
      "956.667": 6699.610599,
      "957.669": 6711.854603,
      "958.671": 6723.800154,
      "959.673": 6735.738793,
      "960.675": 6748.420338,
      "961.677": 6760.768817,
      "962.679": 6773.127061,
      "963.681": 6785.28856,
      "964.683": 6797.410703,
      "965.685": 6809.363881,
      "966.687": 6821.632605,
      "967.689": 6833.831322,
      "968.691": 6846.08009,
      "969.693": 6858.342478,
      "970.695": 6870.099153,
      "971.697": 6882.338509,
      "972.699": 6894.401955,
      "973.701": 6906.404029,
      "974.703": 6918.622484,
      "975.705": 6931.105924,
      "976.707": 6943.535493,
      "977.709": 6955.757455,
      "978.711": 6967.797551,
      "979.713": 6980.120604,
      "980.715": 6992.086575,
      "981.717": 7004.188149,
      "982.719": 7016.374711,
      "983.721": 7028.583775,
      "984.723": 7041.310715,
      "985.725": 7055.508489,
      "986.727": 7068.81195,
      "987.729": 7081.844936,
      "988.731": 7094.7335,
      "989.733": 7107.341416,
      "990.735": 7119.909318,
      "991.737": 7132.139138,
      "992.739": 7144.724849,
      "993.741": 7157.013854,
      "994.743": 7169.468636,
      "995.745": 7181.876041,
      "996.747": 7194.183834,
      "997.749": 7206.557667,
      "998.751": 7219.019804,
      "999.753": 7231.30601,
      "1000.755": 7243.762168,
      "1001.757": 7256.601441,
      "1002.759": 7269.096273,
      "1003.761": 7281.486026,
      "1004.763": 7293.718493,
      "1005.765": 7306.371747,
      "1006.767": 7318.25875,
      "1007.769": 7330.545402,
      "1008.771": 7342.833229,
      "1009.773": 7355.479596,
      "1010.775": 7368.75966,
      "1011.777": 7381.156315,
      "1012.779": 7393.799088,
      "1013.781": 7407.592283,
      "1014.783": 7420.260122,
      "1015.785": 7433.201144,
      "1016.787": 7446.108982,
      "1017.789": 7458.862705,
      "1018.791": 7471.065734,
      "1019.793": 7483.506319,
      "1020.795": 7496.090314,
      "1021.797": 7508.670009,
      "1022.799": 7521.316793,
      "1023.801": 7533.814757,
      "1024.803": 7546.069241,
      "1025.805": 7558.408355,
      "1026.807": 7571.022452,
      "1027.809": 7583.605381,
      "1028.811": 7596.090247,
      "1029.813": 7608.780908,
      "1030.815": 7621.261883,
      "1031.817": 7633.997624,
      "1032.819": 7646.550013,
      "1033.821": 7658.862289,
      "1034.823": 7671.262618,
      "1035.825": 7683.769867,
      "1036.827": 7696.419571,
      "1037.829": 7708.8954,
      "1038.831": 7721.112931,
      "1039.833": 7733.464353,
      "1040.835": 7745.532782,
      "1041.837": 7757.593284,
      "1042.839": 7770.566873,
      "1043.841": 7782.756998,
      "1044.843": 7795.395603,
      "1045.845": 7807.939529,
      "1046.847": 7820.694766,
      "1047.849": 7833.181155,
      "1048.851": 7845.69461,
      "1049.853": 7858.215689,
      "1050.855": 7870.66584,
      "1051.857": 7883.118694,
      "1052.859": 7895.793685,
      "1053.861": 7908.075795,
      "1054.863": 7920.61156,
      "1055.865": 7932.93902,
      "1056.867": 7945.291953,
      "1057.869": 7957.07944,
      "1058.871": 7969.250661,
      "1059.873": 7981.488811,
      "1060.875": 7993.428739,
      "1061.877": 8005.464169,
      "1062.879": 8017.502792,
      "1063.881": 8029.499028,
      "1064.883": 8042.000449,
      "1065.885": 8054.333401,
      "1066.887": 8066.556951,
      "1067.889": 8078.691423,
      "1068.891": 8090.763101,
      "1069.893": 8102.717061,
      "1070.895": 8115.045416,
      "1071.897": 8128.341571,
      "1072.899": 8140.836333,
      "1073.901": 8152.980618,
      "1074.903": 8165.235142,
      "1075.905": 8177.459597,
      "1076.907": 8189.561012,
      "1077.909": 8201.639543,
      "1078.911": 8213.89264,
      "1079.913": 8226.027914,
      "1080.915": 8238.385023,
      "1081.917": 8250.470588,
      "1082.919": 8262.773067,
      "1083.921": 8274.874738,
      "1084.923": 8286.888537,
      "1085.925": 8299.21662,
      "1086.927": 8311.719788,
      "1087.929": 8324.137583,
      "1088.931": 8336.472128,
      "1089.933": 8348.626496,
      "1090.935": 8360.983409,
      "1091.937": 8373.320794,
      "1092.939": 8385.607756,
      "1093.941": 8398.085866,
      "1094.943": 8410.388084,
      "1095.945": 8422.637559,
      "1096.947": 8434.931014,
      "1097.949": 8447.052701,
      "1098.951": 8459.258885,
      "1099.953": 8471.506945,
      "1100.955": 8484.721561,
      "1101.957": 8497.338056,
      "1102.959": 8509.769782,
      "1103.961": 8522.120125,
      "1104.963": 8534.906624,
      "1105.965": 8547.414769,
      "1106.967": 8560.011298,
      "1107.969": 8572.377417,
      "1108.971": 8584.468542,
      "1109.973": 8597.090041,
      "1110.975": 8609.636727,
      "1111.977": 8622.03886,
      "1112.979": 8634.410834,
      "1113.981": 8647.335915,
      "1114.983": 8659.853021,
      "1115.985": 8672.077814,
      "1116.987": 8684.475407,
      "1117.989": 8696.826817,
      "1118.991": 8708.73923,
      "1119.993": 8720.913689,
      "1120.995": 8733.14436,
      "1121.997": 8745.536446,
      "1122.999": 8757.607003,
      "1124.001": 8769.830069,
      "1125.003": 8782.24896,
      "1126.005": 8794.766663,
      "1127.007": 8807.062183,
      "1128.009": 8819.402683,
      "1129.011": 8831.776784,
      "1130.013": 8845.00286,
      "1131.015": 8857.662576,
      "1132.017": 8869.922735,
      "1133.019": 8882.219443,
      "1134.021": 8894.592906,
      "1135.023": 8906.371921,
      "1136.025": 8918.578177,
      "1137.027": 8930.968784,
      "1138.029": 8942.900059,
      "1139.031": 8954.97437,
      "1140.033": 8966.938024,
      "1141.035": 8979.485685,
      "1142.037": 8991.896667,
      "1143.039": 9004.068355,
      "1144.041": 9016.015435,
      "1145.043": 9028.462422,
      "1146.045": 9040.708295,
      "1147.047": 9052.854366,
      "1148.049": 9065.352889,
      "1149.051": 9078.009087,
      "1150.053": 9090.519526,
      "1151.055": 9103.146284,
      "1152.057": 9115.506756,
      "1153.059": 9128.023102,
      "1154.061": 9140.433055,
      "1155.063": 9152.663721,
      "1156.065": 9165.581686,
      "1157.067": 9179.233229,
      "1158.069": 9191.795925,
      "1159.071": 9205.830888,
      "1160.073": 9218.49129,
      "1161.075": 9230.77316,
      "1162.077": 9243.362257,
      "1163.079": 9255.865675,
      "1164.081": 9267.742611,
      "1165.083": 9279.712266,
      "1166.085": 9291.836812,
      "1167.087": 9304.033527,
      "1168.089": 9316.032843,
      "1169.091": 9328.378816,
      "1170.093": 9340.478301,
      "1171.095": 9352.495954,
      "1172.097": 9364.9707,
      "1173.099": 9377.346759,
      "1174.101": 9389.691501,
      "1175.103": 9402.019051,
      "1176.105": 9414.651076,
      "1177.107": 9426.937804,
      "1178.109": 9439.254905,
      "1179.111": 9451.976491,
      "1180.113": 9464.30735,
      "1181.115": 9476.747785,
      "1182.117": 9489.263122,
      "1183.119": 9501.51597,
      "1184.121": 9514.492728,
      "1185.123": 9526.822329,
      "1186.125": 9539.367307,
      "1187.127": 9551.564841,
      "1188.129": 9565.427981,
      "1189.131": 9578.12434,
      "1190.133": 9590.978055,
      "1191.135": 9604.164313,
      "1192.137": 9616.43319,
      "1193.139": 9629.099276,
      "1194.141": 9641.76397,
      "1195.143": 9654.078501,
      "1196.145": 9666.203787,
      "1197.147": 9678.502808,
      "1198.149": 9690.810272,
      "1199.151": 9702.7716,
      "1200.153": 9714.939557,
      "1201.155": 9727.56682,
      "1202.157": 9740.028175,
      "1203.159": 9752.836147,
      "1204.161": 9765.306417,
      "1205.163": 9777.580624,
      "1206.165": 9790.042291,
      "1207.167": 9802.512055,
      "1208.169": 9814.946878,
      "1209.171": 9827.222218,
      "1210.173": 9839.781234,
      "1211.175": 9852.154859,
      "1212.177": 9864.700269,
      "1213.179": 9877.607429,
      "1214.181": 9890.25536,
      "1215.183": 9902.854569,
      "1216.185": 9916.373423,
      "1217.187": 9928.83175,
      "1218.189": 9941.392845,
      "1219.191": 9954.334686,
      "1220.193": 9967.346556,
      "1221.195": 9980.091876,
      "1222.197": 9992.628946,
      "1223.199": 10005.346055,
      "1224.201": 10017.824774,
      "1225.203": 10030.559265,
      "1226.205": 10043.260194,
      "1227.207": 10055.904512,
      "1228.209": 10068.9069,
      "1229.211": 10081.697425,
      "1230.213": 10094.503818,
      "1231.215": 10106.768847,
      "1232.217": 10119.495801,
      "1233.219": 10131.954465,
      "1234.221": 10144.926482,
      "1235.223": 10157.362312,
      "1236.225": 10170.251193,
      "1237.227": 10183.145363,
      "1238.229": 10195.86814,
      "1239.231": 10208.570667,
      "1240.233": 10221.505843,
      "1241.235": 10234.548389,
      "1242.237": 10247.369419,
      "1243.239": 10260.260473,
      "1244.241": 10273.43455,
      "1245.243": 10287.780614,
      "1246.245": 10301.000813,
      "1247.247": 10314.297079,
      "1248.249": 10327.547482,
      "1249.251": 10340.761879,
      "1250.253": 10353.657067,
      "1251.255": 10366.884815,
      "1252.257": 10380.074844,
      "1253.259": 10393.022519,
      "1254.261": 10406.340607,
      "1255.263": 10419.209744,
      "1256.265": 10432.356553,
      "1257.267": 10445.814005,
      "1258.269": 10458.995338,
      "1259.271": 10472.315591,
      "1260.273": 10485.574197,
      "1261.275": 10499.123166,
      "1262.277": 10512.823786,
      "1263.279": 10525.922236,
      "1264.281": 10539.599548,
      "1265.283": 10553.322298,
      "1266.285": 10566.87503,
      "1267.287": 10580.532123,
      "1268.289": 10593.692163,
      "1269.291": 10607.189764,
      "1270.293": 10620.539781,
      "1271.295": 10634.511219,
      "1272.297": 10648.512497,
      "1273.299": 10662.15961,
      "1274.301": 10675.238893,
      "1275.303": 10688.661686,
      "1276.305": 10701.949729,
      "1277.307": 10715.194639,
      "1278.309": 10727.907422,
      "1279.311": 10740.764387,
      "1280.313": 10753.480322,
      "1281.315": 10766.44898,
      "1282.317": 10779.324164,
      "1283.319": 10792.520002,
      "1284.321": 10805.483737,
      "1285.323": 10818.67126,
      "1286.325": 10831.855429,
      "1287.327": 10845.053787,
      "1288.329": 10858.189347,
      "1289.331": 10871.108306,
      "1290.333": 10884.293583,
      "1291.335": 10897.542432,
      "1292.337": 10910.277302,
      "1293.339": 10923.690236,
      "1294.341": 10937.550503,
      "1295.343": 10950.855036,
      "1296.345": 10964.354251,
      "1297.347": 10977.875407,
      "1298.349": 10991.34533,
      "1299.351": 11005.981988,
      "1300.353": 11019.242699,
      "1301.355": 11032.346433,
      "1302.357": 11046.660482,
      "1303.359": 11059.860311,
      "1304.361": 11073.050806,
      "1305.363": 11086.263277,
      "1306.365": 11099.471823,
      "1307.367": 11112.571362,
      "1308.369": 11125.815509,
      "1309.371": 11139.052297,
      "1310.373": 11152.166468,
      "1311.375": 11165.238812,
      "1312.377": 11178.752579,
      "1313.379": 11192.172824,
      "1314.381": 11205.521412,
      "1315.383": 11219.090531,
      "1316.385": 11232.370609,
      "1317.387": 11245.756907,
      "1318.389": 11259.572357,
      "1319.391": 11273.194083,
      "1320.393": 11286.869754,
      "1321.395": 11300.646464,
      "1322.397": 11314.413965,
      "1323.399": 11327.894328,
      "1324.401": 11341.345678,
      "1325.403": 11356.528538,
      "1326.405": 11370.084046,
      "1327.407": 11384.390198,
      "1328.409": 11397.841626,
      "1329.411": 11411.112898,
      "1330.413": 11423.936814,
      "1331.415": 11437.014205,
      "1332.417": 11450.483213,
      "1333.419": 11463.482321,
      "1334.421": 11476.475953,
      "1335.423": 11489.655293,
      "1336.425": 11503.305194,
      "1337.427": 11516.275508,
      "1338.429": 11529.874287,
      "1339.431": 11543.370222,
      "1340.433": 11556.765465,
      "1341.435": 11569.788754,
      "1342.437": 11582.71456,
      "1343.439": 11595.516535,
      "1344.441": 11608.858873,
      "1345.443": 11622.317118,
      "1346.445": 11635.617396,
      "1347.447": 11648.918089,
      "1348.449": 11662.071166,
      "1349.451": 11675.02994,
      "1350.453": 11687.923037,
      "1351.455": 11701.109743,
      "1352.457": 11715.488962,
      "1353.459": 11728.84292,
      "1354.461": 11742.035369,
      "1355.463": 11755.271581,
      "1356.465": 11768.550503,
      "1357.467": 11781.68528,
      "1358.469": 11794.963349,
      "1359.471": 11807.619628,
      "1360.473": 11820.40786,
      "1361.475": 11833.143235,
      "1362.477": 11845.921809,
      "1363.479": 11858.758574,
      "1364.481": 11871.690386,
      "1365.483": 11884.366554,
      "1366.485": 11897.047274,
      "1367.487": 11909.892166,
      "1368.489": 11922.522738,
      "1369.491": 11935.165816,
      "1370.493": 11947.620571,
      "1371.495": 11959.974195,
      "1372.497": 11972.706105,
      "1373.499": 11985.355483,
      "1374.501": 11997.866881,
      "1375.503": 12010.303973,
      "1376.505": 12023.185693,
      "1377.507": 12035.799109,
      "1378.509": 12048.249473,
      "1379.511": 12060.86084,
      "1380.513": 12075.262202,
      "1381.515": 12088.284983,
      "1382.517": 12101.554597,
      "1383.519": 12114.393379,
      "1384.521": 12127.165434,
      "1385.523": 12140.228038,
      "1386.525": 12153.071821,
      "1387.527": 12165.865855,
      "1388.529": 12178.571882,
      "1389.531": 12191.744238,
      "1390.533": 12204.490429,
      "1391.535": 12217.090319,
      "1392.537": 12229.607121,
      "1393.539": 12241.901621,
      "1394.541": 12254.322916,
      "1395.543": 12266.784859,
      "1396.545": 12279.078981,
      "1397.547": 12291.574767,
      "1398.549": 12304.004377,
      "1399.551": 12316.190693,
      "1400.553": 12328.26948,
      "1401.555": 12340.56008,
      "1402.557": 12352.745654,
      "1403.559": 12364.826354,
      "1404.561": 12377.169569,
      "1405.563": 12389.355565,
      "1406.565": 12401.35031,
      "1407.567": 12413.543387,
      "1408.569": 12425.868304,
      "1409.571": 12440.334943,
      "1410.573": 12453.216811,
      "1411.575": 12465.738373,
      "1412.577": 12478.429113,
      "1413.579": 12491.243329,
      "1414.581": 12503.577999,
      "1415.583": 12515.98377,
      "1416.585": 12528.480811,
      "1417.587": 12541.163314,
      "1418.589": 12553.917705,
      "1419.591": 12566.758364,
      "1420.593": 12579.701921,
      "1421.595": 12592.566609,
      "1422.597": 12605.409524,
      "1423.599": 12618.48324,
      "1424.601": 12631.417301,
      "1425.603": 12644.480875,
      "1426.605": 12657.436484,
      "1427.607": 12670.351931,
      "1428.609": 12683.500252,
      "1429.611": 12696.368869,
      "1430.613": 12709.179615,
      "1431.615": 12722.267436,
      "1432.617": 12734.909417,
      "1433.619": 12748.612272,
      "1434.621": 12762.45486,
      "1435.623": 12775.74279,
      "1436.625": 12788.829729,
      "1437.627": 12803.471616,
      "1438.629": 12816.698183,
      "1439.631": 12829.527208,
      "1440.633": 12842.134021,
      "1441.635": 12854.83523,
      "1442.637": 12867.203129,
      "1443.639": 12879.77491,
      "1444.641": 12892.636731,
      "1445.643": 12905.292211,
      "1446.645": 12917.804674,
      "1447.647": 12930.35896,
      "1448.649": 12943.028002,
      "1449.651": 12955.69621,
      "1450.653": 12968.910143,
      "1451.655": 12981.747208,
      "1452.657": 12994.855354,
      "1453.659": 13007.830989,
      "1454.661": 13020.80032,
      "1455.663": 13033.879252,
      "1456.665": 13046.82106,
      "1457.667": 13059.671962,
      "1458.669": 13072.48092,
      "1459.671": 13084.916049,
      "1460.673": 13098.061377,
      "1461.675": 13110.846392,
      "1462.677": 13123.311915,
      "1463.679": 13135.458782,
      "1464.681": 13147.79151,
      "1465.683": 13162.259311,
      "1466.685": 13174.864301,
      "1467.687": 13187.730667,
      "1468.689": 13200.351161,
      "1469.691": 13212.948265,
      "1470.693": 13225.332947,
      "1471.695": 13237.589908,
      "1472.697": 13250.063658,
      "1473.699": 13262.465344,
      "1474.701": 13274.755283,
      "1475.703": 13287.237591,
      "1476.705": 13300.14467,
      "1477.707": 13312.84929,
      "1478.709": 13325.478751,
      "1479.711": 13338.354461,
      "1480.713": 13351.322903,
      "1481.715": 13364.103077,
      "1482.717": 13376.6337,
      "1483.719": 13389.236334,
      "1484.721": 13401.603803,
      "1485.723": 13414.383193,
      "1486.725": 13427.065915,
      "1487.727": 13439.63829,
      "1488.729": 13452.559493,
      "1489.731": 13465.380047,
      "1490.733": 13478.105018,
      "1491.735": 13490.733301,
      "1492.737": 13503.522638,
      "1493.739": 13518.267145,
      "1494.741": 13531.209235,
      "1495.743": 13544.440225,
      "1496.745": 13557.632372,
      "1497.747": 13570.703079,
      "1498.749": 13583.51333,
      "1499.751": 13596.535146,
      "1500.753": 13610.03917,
      "1501.755": 13623.186557,
      "1502.757": 13636.613629,
      "1503.759": 13650.344198,
      "1504.761": 13663.86222,
      "1505.763": 13677.287904,
      "1506.765": 13690.683128,
      "1507.767": 13704.001158,
      "1508.769": 13717.544571,
      "1509.771": 13731.099285,
      "1510.773": 13744.227152,
      "1511.775": 13757.472033,
      "1512.777": 13770.731728,
      "1513.779": 13783.60913,
      "1514.781": 13796.664177,
      "1515.783": 13809.351366,
      "1516.785": 13822.177932,
      "1517.787": 13834.780275,
      "1518.789": 13848.014507,
      "1519.791": 13861.655554,
      "1520.793": 13877.1006,
      "1521.795": 13890.545444,
      "1522.797": 13903.997595,
      "1523.799": 13917.376054,
      "1524.801": 13930.766308,
      "1525.803": 13944.509766,
      "1526.805": 13958.110693,
      "1527.807": 13971.880192,
      "1528.809": 13985.759453,
      "1529.811": 13999.191371,
      "1530.813": 14012.620049,
      "1531.815": 14026.409085,
      "1532.817": 14039.635994,
      "1533.819": 14053.097674,
      "1534.821": 14066.480656,
      "1535.823": 14079.935311,
      "1536.825": 14093.153702,
      "1537.827": 14106.814989,
      "1538.829": 14119.828827,
      "1539.831": 14133.074424,
      "1540.833": 14146.260017,
      "1541.835": 14159.578675,
      "1542.837": 14172.873811,
      "1543.839": 14186.291959,
      "1544.841": 14199.572433,
      "1545.843": 14212.55467,
      "1546.845": 14225.257521,
      "1547.847": 14240.762035,
      "1548.849": 14253.475693,
      "1549.851": 14266.627639,
      "1550.853": 14279.867619,
      "1551.855": 14292.758783,
      "1552.857": 14306.234707,
      "1553.859": 14319.644227,
      "1554.861": 14332.440631,
      "1555.863": 14346.311725,
      "1556.865": 14359.601189,
      "1557.867": 14372.753579,
      "1558.869": 14386.161931,
      "1559.871": 14399.691534,
      "1560.873": 14413.097451,
      "1561.875": 14426.199011,
      "1562.877": 14439.639903,
      "1563.879": 14453.655284,
      "1564.881": 14467.134646,
      "1565.883": 14480.188347,
      "1566.885": 14493.321544,
      "1567.887": 14506.679909,
      "1568.889": 14519.724893,
      "1569.891": 14532.709724,
      "1570.893": 14546.4711,
      "1571.895": 14559.779192,
      "1572.897": 14574.899727,
      "1573.899": 14588.731219,
      "1574.901": 14605.861571,
      "1575.903": 14619.483735,
      "1576.905": 14632.89378,
      "1577.907": 14647.007564,
      "1578.909": 14660.834827,
      "1579.911": 14674.037759,
      "1580.913": 14686.906949,
      "1581.915": 14699.889797,
      "1582.917": 14712.818767,
      "1583.919": 14725.597129,
      "1584.921": 14737.972495,
      "1585.923": 14750.439806,
      "1586.925": 14763.227063,
      "1587.927": 14776.251169,
      "1588.929": 14789.411892,
      "1589.931": 14802.78591,
      "1590.933": 14816.489737,
      "1591.935": 14829.503189,
      "1592.937": 14842.572551,
      "1593.939": 14855.627503,
      "1594.941": 14868.856486,
      "1595.943": 14882.341771,
      "1596.945": 14895.614238,
      "1597.947": 14908.645073,
      "1598.949": 14921.787542,
      "1599.951": 14935.079237,
      "1600.953": 14948.210228,
      "1601.955": 14963.468943,
      "1602.957": 14977.097517,
      "1603.959": 14990.347063,
      "1604.961": 15003.436734,
      "1605.963": 15017.380921,
      "1606.965": 15030.971568,
      "1607.967": 15044.43754,
      "1608.969": 15057.648586,
      "1609.971": 15070.955196,
      "1610.973": 15084.826358,
      "1611.975": 15098.26074,
      "1612.977": 15111.277134,
      "1613.979": 15124.662382,
      "1614.981": 15137.725169,
      "1615.983": 15150.66902,
      "1616.985": 15163.559602,
      "1617.987": 15176.521865,
      "1618.989": 15189.633964,
      "1619.991": 15202.549695,
      "1620.993": 15215.492445,
      "1621.995": 15228.63953,
      "1622.997": 15241.429235,
      "1623.999": 15254.560885,
      "1625.001": 15267.7652,
      "1626.003": 15280.789407,
      "1627.005": 15294.257113,
      "1628.007": 15307.213807,
      "1629.009": 15323.08268,
      "1630.011": 15336.716549,
      "1631.013": 15350.279388,
      "1632.015": 15363.419064,
      "1633.017": 15376.754486,
      "1634.019": 15389.621982,
      "1635.021": 15402.675194,
      "1636.023": 15415.655998,
      "1637.025": 15429.286661,
      "1638.027": 15442.294231,
      "1639.029": 15455.279865,
      "1640.031": 15468.509399,
      "1641.033": 15481.871907,
      "1642.035": 15494.753216,
      "1643.037": 15507.949887,
      "1644.039": 15521.504409,
      "1645.041": 15534.522939,
      "1646.043": 15547.596212,
      "1647.045": 15560.47414,
      "1648.047": 15573.857194,
      "1649.049": 15587.178438,
      "1650.051": 15600.257776,
      "1651.053": 15613.398815,
      "1652.055": 15626.424724,
      "1653.057": 15639.346463,
      "1654.059": 15652.406503,
      "1655.061": 15665.096132,
      "1656.063": 15678.527806,
      "1657.065": 15693.01324,
      "1658.067": 15705.962374,
      "1659.069": 15719.43622,
      "1660.071": 15732.74629,
      "1661.073": 15745.714128,
      "1662.075": 15758.717573,
      "1663.077": 15771.606111,
      "1664.079": 15784.904858,
      "1665.081": 15798.152687,
      "1666.083": 15811.157084,
      "1667.085": 15824.128802,
      "1668.087": 15837.525232,
      "1669.089": 15850.06227,
      "1670.091": 15862.878226,
      "1671.093": 15875.708497,
      "1672.095": 15888.733437,
      "1673.097": 15901.43279,
      "1674.099": 15914.143787,
      "1675.101": 15926.805448,
      "1676.103": 15939.385657,
      "1677.105": 15951.944207,
      "1678.107": 15964.791767,
      "1679.109": 15977.34024,
      "1680.111": 15989.973527,
      "1681.113": 16002.730132,
      "1682.115": 16015.503295,
      "1683.117": 16028.46429,
      "1684.119": 16043.623788,
      "1685.121": 16056.6828,
      "1686.123": 16069.94151,
      "1687.125": 16083.02838,
      "1688.127": 16096.250446,
      "1689.129": 16108.931309,
      "1690.131": 16121.654563,
      "1691.133": 16134.553723,
      "1692.135": 16147.391361,
      "1693.137": 16160.346481,
      "1694.139": 16173.284256,
      "1695.141": 16186.256561,
      "1696.143": 16199.16894,
      "1697.145": 16212.113953,
      "1698.147": 16225.107826,
      "1699.149": 16238.669377,
      "1700.151": 16251.62695,
      "1701.153": 16264.865928,
      "1702.155": 16277.675562,
      "1703.157": 16290.605452,
      "1704.159": 16303.780325,
      "1705.161": 16317.113966,
      "1706.163": 16330.280795,
      "1707.165": 16343.3379,
      "1708.167": 16356.582012,
      "1709.169": 16370.220902,
      "1710.171": 16383.88454,
      "1711.173": 16397.513714,
      "1712.175": 16413.950205,
      "1713.177": 16427.289224,
      "1714.179": 16440.526787,
      "1715.181": 16453.852796,
      "1716.183": 16467.027996,
      "1717.185": 16480.148603,
      "1718.187": 16492.930675,
      "1719.189": 16506.085321,
      "1720.191": 16519.231231,
      "1721.193": 16532.344688,
      "1722.195": 16544.910322,
      "1723.197": 16557.445475,
      "1724.199": 16569.984022,
      "1725.201": 16583.022342,
      "1726.203": 16595.680384,
      "1727.205": 16608.677855,
      "1728.207": 16621.54616,
      "1729.209": 16634.565981,
      "1730.211": 16648.079835,
      "1731.213": 16661.075319,
      "1732.215": 16673.781049,
      "1733.217": 16686.838269,
      "1734.219": 16699.720354,
      "1735.221": 16712.540852,
      "1736.223": 16725.553459,
      "1737.225": 16738.401033,
      "1738.227": 16751.294925,
      "1739.229": 16766.796797,
      "1740.231": 16780.44953,
      "1741.233": 16794.144454,
      "1742.235": 16807.468986,
      "1743.237": 16820.801014,
      "1744.239": 16834.355813,
      "1745.241": 16847.582372,
      "1746.243": 16860.497126,
      "1747.245": 16873.224633,
      "1748.247": 16885.960622,
      "1749.249": 16898.504826,
      "1750.251": 16911.215431,
      "1751.253": 16923.946438,
      "1752.255": 16936.791972,
      "1753.257": 16949.097198,
      "1754.259": 16961.713111,
      "1755.261": 16974.553743,
      "1756.263": 16987.093332,
      "1757.265": 16999.535223,
      "1758.267": 17012.388396,
      "1759.269": 17024.877351,
      "1760.271": 17037.66734,
      "1761.273": 17050.618864,
      "1762.275": 17063.208781,
      "1763.277": 17075.716421,
      "1764.279": 17088.623938,
      "1765.281": 17101.298401,
      "1766.283": 17114.157967,
      "1767.285": 17128.408489,
      "1768.287": 17141.892629,
      "1769.289": 17154.852505,
      "1770.291": 17167.876532,
      "1771.293": 17180.545244,
      "1772.295": 17193.111069,
      "1773.297": 17205.982645,
      "1774.299": 17218.899042,
      "1775.301": 17231.825604,
      "1776.303": 17244.501255,
      "1777.305": 17257.11677,
      "1778.307": 17270.005541,
      "1779.309": 17282.985358,
      "1780.311": 17295.862553,
      "1781.313": 17308.806358,
      "1782.315": 17321.676712,
      "1783.317": 17334.174188,
      "1784.319": 17346.760304,
      "1785.321": 17359.501906,
      "1786.323": 17372.309178,
      "1787.325": 17384.837565,
      "1788.327": 17397.503422,
      "1789.329": 17410.279249,
      "1790.331": 17422.884388,
      "1791.333": 17435.517529,
      "1792.335": 17448.658342,
      "1793.337": 17461.337876,
      "1794.339": 17473.867997,
      "1795.341": 17486.607987,
      "1796.343": 17501.235162,
      "1797.345": 17514.499572,
      "1798.347": 17527.188607,
      "1799.349": 17540.48549,
      "1800.351": 17553.669629,
      "1801.353": 17567.429773,
      "1802.355": 17580.874838,
      "1803.357": 17593.935377,
      "1804.359": 17607.281854,
      "1805.361": 17620.695277,
      "1806.363": 17633.871243,
      "1807.365": 17646.918072,
      "1808.367": 17659.597734,
      "1809.369": 17672.599388,
      "1810.371": 17685.511465,
      "1811.373": 17698.748587,
      "1812.375": 17711.55222,
      "1813.377": 17724.436077,
      "1814.379": 17737.283507,
      "1815.381": 17750.404792,
      "1816.383": 17763.205812,
      "1817.385": 17776.255805,
      "1818.387": 17789.354812,
      "1819.389": 17802.287596,
      "1820.391": 17815.698261,
      "1821.393": 17828.926114,
      "1822.395": 17842.474842,
      "1823.397": 17858.058584,
      "1824.399": 17871.577396,
      "1825.401": 17884.902154,
      "1826.403": 17898.240405,
      "1827.405": 17911.142688,
      "1828.407": 17924.498472,
      "1829.409": 17937.805703,
      "1830.411": 17950.752505,
      "1831.413": 17963.977806,
      "1832.415": 17977.874284,
      "1833.417": 17990.837407,
      "1834.419": 18003.923559,
      "1835.421": 18017.212501,
      "1836.423": 18030.159354,
      "1837.425": 18043.294147,
      "1838.427": 18056.496951,
      "1839.429": 18069.499305,
      "1840.431": 18082.73354,
      "1841.433": 18095.818691,
      "1842.435": 18109.012863,
      "1843.437": 18122.25383,
      "1844.439": 18135.359116,
      "1845.441": 18148.547019,
      "1846.443": 18162.531826,
      "1847.445": 18177.765491,
      "1848.447": 18191.856588,
      "1849.449": 18205.628744,
      "1850.451": 18220.919323,
      "1851.453": 18234.665736,
      "1852.455": 18248.532513,
      "1853.457": 18262.824916,
      "1854.459": 18276.530231,
      "1855.461": 18289.546319,
      "1856.463": 18303.242963,
      "1857.465": 18316.735778,
      "1858.467": 18330.60176,
      "1859.469": 18344.543565
    },
    "seconds": 18344.543565
  }
}