[
  0.774133,
  0.714585,
  0.627214,
  1.022367,
  0.696059,
  0.644725,
  0.603384,
  0.616458,
  0.812262,
  0.802503,
  0.550802,
  0.607612,
  0.448042,
  0.606721,
  0.418971,
  0.477999,
  0.606752,
  0.442329,
  0.464005,
  0.344897,
  0.569236,
  0.340997,
  0.702749,
  0.685121,
  0.393539,
  0.698846,
  0.379,
  0.511429,
  0.657103,
  0.449799,
  0.571811,
  0.464438,
  0.901345,
  1.478244,
  0.608,
  0.718312,
  0.545733,
  1.171925,
  0.827481,
  0.918733,
  0.890874,
  0.762508,
  0.77,
  0.94352,
  1.585,
  0.445159,
  0.780317,
  0.579674,
  0.562644,
  0.681273,
  0.472241,
  0.321871,
  0.388895,
  0.465135,
  0.334691,
  0.379988,
  0.649,
  0.504,
  0.664103,
  0.703468,
  0.945469,
  0.864611,
  1.126344,
  0.852222,
  0.77,
  0.883,
  0.674655,
  0.54008,
  0.892125,
  0.740736,
  0.489288,
  0.59363,
  0.574246,
  0.671583,
  0.667264,
  0.461295,
  0.315907,
  0.506322,
  0.493657,
  0.551777,
  0.673784,
  0.456546,
  0.280103,
  0.578512,
  0.64019,
  0.357709,
  0.464374,
  0.484406,
  0.777409,
  0.8,
  0.462438,
  0.736,
  0.651792,
  0.583111,
  0.380232,
  0.707706,
  0.569925,
  0.880277,
  0.592636,
  0.889757,
  0.604418,
  0.437933,
  0.609254,
  0.919279,
  0.803599,
  0.4576,
  0.531095,
  0.416052,
  0.476495,
  0.549,
  0.781136,
  0.396309,
  0.309,
  0.619,
  0.465,
  0.753524,
  0.912827,
  0.629335,
  0.550017,
  0.434452,
  0.759822,
  0.433539,
  0.507164,
  0.357608,
  0.377365,
  0.358438,
  0.565372,
  0.643101,
  0.757274,
  0.650876,
  0.833122,
  0.849262,
  1.094586,
  1.2378,
  0.896859,
  0.784121,
  0.916407,
  0.745353,
  0.625324,
  0.518103,
  0.829719,
  0.607419,
  0.641568,
  0.586552,
  0.776,
  0.768728,
  0.964273,
  0.792,
  0.85098,
  0.548031,
  0.679478,
  0.86132,
  0.376265,
  0.735843,
  0.430283,
  0.459223,
  0.869464,
  0.847302,
  0.866889,
  0.679755,
  0.611785,
  0.503057,
  0.520863,
  0.446685,
  0.87607,
  0.54653,
  0.625372,
  0.6482,
  0.299801,
  0.882,
  0.352765,
  0.797297,
  0.542207,
  0.835992,
  0.535756,
  0.565,
  0.62384,
  0.269309,
  0.611718,
  0.94832,
  0.376142,
  0.526519,
  0.82912,
  0.52,
  0.88465,
  0.825584,
  1.020827,
  0.86,
  0.736,
  0.793067,
  0.668596,
  1.191174,
  0.929978,
  0.696475,
  0.906331,
  0.947317,
  0.541636,
  0.661756,
  0.472843,
  0.548449,
  0.416709,
  0.636,
  0.633,
  0.498596,
  0.788361,
  0.939643,
  0.735,
  0.605648,
  0.390874,
  0.409715,
  0.378386,
  0.642093,
  0.581344,
  0.665538,
  0.465999,
  0.615102,
  0.622455,
  0.665914,
  0.701246,
  0.674,
  0.541238,
  0.574,
  0.544,
  0.514396,
  0.253,
  0.641539,
  0.329,
  0.415,
  0.558014,
  0.45,
  0.809,
  0.733,
  0.476285,
  0.868261,
  0.312,
  0.743408,
  0.856426,
  0.424336,
  1.159971,
  0.809656,
  0.545,
  0.54431,
  0.555525,
  0.623,
  0.504134,
  0.516361,
  0.408132,
  0.416752,
  0.304687,
  0.886,
  0.716,
  0.598,
  0.605,
  0.689396,
  0.391,
  0.901989,
  0.848206,
  0.650398,
  0.952295,
  0.531211,
  0.847311,
  0.568338,
  0.978488,
  0.796131,
  0.994825,
  0.715696,
  0.78839,
  1.111831,
  0.7895,
  0.655692,
  0.766672,
  0.744572,
  0.843948,
  0.856098,
  0.674,
  0.801457,
  0.507299,
  0.642,
  0.694,
  0.650985,
  0.575,
  0.738524,
  0.766,
  0.7936,
  0.628436,
  0.78,
  0.425855,
  0.767446,
  0.713113,
  0.479548,
  0.554,
  0.828,
  0.438223,
  0.363008,
  0.405465,
  1.096,
  0.655478,
  0.715,
  0.727041,
  0.630139,
  0.741946,
  0.781377,
  0.895,
  0.419308,
  0.758802,
  0.625072,
  0.662741,
  0.550008,
  0.365607,
  0.580721,
  0.590842,
  0.497,
  0.381688,
  0.491,
  0.604,
  0.435103,
  0.499,
  0.540008,
  0.562,
  0.510338,
  0.75327,
  0.263982,
  0.819888,
  0.837557,
  0.468794,
  0.693176,
  0.797897,
  0.446667,
  0.544491,
  0.781165,
  0.334456,
  0.525938,
  0.333,
  0.848038,
  0.473968,
  0.653685,
  0.816914,
  0.964,
  0.909,
  1.0,
  0.729597,
  1.061867,
  0.83692,
  1.007883,
  1.007464,
  0.694461,
  0.614587,
  0.906795,
  0.778326,
  0.526303,
  0.571,
  0.620252,
  0.546317,
  0.494818,
  0.589171,
  0.572914,
  0.777576,
  0.293,
  0.730458,
  0.57047,
  0.637647,
  0.771,
  0.303605,
  0.414,
  0.954,
  0.559103,
  0.579,
  0.595322,
  0.587994,
  0.958867,
  0.417362,
  0.549943,
  0.323389,
  0.681059,
  0.54635,
  0.695,
  0.452,
  0.616,
  0.670949,
  0.807576,
  0.544154,
  0.530214,
  0.653965,
  0.897134,
  0.745656,
  0.34,
  0.632282,
  1.139586,
  1.083732,
  0.846185,
  1.178369,
  0.961597,
  1.152342,
  0.746237,
  0.878759,
  0.788598,
  1.587233,
  0.987316,
  0.464732,
  0.679249,
  0.555136,
  0.594695,
  0.643323,
  0.462412,
  0.667357,
  0.695213,
  0.676058,
  0.615656,
  0.62596,
  0.621726,
  0.528589,
  0.571864,
  0.854693,
  0.747819,
  0.662473,
  0.590487,
  0.938721,
  0.501242,
  0.618817,
  0.679162,
  0.844,
  1.003759,
  0.911192,
  0.828042,
  0.587042,
  1.097895,
  0.81002,
  0.814565,
  0.61396,
  0.984228,
  1.114193,
  0.935425,
  0.849215,
  0.832897,
  0.625232,
  0.920842,
  0.595153,
  0.717596,
  0.608448,
  1.023712,
  0.633932,
  0.617433,
  0.417,
  0.59,
  0.767909,
  0.726971,
  0.699253,
  0.597302,
  0.489,
  0.321765,
  0.710903,
  0.683346,
  0.534994,
  0.619697,
  1.158103,
  0.702531,
  0.522238,
  0.64318,
  0.901854,
  0.959,
  1.292107,
  0.715024,
  0.599146,
  1.140593,
  0.92205,
  0.702031,
  0.775966,
  0.857571,
  0.849103,
  0.782424,
  0.748872,
  1.126959,
  0.389199,
  0.306001,
  0.40039,
  0.518579,
  0.624018,
  0.626788,
  0.542,
  0.656222,
  0.483376,
  0.388335,
  0.399565,
  0.497411,
  0.58,
  0.824,
  1.215024,
  0.809842,
  0.663646,
  0.591279,
  1.134,
  1.180664,
  0.982123,
  0.554,
  0.763854,
  1.011119,
  0.792569,
  0.565805,
  0.604,
  0.596338,
  0.639,
  0.514304,
  0.496489,
  0.693148,
  0.57227,
  0.773802,
  0.352431,
  0.384006,
  0.544593,
  0.451,
  0.622709,
  0.445051,
  0.560963,
  0.406872,
  0.479447,
  0.466691,
  0.7168,
  0.458,
  0.484064,
  0.328911,
  0.633963,
  0.462,
  0.431774,
  0.686,
  0.553906,
  0.414234,
  0.416589,
  0.544,
  0.574097,
  0.734368,
  0.807,
  0.55407,
  0.707296,
  0.791466,
  1.13714,
  1.032097,
  0.620197,
  0.634406,
  0.584097,
  0.776,
  0.703222,
  0.830404,
  0.458323,
  0.831756,
  0.739773,
  0.823933,
  0.901864,
  0.92146,
  0.891274,
  0.69453,
  0.737094,
  0.776994,
  1.026235,
  0.394578,
  0.586506,
  0.794,
  0.359,
  0.682666,
  0.437,
  0.379142,
  0.47007,
  0.587598,
  0.639619,
  0.325055,
  0.400465,
  0.552955,
  0.566041,
  0.737126,
  0.603694,
  0.705699,
  0.703556,
  0.915311,
  0.729446,
  0.715472,
  0.956034,
  0.548737,
  0.841948,
  0.569451,
  0.965984,
  1.304657,
  1.1018,
  0.757097,
  1.139475,
  0.855254,
  0.651896,
  1.063913,
  0.656926,
  0.659649,
  0.561685,
  0.712431,
  0.614972,
  0.622973,
  0.752,
  0.714,
  0.761591,
  0.741497,
  0.796,
  0.553671,
  0.659934,
  0.646905,
  0.835763,
  0.689862,
  0.678019,
  0.664825,
  0.651119,
  0.664886,
  0.749805,
  0.789192,
  0.765108,
  1.111794,
  0.832103,
  0.727418,
  1.077435,
  0.796654,
  0.884372,
  0.811,
  0.806384,
  0.552446,
  0.538653,
  0.688417,
  0.701662,
  0.668341,
  0.603854,
  0.75434,
  0.651972,
  0.5578,
  0.830628,
  0.953,
  0.854009,
  0.797,
  0.788522,
  1.135767,
  1.142125,
  0.852,
  0.670022,
  0.797661,
  0.842,
  0.825153,
  0.934927,
  0.614175,
  0.830307,
  0.820456,
  0.721327,
  1.354602,
  0.798387,
  0.5767,
  0.788337,
  0.741981,
  0.649273,
  0.655666,
  0.783914,
  0.81606,
  0.802893,
  0.261398,
  0.63463,
  0.530237,
  0.513824,
  0.654779,
  0.351,
  0.845283,
  0.742564,
  0.390991,
  0.438698,
  0.927301,
  0.848522,
  0.376418,
  0.337072,
  0.519102,
  0.645888,
  0.538879,
  0.702151,
  0.6213,
  0.605773,
  0.974906,
  0.879931,
  0.755409,
  0.346,
  1.179606,
  1.312245,
  0.66111,
  0.849237,
  0.852674,
  0.997227,
  0.599835,
  1.193813,
  0.779792,
  0.897,
  0.503928,
  0.987209,
  0.768485,
  0.82,
  0.693,
  0.43,
  0.594,
  0.691,
  0.532693,
  0.674,
  0.882,
  0.574754,
  0.559022,
  0.737715,
  0.649846,
  0.745479,
  1.257058,
  0.948794,
  0.614897,
  0.882891,
  0.391622,
  0.606,
  0.462317,
  0.357,
  0.442251,
  0.674048,
  0.242539,
  0.469009,
  0.790127,
  0.711,
  0.867112,
  0.551791,
  0.667365,
  0.754846,
  0.700394,
  0.733894,
  0.761715,
  0.840934,
  0.959761,
  0.697,
  0.698795,
  0.858106,
  0.491,
  0.645049,
  0.584,
  0.588927,
  0.688111,
  0.574357,
  0.59841,
  1.024287,
  0.750977,
  0.973124,
  1.145531,
  0.57926,
  0.929,
  0.829012,
  0.921555,
  0.669338,
  0.856461,
  0.839872,
  0.659,
  0.908,
  0.725497,
  0.891616,
  0.90779,
  0.722136,
  0.732,
  0.829006,
  0.897103,
  0.658,
  0.847809,
  0.852042,
  0.656111,
  0.837677,
  1.032911,
  1.31,
  0.877004,
  1.155892,
  0.853662,
  0.97,
  0.847865,
  0.852813,
  0.888986,
  0.744,
  0.968531,
  0.586111,
  0.492641,
  0.63743,
  0.617,
  0.384103,
  0.383575,
  0.518541,
  0.403,
  0.452,
  0.497,
  0.645,
  0.607643,
  0.454206,
  0.856965,
  1.037159,
  0.819305,
  1.084,
  1.141,
  0.748024,
  0.807031,
  0.728191,
  0.859201,
  0.937897,
  0.963354,
  0.919351,
  0.423395,
  0.778304,
  0.432302,
  0.662535,
  0.575014,
  1.126023,
  0.862695,
  0.713754,
  0.591683,
  0.877547,
  0.417666,
  0.433617,
  0.616644,
  0.540103,
  0.527032,
  0.784334,
  0.588984,
  0.666262,
  0.561115,
  0.42292,
  0.8,
  0.540413,
  0.6292,
  0.679569,
  0.88,
  0.40287,
  0.623646,
  0.398499,
  0.400434,
  0.369795,
  0.436843,
  0.287719,
  0.642934,
  0.542506,
  0.674,
  0.375838,
  0.43391,
  0.467637,
  0.491525,
  0.732994,
  0.632363,
  0.715641,
  0.948645,
  0.835,
  1.092154,
  0.700264,
  0.737865,
  0.869091,
  0.667788,
  0.742357,
  0.836889,
  0.941206,
  0.757138,
  0.742,
  0.898,
  0.954446,
  0.769779,
  0.951897,
  1.117904,
  0.826,
  0.738272,
  1.132075,
  0.869884,
  0.959,
  0.683034,
  0.835406,
  0.426003,
  1.156449,
  0.786103,
  0.863,
  0.367,
  0.696275,
  0.544,
  0.814,
  0.743,
  0.735965,
  0.870408,
  0.552,
  0.565424,
  0.620558,
  0.515,
  0.776516,
  0.768,
  0.303,
  0.989684,
  1.020807,
  0.941205,
  0.867875,
  0.993257,
  0.868,
  0.949654,
  0.726658,
  0.777889,
  0.858764,
  0.965322,
  1.047744,
  1.294675,
  0.718248,
  0.979326,
  0.59103,
  0.44321,
  0.652487,
  0.593108,
  0.60702,
  0.506712,
  0.629654,
  0.53,
  0.399811,
  0.433,
  0.584055,
  0.689522,
  0.918027,
  0.680081,
  0.847902,
  0.904902,
  0.788399,
  0.941478,
  0.956843,
  0.796349,
  1.291,
  0.811615,
  0.816,
  0.696,
  0.694444,
  0.795528,
  0.68312,
  0.624528,
  1.074841,
  0.616528,
  0.791055,
  0.772191,
  0.571108,
  0.409427,
  0.61836,
  0.450085,
  0.762438,
  0.626718,
  0.55588,
  0.827998,
  0.691438,
  0.852365,
  0.821574,
  0.395562,
  0.621087,
  0.506272,
  0.395153,
  0.472536,
  0.640806,
  0.398405,
  0.683236,
  0.804,
  0.423888,
  0.564707,
  0.458,
  0.418407,
  0.448,
  0.622712,
  0.3405,
  0.468782,
  0.660577,
  0.616836,
  0.437,
  0.598203,
  0.480573,
  0.829352,
  0.514959,
  0.597865,
  0.398897,
  0.550927,
  0.358,
  0.661508,
  0.478235,
  0.715039,
  0.536462,
  0.522,
  0.805909,
  0.696295,
  0.639424,
  0.556982,
  0.488631,
  0.661384,
  0.971179,
  0.712097,
  0.669957,
  0.680834,
  0.943627,
  0.9997,
  0.718372,
  0.719514,
  0.845435,
  1.069,
  0.768096,
  0.875695,
  0.825,
  0.946824,
  1.164114,
  0.935271,
  0.579798,
  0.771761,
  0.957,
  0.818897,
  0.700141,
  0.65139,
  0.717585,
  0.888539,
  1.00392,
  0.79659,
  0.934773,
  0.785098,
  0.630573,
  0.707782,
  0.78044,
  0.801925,
  0.76692,
  0.691466,
  0.542406,
  0.61318,
  0.576331,
  0.813183,
  0.582195,
  0.856547,
  0.626929,
  0.806012,
  1.154,
  0.808498,
  0.818305,
  0.665307,
  0.64379,
  0.886314,
  0.992,
  0.925645,
  0.677631,
  0.941568,
  1.077723,
  0.424404,
  0.582606,
  0.752712,
  0.430127,
  0.764601,
  0.30878,
  0.463794,
  0.683412,
  0.557042,
  0.577575,
  0.633958,
  0.798705,
  0.446,
  0.580846,
  0.364755,
  0.573897,
  0.597352,
  0.54523,
  0.391,
  0.306594,
  0.570012,
  0.587078,
  0.531,
  0.842889,
  0.426427,
  0.595712,
  0.427,
  0.560103,
  0.388,
  0.608906,
  0.812118,
  0.580109,
  0.612056,
  0.760574,
  0.595,
  0.429196,
  0.757,
  0.283622,
  0.233045,
  0.847143,
  0.614621,
  0.424069,
  0.815,
  0.492795,
  0.608812,
  0.563087,
  0.60683,
  0.582149,
  0.786,
  0.776,
  0.775772,
  0.603402,
  0.502102,
  0.392306,
  0.795498,
  0.893,
  0.562,
  0.715608,
  0.959,
  0.768,
  0.939,
  0.949052,
  0.94883,
  0.73,
  0.770745,
  0.756454,
  0.576456,
  0.824459,
  0.531499,
  0.714,
  1.056862,
  0.804495,
  0.658428,
  0.835706,
  0.810351,
  1.102805,
  0.920467,
  0.810363,
  0.649672,
  0.742086,
  0.315757,
  0.499281,
  0.4179,
  0.722084,
  0.619,
  0.648,
  0.611061,
  0.834828,
  0.688976,
  0.602352
]