{
  "1048576": [
    0.342645,
    0.69059,
    0.479715,
    0.366502,
    0.572992,
    0.873013,
    0.438,
    0.563486,
    0.775725,
    0.453,
    0.424778,
    0.508041,
    0.129201,
    0.374915,
    0.207963,
    0.246758,
    0.356912,
    0.526,
    0.376,
    0.174396,
    0.491262,
    0.234,
    0.455813,
    0.411431,
    0.185,
    0.128555,
    0.643572,
    0.561068,
    0.452871,
    0.639414,
    0.709724,
    0.630848,
    0.414154,
    0.361621,
    0.202371,
    0.274029,
    0.370111,
    0.221,
    0.533,
    0.13824,
    0.217897,
    0.220482,
    0.186682,
    0.26,
    0.48164,
    0.50388,
    0.42,
    0.413901,
    0.324,
    0.280913,
    0.346462,
    0.118,
    0.490545,
    0.625341,
    0.550403,
    0.593522,
    0.539934,
    0.48992,
    0.381502,
    0.346206,
    0.410034,
    0.382967,
    0.36,
    0.619891,
    0.407,
    0.621758,
    0.504827,
    0.587223,
    0.4478,
    0.598542,
    0.426164,
    0.560341,
    0.503,
    0.673764,
    0.378719,
    0.446796,
    0.254081,
    0.1198,
    0.274077,
    0.444754,
    0.442243,
    0.31605,
    0.410951,
    0.184834,
    0.439435,
    0.408401,
    0.253242,
    0.234441,
    0.219884,
    0.480771,
    0.313653,
    0.324362,
    0.223169,
    0.43146,
    0.264009,
    0.196,
    0.323157,
    0.338,
    0.744103,
    0.391442,
    0.75741,
    0.586007,
    0.146986,
    0.224361,
    0.642571,
    0.321,
    0.528833,
    0.207927,
    0.239378,
    0.221939,
    0.220339,
    0.263,
    0.233914,
    0.180193,
    0.190481,
    0.48112,
    0.433714,
    0.405,
    0.428354,
    0.357027,
    0.212,
    0.404298,
    0.648363,
    0.388006,
    0.669,
    0.217,
    0.156849,
    0.577,
    0.308751,
    0.417,
    0.428984,
    0.721562,
    0.63877,
    0.556,
    0.379667,
    0.147483,
    0.424202,
    0.478141,
    0.615352,
    0.6,
    0.409307,
    0.44503,
    0.478662,
    0.586393,
    0.364403,
    0.590484,
    0.391531,
    0.566038,
    0.425578,
    0.455889,
    0.390372,
    0.392216,
    0.44,
    0.609615,
    0.572202,
    0.380615,
    0.429588,
    0.177465,
    0.392,
    0.207,
    0.673937,
    0.443302,
    0.421,
    0.390337,
    0.468946,
    0.241995,
    0.232,
    0.457861,
    0.520389,
    0.393257,
    0.46652,
    0.503,
    0.422404,
    0.47552,
    0.543914,
    0.568681,
    0.499481,
    0.387756,
    0.336786,
    0.460896,
    0.628816,
    0.466,
    0.366486,
    0.462372,
    0.47336,
    0.165103,
    0.314638,
    0.21463,
    0.578934,
    0.456919,
    0.171733,
    0.366018,
    0.540136,
    0.356409,
    0.507649,
    0.907,
    0.393,
    0.166479,
    0.227756,
    0.169992,
    0.578279,
    0.436921,
    0.516231,
    0.42496,
    0.384791,
    0.183591,
    0.205962,
    0.201,
    0.206222,
    0.554659,
    0.624597,
    0.560043,
    0.693
  ],
  "51200": [
    0.276118,
    0.25,
    0.489534,
    0.374784,
    0.178975,
    0.261242,
    0.339042,
    0.455133,
    0.498123,
    0.191557,
    0.18,
    0.458669,
    0.204462,
    0.167,
    0.175804,
    0.226938,
    0.226145,
    0.299,
    0.201,
    0.180502,
    0.527,
    0.224264,
    0.361,
    0.183424,
    0.224955,
    0.372103,
    0.204555,
    0.418045,
    0.189056,
    0.397494,
    0.529154,
    0.610519,
    0.549879,
    0.443393,
    0.409483,
    0.651716,
    0.407208,
    0.41262,
    0.410326,
    0.614,
    0.557623,
    0.360163,
    0.416352,
    0.46,
    0.759631,
    0.675973,
    0.389604,
    0.403565,
    0.45921,
    0.598759,
    0.431103,
    0.516374,
    0.629309,
    0.394149,
    0.54036,
    0.788762,
    0.470685,
    0.65502,
    0.543949,
    0.680496,
    0.578671,
    0.4789,
    0.69665,
    0.557994,
    0.743822,
    0.650653,
    0.52649,
    0.545014,
    0.500225,
    0.757103,
    0.449312,
    0.374705,
    0.511,
    0.34533,
    0.445576,
    0.421837,
    0.459924,
    0.181526,
    0.318029,
    0.312735,
    0.406535,
    0.274638,
    0.184961,
    0.434379,
    0.389126,
    0.313097,
    0.37629,
    0.195,
    0.298931,
    0.233692,
    0.308798,
    0.400851,
    0.334,
    0.239846,
    0.235174,
    0.246128,
    0.374,
    0.151018,
    0.275,
    0.280057,
    0.43113,
    0.475545,
    0.208946,
    0.42782,
    0.402053,
    0.154924,
    0.243746,
    0.369638,
    0.267184,
    0.159162,
    0.364004,
    0.177617,
    0.251252,
    0.194778,
    0.410084,
    0.378447,
    0.369,
    0.423381,
    0.358,
    0.609809,
    0.483,
    0.567875,
    0.350491,
    0.506,
    0.450877,
    0.477959,
    0.37402,
    0.318,
    0.55627,
    0.388053,
    0.234471,
    0.195508,
    0.283292,
    0.216376,
    0.202323,
    0.204481,
    0.407708,
    0.491646,
    0.23378,
    0.561159,
    0.361501,
    0.167128,
    0.220556,
    0.510713,
    0.402309,
    0.543,
    0.374,
    0.635,
    0.606,
    0.548,
    0.521157,
    0.43983,
    0.341,
    0.46,
    0.466433,
    0.46014,
    0.361,
    0.236743,
    0.317897,
    0.179927,
    0.189875,
    0.296025,
    0.414166,
    0.237766,
    0.144587,
    0.388681,
    0.262891,
    0.153,
    0.178299,
    0.403406,
    0.360303,
    0.1943,
    0.478,
    0.261254,
    0.355946,
    0.218,
    0.259943,
    0.395044,
    0.204,
    0.476491,
    0.250442,
    0.33427,
    0.284874,
    0.151403,
    0.163757,
    0.144,
    0.172153,
    0.464406,
    0.188426,
    0.429098,
    0.434523,
    0.421474,
    0.416778,
    0.472707,
    0.36245,
    0.186,
    0.416253,
    0.210568,
    0.352165,
    0.41655,
    0.200104,
    0.313939,
    0.386111,
    0.175559,
    0.16784,
    0.237,
    0.409,
    0.187224,
    0.174797,
    0.112943,
    0.244255,
    0.223418,
    0.616916,
    0.754281,
    0.419005,
    0.468969,
    0.455703,
    0.533868,
    0.511499,
    0.4587,
    0.354014,
    0.282382,
    0.300604,
    0.471743,
    0.108,
    0.417628,
    0.172897,
    0.408346,
    0.281648,
    0.472473,
    0.374,
    0.287,
    0.156105,
    0.193496,
    0.357214,
    0.164665,
    0.378656,
    0.253322,
    0.216846,
    0.350866,
    0.191165,
    0.276303,
    0.500608,
    0.478508,
    0.12,
    0.251283,
    0.358825,
    0.619636,
    0.417557,
    0.739,
    0.686,
    0.417955,
    0.475046,
    0.396659,
    0.428,
    0.43,
    0.653,
    0.394,
    0.516,
    0.648,
    0.660069,
    0.155105,
    0.164655,
    0.4,
    0.392812,
    0.149433,
    0.189222,
    0.172,
    0.393148,
    0.156,
    0.133983,
    0.285023,
    0.453231,
    0.336288,
    0.162,
    0.383,
    0.155884,
    0.109,
    0.312525,
    0.207,
    0.550514,
    0.163,
    0.498912,
    0.357,
    0.405296,
    0.443163,
    0.679026,
    0.361984,
    0.546894,
    0.337711,
    0.32746,
    0.618685,
    0.398596,
    0.687,
    0.783099,
    0.580993,
    0.684,
    0.605273,
    0.39681,
    0.833,
    0.700696,
    0.697,
    0.469897,
    0.68758,
    0.644146,
    0.516312,
    0.416104,
    0.656202,
    0.322828,
    0.57569,
    0.348778,
    0.376,
    0.394,
    0.400142,
    0.589,
    0.418,
    0.48774,
    0.333131,
    0.323936,
    0.502813,
    0.401331,
    0.313376,
    0.349427,
    0.381566,
    0.319957,
    0.253,
    0.257944,
    0.257907,
    0.381149,
    0.228,
    0.13548,
    0.421979,
    0.412542,
    0.66128,
    0.683097,
    0.548943,
    0.382,
    0.457,
    0.483926,
    0.37488,
    0.651598,
    0.540591,
    0.502334,
    0.636505,
    0.393173,
    0.61269,
    0.579855,
    0.517454,
    0.482694,
    0.396059,
    0.434303,
    0.435463,
    0.396349,
    0.559156,
    0.33639,
    0.570009,
    0.460695,
    0.693306,
    0.57437,
    0.653371,
    0.425,
    0.424,
    0.776,
    0.650094,
    0.590086,
    0.597876,
    0.424194,
    0.637885,
    0.6738,
    0.517207,
    0.374323,
    0.43878,
    0.508,
    0.423653,
    0.445372,
    0.447,
    0.555,
    0.669842,
    0.469724,
    0.573044,
    0.409998,
    0.480838,
    0.212164,
    0.354895,
    0.348475,
    0.148302,
    0.397358,
    0.150429,
    0.242,
    0.191428,
    0.262961,
    0.168,
    0.445952,
    0.319155,
    0.287913,
    0.297553,
    0.134,
    0.565471,
    0.103416,
    0.283409,
    0.140915,
    0.182,
    0.244151,
    0.232903,
    0.125739,
    0.136,
    0.185562,
    0.265178,
    0.229705,
    0.39,
    0.413097,
    0.597841,
    0.40197,
    0.424391,
    0.766403,
    0.404685,
    0.488727,
    0.529023,
    0.601602,
    0.464714,
    0.488,
    0.358925,
    0.395047,
    0.403,
    0.52,
    0.49911,
    0.393446,
    0.544165,
    0.45164,
    0.472051,
    0.470746,
    0.789943,
    0.631723,
    0.459111,
    0.651904,
    0.445259,
    0.539887,
    0.653723,
    0.640019,
    0.369883,
    0.377,
    0.322451,
    0.349,
    0.440524,
    0.378268,
    0.433321,
    0.581313,
    0.522,
    0.472184,
    0.383543,
    0.634532,
    0.357,
    0.406577,
    0.592761,
    0.524632,
    0.599585,
    0.684117,
    0.520805,
    0.48426,
    0.619497,
    0.695157,
    0.506709,
    0.641781,
    0.449047,
    0.605505,
    0.552956,
    0.506056,
    0.489624,
    0.813115,
    0.42295,
    0.561186,
    0.393334,
    0.536054,
    0.441276,
    0.597813,
    0.766558,
    0.474564,
    0.4,
    0.345777,
    0.463909,
    0.630977,
    0.680206,
    0.439,
    0.435043,
    0.41042,
    0.685946,
    0.389,
    0.554542,
    0.387,
    0.387892,
    0.390731,
    0.612,
    0.72,
    0.532104,
    0.643,
    0.417915,
    0.512897,
    0.448654,
    0.566931,
    0.423143,
    0.307439,
    0.269403,
    0.698446,
    0.2481,
    0.553467,
    0.45736,
    0.15607,
    0.405522,
    0.17942,
    0.516257,
    0.307597,
    0.294346,
    0.212461,
    0.547252,
    0.246423,
    0.405083,
    0.143974,
    0.537124,
    0.373843,
    0.184,
    0.201751,
    0.31581,
    0.258063,
    0.435629,
    0.529,
    0.420232,
    0.162281,
    0.362137,
    0.634651,
    0.657988,
    0.585126,
    0.672509,
    0.5996,
    0.664943,
    0.64856,
    0.73668,
    0.524,
    0.675655,
    0.681006,
    0.38,
    0.634,
    0.344639,
    0.318886,
    0.242304,
    0.196327,
    0.542729,
    0.276235,
    0.464841,
    0.339038,
    0.580153,
    0.311236,
    0.271926,
    0.186485,
    0.533391,
    0.204516,
    0.166591,
    0.548441,
    0.343,
    0.192596,
    0.425241,
    0.162911,
    0.225137,
    0.240368,
    0.136689,
    0.611875,
    0.407294,
    0.292324,
    0.253826,
    0.193574,
    0.537406,
    0.159027,
    0.175035,
    0.586298,
    0.246279,
    0.203418,
    0.482975,
    0.102066,
    0.356594,
    0.230376,
    0.332761,
    0.363,
    0.34449,
    0.433097,
    0.637596,
    0.426655,
    0.118763,
    0.245116,
    0.205,
    0.2159,
    0.454667,
    0.370334,
    0.334,
    0.535688,
    0.329719,
    0.18453,
    0.403657,
    0.141047,
    0.177378,
    0.368018,
    0.343967,
    0.433443,
    0.554882,
    0.144,
    0.58817,
    0.449767,
    0.277,
    0.146074,
    0.299,
    0.564,
    0.35,
    0.441308,
    0.264,
    0.172449,
    0.192,
    0.454359,
    0.594008,
    0.402,
    0.439496,
    0.471289,
    0.45224,
    0.461585,
    0.435145,
    0.710171,
    0.570784,
    0.627909,
    0.693,
    0.480189,
    0.763234,
    0.490697,
    0.728308,
    0.549756,
    0.800371,
    0.5,
    0.370656,
    0.565,
    0.446297,
    0.407165,
    0.737302,
    0.156151,
    0.217746,
    0.13396,
    0.164891,
    0.146476,
    0.230657,
    0.144422,
    0.455366,
    0.544399,
    0.242553,
    0.510023,
    0.167769,
    0.395668,
    0.373396,
    0.471,
    0.398445,
    0.478299,
    0.353181,
    0.575492,
    0.479298,
    0.554668,
    0.433069,
    0.419371,
    0.394612,
    0.573809,
    0.588907,
    0.370173,
    0.294826,
    0.191398,
    0.455962,
    0.218355,
    0.461889,
    0.139472,
    0.128344,
    0.347,
    0.186182,
    0.365323,
    0.209985,
    0.413251,
    0.428714,
    0.479,
    0.531,
    0.560556,
    0.383,
    0.749,
    0.616881,
    0.481455,
    0.416189,
    0.676015,
    0.395,
    0.649622,
    0.419615,
    0.464598,
    0.485317,
    0.26977,
    0.279937,
    0.460121,
    0.411928,
    0.150313,
    0.204589,
    0.214191,
    0.428072,
    0.250235,
    0.203931,
    0.193914,
    0.178289,
    0.562712,
    0.204,
    0.254,
    0.175105,
    0.209373,
    0.165685,
    0.4,
    0.188267,
    0.245,
    0.245097,
    0.167566,
    0.391597,
    0.326,
    0.436876,
    0.409,
    0.345602,
    0.347114,
    0.378,
    0.522649,
    0.339,
    0.412836,
    0.382065,
    0.546112,
    0.717929,
    0.1943,
    0.195,
    0.244,
    0.191883,
    0.347712,
    0.224241,
    0.318,
    0.276,
    0.213612,
    0.178,
    0.387636,
    0.306,
    0.333888,
    0.414499,
    0.57897,
    0.515727,
    0.572132,
    0.455029,
    0.591724,
    0.664952,
    0.584578,
    0.615814,
    0.627419,
    0.433712,
    0.444297,
    0.525989,
    0.602337,
    0.551888,
    0.504,
    0.452777,
    0.407931,
    0.562,
    0.620275,
    0.487,
    0.468697,
    0.658396,
    0.441,
    0.417309,
    0.718,
    0.490776,
    0.642756,
    0.262,
    0.443,
    0.403,
    0.443,
    0.171,
    0.475,
    0.281988,
    0.249,
    0.239,
    0.151066,
    0.316022,
    0.150302,
    0.121,
    0.206892,
    0.583,
    0.404732,
    0.397698,
    0.559896,
    0.390845,
    0.685315,
    0.538505,
    0.304147,
    0.357,
    0.365826,
    0.603724,
    0.41476,
    0.624,
    0.711373,
    0.824,
    0.555974,
    0.534,
    0.538422,
    0.641,
    0.46228,
    0.513,
    0.518581,
    0.37373,
    0.302503,
    0.381575,
    0.388902,
    0.435773,
    0.413966,
    0.551674,
    0.508,
    0.595,
    0.47841,
    0.532,
    0.390111,
    0.392553,
    0.184448,
    0.225877,
    0.511446,
    0.107882,
    0.179182,
    0.281353,
    0.143061,
    0.097943,
    0.335907,
    0.218888,
    0.341555,
    0.169,
    0.241,
    0.552923,
    0.469061,
    0.504957,
    0.458933,
    0.948328,
    0.564095,
    0.628689,
    0.581872,
    0.434,
    0.456813,
    0.432942,
    0.528342,
    0.66071,
    0.647,
    0.435,
    0.653,
    0.635093,
    0.713597,
    0.86,
    0.451,
    0.451,
    0.439,
    0.558,
    0.767444,
    0.437567,
    0.408794,
    0.670103,
    0.397349,
    0.411,
    0.456103,
    0.645954,
    0.4146,
    0.427381,
    0.448823,
    0.498897,
    0.578,
    0.794,
    0.437057,
    0.501604,
    0.469674,
    0.487334,
    0.465833,
    0.715669,
    0.462078,
    0.519865,
    0.705646,
    0.525023,
    0.47554,
    0.475935,
    0.405166,
    0.470006,
    0.549327,
    0.523,
    0.588446,
    0.47,
    0.641897,
    0.403886,
    0.496,
    0.405,
    0.544,
    0.403,
    0.401308,
    0.477212,
    0.464096,
    0.423,
    0.55307,
    0.442559,
    0.503771,
    0.638,
    0.397295,
    0.40943,
    0.491296,
    0.592,
    0.668297,
    0.641386,
    0.162,
    0.439,
    0.351,
    0.213096,
    0.439639,
    0.156897,
    0.477573,
    0.411531,
    0.411111,
    0.171,
    0.233166,
    0.400224,
    0.35931,
    0.209628,
    0.288673,
    0.453778,
    0.393036,
    0.202013,
    0.411651,
    0.322458,
    0.375103,
    0.273459,
    0.393153,
    0.145,
    0.387323,
    0.186373,
    0.413863,
    0.36785,
    0.509128,
    0.421538,
    0.545886,
    0.61149,
    0.471889,
    0.540596,
    0.418806,
    0.612827,
    0.422096,
    0.532,
    0.493075,
    0.345738,
    0.451,
    0.523393,
    0.45688,
    0.375811,
    0.575804,
    0.362965,
    0.602866,
    0.364766,
    0.368743,
    0.413674,
    0.486,
    0.373,
    0.401893,
    0.653103,
    0.443034,
    0.402269,
    0.469816,
    0.577,
    0.667287,
    0.62834,
    0.63309,
    0.64411,
    0.59904,
    0.43852,
    0.176811,
    0.256718,
    0.389917,
    0.186234,
    0.432,
    0.242,
    0.224,
    0.214,
    0.155775,
    0.237846,
    0.267135,
    0.520614,
    0.720936,
    0.539548,
    0.387696,
    0.782001,
    0.403532,
    0.49313,
    0.363505,
    0.516421,
    0.437,
    0.495926,
    0.398,
    0.477178,
    0.43856,
    0.635051,
    0.513916,
    0.471242,
    0.503746,
    0.365612,
    0.469949,
    0.612092,
    0.480698,
    0.419167,
    0.534715,
    0.502828,
    0.177829,
    0.417047,
    0.313,
    0.410733,
    0.257733,
    0.298515,
    0.344573,
    0.188591,
    0.426214,
    0.427,
    0.438825,
    0.210712,
    0.241045,
    0.392727,
    0.176,
    0.374,
    0.201175,
    0.243118,
    0.252803,
    0.173,
    0.390597,
    0.378043,
    0.388895,
    0.52362,
    0.420321,
    0.369908,
    0.547,
    0.509644,
    0.357,
    0.638,
    0.539,
    0.433,
    0.452,
    0.577,
    0.331,
    0.422,
    0.578,
    0.422495,
    0.397028,
    0.550574,
    0.405713,
    0.741328,
    0.491912,
    0.671,
    0.516103,
    0.424973,
    0.399103,
    0.54,
    0.433567,
    0.690518,
    0.676,
    0.562667,
    0.334417,
    0.530589,
    0.617672,
    0.387285,
    0.629389,
    0.629103,
    0.615184,
    0.378306,
    0.61947,
    0.382798,
    0.516122,
    0.36814,
    0.37966,
    0.597773,
    0.399182,
    0.407952,
    0.485012,
    0.397124,
    0.36639,
    0.658406,
    0.524625,
    0.458,
    0.397268,
    0.426475,
    0.344734,
    0.252,
    0.475975,
    0.358,
    0.171998,
    0.168643,
    0.255,
    0.471623,
    0.40878,
    0.241111,
    0.407119,
    0.444923,
    0.231477,
    0.352,
    0.462,
    0.638861,
    0.55,
    0.4192,
    0.388946,
    0.447,
    0.389,
    0.347408,
    0.463032,
    0.659734,
    0.424377,
    0.433673,
    0.502123,
    0.370284,
    0.539399,
    0.448991,
    0.648784,
    0.441083,
    0.468544,
    0.588464,
    0.671085,
    0.421595,
    0.393423,
    0.544684,
    0.40793,
    0.502314,
    0.628897,
    0.415435,
    0.581635,
    0.349905,
    0.619601,
    0.304757,
    0.506002,
    0.405175,
    0.422364,
    0.538,
    0.647829,
    0.339326,
    0.414825,
    0.39299,
    0.308,
    0.284502,
    0.183,
    0.404538,
    0.162021,
    0.157715,
    0.216737,
    0.214,
    0.201962,
    0.194,
    0.406,
    0.152978,
    0.316794,
    0.460173,
    0.164011,
    0.510543,
    0.19208,
    0.205277,
    0.169963,
    0.461021,
    0.111411,
    0.205679,
    0.221622,
    0.317687,
    0.37499,
    0.313145,
    0.412498,
    0.440488,
    0.46857,
    0.54297,
    0.457515,
    0.677642,
    0.431131,
    0.508195,
    0.435612,
    0.389882,
    0.481123,
    0.677253,
    0.437985,
    0.678288,
    0.450279,
    0.400801,
    0.25,
    0.518487,
    0.242448,
    0.56611,
    0.206157,
    0.430903,
    0.134663,
    0.270293,
    0.167504,
    0.20836,
    0.374375,
    0.387187,
    0.370781,
    0.413,
    0.628963,
    0.488659,
    0.692777,
    0.627,
    0.369,
    0.714643,
    0.378548,
    0.463121,
    0.434777,
    0.480343,
    0.333052,
    0.348233,
    0.469,
    0.547824,
    0.397843,
    0.547,
    0.563994,
    0.488,
    0.495462,
    0.69,
    0.381839,
    0.643,
    0.567,
    0.337333,
    0.136305,
    0.183187,
    0.49128,
    0.371859,
    0.461782,
    0.424759,
    0.179129,
    0.236469,
    0.172166,
    0.27262,
    0.244158,
    0.3709,
    0.572717,
    0.632,
    0.452,
    0.417584,
    0.328235,
    0.3485,
    0.44051,
    0.258501,
    0.488222,
    0.212829,
    0.404626,
    0.458,
    0.411224,
    0.304421,
    0.459525,
    0.239588,
    0.153457,
    0.193,
    0.258,
    0.450152,
    0.572797,
    0.575567,
    0.583754,
    0.472,
    0.449451,
    0.527812,
    0.732182,
    0.573776,
    0.511087,
    0.457299,
    0.413,
    0.500154,
    0.697301,
    0.638,
    0.555,
    0.343818,
    0.694,
    0.611197,
    0.421,
    0.540284,
    0.363183,
    0.443367,
    0.468524,
    0.579109,
    0.375982,
    0.553
  ],
  "5242880": [
    0.275387,
    0.443097,
    0.524545,
    0.616447,
    0.542267,
    0.702694,
    0.447,
    0.631855,
    0.701198,
    0.36642,
    0.441524,
    0.338065,
    0.164376,
    0.354379,
    0.525,
    0.446,
    0.344855,
    0.381987,
    0.608326,
    0.53366,
    0.215575,
    0.19,
    0.714,
    0.401953,
    0.425768,
    0.152,
    0.379206,
    0.433876,
    0.491192,
    0.491,
    0.5,
    0.383781,
    0.431328,
    0.642413,
    0.586,
    0.605773,
    0.485,
    0.385,
    0.636924,
    0.221,
    0.712514,
    0.500485,
    0.556778,
    0.753,
    0.395234,
    0.492966,
    0.479059,
    0.482,
    0.462625,
    0.423096,
    0.432127,
    0.194226,
    0.304032,
    0.442014,
    0.182,
    0.376,
    0.647153,
    0.511791,
    0.560963,
    0.635298,
    0.519286,
    0.345775,
    0.139506,
    0.401346,
    0.633109,
    0.651536,
    0.472,
    0.739,
    0.528656,
    0.693,
    0.542549,
    0.411794,
    0.138537,
    0.385771,
    0.496,
    0.495923,
    0.581,
    0.484984,
    0.581897,
    0.566,
    0.397,
    0.424457,
    0.353,
    0.363794,
    0.40841,
    0.165663,
    0.591534,
    0.566,
    0.674004,
    0.239296,
    0.186,
    0.399012,
    0.667979,
    0.403897,
    0.31,
    0.276349,
    0.577,
    0.405,
    0.597874,
    0.616003,
    0.718218,
    0.42518,
    0.529343,
    0.302931,
    0.314251,
    0.239509,
    0.635705,
    0.392,
    0.349361,
    0.480298,
    0.647917,
    0.394257,
    0.506305
  ],
  "ALL": [
    0.276118,
    0.25,
    0.489534,
    0.374784,
    0.178975,
    0.261242,
    0.339042,
    0.455133,
    0.498123,
    0.191557,
    0.18,
    0.458669,
    0.204462,
    0.167,
    0.175804,
    0.226938,
    0.226145,
    0.299,
    0.201,
    0.180502,
    0.527,
    0.224264,
    0.361,
    0.183424,
    0.224955,
    0.372103,
    0.204555,
    0.418045,
    0.189056,
    0.397494,
    0.342645,
    0.275387,
    0.529154,
    0.610519,
    0.549879,
    0.443393,
    0.409483,
    0.651716,
    0.407208,
    0.41262,
    0.410326,
    0.614,
    0.557623,
    0.360163,
    0.69059,
    0.479715,
    0.366502,
    0.443097,
    0.416352,
    0.46,
    0.759631,
    0.675973,
    0.389604,
    0.403565,
    0.45921,
    0.598759,
    0.431103,
    0.516374,
    0.629309,
    0.394149,
    0.572992,
    0.873013,
    0.524545,
    0.616447,
    0.54036,
    0.788762,
    0.470685,
    0.65502,
    0.543949,
    0.680496,
    0.578671,
    0.4789,
    0.69665,
    0.557994,
    0.743822,
    0.438,
    0.563486,
    0.775725,
    0.542267,
    0.702694,
    0.650653,
    0.52649,
    0.545014,
    0.500225,
    0.757103,
    0.449312,
    0.374705,
    0.511,
    0.34533,
    0.445576,
    0.453,
    0.424778,
    0.508041,
    0.447,
    0.631855,
    0.701198,
    0.421837,
    0.459924,
    0.181526,
    0.318029,
    0.312735,
    0.406535,
    0.274638,
    0.184961,
    0.434379,
    0.389126,
    0.313097,
    0.37629,
    0.129201,
    0.36642,
    0.441524,
    0.338065,
    0.195,
    0.298931,
    0.233692,
    0.308798,
    0.400851,
    0.334,
    0.239846,
    0.235174,
    0.246128,
    0.374,
    0.151018,
    0.275,
    0.280057,
    0.43113,
    0.374915,
    0.164376,
    0.475545,
    0.208946,
    0.42782,
    0.402053,
    0.154924,
    0.243746,
    0.369638,
    0.267184,
    0.159162,
    0.364004,
    0.177617,
    0.251252,
    0.194778,
    0.207963,
    0.246758,
    0.354379,
    0.410084,
    0.378447,
    0.369,
    0.423381,
    0.358,
    0.609809,
    0.483,
    0.567875,
    0.350491,
    0.506,
    0.450877,
    0.477959,
    0.37402,
    0.318,
    0.55627,
    0.356912,
    0.388053,
    0.234471,
    0.195508,
    0.283292,
    0.216376,
    0.202323,
    0.204481,
    0.407708,
    0.491646,
    0.23378,
    0.561159,
    0.361501,
    0.167128,
    0.220556,
    0.510713,
    0.402309,
    0.543,
    0.374,
    0.635,
    0.606,
    0.548,
    0.521157,
    0.43983,
    0.341,
    0.46,
    0.466433,
    0.46014,
    0.361,
    0.526,
    0.376,
    0.525,
    0.446,
    0.236743,
    0.317897,
    0.179927,
    0.189875,
    0.296025,
    0.414166,
    0.237766,
    0.144587,
    0.388681,
    0.262891,
    0.153,
    0.178299,
    0.403406,
    0.360303,
    0.174396,
    0.344855,
    0.1943,
    0.478,
    0.261254,
    0.355946,
    0.218,
    0.259943,
    0.395044,
    0.204,
    0.476491,
    0.250442,
    0.33427,
    0.284874,
    0.151403,
    0.163757,
    0.144,
    0.172153,
    0.464406,
    0.188426,
    0.429098,
    0.434523,
    0.421474,
    0.416778,
    0.472707,
    0.36245,
    0.186,
    0.416253,
    0.210568,
    0.352165,
    0.491262,
    0.234,
    0.455813,
    0.411431,
    0.41655,
    0.200104,
    0.313939,
    0.386111,
    0.175559,
    0.16784,
    0.237,
    0.409,
    0.187224,
    0.174797,
    0.112943,
    0.244255,
    0.223418,
    0.185,
    0.128555,
    0.381987,
    0.616916,
    0.754281,
    0.419005,
    0.468969,
    0.455703,
    0.533868,
    0.511499,
    0.4587,
    0.643572,
    0.561068,
    0.452871,
    0.639414,
    0.709724,
    0.630848,
    0.608326,
    0.53366,
    0.354014,
    0.282382,
    0.300604,
    0.471743,
    0.108,
    0.417628,
    0.172897,
    0.408346,
    0.281648,
    0.472473,
    0.374,
    0.287,
    0.414154,
    0.361621,
    0.215575,
    0.19,
    0.156105,
    0.193496,
    0.357214,
    0.164665,
    0.378656,
    0.253322,
    0.216846,
    0.350866,
    0.191165,
    0.276303,
    0.500608,
    0.478508,
    0.12,
    0.251283,
    0.358825,
    0.202371,
    0.619636,
    0.417557,
    0.739,
    0.686,
    0.417955,
    0.475046,
    0.396659,
    0.428,
    0.43,
    0.653,
    0.394,
    0.516,
    0.648,
    0.660069,
    0.714,
    0.401953,
    0.155105,
    0.164655,
    0.4,
    0.392812,
    0.149433,
    0.189222,
    0.172,
    0.393148,
    0.156,
    0.133983,
    0.274029,
    0.370111,
    0.221,
    0.533,
    0.13824,
    0.425768,
    0.285023,
    0.453231,
    0.336288,
    0.162,
    0.383,
    0.155884,
    0.109,
    0.312525,
    0.207,
    0.550514,
    0.163,
    0.217897,
    0.220482,
    0.186682,
    0.26,
    0.152,
    0.498912,
    0.357,
    0.405296,
    0.443163,
    0.679026,
    0.361984,
    0.546894,
    0.337711,
    0.32746,
    0.618685,
    0.398596,
    0.687,
    0.48164,
    0.50388,
    0.379206,
    0.433876,
    0.783099,
    0.580993,
    0.684,
    0.605273,
    0.39681,
    0.833,
    0.700696,
    0.697,
    0.469897,
    0.68758,
    0.644146,
    0.516312,
    0.416104,
    0.656202,
    0.491192,
    0.491,
    0.322828,
    0.57569,
    0.348778,
    0.376,
    0.394,
    0.400142,
    0.589,
    0.418,
    0.48774,
    0.333131,
    0.323936,
    0.42,
    0.413901,
    0.324,
    0.5,
    0.383781,
    0.502813,
    0.401331,
    0.313376,
    0.349427,
    0.381566,
    0.319957,
    0.253,
    0.257944,
    0.257907,
    0.381149,
    0.228,
    0.13548,
    0.280913,
    0.346462,
    0.118,
    0.431328,
    0.421979,
    0.412542,
    0.66128,
    0.683097,
    0.548943,
    0.382,
    0.457,
    0.483926,
    0.37488,
    0.651598,
    0.540591,
    0.502334,
    0.636505,
    0.393173,
    0.490545,
    0.625341,
    0.61269,
    0.579855,
    0.517454,
    0.482694,
    0.396059,
    0.434303,
    0.435463,
    0.396349,
    0.559156,
    0.33639,
    0.570009,
    0.460695,
    0.550403,
    0.642413,
    0.586,
    0.605773,
    0.693306,
    0.57437,
    0.653371,
    0.425,
    0.424,
    0.776,
    0.650094,
    0.590086,
    0.597876,
    0.424194,
    0.637885,
    0.593522,
    0.539934,
    0.48992,
    0.485,
    0.385,
    0.6738,
    0.517207,
    0.374323,
    0.43878,
    0.508,
    0.423653,
    0.445372,
    0.447,
    0.555,
    0.669842,
    0.469724,
    0.573044,
    0.409998,
    0.480838,
    0.381502,
    0.636924,
    0.212164,
    0.354895,
    0.348475,
    0.148302,
    0.397358,
    0.150429,
    0.242,
    0.191428,
    0.262961,
    0.168,
    0.445952,
    0.319155,
    0.287913,
    0.297553,
    0.346206,
    0.221,
    0.134,
    0.565471,
    0.103416,
    0.283409,
    0.140915,
    0.182,
    0.244151,
    0.232903,
    0.125739,
    0.136,
    0.185562,
    0.265178,
    0.229705,
    0.39,
    0.410034,
    0.382967,
    0.413097,
    0.597841,
    0.40197,
    0.424391,
    0.766403,
    0.404685,
    0.488727,
    0.529023,
    0.601602,
    0.464714,
    0.488,
    0.358925,
    0.395047,
    0.403,
    0.36,
    0.712514,
    0.52,
    0.49911,
    0.393446,
    0.544165,
    0.45164,
    0.472051,
    0.470746,
    0.789943,
    0.631723,
    0.459111,
    0.651904,
    0.445259,
    0.539887,
    0.653723,
    0.640019,
    0.369883,
    0.377,
    0.322451,
    0.349,
    0.440524,
    0.378268,
    0.433321,
    0.581313,
    0.522,
    0.472184,
    0.383543,
    0.634532,
    0.357,
    0.406577,
    0.592761,
    0.619891,
    0.407,
    0.524632,
    0.599585,
    0.684117,
    0.520805,
    0.48426,
    0.619497,
    0.695157,
    0.506709,
    0.641781,
    0.449047,
    0.605505,
    0.552956,
    0.506056,
    0.489624,
    0.621758,
    0.504827,
    0.813115,
    0.42295,
    0.561186,
    0.393334,
    0.536054,
    0.441276,
    0.597813,
    0.766558,
    0.474564,
    0.4,
    0.345777,
    0.587223,
    0.500485,
    0.556778,
    0.753,
    0.395234,
    0.463909,
    0.630977,
    0.680206,
    0.439,
    0.435043,
    0.41042,
    0.685946,
    0.389,
    0.554542,
    0.387,
    0.387892,
    0.390731,
    0.4478,
    0.598542,
    0.426164,
    0.560341,
    0.612,
    0.72,
    0.532104,
    0.643,
    0.417915,
    0.512897,
    0.448654,
    0.566931,
    0.423143,
    0.503,
    0.673764,
    0.378719,
    0.446796,
    0.492966,
    0.479059,
    0.482,
    0.307439,
    0.269403,
    0.698446,
    0.2481,
    0.553467,
    0.45736,
    0.15607,
    0.405522,
    0.17942,
    0.516257,
    0.307597,
    0.294346,
    0.212461,
    0.254081,
    0.1198,
    0.462625,
    0.547252,
    0.246423,
    0.405083,
    0.143974,
    0.537124,
    0.373843,
    0.184,
    0.201751,
    0.31581,
    0.258063,
    0.435629,
    0.529,
    0.420232,
    0.162281,
    0.362137,
    0.274077,
    0.634651,
    0.657988,
    0.585126,
    0.672509,
    0.5996,
    0.664943,
    0.64856,
    0.73668,
    0.524,
    0.675655,
    0.681006,
    0.38,
    0.634,
    0.444754,
    0.442243,
    0.423096,
    0.344639,
    0.318886,
    0.242304,
    0.196327,
    0.542729,
    0.276235,
    0.464841,
    0.339038,
    0.580153,
    0.311236,
    0.271926,
    0.186485,
    0.533391,
    0.31605,
    0.410951,
    0.184834,
    0.204516,
    0.166591,
    0.548441,
    0.343,
    0.192596,
    0.425241,
    0.162911,
    0.225137,
    0.240368,
    0.136689,
    0.439435,
    0.408401,
    0.253242,
    0.432127,
    0.194226,
    0.304032,
    0.611875,
    0.407294,
    0.292324,
    0.253826,
    0.193574,
    0.537406,
    0.159027,
    0.175035,
    0.586298,
    0.246279,
    0.203418,
    0.234441,
    0.219884,
    0.480771,
    0.313653,
    0.442014,
    0.482975,
    0.102066,
    0.356594,
    0.230376,
    0.332761,
    0.363,
    0.34449,
    0.433097,
    0.637596,
    0.426655,
    0.118763,
    0.245116,
    0.205,
    0.324362,
    0.223169,
    0.43146,
    0.2159,
    0.454667,
    0.370334,
    0.334,
    0.535688,
    0.329719,
    0.18453,
    0.403657,
    0.141047,
    0.177378,
    0.368018,
    0.343967,
    0.433443,
    0.264009,
    0.196,
    0.323157,
    0.554882,
    0.144,
    0.58817,
    0.449767,
    0.277,
    0.146074,
    0.299,
    0.564,
    0.35,
    0.441308,
    0.264,
    0.172449,
    0.192,
    0.338,
    0.182,
    0.376,
    0.454359,
    0.594008,
    0.402,
    0.439496,
    0.471289,
    0.45224,
    0.461585,
    0.435145,
    0.710171,
    0.570784,
    0.627909,
    0.744103,
    0.391442,
    0.75741,
    0.647153,
    0.511791,
    0.693,
    0.480189,
    0.763234,
    0.490697,
    0.728308,
    0.549756,
    0.800371,
    0.5,
    0.370656,
    0.565,
    0.446297,
    0.407165,
    0.737302,
    0.586007,
    0.560963,
    0.635298,
    0.156151,
    0.217746,
    0.13396,
    0.164891,
    0.146476,
    0.230657,
    0.144422,
    0.455366,
    0.544399,
    0.242553,
    0.510023,
    0.167769,
    0.395668,
    0.373396,
    0.146986,
    0.224361,
    0.471,
    0.398445,
    0.478299,
    0.353181,
    0.575492,
    0.479298,
    0.554668,
    0.433069,
    0.419371,
    0.394612,
    0.573809,
    0.588907,
    0.370173,
    0.642571,
    0.519286,
    0.345775,
    0.294826,
    0.191398,
    0.455962,
    0.218355,
    0.461889,
    0.139472,
    0.128344,
    0.347,
    0.186182,
    0.365323,
    0.209985,
    0.413251,
    0.428714,
    0.321,
    0.139506,
    0.401346,
    0.479,
    0.531,
    0.560556,
    0.383,
    0.749,
    0.616881,
    0.481455,
    0.416189,
    0.676015,
    0.395,
    0.649622,
    0.419615,
    0.464598,
    0.485317,
    0.528833,
    0.633109,
    0.26977,
    0.279937,
    0.460121,
    0.411928,
    0.150313,
    0.204589,
    0.214191,
    0.428072,
    0.250235,
    0.207927,
    0.239378,
    0.221939,
    0.220339,
    0.263,
    0.233914,
    0.180193,
    0.203931,
    0.193914,
    0.178289,
    0.562712,
    0.204,
    0.254,
    0.175105,
    0.209373,
    0.165685,
    0.4,
    0.188267,
    0.245,
    0.245097,
    0.167566,
    0.391597,
    0.190481,
    0.326,
    0.436876,
    0.409,
    0.345602,
    0.347114,
    0.378,
    0.522649,
    0.339,
    0.412836,
    0.382065,
    0.546112,
    0.717929,
    0.48112,
    0.433714,
    0.405,
    0.651536,
    0.1943,
    0.195,
    0.244,
    0.191883,
    0.347712,
    0.224241,
    0.318,
    0.276,
    0.213612,
    0.178,
    0.387636,
    0.306,
    0.333888,
    0.428354,
    0.357027,
    0.212,
    0.414499,
    0.57897,
    0.515727,
    0.572132,
    0.455029,
    0.591724,
    0.664952,
    0.584578,
    0.615814,
    0.627419,
    0.433712,
    0.444297,
    0.525989,
    0.602337,
    0.551888,
    0.404298,
    0.504,
    0.452777,
    0.407931,
    0.562,
    0.620275,
    0.487,
    0.468697,
    0.658396,
    0.441,
    0.417309,
    0.718,
    0.490776,
    0.642756,
    0.648363,
    0.388006,
    0.669,
    0.262,
    0.443,
    0.403,
    0.443,
    0.171,
    0.475,
    0.281988,
    0.249,
    0.239,
    0.151066,
    0.316022,
    0.150302,
    0.121,
    0.206892,
    0.217,
    0.156849,
    0.583,
    0.404732,
    0.397698,
    0.559896,
    0.390845,
    0.685315,
    0.538505,
    0.304147,
    0.357,
    0.365826,
    0.603724,
    0.41476,
    0.577,
    0.308751,
    0.417,
    0.428984,
    0.624,
    0.711373,
    0.824,
    0.555974,
    0.534,
    0.538422,
    0.641,
    0.46228,
    0.513,
    0.721562,
    0.63877,
    0.556,
    0.472,
    0.739,
    0.528656,
    0.693,
    0.518581,
    0.37373,
    0.302503,
    0.381575,
    0.388902,
    0.435773,
    0.413966,
    0.551674,
    0.508,
    0.595,
    0.47841,
    0.532,
    0.390111,
    0.379667,
    0.542549,
    0.411794,
    0.392553,
    0.184448,
    0.225877,
    0.511446,
    0.107882,
    0.179182,
    0.281353,
    0.143061,
    0.097943,
    0.335907,
    0.218888,
    0.341555,
    0.169,
    0.241,
    0.147483,
    0.138537,
    0.552923,
    0.469061,
    0.504957,
    0.458933,
    0.948328,
    0.564095,
    0.628689,
    0.581872,
    0.434,
    0.456813,
    0.432942,
    0.528342,
    0.66071,
    0.424202,
    0.478141,
    0.615352,
    0.647,
    0.435,
    0.653,
    0.635093,
    0.713597,
    0.86,
    0.451,
    0.451,
    0.439,
    0.558,
    0.767444,
    0.437567,
    0.408794,
    0.6,
    0.385771,
    0.496,
    0.670103,
    0.397349,
    0.411,
    0.456103,
    0.645954,
    0.4146,
    0.427381,
    0.448823,
    0.498897,
    0.578,
    0.794,
    0.409307,
    0.495923,
    0.581,
    0.484984,
    0.581897,
    0.437057,
    0.501604,
    0.469674,
    0.487334,
    0.465833,
    0.715669,
    0.462078,
    0.519865,
    0.705646,
    0.525023,
    0.47554,
    0.475935,
    0.405166,
    0.44503,
    0.478662,
    0.586393,
    0.470006,
    0.549327,
    0.523,
    0.588446,
    0.47,
    0.641897,
    0.403886,
    0.496,
    0.405,
    0.544,
    0.403,
    0.401308,
    0.364403,
    0.590484,
    0.566,
    0.397,
    0.477212,
    0.464096,
    0.423,
    0.55307,
    0.442559,
    0.503771,
    0.638,
    0.397295,
    0.40943,
    0.491296,
    0.592,
    0.668297,
    0.641386,
    0.391531,
    0.566038,
    0.424457,
    0.162,
    0.439,
    0.351,
    0.213096,
    0.439639,
    0.156897,
    0.477573,
    0.411531,
    0.411111,
    0.171,
    0.233166,
    0.400224,
    0.35931,
    0.209628,
    0.353,
    0.363794,
    0.288673,
    0.453778,
    0.393036,
    0.202013,
    0.411651,
    0.322458,
    0.375103,
    0.273459,
    0.393153,
    0.145,
    0.387323,
    0.186373,
    0.413863,
    0.425578,
    0.40841,
    0.165663,
    0.36785,
    0.509128,
    0.421538,
    0.545886,
    0.61149,
    0.471889,
    0.540596,
    0.418806,
    0.612827,
    0.422096,
    0.532,
    0.493075,
    0.345738,
    0.455889,
    0.591534,
    0.566,
    0.451,
    0.523393,
    0.45688,
    0.375811,
    0.575804,
    0.362965,
    0.602866,
    0.364766,
    0.368743,
    0.413674,
    0.486,
    0.373,
    0.390372,
    0.392216,
    0.44,
    0.609615,
    0.401893,
    0.653103,
    0.443034,
    0.402269,
    0.469816,
    0.577,
    0.667287,
    0.62834,
    0.63309,
    0.64411,
    0.59904,
    0.43852,
    0.572202,
    0.380615,
    0.429588,
    0.674004,
    0.176811,
    0.256718,
    0.389917,
    0.186234,
    0.432,
    0.242,
    0.224,
    0.214,
    0.155775,
    0.237846,
    0.267135,
    0.177465,
    0.392,
    0.207,
    0.239296,
    0.186,
    0.520614,
    0.720936,
    0.539548,
    0.387696,
    0.782001,
    0.403532,
    0.49313,
    0.363505,
    0.516421,
    0.437,
    0.495926,
    0.398,
    0.477178,
    0.673937,
    0.443302,
    0.399012,
    0.43856,
    0.635051,
    0.513916,
    0.471242,
    0.503746,
    0.365612,
    0.469949,
    0.612092,
    0.480698,
    0.419167,
    0.534715,
    0.502828,
    0.421,
    0.390337,
    0.667979,
    0.403897,
    0.177829,
    0.417047,
    0.313,
    0.410733,
    0.257733,
    0.298515,
    0.344573,
    0.188591,
    0.426214,
    0.427,
    0.438825,
    0.210712,
    0.468946,
    0.241995,
    0.232,
    0.31,
    0.241045,
    0.392727,
    0.176,
    0.374,
    0.201175,
    0.243118,
    0.252803,
    0.173,
    0.390597,
    0.378043,
    0.388895,
    0.52362,
    0.420321,
    0.369908,
    0.457861,
    0.276349,
    0.547,
    0.509644,
    0.357,
    0.638,
    0.539,
    0.433,
    0.452,
    0.577,
    0.331,
    0.422,
    0.578,
    0.520389,
    0.393257,
    0.577,
    0.405,
    0.597874,
    0.422495,
    0.397028,
    0.550574,
    0.405713,
    0.741328,
    0.491912,
    0.671,
    0.516103,
    0.424973,
    0.399103,
    0.54,
    0.433567,
    0.46652,
    0.503,
    0.422404,
    0.616003,
    0.690518,
    0.676,
    0.562667,
    0.334417,
    0.530589,
    0.617672,
    0.387285,
    0.629389,
    0.629103,
    0.615184,
    0.378306,
    0.61947,
    0.382798,
    0.516122,
    0.47552,
    0.718218,
    0.36814,
    0.37966,
    0.597773,
    0.399182,
    0.407952,
    0.485012,
    0.397124,
    0.36639,
    0.658406,
    0.524625,
    0.458,
    0.397268,
    0.543914,
    0.568681,
    0.499481,
    0.387756,
    0.426475,
    0.344734,
    0.252,
    0.475975,
    0.358,
    0.171998,
    0.168643,
    0.255,
    0.471623,
    0.40878,
    0.241111,
    0.407119,
    0.444923,
    0.231477,
    0.336786,
    0.42518,
    0.352,
    0.462,
    0.638861,
    0.55,
    0.4192,
    0.388946,
    0.447,
    0.389,
    0.347408,
    0.463032,
    0.659734,
    0.424377,
    0.433673,
    0.502123,
    0.370284,
    0.539399,
    0.448991,
    0.648784,
    0.441083,
    0.468544,
    0.588464,
    0.671085,
    0.421595,
    0.393423,
    0.544684,
    0.40793,
    0.502314,
    0.628897,
    0.415435,
    0.460896,
    0.628816,
    0.466,
    0.581635,
    0.349905,
    0.619601,
    0.304757,
    0.506002,
    0.405175,
    0.422364,
    0.538,
    0.647829,
    0.339326,
    0.414825,
    0.39299,
    0.366486,
    0.462372,
    0.47336,
    0.529343,
    0.308,
    0.284502,
    0.183,
    0.404538,
    0.162021,
    0.157715,
    0.216737,
    0.214,
    0.201962,
    0.194,
    0.406,
    0.152978,
    0.165103,
    0.314638,
    0.302931,
    0.314251,
    0.316794,
    0.460173,
    0.164011,
    0.510543,
    0.19208,
    0.205277,
    0.169963,
    0.461021,
    0.111411,
    0.205679,
    0.221622,
    0.317687,
    0.37499,
    0.313145,
    0.21463,
    0.239509,
    0.412498,
    0.440488,
    0.46857,
    0.54297,
    0.457515,
    0.677642,
    0.431131,
    0.508195,
    0.435612,
    0.389882,
    0.481123,
    0.677253,
    0.437985,
    0.678288,
    0.578934,
    0.456919,
    0.450279,
    0.400801,
    0.25,
    0.518487,
    0.242448,
    0.56611,
    0.206157,
    0.430903,
    0.134663,
    0.270293,
    0.167504,
    0.20836,
    0.374375,
    0.387187,
    0.171733,
    0.366018,
    0.370781,
    0.413,
    0.628963,
    0.488659,
    0.692777,
    0.627,
    0.369,
    0.714643,
    0.378548,
    0.463121,
    0.434777,
    0.480343,
    0.333052,
    0.540136,
    0.356409,
    0.635705,
    0.348233,
    0.469,
    0.547824,
    0.397843,
    0.547,
    0.563994,
    0.488,
    0.495462,
    0.69,
    0.381839,
    0.643,
    0.567,
    0.507649,
    0.907,
    0.393,
    0.392,
    0.337333,
    0.136305,
    0.183187,
    0.49128,
    0.371859,
    0.461782,
    0.424759,
    0.179129,
    0.236469,
    0.172166,
    0.27262,
    0.244158,
    0.166479,
    0.227756,
    0.169992,
    0.349361,
    0.3709,
    0.572717,
    0.632,
    0.452,
    0.417584,
    0.328235,
    0.3485,
    0.44051,
    0.578279,
    0.436921,
    0.516231,
    0.42496,
    0.384791,
    0.480298,
    0.647917,
    0.394257,
    0.258501,
    0.488222,
    0.212829,
    0.404626,
    0.458,
    0.411224,
    0.304421,
    0.459525,
    0.239588,
    0.153457,
    0.193,
    0.258,
    0.183591,
    0.205962,
    0.201,
    0.206222,
    0.450152,
    0.572797,
    0.575567,
    0.583754,
    0.472,
    0.449451,
    0.527812,
    0.732182,
    0.573776,
    0.511087,
    0.457299,
    0.413,
    0.500154,
    0.554659,
    0.624597,
    0.560043,
    0.697301,
    0.638,
    0.555,
    0.343818,
    0.694,
    0.611197,
    0.421,
    0.540284,
    0.363183,
    0.443367,
    0.468524,
    0.579109,
    0.375982,
    0.553,
    0.693,
    0.506305
  ]
}