{
  "1048576": [
    0.598,
    0.518809,
    0.434194,
    0.54,
    0.452,
    0.959549,
    0.504495,
    0.440215,
    0.581933,
    0.752,
    0.671794,
    0.592,
    0.334035,
    0.611383,
    0.498224,
    0.449814,
    0.595353,
    0.455979,
    0.455923,
    0.337571,
    0.609678,
    0.633,
    0.814512,
    0.42523,
    0.550319,
    0.402129,
    0.516626,
    0.621935,
    0.580574,
    0.505677,
    0.482188,
    0.541,
    0.477614,
    0.409187,
    0.390853,
    0.41407,
    0.431819,
    0.736029,
    0.420402,
    0.435098,
    0.637808,
    0.631427,
    0.622592,
    0.429588,
    0.457067,
    0.547547,
    0.466,
    0.419063,
    0.488825,
    0.344814,
    0.596802,
    0.388132,
    0.422863,
    0.581206,
    0.391563,
    0.572921,
    0.524075,
    0.417436,
    0.367098,
    0.498748,
    0.636739,
    0.406416,
    0.665947,
    0.519446,
    0.692632,
    0.49666,
    0.674826,
    0.477,
    0.378788,
    0.368486,
    0.434657,
    0.52905,
    0.613465,
    0.660805,
    0.351867,
    0.459384,
    0.3754,
    0.373,
    0.399148,
    0.416,
    0.597142,
    0.658888,
    0.570657,
    0.462103,
    0.411835,
    0.45711,
    0.476579,
    0.415021,
    0.538,
    0.629598,
    0.473584,
    0.325092,
    0.544426,
    0.325185,
    0.527,
    0.456,
    0.565983,
    0.375156,
    0.418468,
    0.70399,
    0.691008,
    0.45365,
    0.496174,
    0.43727,
    0.523,
    0.431879,
    0.431922,
    0.437,
    0.787087,
    0.714955,
    0.617309,
    0.411386,
    0.564368,
    0.569523,
    0.473947,
    0.577992,
    0.61036,
    0.688541,
    0.526044,
    0.700062,
    0.435623,
    0.376,
    0.588612,
    0.576316,
    0.467,
    0.573,
    0.586016,
    0.472625,
    0.420512,
    0.573084,
    0.524247,
    0.465709,
    0.573501,
    0.560463,
    0.468,
    0.319,
    0.362103
  ],
  "51200": [
    0.581753,
    0.575509,
    0.549513,
    0.327043,
    0.505827,
    0.441986,
    0.372043,
    0.646244,
    0.450506,
    0.651864,
    0.674,
    0.546871,
    0.541779,
    0.453674,
    0.581302,
    0.497535,
    0.346,
    0.501166,
    0.349065,
    0.451425,
    0.637709,
    0.501415,
    0.493982,
    0.368,
    0.488648,
    0.515068,
    0.639584,
    0.728579,
    0.5835,
    0.598463,
    0.372,
    0.458,
    0.425,
    0.418433,
    0.571,
    0.662453,
    0.631887,
    0.693173,
    0.975526,
    0.437,
    0.691738,
    0.724221,
    0.736865,
    0.535628,
    0.762932,
    0.634,
    0.390585,
    0.644722,
    0.605,
    0.609262,
    0.64696,
    0.474614,
    0.437752,
    0.559965,
    0.88989,
    0.558374,
    0.617233,
    0.473884,
    0.36546,
    0.501286,
    0.367,
    0.473,
    0.356902,
    0.472355,
    0.554422,
    0.418,
    0.577428,
    0.652801,
    0.522,
    0.73,
    0.501628,
    0.393805,
    0.588154,
    0.625186,
    0.47244,
    0.558,
    0.687081,
    0.550196,
    0.63708,
    0.536,
    0.654987,
    0.491015,
    0.404,
    0.495441,
    0.622644,
    0.368106,
    0.600944,
    0.483144,
    0.425141,
    0.401548,
    0.655,
    0.377444,
    0.679591,
    0.369051,
    0.617914,
    0.605593,
    0.707042,
    0.367781,
    0.624862,
    0.434889,
    0.526409,
    0.35348,
    0.641924,
    0.627256,
    0.62874,
    0.377048,
    0.700627,
    0.567802,
    0.394797,
    0.408714,
    0.652539,
    0.402377,
    0.718254,
    0.672486,
    0.536419,
    0.6,
    0.456229,
    0.425129,
    0.723531,
    0.442049,
    0.689846,
    0.514728,
    0.48021,
    0.421474,
    0.632,
    0.684994,
    0.497822,
    0.447485,
    0.593907,
    0.609547,
    0.569611,
    0.659967,
    0.527457,
    0.407807,
    0.679381,
    0.463687,
    0.647276,
    0.576827,
    0.532577,
    0.510232,
    0.49569,
    0.43559,
    0.446889,
    0.46168,
    0.416816,
    0.331,
    0.53194,
    0.620451,
    0.504427,
    1.03721,
    0.609555,
    0.444138,
    0.507269,
    0.370698,
    0.425135,
    0.542087,
    0.589984,
    0.598428,
    0.385,
    0.546223,
    0.729435,
    0.519143,
    0.558018,
    0.403897,
    0.535037,
    0.541069,
    0.374904,
    0.49721,
    0.521966,
    0.638,
    0.525166,
    0.741,
    0.608,
    0.481313,
    0.423972,
    0.489505,
    0.425,
    0.646,
    0.755335,
    0.658484,
    0.611,
    0.671782,
    0.431897,
    0.682024,
    0.404742,
    0.398,
    0.571,
    0.618295,
    0.408652,
    0.627438,
    0.379166,
    0.389535,
    0.512052,
    0.482583,
    0.418295,
    0.459,
    0.676272,
    0.521426,
    0.448492,
    0.401975,
    0.417967,
    0.510049,
    0.542506,
    0.551236,
    0.575263,
    0.464079,
    0.746,
    0.567768,
    0.504063,
    0.635941,
    1.108,
    0.439301,
    0.583714,
    0.421439,
    0.673624,
    0.600887,
    0.389927,
    0.671916,
    0.651605,
    0.581143,
    0.518838,
    0.536219,
    0.567237,
    0.424923,
    0.579029,
    0.701619,
    0.611818,
    0.481779,
    0.61745,
    0.416109,
    0.620367,
    0.401233,
    0.374407,
    0.363045,
    0.575207,
    0.557553,
    0.44779,
    0.609857,
    0.716142,
    0.468351,
    0.341616,
    0.582616,
    0.53,
    0.382,
    0.416,
    0.503919,
    0.494162,
    0.670776,
    0.469,
    0.599922,
    0.381897,
    0.441166,
    0.564302,
    0.493742,
    0.402516,
    0.424523,
    0.346572,
    0.899,
    0.398713,
    0.59,
    0.498266,
    0.692306,
    0.731803,
    0.355,
    0.4672,
    0.600381,
    0.437959,
    0.482611,
    0.415,
    0.573761,
    0.375,
    0.507846,
    0.55,
    0.947619,
    0.455567,
    0.435597,
    0.513,
    0.794862,
    0.537726,
    0.453543,
    0.610633,
    0.564655,
    0.484723,
    0.712399,
    0.447371,
    0.540502,
    0.656308,
    0.446247,
    0.640286,
    0.421,
    0.485507,
    0.394885,
    0.503625,
    0.437,
    0.436674,
    0.566,
    0.573,
    0.453964,
    0.542824,
    0.384608,
    0.389843,
    0.53151,
    0.630311,
    0.638043,
    0.520139,
    0.376266,
    0.425,
    0.446583,
    0.424398,
    0.499784,
    0.596003,
    0.476227,
    0.587245,
    0.630002,
    0.63171,
    0.692,
    0.540502,
    0.380677,
    0.60756,
    0.520597,
    0.395628,
    0.45,
    0.606695,
    0.612889,
    0.503655,
    0.390494,
    0.74095,
    0.697888,
    0.556,
    0.459889,
    0.571747,
    0.441567,
    0.655,
    0.516508,
    0.409106,
    0.555024,
    0.42442,
    0.712,
    0.466822,
    0.428316,
    0.613473,
    0.396453,
    0.47504,
    0.469378,
    0.461416,
    0.485881,
    0.474259,
    0.404041,
    0.472459,
    0.491535,
    0.542435,
    0.524624,
    0.557724,
    0.567413,
    0.565408,
    0.559982,
    0.660175,
    0.4814,
    0.51081,
    0.737208,
    0.399946,
    0.451862,
    0.53,
    0.6,
    0.732895,
    0.557709,
    0.683031,
    0.53722,
    0.456423,
    0.638836,
    0.546272,
    0.392089,
    0.45959,
    0.497,
    0.59559,
    0.662828,
    0.606847,
    0.39596,
    0.553961,
    0.33393,
    0.641647,
    0.699181,
    0.611402,
    0.685269,
    0.393495,
    0.609414,
    0.609305,
    0.507377,
    0.422712,
    0.789857,
    0.40311,
    0.465164,
    0.594939,
    0.434788,
    0.508665,
    0.405,
    0.704156,
    0.452897,
    0.709,
    0.381,
    0.620714,
    0.4246,
    0.36497,
    0.574,
    0.420017,
    0.723,
    0.499697,
    0.436,
    0.450383,
    0.592,
    0.610018,
    0.587344,
    0.682022,
    0.616,
    0.433699,
    0.613075,
    0.582737,
    0.490177,
    0.474,
    0.670084,
    0.453897,
    0.608258,
    0.653977,
    0.645,
    0.62836,
    0.435392,
    0.388279,
    0.541308,
    0.448843,
    0.462293,
    0.48793,
    0.613127,
    0.698,
    0.602918,
    0.462346,
    0.397749,
    0.605674,
    0.490553,
    0.485789,
    0.422014,
    0.500616,
    0.624777,
    0.464,
    0.69505,
    0.44954,
    0.418115,
    0.53738,
    0.523431,
    0.401374,
    0.623839,
    0.379792,
    0.5801,
    0.693557,
    0.41,
    0.59217,
    0.369331,
    0.66827,
    0.649,
    0.647372,
    0.44916,
    0.424317,
    0.406752,
    0.630296,
    0.644793,
    0.511,
    0.377,
    0.409871,
    0.337338,
    0.426596,
    0.533447,
    0.395072,
    0.401667,
    0.336934,
    0.514454,
    0.37638,
    0.638292,
    0.4219,
    0.531802,
    0.593305,
    0.362569,
    0.620788,
    0.435463,
    0.760988,
    0.458004,
    0.417272,
    0.494959,
    1.057689,
    0.395542,
    0.448262,
    0.754,
    0.551768,
    0.435,
    0.392388,
    0.5328,
    0.569,
    0.642,
    0.437943,
    0.508988,
    0.500868,
    0.543962,
    0.455093,
    0.709909,
    0.539,
    0.414746,
    0.418889,
    0.469,
    0.550932,
    0.560921,
    0.399578,
    0.482338,
    0.436503,
    0.459894,
    0.685573,
    0.459133,
    0.546951,
    0.640068,
    0.75532,
    0.44068,
    0.533953,
    0.404229,
    0.612371,
    0.733889,
    0.73221,
    0.402288,
    0.737877,
    0.501539,
    0.664864,
    0.854,
    1.034438,
    0.442443,
    0.431,
    0.687636,
    0.812,
    0.819403,
    0.616442,
    0.448673,
    0.415633,
    0.534,
    0.554585,
    0.904597,
    0.496375,
    0.363091,
    0.522568,
    0.404,
    0.625,
    0.51871,
    0.585,
    0.614529,
    0.42427,
    0.453436,
    0.393197,
    0.371734,
    0.605596,
    0.942058,
    0.413906,
    0.786027,
    0.528206,
    0.690108,
    0.408876,
    0.66,
    0.422103,
    0.420161,
    0.676238,
    0.680673,
    0.650335,
    0.412225,
    0.447,
    0.526,
    0.379897,
    0.68496,
    0.635145,
    0.462881,
    0.508,
    0.363483,
    0.59408,
    0.565103,
    0.432446,
    0.473898,
    0.413624,
    0.62007,
    0.433677,
    0.638386,
    0.530831,
    0.462709,
    0.533598,
    0.442685,
    0.557693,
    0.769922,
    0.671948,
    0.419203,
    0.606293,
    0.592799,
    0.562,
    0.475746,
    0.574245,
    0.72611,
    0.431,
    0.631457,
    0.435,
    0.509854,
    0.466,
    0.625567,
    0.610111,
    0.699,
    0.486,
    0.714,
    0.62,
    0.364073,
    0.660866,
    0.751,
    0.586397,
    0.531085,
    0.671452,
    0.545483,
    0.58,
    0.436111,
    0.616,
    0.555691,
    0.620602,
    0.469,
    0.441556,
    0.600718,
    0.511506,
    0.322954,
    0.402829,
    0.713977,
    0.372,
    0.450968,
    0.364487,
    0.43,
    0.351911,
    0.360446,
    0.342897,
    0.657062,
    0.491375,
    0.587,
    0.728,
    0.584894,
    0.466948,
    0.489,
    0.416075,
    0.569352,
    0.484601,
    0.56,
    0.354108,
    0.609458,
    0.474215,
    0.355526,
    0.366831,
    1.088,
    0.438487,
    0.340631,
    0.71054,
    0.634763,
    0.575424,
    0.502456,
    0.589559,
    0.380297,
    0.427736,
    0.583849,
    0.443682,
    0.448114,
    0.385008,
    0.560835,
    0.421885,
    0.445106,
    0.714883,
    0.522558,
    0.414049,
    0.337916,
    0.595621,
    0.498,
    0.380064,
    0.81799,
    0.361,
    0.589877,
    0.639,
    0.390141,
    0.659695,
    0.373058,
    0.616,
    0.506,
    0.526532,
    0.333,
    0.559765,
    0.629786,
    0.359,
    0.37301,
    0.636,
    0.564786,
    0.513,
    0.468408,
    0.526296
  ],
  "5242880": [
    0.510242,
    0.46275,
    0.409463,
    0.378,
    0.436853,
    0.372006,
    0.419718,
    0.657,
    0.475652,
    0.704,
    0.613661,
    0.381246,
    0.545451,
    0.445384,
    0.554,
    0.489752,
    0.404921,
    0.468359,
    0.374444,
    0.391448,
    0.651921,
    0.668364,
    0.544,
    0.423,
    0.392,
    0.491781,
    0.464866,
    0.58751,
    0.602,
    0.562,
    0.572937,
    0.907338,
    0.592,
    0.444881,
    0.425097,
    0.72337,
    0.553894,
    0.656742,
    0.313,
    0.446698,
    0.401,
    0.368,
    0.465701,
    0.540898,
    0.628227,
    0.666,
    0.34742,
    0.393,
    0.587381,
    0.612,
    0.587,
    0.778671,
    0.396103,
    0.362798,
    0.395,
    0.487,
    0.457115,
    0.454265,
    0.428849,
    0.293741,
    0.919939,
    0.395,
    0.402,
    0.572648,
    0.625,
    0.49
  ],
  "ALL": [
    0.581753,
    0.575509,
    0.549513,
    0.327043,
    0.505827,
    0.441986,
    0.372043,
    0.646244,
    0.450506,
    0.598,
    0.518809,
    0.434194,
    0.54,
    0.452,
    0.959549,
    0.510242,
    0.651864,
    0.674,
    0.546871,
    0.541779,
    0.453674,
    0.581302,
    0.497535,
    0.346,
    0.501166,
    0.349065,
    0.451425,
    0.637709,
    0.501415,
    0.493982,
    0.368,
    0.504495,
    0.488648,
    0.515068,
    0.639584,
    0.728579,
    0.5835,
    0.598463,
    0.372,
    0.458,
    0.425,
    0.418433,
    0.571,
    0.662453,
    0.631887,
    0.693173,
    0.975526,
    0.46275,
    0.437,
    0.691738,
    0.724221,
    0.736865,
    0.535628,
    0.762932,
    0.634,
    0.390585,
    0.644722,
    0.605,
    0.609262,
    0.64696,
    0.474614,
    0.437752,
    0.440215,
    0.409463,
    0.559965,
    0.88989,
    0.558374,
    0.617233,
    0.473884,
    0.36546,
    0.501286,
    0.367,
    0.473,
    0.356902,
    0.472355,
    0.581933,
    0.752,
    0.378,
    0.436853,
    0.372006,
    0.554422,
    0.418,
    0.577428,
    0.652801,
    0.522,
    0.73,
    0.501628,
    0.393805,
    0.588154,
    0.625186,
    0.47244,
    0.558,
    0.687081,
    0.671794,
    0.592,
    0.419718,
    0.550196,
    0.63708,
    0.536,
    0.654987,
    0.491015,
    0.404,
    0.495441,
    0.622644,
    0.368106,
    0.600944,
    0.483144,
    0.334035,
    0.611383,
    0.498224,
    0.449814,
    0.657,
    0.425141,
    0.401548,
    0.655,
    0.377444,
    0.679591,
    0.369051,
    0.617914,
    0.605593,
    0.707042,
    0.367781,
    0.624862,
    0.595353,
    0.455979,
    0.455923,
    0.337571,
    0.475652,
    0.434889,
    0.526409,
    0.35348,
    0.641924,
    0.627256,
    0.62874,
    0.377048,
    0.700627,
    0.567802,
    0.394797,
    0.408714,
    0.652539,
    0.402377,
    0.718254,
    0.609678,
    0.633,
    0.672486,
    0.536419,
    0.6,
    0.456229,
    0.425129,
    0.723531,
    0.442049,
    0.689846,
    0.514728,
    0.48021,
    0.421474,
    0.632,
    0.814512,
    0.42523,
    0.550319,
    0.704,
    0.684994,
    0.497822,
    0.447485,
    0.593907,
    0.609547,
    0.569611,
    0.659967,
    0.527457,
    0.407807,
    0.679381,
    0.463687,
    0.647276,
    0.576827,
    0.532577,
    0.510232,
    0.613661,
    0.49569,
    0.43559,
    0.446889,
    0.46168,
    0.416816,
    0.331,
    0.53194,
    0.620451,
    0.504427,
    1.03721,
    0.609555,
    0.444138,
    0.507269,
    0.402129,
    0.516626,
    0.621935,
    0.370698,
    0.425135,
    0.542087,
    0.589984,
    0.598428,
    0.385,
    0.546223,
    0.729435,
    0.519143,
    0.558018,
    0.403897,
    0.535037,
    0.580574,
    0.505677,
    0.482188,
    0.381246,
    0.541069,
    0.374904,
    0.49721,
    0.521966,
    0.638,
    0.525166,
    0.741,
    0.608,
    0.481313,
    0.423972,
    0.489505,
    0.425,
    0.541,
    0.545451,
    0.445384,
    0.554,
    0.646,
    0.755335,
    0.658484,
    0.611,
    0.671782,
    0.431897,
    0.682024,
    0.404742,
    0.398,
    0.571,
    0.618295,
    0.408652,
    0.627438,
    0.477614,
    0.409187,
    0.489752,
    0.379166,
    0.389535,
    0.512052,
    0.482583,
    0.418295,
    0.459,
    0.676272,
    0.521426,
    0.448492,
    0.401975,
    0.417967,
    0.510049,
    0.542506,
    0.551236,
    0.390853,
    0.404921,
    0.575263,
    0.464079,
    0.746,
    0.567768,
    0.504063,
    0.635941,
    1.108,
    0.439301,
    0.583714,
    0.421439,
    0.673624,
    0.600887,
    0.41407,
    0.431819,
    0.736029,
    0.420402,
    0.389927,
    0.671916,
    0.651605,
    0.581143,
    0.518838,
    0.536219,
    0.567237,
    0.424923,
    0.579029,
    0.701619,
    0.435098,
    0.637808,
    0.631427,
    0.622592,
    0.429588,
    0.468359,
    0.611818,
    0.481779,
    0.61745,
    0.416109,
    0.620367,
    0.401233,
    0.374407,
    0.363045,
    0.575207,
    0.557553,
    0.44779,
    0.609857,
    0.716142,
    0.468351,
    0.457067,
    0.547547,
    0.341616,
    0.582616,
    0.53,
    0.382,
    0.416,
    0.503919,
    0.494162,
    0.670776,
    0.469,
    0.599922,
    0.381897,
    0.441166,
    0.466,
    0.374444,
    0.391448,
    0.651921,
    0.564302,
    0.493742,
    0.402516,
    0.424523,
    0.346572,
    0.899,
    0.398713,
    0.59,
    0.498266,
    0.692306,
    0.419063,
    0.488825,
    0.344814,
    0.596802,
    0.388132,
    0.668364,
    0.731803,
    0.355,
    0.4672,
    0.600381,
    0.437959,
    0.482611,
    0.415,
    0.573761,
    0.375,
    0.507846,
    0.55,
    0.947619,
    0.455567,
    0.422863,
    0.581206,
    0.544,
    0.435597,
    0.513,
    0.794862,
    0.537726,
    0.453543,
    0.610633,
    0.564655,
    0.484723,
    0.712399,
    0.447371,
    0.540502,
    0.391563,
    0.572921,
    0.524075,
    0.417436,
    0.423,
    0.656308,
    0.446247,
    0.640286,
    0.421,
    0.485507,
    0.394885,
    0.503625,
    0.437,
    0.436674,
    0.566,
    0.573,
    0.453964,
    0.542824,
    0.384608,
    0.389843,
    0.392,
    0.53151,
    0.630311,
    0.638043,
    0.520139,
    0.376266,
    0.425,
    0.446583,
    0.424398,
    0.499784,
    0.596003,
    0.476227,
    0.587245,
    0.630002,
    0.367098,
    0.498748,
    0.491781,
    0.63171,
    0.692,
    0.540502,
    0.380677,
    0.60756,
    0.520597,
    0.395628,
    0.45,
    0.606695,
    0.636739,
    0.406416,
    0.665947,
    0.519446,
    0.692632,
    0.464866,
    0.58751,
    0.612889,
    0.503655,
    0.390494,
    0.74095,
    0.697888,
    0.556,
    0.459889,
    0.571747,
    0.441567,
    0.655,
    0.516508,
    0.409106,
    0.555024,
    0.42442,
    0.49666,
    0.602,
    0.712,
    0.466822,
    0.428316,
    0.613473,
    0.396453,
    0.47504,
    0.469378,
    0.461416,
    0.485881,
    0.474259,
    0.404041,
    0.472459,
    0.491535,
    0.542435,
    0.674826,
    0.562,
    0.524624,
    0.557724,
    0.567413,
    0.565408,
    0.559982,
    0.660175,
    0.4814,
    0.51081,
    0.737208,
    0.399946,
    0.451862,
    0.53,
    0.6,
    0.477,
    0.572937,
    0.907338,
    0.732895,
    0.557709,
    0.683031,
    0.53722,
    0.456423,
    0.638836,
    0.546272,
    0.392089,
    0.45959,
    0.497,
    0.59559,
    0.378788,
    0.368486,
    0.592,
    0.444881,
    0.425097,
    0.662828,
    0.606847,
    0.39596,
    0.553961,
    0.33393,
    0.641647,
    0.699181,
    0.611402,
    0.685269,
    0.393495,
    0.609414,
    0.609305,
    0.434657,
    0.52905,
    0.613465,
    0.660805,
    0.507377,
    0.422712,
    0.789857,
    0.40311,
    0.465164,
    0.594939,
    0.434788,
    0.508665,
    0.405,
    0.704156,
    0.452897,
    0.709,
    0.381,
    0.351867,
    0.459384,
    0.72337,
    0.620714,
    0.4246,
    0.36497,
    0.574,
    0.420017,
    0.723,
    0.499697,
    0.436,
    0.450383,
    0.592,
    0.610018,
    0.587344,
    0.682022,
    0.616,
    0.433699,
    0.3754,
    0.613075,
    0.582737,
    0.490177,
    0.474,
    0.670084,
    0.453897,
    0.608258,
    0.653977,
    0.645,
    0.62836,
    0.435392,
    0.388279,
    0.541308,
    0.373,
    0.399148,
    0.416,
    0.448843,
    0.462293,
    0.48793,
    0.613127,
    0.698,
    0.602918,
    0.462346,
    0.397749,
    0.605674,
    0.490553,
    0.597142,
    0.658888,
    0.553894,
    0.656742,
    0.313,
    0.446698,
    0.485789,
    0.422014,
    0.500616,
    0.624777,
    0.464,
    0.69505,
    0.44954,
    0.418115,
    0.53738,
    0.523431,
    0.401374,
    0.623839,
    0.379792,
    0.570657,
    0.462103,
    0.411835,
    0.5801,
    0.693557,
    0.41,
    0.59217,
    0.369331,
    0.66827,
    0.649,
    0.647372,
    0.44916,
    0.424317,
    0.406752,
    0.630296,
    0.644793,
    0.45711,
    0.476579,
    0.401,
    0.511,
    0.377,
    0.409871,
    0.337338,
    0.426596,
    0.533447,
    0.395072,
    0.401667,
    0.336934,
    0.514454,
    0.37638,
    0.638292,
    0.415021,
    0.538,
    0.629598,
    0.368,
    0.4219,
    0.531802,
    0.593305,
    0.362569,
    0.620788,
    0.435463,
    0.760988,
    0.458004,
    0.417272,
    0.494959,
    1.057689,
    0.395542,
    0.473584,
    0.465701,
    0.540898,
    0.628227,
    0.448262,
    0.754,
    0.551768,
    0.435,
    0.392388,
    0.5328,
    0.569,
    0.642,
    0.325092,
    0.544426,
    0.325185,
    0.527,
    0.666,
    0.34742,
    0.393,
    0.587381,
    0.437943,
    0.508988,
    0.500868,
    0.543962,
    0.455093,
    0.709909,
    0.539,
    0.414746,
    0.418889,
    0.469,
    0.550932,
    0.560921,
    0.456,
    0.565983,
    0.375156,
    0.612,
    0.399578,
    0.482338,
    0.436503,
    0.459894,
    0.685573,
    0.459133,
    0.546951,
    0.640068,
    0.75532,
    0.44068,
    0.533953,
    0.404229,
    0.612371,
    0.418468,
    0.70399,
    0.587,
    0.733889,
    0.73221,
    0.402288,
    0.737877,
    0.501539,
    0.664864,
    0.854,
    1.034438,
    0.442443,
    0.431,
    0.687636,
    0.812,
    0.819403,
    0.691008,
    0.778671,
    0.396103,
    0.616442,
    0.448673,
    0.415633,
    0.534,
    0.554585,
    0.904597,
    0.496375,
    0.363091,
    0.522568,
    0.404,
    0.625,
    0.45365,
    0.496174,
    0.43727,
    0.523,
    0.362798,
    0.51871,
    0.585,
    0.614529,
    0.42427,
    0.453436,
    0.393197,
    0.371734,
    0.605596,
    0.942058,
    0.413906,
    0.786027,
    0.528206,
    0.431879,
    0.431922,
    0.437,
    0.787087,
    0.690108,
    0.408876,
    0.66,
    0.422103,
    0.420161,
    0.676238,
    0.680673,
    0.650335,
    0.412225,
    0.447,
    0.526,
    0.379897,
    0.68496,
    0.635145,
    0.714955,
    0.395,
    0.462881,
    0.508,
    0.363483,
    0.59408,
    0.565103,
    0.432446,
    0.473898,
    0.413624,
    0.62007,
    0.433677,
    0.638386,
    0.530831,
    0.462709,
    0.617309,
    0.411386,
    0.487,
    0.533598,
    0.442685,
    0.557693,
    0.769922,
    0.671948,
    0.419203,
    0.606293,
    0.592799,
    0.562,
    0.475746,
    0.574245,
    0.72611,
    0.564368,
    0.569523,
    0.473947,
    0.457115,
    0.431,
    0.631457,
    0.435,
    0.509854,
    0.466,
    0.625567,
    0.610111,
    0.699,
    0.486,
    0.714,
    0.62,
    0.364073,
    0.577992,
    0.61036,
    0.688541,
    0.454265,
    0.660866,
    0.751,
    0.586397,
    0.531085,
    0.671452,
    0.545483,
    0.58,
    0.436111,
    0.616,
    0.555691,
    0.620602,
    0.469,
    0.441556,
    0.526044,
    0.700062,
    0.435623,
    0.600718,
    0.511506,
    0.322954,
    0.402829,
    0.713977,
    0.372,
    0.450968,
    0.364487,
    0.43,
    0.351911,
    0.360446,
    0.342897,
    0.376,
    0.588612,
    0.428849,
    0.293741,
    0.657062,
    0.491375,
    0.587,
    0.728,
    0.584894,
    0.466948,
    0.489,
    0.416075,
    0.569352,
    0.576316,
    0.467,
    0.573,
    0.586016,
    0.919939,
    0.395,
    0.402,
    0.484601,
    0.56,
    0.354108,
    0.609458,
    0.474215,
    0.355526,
    0.366831,
    1.088,
    0.438487,
    0.340631,
    0.472625,
    0.420512,
    0.573084,
    0.572648,
    0.625,
    0.49,
    0.71054,
    0.634763,
    0.575424,
    0.502456,
    0.589559,
    0.380297,
    0.427736,
    0.583849,
    0.443682,
    0.448114,
    0.385008,
    0.560835,
    0.421885,
    0.445106,
    0.524247,
    0.465709,
    0.714883,
    0.522558,
    0.414049,
    0.337916,
    0.595621,
    0.498,
    0.380064,
    0.81799,
    0.361,
    0.589877,
    0.639,
    0.390141,
    0.659695,
    0.373058,
    0.573501,
    0.560463,
    0.616,
    0.506,
    0.526532,
    0.333,
    0.559765,
    0.629786,
    0.359,
    0.37301,
    0.636,
    0.564786,
    0.513,
    0.468408,
    0.526296,
    0.468,
    0.319,
    0.362103
  ]
}