{
  "ALL": [
    [
      60.0,
      6.666666666666667
    ],
    [
      60.0,
      6.666666666666667
    ],
    [
      37.5,
      6.25
    ],
    [
      37.5,
      6.25
    ],
    [
      56.25,
      6.25
    ],
    [
      56.25,
      6.25
    ],
    [
      50.0,
      6.25
    ],
    [
      50.0,
      6.25
    ],
    [
      50.0,
      6.25
    ],
    [
      50.0,
      6.25
    ],
    [
      40.0,
      6.666666666666667
    ],
    [
      40.0,
      6.666666666666667
    ],
    [
      56.25,
      6.25
    ],
    [
      56.25,
      6.25
    ],
    [
      31.25,
      6.25
    ],
    [
      31.25,
      6.25
    ],
    [
      62.5,
      6.25
    ],
    [
      62.5,
      6.25
    ],
    [
      62.5,
      6.25
    ],
    [
      62.5,
      6.25
    ],
    [
      46.666666666666664,
      6.666666666666667
    ],
    [
      46.666666666666664,
      6.666666666666667
    ],
    [
      43.75,
      6.25
    ],
    [
      43.75,
      6.25
    ],
    [
      62.5,
      6.25
    ],
    [
      62.5,
      6.25
    ],
    [
      37.5,
      6.25
    ],
    [
      37.5,
      6.25
    ],
    [
      43.75,
      6.25
    ],
    [
      43.75,
      6.25
    ],
    [
      25.0,
      6.25
    ],
    [
      25.0,
      6.25
    ],
    [
      31.25,
      6.25
    ],
    [
      31.25,
      6.25
    ],
    [
      62.5,
      6.25
    ],
    [
      62.5,
      6.25
    ],
    [
      43.75,
      6.25
    ],
    [
      43.75,
      6.25
    ],
    [
      37.5,
      6.25
    ],
    [
      37.5,
      6.25
    ],
    [
      68.75,
      6.25
    ],
    [
      68.75,
      6.25
    ],
    [
      56.25,
      6.25
    ],
    [
      56.25,
      6.25
    ],
    [
      18.75,
      6.25
    ],
    [
      18.75,
      6.25
    ],
    [
      50.0,
      6.25
    ],
    [
      50.0,
      6.25
    ],
    [
      37.5,
      6.25
    ],
    [
      37.5,
      6.25
    ],
    [
      43.75,
      6.25
    ],
    [
      43.75,
      6.25
    ],
    [
      56.25,
      6.25
    ],
    [
      56.25,
      6.25
    ],
    [
      60.0,
      6.666666666666667
    ],
    [
      60.0,
      6.666666666666667
    ],
    [
      26.666666666666668,
      6.666666666666667
    ],
    [
      26.666666666666668,
      6.666666666666667
    ],
    [
      46.666666666666664,
      6.666666666666667
    ],
    [
      46.666666666666664,
      6.666666666666667
    ],
    [
      50.0,
      6.25
    ],
    [
      50.0,
      6.25
    ],
    [
      46.666666666666664,
      6.666666666666667
    ],
    [
      46.666666666666664,
      6.666666666666667
    ],
    [
      75.0,
      6.25
    ],
    [
      75.0,
      6.25
    ],
    [
      50.0,
      6.25
    ],
    [
      50.0,
      6.25
    ],
    [
      31.25,
      6.25
    ],
    [
      31.25,
      6.25
    ],
    [
      56.25,
      6.25
    ],
    [
      56.25,
      6.25
    ],
    [
      37.5,
      6.25
    ],
    [
      37.5,
      6.25
    ],
    [
      41.1764705882353,
      5.882352941176471
    ],
    [
      41.1764705882353,
      5.882352941176471
    ],
    [
      40.0,
      6.666666666666667
    ],
    [
      40.0,
      6.666666666666667
    ],
    [
      26.666666666666668,
      6.666666666666667
    ],
    [
      26.666666666666668,
      6.666666666666667
    ],
    [
      25.0,
      6.25
    ],
    [
      25.0,
      6.25
    ],
    [
      25.0,
      6.25
    ],
    [
      25.0,
      6.25
    ],
    [
      58.8235294117647,
      5.882352941176471
    ],
    [
      58.8235294117647,
      5.882352941176471
    ],
    [
      31.25,
      6.25
    ],
    [
      31.25,
      6.25
    ],
    [
      46.666666666666664,
      6.666666666666667
    ],
    [
      46.666666666666664,
      6.666666666666667
    ],
    [
      40.0,
      6.666666666666667
    ],
    [
      40.0,
      6.666666666666667
    ],
    [
      60.0,
      6.666666666666667
    ],
    [
      60.0,
      6.666666666666667
    ],
    [
      62.5,
      6.25
    ],
    [
      62.5,
      6.25
    ],
    [
      56.25,
      6.25
    ],
    [
      56.25,
      6.25
    ],
    [
      50.0,
      6.25
    ],
    [
      50.0,
      6.25
    ],
    [
      50.0,
      6.25
    ],
    [
      50.0,
      6.25
    ],
    [
      56.25,
      6.25
    ],
    [
      56.25,
      6.25
    ],
    [
      56.25,
      6.25
    ],
    [
      56.25,
      6.25
    ],
    [
      46.666666666666664,
      6.666666666666667
    ],
    [
      46.666666666666664,
      6.666666666666667
    ]
  ],
  "PROXY-STATUS": [
    [
      20.0,
      6.666666666666667
    ],
    [
      6.25,
      6.25
    ],
    [
      12.5,
      6.25
    ],
    [
      18.75,
      6.25
    ],
    [
      6.25,
      6.25
    ],
    [
      6.25,
      6.25
    ],
    [
      6.25,
      6.25
    ],
    [
      13.333333333333334,
      6.666666666666667
    ],
    [
      18.75,
      6.25
    ],
    [
      6.25,
      6.25
    ],
    [
      12.5,
      6.25
    ],
    [
      12.5,
      6.25
    ],
    [
      12.5,
      6.25
    ],
    [
      12.5,
      6.25
    ],
    [
      18.75,
      6.25
    ],
    [
      12.5,
      6.25
    ],
    [
      6.25,
      6.25
    ],
    [
      13.333333333333334,
      6.666666666666667
    ],
    [
      6.666666666666667,
      6.666666666666667
    ],
    [
      6.25,
      6.25
    ],
    [
      13.333333333333334,
      6.666666666666667
    ],
    [
      18.75,
      6.25
    ],
    [
      12.5,
      6.25
    ],
    [
      6.25,
      6.25
    ],
    [
      12.5,
      6.25
    ],
    [
      6.25,
      6.25
    ],
    [
      6.666666666666667,
      6.666666666666667
    ],
    [
      11.764705882352942,
      5.882352941176471
    ],
    [
      13.333333333333334,
      6.666666666666667
    ],
    [
      6.666666666666667,
      6.666666666666667
    ],
    [
      6.666666666666667,
      6.666666666666667
    ],
    [
      12.5,
      6.25
    ],
    [
      6.25,
      6.25
    ],
    [
      31.25,
      6.25
    ],
    [
      18.75,
      6.25
    ],
    [
      6.25,
      6.25
    ],
    [
      13.333333333333334,
      6.666666666666667
    ]
  ],
  "TIMEOUT": [
    [
      40.0,
      6.666666666666667
    ],
    [
      31.25,
      6.25
    ],
    [
      43.75,
      6.25
    ],
    [
      50.0,
      6.25
    ],
    [
      31.25,
      6.25
    ],
    [
      40.0,
      6.666666666666667
    ],
    [
      50.0,
      6.25
    ],
    [
      31.25,
      6.25
    ],
    [
      56.25,
      6.25
    ],
    [
      56.25,
      6.25
    ],
    [
      33.333333333333336,
      6.666666666666667
    ],
    [
      25.0,
      6.25
    ],
    [
      56.25,
      6.25
    ],
    [
      25.0,
      6.25
    ],
    [
      43.75,
      6.25
    ],
    [
      25.0,
      6.25
    ],
    [
      31.25,
      6.25
    ],
    [
      50.0,
      6.25
    ],
    [
      43.75,
      6.25
    ],
    [
      37.5,
      6.25
    ],
    [
      56.25,
      6.25
    ],
    [
      43.75,
      6.25
    ],
    [
      18.75,
      6.25
    ],
    [
      50.0,
      6.25
    ],
    [
      18.75,
      6.25
    ],
    [
      31.25,
      6.25
    ],
    [
      50.0,
      6.25
    ],
    [
      46.666666666666664,
      6.666666666666667
    ],
    [
      20.0,
      6.666666666666667
    ],
    [
      46.666666666666664,
      6.666666666666667
    ],
    [
      43.75,
      6.25
    ],
    [
      33.333333333333336,
      6.666666666666667
    ],
    [
      56.25,
      6.25
    ],
    [
      37.5,
      6.25
    ],
    [
      25.0,
      6.25
    ],
    [
      43.75,
      6.25
    ],
    [
      31.25,
      6.25
    ],
    [
      41.1764705882353,
      5.882352941176471
    ],
    [
      33.333333333333336,
      6.666666666666667
    ],
    [
      26.666666666666668,
      6.666666666666667
    ],
    [
      25.0,
      6.25
    ],
    [
      25.0,
      6.25
    ],
    [
      47.05882352941177,
      5.882352941176471
    ],
    [
      31.25,
      6.25
    ],
    [
      33.333333333333336,
      6.666666666666667
    ],
    [
      33.333333333333336,
      6.666666666666667
    ],
    [
      53.333333333333336,
      6.666666666666667
    ],
    [
      62.5,
      6.25
    ],
    [
      43.75,
      6.25
    ],
    [
      43.75,
      6.25
    ],
    [
      18.75,
      6.25
    ],
    [
      37.5,
      6.25
    ],
    [
      50.0,
      6.25
    ],
    [
      33.333333333333336,
      6.666666666666667
    ]
  ]
}