[
  12.279751150842925,
  14.233507812416605,
  6.04100026882451,
  6.785129371213575,
  0.7818597589878199,
  2.9048350616496768,
  11.233951247460064,
  4.739226996532664,
  3.863314018372947,
  4.670082053341682,
  3.9330457949103486,
  10.50640890943475,
  23.39099212893112,
  5.009270280813435,
  2.118070236797605,
  5.665618055191615,
  5.2778281737065145,
  4.340652215550279,
  9.595927488373942,
  14.59268177009233,
  4.579071696242702,
  0.4102403162132357,
  16.193283026200767,
  4.304979839241293,
  5.431022953539633,
  4.137769090761446,
  2.327587586393505,
  9.15707939531227,
  13.698020293617072,
  12.346650739487202,
  3.5095985326368537,
  7.55401831282888,
  10.709060266575285,
  9.430681543566799,
  12.027940906726332,
  6.245940138909708,
  11.294441863978207,
  15.132198670636331,
  11.746861018482228,
  9.863975774075499,
  5.056797315346304,
  3.8369304556354935,
  4.671000966313315,
  5.813784483009216,
  5.536224903600495
]