[
  0.404809,
  0.30556,
  0.358035,
  0.456992,
  0.408202,
  0.361225,
  0.397221,
  0.380556,
  0.356717,
  0.411194,
  0.46381,
  0.483444,
  0.338347,
  0.477743,
  0.331223,
  0.416229,
  0.327889,
  0.411915,
  0.335025,
  0.345016,
  0.382586,
  0.327207,
  0.394006,
  0.434805,
  0.423072,
  0.494134,
  0.395017,
  0.316922,
  0.424491,
  0.450807,
  0.361013,
  0.312055,
  0.412342,
  0.303913,
  0.303572,
  0.469551,
  0.415839,
  0.479139,
  0.448824,
  0.522942,
  0.511013,
  0.428222,
  0.358148,
  0.417869,
  0.436999,
  0.381144,
  0.31387,
  0.646662,
  0.363802,
  0.358933,
  0.427599,
  0.407232,
  0.413527,
  0.29791,
  0.395967,
  0.299829,
  0.426948,
  0.438934,
  0.392008,
  0.279018,
  1.003603,
  0.491805,
  0.40904,
  0.365923,
  0.290241,
  0.435798,
  0.416221,
  0.357188,
  0.303806,
  0.458165,
  0.31423,
  0.380366,
  0.436322,
  0.351875,
  0.404925,
  0.412109,
  0.387338,
  0.349821,
  0.411013,
  0.397282,
  0.405009,
  0.385088,
  0.351129,
  0.306011,
  0.385822,
  0.485207,
  0.304015,
  0.427455,
  0.302575,
  0.349819,
  0.315997,
  0.107207,
  0.437375,
  0.497008,
  0.49123,
  0.322275,
  0.315544,
  0.59977,
  0.310997,
  0.431636,
  0.344183,
  0.3598,
  0.300014,
  0.425998,
  0.29423,
  0.310008,
  0.478008,
  0.365013,
  0.423704,
  0.296225,
  0.440064,
  0.306008,
  0.268805,
  0.458217,
  0.373478,
  0.416544,
  0.343262,
  0.329712,
  0.454902,
  0.465925,
  0.401982,
  0.309482,
  0.57302,
  0.33422,
  0.432047,
  0.317596,
  0.281118,
  0.300055,
  0.412015,
  0.365894,
  0.29889,
  0.416516,
  0.333431,
  0.316218,
  0.34688,
  0.324165,
  0.377099,
  0.418891,
  0.311973,
  0.423329,
  0.396868,
  0.421022,
  0.392203,
  0.419375,
  0.429022,
  0.315711,
  0.322944,
  0.367696,
  0.358159,
  0.342971,
  0.353844,
  0.464193,
  0.42223,
  0.312018,
  0.47781,
  0.073804,
  0.22868,
  0.329821,
  0.272143,
  0.281009,
  0.322112,
  0.292297,
  0.193409,
  0.425914,
  0.327106,
  0.289577,
  0.295643,
  0.249241,
  0.315221,
  0.280338,
  0.433011,
  0.246012,
  0.245471,
  0.2089,
  0.182736,
  0.260879,
  0.45975,
  0.18133,
  0.30913,
  0.244882,
  0.25414,
  0.235714,
  0.211322,
  0.26478,
  0.281148,
  0.241659,
  0.378016,
  0.266578,
  0.310111,
  0.338407,
  0.243166,
  0.399538,
  0.63184,
  0.298994,
  0.450606,
  0.267792,
  0.30201,
  0.281413,
  0.245833,
  0.224559,
  0.300098,
  0.286316,
  0.357101,
  0.20387,
  0.29482,
  0.277181,
  0.207063,
  0.269109,
  0.291576,
  0.29015,
  0.28199,
  0.281693,
  0.247251,
  0.244701,
  0.28262,
  0.284579,
  0.226148,
  0.311265,
  0.283874,
  0.480604,
  0.326715,
  0.292696,
  0.257024,
  0.273307,
  0.263873,
  0.257105,
  0.23188,
  0.386286,
  0.329051,
  0.315432,
  0.252982,
  0.246016,
  0.31014,
  0.280557,
  0.249319,
  0.268147,
  0.25381,
  0.039105,
  0.280559,
  0.234693,
  0.402869,
  0.297032,
  0.281596,
  0.279501,
  0.355148,
  0.28541,
  0.233051,
  0.282846,
  0.285087,
  0.316745,
  0.28377,
  0.250839,
  0.280764,
  0.445012,
  0.202902,
  0.245265,
  0.333575,
  0.306986,
  0.236062,
  0.328003,
  0.313456,
  0.262638,
  0.265376,
  0.229245,
  0.220874,
  0.319252,
  0.370698,
  0.269014,
  0.505465,
  0.260504,
  0.27191,
  0.289636,
  0.231979,
  0.227319,
  0.202998,
  0.272351,
  0.268269,
  0.289017,
  0.22383,
  0.304259,
  0.258513,
  0.243369,
  0.209441,
  0.233682,
  0.274912,
  0.255094,
  0.484093,
  0.190654,
  0.232876,
  0.287663,
  0.249092,
  0.237964,
  0.244637,
  0.323338,
  0.26575,
  0.337812,
  0.357128,
  0.427153,
  0.297208,
  0.275045,
  0.275108,
  0.728998,
  0.178026,
  1.059808,
  0.23289,
  0.269801,
  0.257153,
  0.254286,
  0.841321,
  0.979141,
  0.849003,
  0.915584,
  0.77462,
  0.896018,
  0.889617,
  0.200972,
  0.283986,
  0.212519,
  0.268749,
  0.18987,
  0.267212,
  0.200133,
  0.887109,
  0.746073,
  0.251188,
  0.252909,
  0.419947,
  0.287012,
  0.454816,
  0.639953,
  0.227481,
  0.695934,
  0.242764,
  0.214843,
  0.822309,
  0.823015,
  0.795354,
  0.794257,
  0.890066,
  0.351675,
  0.249674,
  0.69006,
  0.307029,
  0.837825,
  0.740398,
  0.262912,
  0.1553,
  0.309196,
  0.277023,
  0.749964,
  0.757109,
  0.293295,
  0.7874,
  0.865509,
  0.419992,
  0.279597,
  0.741348,
  0.202916,
  0.251936,
  0.743711,
  0.235532,
  0.285416,
  0.340841,
  0.257016,
  0.257862,
  0.50509,
  0.727828,
  0.75707,
  0.823715,
  0.850919,
  0.24804,
  0.798553,
  0.368824,
  0.30591,
  0.247908,
  0.766111,
  0.259817,
  0.407301,
  0.274997,
  0.267512,
  0.237022,
  0.286197,
  0.229449,
  0.240009,
  0.277013,
  0.706834,
  0.261525,
  0.830725,
  0.256829,
  0.78148,
  0.78181,
  0.29167,
  0.265912,
  0.333903,
  0.726015,
  0.74711,
  0.205915,
  0.782472,
  0.358914,
  0.315428,
  0.592506,
  0.736743,
  0.444676,
  0.815773,
  0.775968,
  0.325387,
  0.81768,
  0.322965,
  0.246824,
  0.818835,
  0.820737,
  0.734402,
  0.231239,
  0.23458,
  0.83472,
  0.249131,
  0.185297,
  0.037872,
  0.847004,
  0.754062,
  0.84953,
  0.716234,
  0.367966,
  0.206907,
  0.256708,
  0.222208,
  0.285942,
  0.469659,
  0.162366,
  0.244375,
  0.191651,
  0.806974,
  0.841042,
  0.892066,
  0.86367,
  0.916446,
  0.349383,
  0.890248,
  0.184501,
  0.870282,
  0.199644,
  0.843131,
  0.839677,
  0.239965,
  0.828543,
  0.174601,
  0.845844,
  0.199731,
  0.288717,
  0.263715,
  0.824017,
  0.84071,
  0.791852,
  0.886337,
  0.186212,
  0.373713,
  0.858127,
  0.843021,
  0.401534,
  0.839901,
  0.272993,
  0.409715,
  0.820526,
  0.262985,
  0.855336,
  0.868548,
  0.433242,
  0.300004,
  0.204742,
  0.894472,
  0.256935,
  0.8807,
  0.251013,
  0.210263,
  0.226253,
  0.200363,
  0.039711,
  0.205297,
  0.170999,
  0.792952,
  0.187419,
  0.869816,
  0.219216,
  0.810702,
  0.253466,
  0.212793,
  0.853107,
  0.296958,
  0.232367,
  0.821083,
  0.259037,
  0.212994,
  0.847823,
  0.819497,
  0.187167,
  0.220803,
  0.847863,
  0.844482,
  0.243637,
  0.870759,
  0.877344,
  0.199276,
  0.038251,
  0.822808,
  0.884919,
  0.234619,
  0.870841,
  0.262404,
  0.181062,
  0.254921,
  0.19936,
  0.237885,
  0.243077,
  0.288301,
  0.259667,
  0.871973,
  0.221487,
  0.832906,
  0.789848,
  0.220007,
  0.175157,
  0.855052,
  0.868309,
  0.857905,
  0.192226,
  0.419992,
  0.87813,
  0.175814,
  0.190776,
  0.875571,
  0.209153,
  0.288253,
  0.235985,
  0.859052,
  0.277014,
  0.166624,
  0.183935,
  0.836268,
  0.867524,
  0.198388,
  0.224441,
  0.271998,
  0.184106,
  0.851525,
  0.243445,
  0.269383,
  0.22501,
  0.853078,
  0.177625,
  0.17964,
  0.279717,
  0.202767,
  0.335745,
  0.44699,
  0.459678,
  0.48591,
  0.352014,
  0.361709,
  0.336004,
  0.414455,
  0.27691,
  0.519016,
  0.309003,
  0.433941,
  0.306096,
  0.301597,
  0.328417,
  0.348291,
  0.331249,
  0.505016,
  0.335013,
  0.280916,
  0.429923,
  0.290695,
  0.427897,
  0.330305,
  0.35723,
  0.267443,
  0.363672,
  0.309643,
  0.420009,
  0.430038,
  0.376714,
  0.615538,
  0.286782,
  0.343715,
  0.403825,
  0.445958,
  0.372058,
  0.338888,
  0.287356,
  0.389711,
  0.301,
  0.386975,
  0.497007,
  0.353015,
  0.055942,
  0.309308,
  0.415044,
  0.409714,
  0.341319,
  0.276454,
  0.256277,
  0.355319,
  0.404142,
  0.317019,
  0.290058,
  0.370023,
  0.423014,
  0.386267,
  0.340867,
  0.359611,
  0.250787,
  0.310316,
  0.320401,
  0.260015,
  0.409593,
  0.345821,
  0.260675,
  0.348116,
  0.266646,
  0.428014,
  1.680019,
  0.322315,
  0.277718,
  0.418272,
  0.340722,
  0.382316,
  0.289516,
  0.30501,
  0.346734,
  0.411015,
  0.363771,
  0.336304,
  0.454468,
  0.397123,
  0.44456,
  0.336722,
  0.267009,
  0.428006,
  0.241355,
  0.426835,
  0.358713,
  0.410614,
  0.391014,
  0.297691,
  0.366018,
  0.278316,
  0.447013,
  0.312009,
  0.336385,
  0.422509,
  0.616019,
  0.302015,
  0.390017,
  0.357018,
  0.37801,
  0.413753,
  0.371016,
  0.319221,
  0.424134,
  0.286287,
  0.278832,
  0.329092,
  0.271022,
  0.347206,
  0.465895,
  0.409768,
  0.431568,
  0.312756,
  0.349978,
  0.324172,
  0.284153,
  0.406645,
  0.355329,
  0.338,
  0.317818,
  0.345537,
  0.430223,
  0.324967,
  0.401592,
  0.311912,
  0.323073,
  0.407965,
  0.289731,
  0.30211,
  0.34531,
  0.293399,
  0.452117,
  0.440703,
  0.416416,
  0.347715,
  0.328011,
  0.353283,
  0.395015,
  0.373624,
  0.31357,
  0.282015,
  0.302717,
  0.325015,
  0.323322,
  0.348379,
  0.272743,
  0.341125,
  0.361316,
  0.32752,
  0.052697,
  0.258823,
  0.430115,
  0.457168,
  0.374577,
  0.52971,
  0.43346,
  0.458206,
  0.340722,
  0.295949,
  0.37091,
  0.296011,
  0.408009,
  0.351322,
  0.404078,
  0.269684,
  0.342011,
  0.41902,
  0.383914,
  0.335997,
  0.355,
  0.327213,
  0.34188,
  0.066288,
  0.389817,
  0.444978,
  0.263298,
  0.338435,
  0.229004,
  0.403821,
  0.302984,
  0.365151,
  0.252243,
  0.405487,
  0.425533,
  0.377614,
  0.233621,
  0.335396,
  0.254141,
  0.311127,
  0.257719,
  0.266694,
  0.380023,
  0.304355,
  0.298641,
  0.399927,
  0.30305,
  0.273012,
  0.250282,
  0.287012,
  0.317016,
  0.232008,
  0.404122,
  0.319229,
  0.268273,
  0.280014,
  0.32807,
  0.246731,
  0.302971,
  0.271944,
  0.072778,
  0.296788,
  0.335285,
  0.335297,
  0.294304,
  0.337028,
  0.37701,
  0.40905,
  0.404911,
  0.305248,
  0.342351,
  0.390759,
  0.377474,
  0.425331,
  0.286703,
  0.247311,
  0.296833,
  0.385017,
  0.34529,
  0.269724,
  0.352124,
  0.307136,
  0.320724,
  0.30411,
  0.279013,
  0.314024,
  0.294999,
  0.304014,
  0.334016,
  0.320628,
  0.377084,
  0.335873,
  0.264161,
  0.366896,
  0.314131,
  0.274495,
  0.330884,
  0.349882,
  0.527019,
  0.379013,
  0.334018,
  0.370014,
  0.341008,
  0.356995,
  0.067147,
  0.287014,
  0.380968,
  0.358567,
  0.284288,
  0.337811,
  0.355078,
  0.396868,
  0.362014,
  0.304421,
  0.410284,
  0.338676,
  0.398647,
  0.297012,
  0.280389,
  0.311015,
  0.404017,
  0.245837,
  0.293041,
  0.385016,
  0.292018,
  0.255453,
  0.319206,
  0.287021,
  0.717638,
  0.337602,
  0.373051,
  0.301004,
  0.342207,
  0.551416,
  0.302198,
  0.4031,
  0.310313,
  0.328066,
  0.294364,
  0.361012,
  0.334882,
  0.264146,
  0.479993,
  0.33095,
  0.336863,
  0.406321,
  0.342916,
  0.405011,
  0.365011,
  0.320686,
  0.29505,
  0.293659,
  0.296014,
  0.221804,
  0.390022,
  0.26659,
  0.385845,
  0.408955,
  0.297144,
  0.410757,
  0.358553,
  0.405262,
  0.383969,
  0.241391,
  0.340014,
  0.247423,
  0.36139,
  0.348595,
  0.281505,
  0.288689,
  0.334301,
  0.039006,
  0.370005,
  0.457428,
  0.758006,
  0.300008,
  0.520308,
  0.461892,
  0.467013,
  0.403012,
  0.330662,
  0.349723,
  0.580033,
  0.527295,
  0.282995,
  0.273022,
  0.317019,
  0.282011,
  0.279892,
  0.424352,
  0.455866,
  0.325119,
  0.499664,
  0.542416,
  0.334618,
  0.289647,
  0.557107,
  0.33602,
  0.503047,
  0.406323,
  0.380866,
  0.362022,
  0.393016,
  0.574027,
  0.398632,
  0.801208,
  0.547608,
  0.290915,
  0.377614,
  0.277806,
  0.531318,
  0.326718,
  0.458995,
  0.467012,
  0.283012,
  0.299268,
  0.327533,
  0.47655,
  0.553011,
  0.337013,
  0.492029,
  0.354594,
  0.458712,
  0.411005,
  0.474711,
  0.499926,
  0.557584,
  0.500052,
  0.390962,
  0.466396,
  0.472814,
  0.285132,
  0.341636,
  0.393009,
  0.469306,
  0.481037,
  0.395013,
  0.303847,
  0.373018,
  0.385013,
  0.353015,
  0.296011,
  0.309016,
  0.398018,
  0.513309,
  0.526307,
  0.380991,
  0.472525,
  0.288844,
  0.472266,
  0.48532,
  0.493082,
  0.497165,
  0.455758,
  0.297976,
  0.378385,
  0.473636,
  0.278999,
  0.544414,
  0.287011,
  0.285522,
  0.308714,
  0.467668,
  0.524884,
  0.317152,
  0.487507,
  0.294136,
  0.350921,
  0.47289,
  0.359743,
  0.504927,
  0.468992,
  0.464692,
  0.232589,
  0.283015,
  0.446277,
  0.269701,
  0.259014,
  0.4924,
  0.31314,
  0.326015,
  0.530119,
  0.333409,
  0.323998,
  0.521083,
  0.378236,
  0.300152,
  0.421015,
  0.518321,
  0.498965,
  0.309438,
  0.311865,
  0.318018,
  0.502828,
  0.372427,
  0.279052,
  0.334863,
  0.452953,
  0.306998,
  0.519371,
  0.480645,
  0.376009,
  0.263592,
  0.461475,
  0.24772,
  0.297173,
  0.499821,
  0.506323,
  0.499941,
  0.379924,
  0.388229,
  0.458004,
  0.551962,
  0.320598,
  0.529011,
  0.466709,
  0.412914,
  0.290901,
  0.355022,
  0.304013,
  0.361022,
  0.317483,
  0.290022,
  0.369017,
  0.495289,
  1.195472,
  0.456711,
  0.52481,
  0.308707,
  0.311016,
  0.292718,
  0.452018,
  0.460072,
  0.492782,
  0.483501,
  0.293934,
  0.436714,
  0.505415,
  0.30875,
  0.456176,
  0.500203,
  0.274343,
  0.232989,
  0.380011,
  0.701019,
  0.379015,
  0.693012,
  0.344015,
  0.478312,
  0.316718,
  0.959566,
  0.912316,
  0.586106,
  0.931718,
  0.251114,
  0.94189,
  0.977887,
  1.08995,
  0.267778,
  0.899562,
  0.977449,
  0.364114,
  0.955005,
  0.958164,
  0.252231,
  0.968882,
  0.504213,
  0.708639,
  0.271149,
  1.017005,
  0.485421,
  0.31792,
  0.680003,
  0.928926,
  0.642088,
  0.976895,
  0.950014,
  0.981005,
  0.594181,
  0.306512,
  0.298041,
  0.594419,
  0.965033,
  0.966214,
  0.947727,
  0.276203,
  0.941693,
  0.957328,
  0.28901,
  0.258097,
  0.640536,
  0.907999,
  0.935896,
  0.958593,
  0.966018,
  0.89757,
  0.039173,
  0.262555,
  0.924909,
  0.446121,
  0.637907,
  0.604547,
  0.583586,
  0.965137,
  0.327536,
  0.257117,
  1.004014,
  0.55501,
  0.995021,
  0.290012,
  0.34663,
  0.347513,
  0.355022,
  0.974153,
  0.960779,
  0.935355,
  0.88161,
  0.358512,
  0.977633,
  0.697822,
  0.335089,
  0.935847,
  0.942134,
  0.575383,
  0.555118,
  0.927041,
  0.315086,
  0.259998,
  0.93791,
  0.924151,
  0.192792,
  0.269134,
  0.551117,
  0.291836,
  0.278008,
  1.005833,
  0.951013,
  0.98636,
  0.265122,
  0.359119,
  0.948004,
  0.576121,
  0.908971,
  0.589901,
  0.982817,
  0.981187,
  0.305953,
  0.965754,
  0.26612,
  0.305005,
  0.993014,
  0.970215,
  0.887325,
  0.549617,
  0.517428,
  0.926022,
  0.631007,
  1.033589,
  0.967015,
  0.811552,
  0.915039,
  0.977899,
  0.363413,
  0.964137,
  0.936406,
  1.037905,
  0.309119,
  0.272003,
  0.277119,
  0.616119,
  0.936905,
  0.892302,
  0.323836,
  0.687252,
  0.264834,
  0.34601,
  0.241009,
  0.519306,
  0.537853,
  0.202015,
  0.341941,
  0.314886,
  0.283652,
  0.331016,
  0.468018,
  0.47801,
  0.338016,
  0.305781,
  0.232095,
  0.491013,
  0.385906,
  0.450009,
  0.307736,
  0.233302,
  0.356424,
  0.261859,
  0.41101,
  0.300703,
  0.232015,
  0.281011,
  0.348008,
  0.298015,
  0.299864,
  0.505172,
  0.519951,
  0.262461,
  0.228694,
  0.246905,
  0.281012,
  0.227643,
  0.380857,
  0.211204,
  0.250008,
  0.282009,
  0.347754,
  0.508857,
  0.331055,
  0.524474,
  0.30308,
  0.225012,
  0.445011,
  0.304022,
  0.214011,
  0.18585,
  0.231181,
  0.326025,
  0.222166,
  0.370746,
  0.465868,
  0.509011,
  0.48359,
  0.255345,
  0.290012,
  0.242009,
  0.31218,
  0.238006,
  0.334637,
  0.372176,
  0.27013,
  0.344063,
  0.408015,
  0.493012,
  0.241015,
  0.235856,
  0.287152,
  0.210281,
  0.225548,
  0.405513,
  0.310179,
  0.303604,
  0.330738,
  0.359022,
  0.260663,
  0.499013,
  0.307004,
  0.403009,
  0.243865,
  0.244349,
  0.311859,
  0.421166,
  0.401256,
  0.265859,
  0.277852,
  0.278868,
  0.238549,
  0.511867,
  0.231038,
  0.561855,
  0.301104,
  0.259864,
  0.032992,
  0.260149,
  0.325183,
  0.398868,
  0.491172,
  0.38256,
  0.228022,
  0.506131,
  0.293156,
  0.251859,
  0.246795,
  0.318009,
  0.239088,
  0.324854,
  0.266082,
  0.324105,
  0.432019,
  0.563983,
  0.374014,
  0.202387,
  0.266858,
  0.438014,
  0.363169,
  0.290236,
  0.361011,
  0.310464,
  0.357518,
  0.286297,
  0.421736,
  0.263864,
  0.201167,
  0.234862,
  0.42916,
  0.508003,
  0.261815,
  0.494636,
  0.250014,
  0.415998,
  0.234676,
  0.241117,
  0.232016,
  0.263172,
  0.348935,
  0.236366,
  0.396166,
  0.239009,
  0.664019,
  0.473015,
  0.235862,
  0.254172,
  0.289014,
  0.331011,
  0.268011,
  0.87902,
  0.499014,
  0.259009,
  0.341256,
  0.924875,
  0.539151,
  0.842605,
  0.932974,
  0.334209,
  0.551552,
  0.296009,
  0.55316,
  0.818559,
  0.782592,
  0.93996,
  0.844265,
  0.824814,
  0.820491,
  0.301451,
  0.85729,
  0.905682,
  0.817645,
  0.571711,
  0.301925,
  0.577338,
  0.375092,
  0.30151,
  0.560888,
  0.361167,
  0.594521,
  0.935873,
  0.324642,
  0.823929,
  0.353521,
  0.296727,
  0.920968,
  0.904305,
  0.724297,
  0.056052,
  0.290348,
  0.328138,
  0.309699,
  0.848631,
  0.868996,
  0.387142,
  0.871801,
  0.885511,
  0.313508,
  0.888442,
  0.380813,
  0.826944,
  0.532084,
  0.305724,
  0.897334,
  0.576926,
  0.316045,
  0.295865,
  0.358591,
  0.615483,
  0.840128,
  0.310178,
  0.380134,
  0.597664,
  0.886819,
  0.320164,
  0.889248,
  0.350011,
  0.548015,
  0.306798,
  0.831589,
  0.790831,
  0.314739,
  0.590215,
  0.336268,
  0.592148,
  0.319003,
  0.298488,
  0.548214,
  0.307317,
  0.852563,
  0.617895,
  0.359978,
  0.579028,
  0.33825,
  0.343015,
  0.846628,
  0.810195,
  0.33032,
  0.560019,
  0.811945,
  0.366178,
  0.359011,
  1.478674,
  0.470777,
  0.319253,
  0.827532,
  0.302531,
  0.90612,
  0.816424,
  0.596381,
  0.815291,
  0.332611,
  0.318071,
  0.7682,
  0.310834,
  0.356713,
  0.882823,
  0.306159,
  0.416795,
  0.819484,
  0.320775,
  0.552359,
  0.867698,
  0.766721,
  0.853294,
  0.879468,
  0.317511,
  0.782011,
  0.853345,
  0.801517,
  0.852513,
  0.465051,
  0.061289,
  0.771195,
  0.853356,
  0.314024,
  0.811374,
  0.860737,
  0.827609,
  0.299806,
  0.28376,
  0.389526,
  0.313278,
  0.413853,
  0.479022,
  0.3976,
  0.391946,
  0.318741,
  0.433814,
  0.307016,
  0.374011,
  0.374254,
  0.353212,
  0.384197,
  0.397617,
  0.366015,
  0.291005,
  0.383129,
  0.36769,
  0.464291,
  0.322447,
  0.317162,
  0.351662,
  0.411455,
  0.331569,
  0.307998,
  0.4238,
  0.288223,
  0.434013,
  0.37501,
  0.310803,
  0.578708,
  0.380153,
  0.301014,
  0.340451,
  0.298211,
  0.379375,
  0.327339,
  0.323018,
  0.363014,
  0.41166,
  0.328219,
  0.350387,
  0.373004,
  0.297199,
  0.282254,
  0.296808,
  0.31258,
  0.390754,
  0.430803,
  0.326597,
  0.376342,
  0.317951,
  0.390013,
  0.403211,
  0.30481,
  0.362583,
  0.061438,
  0.384016,
  0.316018,
  0.299011,
  0.384457,
  0.305012,
  0.453801,
  0.377872,
  0.360145,
  0.366018,
  0.379034,
  0.40222,
  0.341545,
  0.452842,
  0.367002,
  0.417016,
  0.298412,
  0.339252,
  0.44956,
  0.384022,
  0.287149,
  0.417217,
  0.400392,
  0.383217,
  0.360223,
  0.36722,
  0.335859,
  0.373886,
  0.663871,
  0.309162,
  0.438205,
  0.407803,
  0.317213,
  0.337223,
  0.398808,
  0.382487,
  0.430216,
  0.347112,
  0.285017,
  0.405736,
  0.410395,
  0.401564,
  0.398164,
  0.442471,
  0.348914,
  0.354019,
  0.285012,
  0.306336,
  0.338016,
  0.396224,
  0.314804,
  0.400021,
  0.399222,
  0.363882,
  0.329131,
  0.403354,
  0.374933,
  0.261947,
  0.391013,
  0.298622,
  0.340403,
  0.312012,
  0.364448,
  0.294808,
  0.397015,
  0.349011,
  0.317161,
  0.408953,
  0.285624,
  0.316312,
  0.372636,
  0.332058,
  0.329814,
  0.443014,
  0.382221,
  0.373197,
  0.416018,
  0.425018,
  0.41793,
  0.410224,
  0.337142,
  0.434022,
  0.398235,
  0.338919,
  0.378361,
  0.383937,
  0.307178,
  0.557215,
  0.392808,
  0.303005,
  0.362224,
  0.372221,
  0.659008,
  0.374631,
  0.457019,
  0.398759,
  0.315018,
  0.295896,
  0.199771,
  0.330021,
  0.304463,
  0.300514,
  0.435707,
  0.351179,
  0.330338,
  0.413945,
  0.307177,
  0.302135,
  0.307155,
  0.361388,
  0.435881,
  0.329503,
  0.476319,
  0.318892,
  0.328155,
  0.285243,
  0.536088,
  0.417903,
  0.399018,
  0.313525,
  0.426011,
  0.42501,
  0.328227,
  0.436661,
  0.462006,
  0.468018,
  0.324087,
  0.343245,
  0.483478,
  0.422644,
  0.418436,
  0.327441,
  0.408156,
  0.048806,
  0.307288,
  0.302097,
  0.327104,
  0.437875,
  0.336439,
  0.444673,
  0.439239,
  0.324332,
  0.29987,
  0.432009,
  0.328111,
  0.443603,
  0.353729,
  0.356007,
  0.309065,
  0.344466,
  0.321027,
  0.355129,
  0.439013,
  0.305109,
  0.365696,
  0.488944,
  0.318411,
  0.4315,
  0.370078,
  0.361763,
  0.503351,
  0.396321,
  0.472022,
  0.336016,
  0.33178,
  0.326889,
  0.327904,
  0.362018,
  0.339006,
  0.391991,
  0.468915,
  0.308893,
  0.349048,
  0.384308,
  0.415128,
  0.392123,
  0.373901,
  0.3359,
  0.397335,
  0.321066,
  0.424265,
  0.394697,
  0.367636,
  0.310183,
  0.38226,
  0.37433,
  0.329009,
  0.426317,
  0.414897,
  0.435077,
  0.400011,
  0.317091,
  0.397012,
  0.318825,
  0.387445,
  0.300127,
  0.305141,
  0.315962,
  0.422007,
  0.385145,
  0.35524,
  0.428082,
  0.357129,
  0.415905,
  0.308812,
  0.47007,
  0.319675,
  0.432873,
  0.484839,
  0.299185,
  0.350018,
  0.635181,
  0.360777,
  0.330205,
  0.391017,
  0.306229,
  0.427556,
  0.370433,
  0.405618,
  0.435927,
  0.410965,
  0.364588,
  0.461011,
  0.35969,
  0.459289,
  0.448853,
  0.454114,
  0.402018,
  0.409013,
  0.326453,
  0.338742,
  0.407043,
  0.450015,
  0.326087,
  0.295113,
  0.30273,
  0.426799,
  0.455004,
  0.420017,
  0.353992,
  0.356404,
  0.404625,
  0.36922,
  0.301008,
  0.282702,
  0.362018,
  0.283022,
  0.287014,
  0.35326,
  0.04744,
  0.432012,
  0.256631,
  0.403784,
  0.639374,
  0.306103,
  0.332408,
  0.349322,
  0.296757,
  0.424587,
  0.325704,
  0.51767,
  0.27532,
  0.340322,
  0.300716,
  0.387027,
  0.311758,
  0.432324,
  0.418578,
  0.336018,
  0.288325,
  0.429982,
  0.372329,
  0.424015,
  0.281022,
  0.364706,
  0.261316,
  0.388052,
  0.280319,
  0.283711,
  0.305637,
  0.271715,
  0.31701,
  0.392329,
  0.354707,
  0.331008,
  0.406012,
  0.338016,
  0.438323,
  0.284312,
  0.283865,
  0.275013,
  0.515326,
  0.418695,
  0.315012,
  0.382649,
  0.302723,
  0.326015,
  0.405478,
  0.452481,
  0.287309,
  0.282995,
  0.280325,
  0.36633,
  0.356,
  0.445704,
  0.485014,
  0.336718,
  0.286329,
  0.440213,
  0.299008,
  0.382059,
  0.315322,
  0.408014,
  0.366014,
  0.284568,
  0.274654,
  0.376513,
  0.586209,
  0.291134,
  0.478977,
  0.285005,
  0.376322,
  0.333405,
  0.338006,
  0.344027,
  0.326313,
  0.280898,
  0.296016,
  0.355021,
  0.343373,
  0.270407,
  0.281465,
  0.450706,
  0.347963,
  0.349014,
  0.362479,
  0.346022,
  0.417015,
  0.318704,
  0.304085,
  0.375689,
  0.347016,
  0.370029,
  0.323122,
  0.418316,
  0.478012,
  0.25671,
  0.332995,
  0.194008,
  0.270912,
  0.319012,
  0.32215,
  0.289009,
  0.3631,
  0.370731,
  0.265758,
  0.283507,
  0.3438,
  0.337339,
  0.398334,
  0.285048,
  0.57995,
  0.368682,
  0.284419,
  0.318362,
  0.370016,
  0.369018,
  0.310013,
  0.411665,
  0.300437,
  0.298016,
  0.304018,
  0.417784,
  0.416022,
  0.449475,
  0.344707,
  0.587184,
  0.452016,
  0.321711,
  0.321658,
  0.501218,
  0.346078,
  0.372923,
  0.340629,
  0.313026,
  0.378788,
  0.493518,
  0.448487,
  0.239764,
  0.372976,
  0.333014,
  0.33801,
  0.465646,
  0.386792,
  0.437006,
  0.383245,
  0.277847,
  0.346015,
  0.397511,
  0.399832,
  0.380301,
  0.325504,
  0.334066,
  0.346503,
  0.277969,
  0.313022,
  0.375519,
  0.399302,
  0.404655,
  0.43235,
  0.659873,
  0.324555,
  0.356002,
  0.371779,
  0.356558,
  0.402509,
  0.369513,
  0.347013,
  0.415136,
  0.293406,
  0.37093,
  0.364645,
  0.351897,
  0.449277,
  0.397022,
  0.325013,
  0.4215,
  0.378525,
  0.370208,
  0.349994,
  0.359509,
  0.362512,
  0.374122,
  0.355523,
  0.442066,
  0.381725,
  0.424088,
  0.421852,
  0.360362,
  0.388022,
  0.323957,
  0.395506,
  0.342155,
  0.316015,
  0.29999,
  0.407961,
  0.305022,
  0.352495,
  0.360008,
  0.391009,
  0.291508,
  0.247915,
  0.356524,
  0.371427,
  0.368047,
  0.375022,
  0.323597,
  0.376118,
  0.410689,
  0.239617,
  0.369517,
  0.3522,
  0.397454,
  0.432505,
  0.352498,
  0.420018,
  0.254865,
  0.253633,
  0.335024,
  0.38048,
  0.353584,
  0.355507,
  0.357506,
  0.356614,
  0.29925,
  0.337522,
  0.340518,
  0.338922,
  0.328716,
  0.376163,
  0.32852,
  0.386684,
  0.360031,
  0.420554,
  0.410385,
  0.307098,
  0.059857,
  0.389473,
  0.25427,
  0.353938,
  0.274033,
  0.356031,
  0.319486,
  0.385508,
  0.415508,
  0.34829,
  0.384015,
  0.363523,
  0.424009,
  0.338004,
  0.315515,
  0.38255,
  0.312517,
  0.408898,
  0.345515,
  0.369516,
  0.35845,
  0.379522,
  0.371491,
  0.352914,
  0.375508,
  0.424924,
  0.327201,
  0.277653,
  0.354399,
  0.318015,
  0.351017,
  0.388504,
  0.404504,
  0.284095,
  0.291574,
  0.344518,
  0.378379,
  0.429316,
  0.295022,
  0.392065,
  0.276017,
  0.404587,
  0.654104,
  0.396891,
  0.372438,
  0.379022,
  0.291678,
  0.315015,
  0.269449,
  0.295005,
  0.307007,
  0.386342,
  0.404268,
  0.29166,
  0.337011,
  0.259629,
  0.340259,
  0.353667,
  0.37247,
  0.341702,
  0.267668,
  0.287644,
  0.339432,
  0.306448,
  0.271447,
  0.275066,
  0.401941,
  0.243012,
  0.387973,
  0.26848,
  0.310771,
  0.738782,
  0.268597,
  0.262481,
  0.276289,
  0.299874,
  0.295861,
  0.309901,
  0.326128,
  0.254016,
  0.311016,
  0.289003,
  0.265639,
  0.368688,
  0.273228,
  0.253012,
  0.270292,
  0.280146,
  0.280579,
  0.375577,
  0.356681,
  0.326589,
  0.408012,
  0.259308,
  0.272109,
  0.345278,
  0.307454,
  0.275915,
  0.373575,
  0.371797,
  0.310011,
  0.294118,
  0.271443,
  0.307041,
  0.370995,
  0.400975,
  0.311575,
  0.384264,
  0.375753,
  0.369,
  0.252363,
  0.278464,
  0.380579,
  0.248465,
  0.301041,
  0.268555,
  0.403413,
  0.341417,
  0.266604,
  0.378117,
  0.042902,
  0.259875,
  0.375011,
  0.384316,
  0.365016,
  0.274406,
  0.386772,
  0.38126,
  0.260324,
  0.259043,
  0.386963,
  0.367139,
  0.407573,
  0.378721,
  0.28345,
  0.276841,
  0.351976,
  0.341015,
  0.270015,
  0.294576,
  0.381548,
  0.26989,
  0.386474,
  0.391715,
  0.27508,
  0.265584,
  0.37037,
  0.466831,
  0.391334,
  0.281645,
  0.411521,
  0.313201,
  0.277718,
  0.459842,
  0.39946,
  0.469438,
  0.258553,
  0.656992,
  0.337989,
  0.32645,
  0.509757,
  0.38202,
  0.256491,
  0.36858,
  0.407571,
  0.304459,
  0.317825,
  0.27701,
  0.268452,
  0.280196,
  0.266016,
  0.331212,
  0.298445,
  0.373318,
  0.307986,
  0.24473,
  0.295044,
  0.387719,
  0.267018,
  0.394751,
  0.369582,
  0.263692,
  0.272014,
  0.275481,
  0.388527,
  0.330358,
  0.237787,
  0.364577,
  0.277021,
  0.330582,
  0.255794,
  0.387946,
  0.290181,
  0.280465,
  0.284472,
  0.314586,
  0.244578,
  0.289596,
  0.277445,
  0.042974,
  0.310557,
  0.278474,
  0.274445,
  0.287038,
  0.316628,
  0.291039,
  0.374734,
  0.276172,
  0.266518,
  0.311607,
  0.310321,
  0.269375,
  0.275364,
  0.269774,
  0.274129,
  0.267013,
  0.298078,
  0.260662,
  0.313867,
  0.42903,
  0.357923,
  0.283009,
  0.28857,
  0.244013,
  0.317013,
  0.420011,
  0.276022,
  0.239011,
  0.256474,
  0.30491,
  0.361015,
  0.283018,
  0.341833,
  0.300008,
  0.3733,
  0.340022,
  0.257011,
  0.348163,
  0.419871,
  0.345014,
  0.262158,
  0.313958,
  0.284016,
  0.303613,
  0.299007,
  0.279018,
  0.291016,
  0.270016,
  0.198002,
  0.318015,
  0.257012,
  0.254012,
  0.273012,
  0.302178,
  0.341016,
  0.249314,
  0.293481,
  0.287019,
  0.316022,
  0.263556,
  0.27911,
  0.328924,
  0.253014,
  0.294011,
  0.334016,
  0.306014,
  0.294064,
  0.370007,
  0.259016,
  0.304963,
  0.320995,
  0.221018,
  0.293015,
  0.301009,
  0.286022,
  0.379012,
  0.361009,
  0.343469,
  0.333016,
  0.260014,
  0.27987,
  0.393016,
  0.251004,
  0.357016,
  0.263541,
  0.301014,
  0.253018,
  0.263008,
  0.276012,
  0.25609,
  0.302003,
  0.291014,
  0.260009,
  0.276414,
  0.320012,
  0.311068,
  0.364016,
  0.251012,
  0.355022,
  0.310012,
  0.356009,
  0.635019,
  0.342015,
  0.463182,
  0.380575,
  0.318015,
  0.337131,
  0.27312,
  0.275009,
  0.290009,
  0.382023,
  0.281944,
  0.311022,
  0.32301,
  0.32101,
  0.347013,
  0.343005,
  0.562009,
  0.270567,
  0.26108,
  0.330022,
  0.283012,
  0.367015,
  0.259016,
  0.283022,
  0.290018,
  0.378583,
  0.329015,
  0.295018,
  0.256013,
  0.279016,
  0.252741,
  0.328773,
  0.199016,
  0.289013,
  0.352011,
  0.219189,
  0.419021,
  0.283016,
  0.294956,
  0.333018,
  0.288022,
  0.260812,
  0.473019,
  0.341815,
  0.563013,
  0.302916,
  0.306016,
  0.306388,
  0.899003,
  0.443025,
  0.869513,
  0.547968,
  0.846416,
  0.304022,
  0.349009,
  0.039863,
  0.810773,
  0.903261,
  0.844074,
  0.848294,
  0.842123,
  0.326258,
  0.648509,
  0.321133,
  0.868874,
  0.902312,
  0.361012,
  0.858244,
  0.842099,
  0.870008,
  0.862749,
  0.857457,
  0.337039,
  0.380933,
  0.757301,
  0.892738,
  0.300366,
  0.467345,
  0.280009,
  0.291713,
  0.301202,
  0.562352,
  0.541803,
  0.330175,
  0.569362,
  0.297952,
  0.589102,
  0.594953,
  0.864555,
  0.369379,
  0.244672,
  0.854507,
  0.752129,
  0.321946,
  0.762388,
  0.35993,
  0.739309,
  0.730164,
  0.327891,
  0.734447,
  0.284693,
  0.735994,
  0.450006,
  0.548299,
  0.333074,
  0.595986,
  0.556116,
  0.748237,
  0.273656,
  0.647005,
  0.713953,
  0.599018,
  0.340384,
  0.834651,
  0.613458,
  0.539014,
  0.73567,
  0.656377,
  0.587015,
  0.339425,
  0.305484,
  0.389023,
  0.338447,
  0.407312,
  0.326033,
  0.580927,
  0.46462,
  0.839649,
  0.354391,
  0.741413,
  0.541064,
  0.315805,
  0.841727,
  0.527016,
  0.310076,
  0.574058,
  0.340617,
  0.71269,
  0.75401,
  0.7138,
  0.826925,
  0.333019,
  0.303087,
  0.322019,
  0.33102,
  0.320988,
  0.671849,
  0.739506,
  0.804669,
  0.304277,
  0.282275,
  0.321271,
  0.743589,
  0.428635,
  0.277635,
  0.399281,
  0.745421,
  0.567078,
  0.589597,
  0.765927,
  0.72197,
  0.561328,
  0.744159,
  0.786909,
  0.359237,
  0.370192,
  0.458754,
  0.396022,
  0.434006,
  0.390467,
  0.40844,
  0.406178,
  0.245983,
  0.268222,
  0.419752,
  0.267529,
  0.301766,
  0.422275,
  0.236759,
  0.299379,
  0.383902,
  0.41929,
  0.310069,
  0.552161,
  0.274531,
  0.27501,
  0.404263,
  0.423369,
  0.418563,
  0.277692,
  0.276267,
  0.327902,
  0.219019,
  0.365329,
  0.246502,
  0.407671,
  0.360619,
  0.40332,
  0.458118,
  0.2634,
  0.23662,
  0.302712,
  0.423036,
  0.390133,
  0.552523,
  0.402128,
  0.46326,
  0.461449,
  0.311264,
  0.317713,
  0.371321,
  0.276589,
  0.294484,
  0.278396,
  0.288007,
  0.257795,
  0.340101,
  0.437541,
  0.455273,
  0.500514,
  0.237183,
  0.432151,
  0.237796,
  0.428782,
  0.719261,
  0.233411,
  0.380164,
  0.384226,
  0.441872,
  0.419716,
  0.274129,
  0.375265,
  0.315846,
  0.379669,
  0.46756,
  0.334338,
  0.411884,
  0.398238,
  0.340389,
  0.445001,
  0.450269,
  0.314589,
  0.444811,
  0.262699,
  0.413017,
  0.292723,
  0.298753,
  0.389431,
  0.390305,
  0.268721,
  0.239017,
  0.296536,
  0.472104,
  0.21428,
  0.243808,
  0.268226,
  0.425263,
  0.47952,
  0.457289,
  0.278261,
  0.494715,
  0.261865,
  0.321864,
  0.32231,
  0.44153,
  0.348703,
  0.352016,
  0.366261,
  0.449809,
  0.366269,
  0.282048,
  0.448046,
  0.38357,
  0.456949,
  0.278757,
  0.386449,
  0.321274,
  0.362408,
  0.307022,
  0.39519,
  0.29301,
  0.360863,
  0.304265,
  0.330046,
  0.397012,
  0.480447,
  0.306696,
  0.282743,
  0.080434,
  0.441093,
  0.35601,
  0.274223,
  0.291026,
  0.405536,
  0.31375,
  0.267694,
  0.472964,
  0.387308,
  0.433553,
  0.413863,
  0.256043,
  0.230457,
  0.436514,
  0.243516,
  0.267313,
  0.282951,
  0.243838,
  0.313511,
  0.260011,
  0.374359,
  0.426207,
  0.430219,
  0.356638,
  0.308751,
  0.286644,
  0.415662,
  0.290068,
  0.441053,
  0.429053,
  0.242829,
  0.402009,
  0.366735,
  0.303752,
  0.451048,
  0.302689,
  0.454833,
  0.414771,
  0.306479,
  0.28068,
  0.260739,
  0.253302,
  0.401043,
  0.37906,
  0.265634,
  0.450137,
  0.412294,
  0.408701,
  0.349724,
  0.300477,
  0.419905,
  0.38972,
  0.488298,
  0.384786,
  0.566234,
  0.31279,
  0.443035,
  0.464997,
  0.530681,
  0.538663,
  0.483875,
  0.554257,
  0.373801,
  0.367915,
  0.440579,
  0.476649,
  0.558137,
  0.50445,
  0.400932,
  0.371011,
  0.499682,
  0.428942,
  0.369017,
  0.471421,
  0.562407,
  0.380541,
  0.371003,
  0.380054,
  0.534158,
  0.535898,
  0.448979,
  0.363615,
  0.389726,
  0.551249,
  0.555001,
  0.560837,
  0.46132,
  0.400984,
  0.080435,
  0.411594,
  0.403048,
  0.529412,
  0.557074,
  0.565148,
  0.479127,
  0.361012,
  0.41118,
  0.448175,
  0.455147,
  0.410007,
  0.374437,
  0.411886,
  0.460976,
  0.548285,
  0.364285,
  0.410783,
  0.53732,
  0.570706,
  0.525957,
  0.398152,
  0.441386,
  0.47344,
  0.494538,
  0.4691,
  0.559599,
  0.43064,
  0.424847,
  0.427755,
  0.401644,
  0.453574,
  0.364816,
  0.557178,
  0.41101,
  0.602722,
  0.560913,
  0.457224,
  0.471892,
  0.463624,
  0.441954,
  0.426666,
  0.447523,
  0.495918,
  0.402997,
  0.534719,
  0.428502,
  0.39569,
  0.443978,
  0.576172,
  0.489958,
  0.50306,
  0.467832,
  0.50509,
  0.552916,
  0.548352,
  0.476286,
  0.419594,
  0.066588,
  0.409119,
  0.368204,
  0.515941,
  0.548489,
  0.531017,
  0.406765,
  0.546678,
  0.438446,
  0.551096,
  0.398514,
  0.427454,
  0.387377,
  0.576638,
  0.428466,
  0.499712,
  0.439591,
  0.451317,
  0.334022,
  0.567125,
  0.480378,
  0.440679,
  0.425372,
  0.557986,
  0.543401,
  0.708688,
  0.471101,
  0.537783,
  0.369283,
  0.538555,
  0.954189,
  0.527094,
  0.380622,
  0.395059,
  0.436769,
  0.4445,
  0.40393,
  0.572728,
  0.47009,
  0.435604,
  0.415656,
  0.542553,
  0.464454,
  0.53768,
  0.504583,
  0.353909,
  0.516961,
  0.566311,
  0.531889,
  0.423584,
  0.396009,
  0.307119,
  0.417003,
  0.44401,
  0.25301,
  0.440892,
  0.371445,
  0.257344,
  0.242257,
  0.400554,
  0.265434,
  0.537193,
  0.224011,
  0.251141,
  0.266015,
  0.378013,
  0.233141,
  0.25205,
  0.360735,
  0.314058,
  0.371257,
  0.455312,
  0.256942,
  0.300798,
  0.371708,
  0.246663,
  0.4534,
  0.291291,
  0.244866,
  0.267796,
  0.301016,
  0.315914,
  0.200832,
  0.213009,
  0.534892,
  0.265989,
  0.296854,
  0.235228,
  0.368009,
  0.23386,
  0.438016,
  0.236422,
  0.535006,
  0.249639,
  0.220013,
  0.040974,
  0.35958,
  0.20476,
  0.639008,
  0.37076,
  0.433012,
  0.40629,
  0.338556,
  0.240222,
  0.435142,
  0.402014,
  0.354069,
  0.329016,
  0.268979,
  0.441836,
  0.333978,
  0.273429,
  0.586313,
  0.262028,
  0.338001,
  0.300906,
  0.250022,
  0.324024,
  0.205198,
  0.264031,
  0.310261,
  0.432332,
  0.287906,
  0.352449,
  0.31101,
  0.287398,
  0.525019,
  0.286756,
  0.313144,
  0.280888,
  0.23632,
  0.267258,
  0.295672,
  0.278012,
  0.316168,
  0.409465,
  0.279008,
  0.533032,
  0.336363,
  0.352918,
  0.210029,
  0.28188,
  0.326264,
  0.317153,
  0.446875,
  0.320014,
  0.405009,
  0.324016,
  0.332067,
  0.233153,
  0.382013,
  0.28601,
  0.426106,
  0.357016,
  0.283013,
  0.276016,
  0.396015,
  0.048983,
  0.345015,
  0.361112,
  0.348767,
  0.260237,
  0.360398,
  0.305898,
  0.520901,
  0.366015,
  0.260766,
  0.353132,
  0.458268,
  0.342017,
  0.381343,
  0.241012,
  0.258643,
  0.408286,
  0.361023,
  0.460001,
  0.291022,
  0.283016,
  0.34664,
  0.395012,
  0.265579,
  0.499009,
  0.187758,
  0.398907,
  0.310016,
  0.230147,
  0.336885,
  0.340879,
  0.506812,
  0.271813,
  0.370463,
  0.265113,
  0.343942,
  0.358279,
  0.337893,
  0.267811,
  0.314933,
  0.374691,
  0.302817,
  0.28481,
  0.482643,
  0.332866,
  0.36121,
  0.368142,
  0.253944,
  0.299223,
  0.298798,
  0.348093,
  0.273622,
  0.346085,
  0.269003,
  0.281083,
  0.306591,
  0.589207,
  0.522831,
  0.39257,
  0.376694,
  0.33712,
  0.366013,
  0.301697,
  0.250798,
  0.373078,
  0.332142,
  0.275726,
  0.3851,
  0.259598,
  0.278015,
  0.365366,
  0.28694,
  0.367881,
  0.303819,
  0.287841,
  0.312583,
  0.301158,
  0.321011,
  0.295389,
  0.281885,
  0.298271,
  0.293526,
  0.326211,
  0.352012,
  0.283806,
  0.266542,
  0.038806,
  0.298802,
  0.374146,
  0.439084,
  0.269819,
  0.354206,
  0.328953,
  0.297166,
  0.437055,
  0.318018,
  0.268348,
  0.410512,
  0.263831,
  0.344662,
  0.317563,
  0.376957,
  0.273066,
  0.439081,
  0.306022,
  0.264069,
  0.329322,
  0.314021,
  0.290819,
  0.308963,
  0.301362,
  0.303424,
  0.297614,
  0.326868,
  0.357872,
  0.270237,
  0.280584,
  0.278347,
  0.344221,
  0.455074,
  0.276816,
  0.296065,
  0.367212,
  0.403943,
  0.368632,
  0.280009,
  0.371266,
  0.266607,
  0.340427,
  0.293018,
  0.285881,
  0.405275,
  0.294016,
  0.343123,
  0.335481,
  0.308538,
  0.289942,
  0.346214,
  0.366016,
  0.325521,
  0.473651,
  0.427964,
  0.246819,
  0.044663,
  0.321315,
  0.288815,
  0.288012,
  0.358324,
  0.303812,
  0.315643,
  0.382737,
  0.444955,
  0.411448,
  0.336209,
  0.345507,
  0.380293,
  0.293749,
  0.295384,
  0.386106,
  0.435212,
  0.448624,
  0.279018,
  0.380548,
  0.335994,
  0.297912,
  0.304089,
  0.343207,
  0.34125,
  0.413071,
  0.292187,
  0.356971,
  0.380588,
  0.295429,
  0.31092,
  0.332167,
  0.265595,
  0.424809,
  0.310221,
  0.323966,
  0.322093,
  0.310644,
  0.31531,
  0.360761,
  0.317821,
  0.282135,
  0.331697,
  0.366221,
  0.420815,
  0.291327,
  0.301804,
  0.329045,
  0.323003,
  0.313048,
  0.583491,
  0.290813,
  0.386857,
  0.27901,
  0.327392,
  0.247931,
  0.324184,
  0.294394,
  0.237748,
  0.39383,
  0.385951,
  0.617774,
  0.304233,
  0.331182,
  0.359029,
  0.236988,
  0.312129,
  0.329629,
  0.308383,
  0.398018,
  0.358023,
  0.300015,
  0.237413,
  0.297228,
  0.355012,
  0.312395,
  0.251275,
  0.338392,
  0.263836,
  0.315978,
  0.367756,
  0.350016,
  0.308387,
  0.298541,
  0.301544,
  0.357984,
  0.35639,
  0.311734,
  0.287429,
  0.348968,
  0.301183,
  0.31597,
  0.345537,
  0.26666,
  0.391968,
  0.27576,
  0.244917,
  0.331008,
  0.275626,
  0.294239,
  0.406233,
  0.287885,
  0.263895,
  0.395398,
  0.323012,
  0.287887,
  0.30687,
  0.31217,
  0.303012,
  0.280804,
  0.341526,
  0.332458,
  0.30545,
  0.282889,
  0.341344,
  0.39832,
  0.475032,
  0.356997,
  0.239181,
  0.240425,
  0.298027,
  0.389437,
  0.299622,
  0.470565,
  0.360015,
  0.375004,
  0.529008,
  0.331595,
  0.296031,
  0.330997,
  0.271639,
  0.35089,
  0.244597,
  0.641475,
  0.344336,
  0.398696,
  0.333859,
  0.341613,
  0.337339,
  0.325011,
  0.365778,
  0.27064,
  0.268787,
  0.33968,
  0.333492,
  0.295557,
  0.287747,
  0.373289,
  0.280009,
  0.278849,
  0.22899,
  0.453187,
  0.312676,
  0.254332,
  0.377064,
  0.326154,
  0.305373,
  0.047269,
  0.360015,
  0.306299,
  0.334865,
  0.312999,
  0.299624,
  0.341435,
  0.324874,
  0.353679,
  0.305636,
  0.310151,
  0.304022,
  0.270796,
  0.327197,
  0.381112,
  0.379018,
  0.229332,
  0.376388,
  0.257787,
  0.282644,
  0.302099,
  0.580007,
  0.350111,
  0.491281,
  0.333233,
  0.305088,
  0.541909,
  0.353884,
  0.517511,
  0.312871,
  0.290788,
  0.286253,
  0.340415,
  0.282957,
  0.283795,
  0.309378,
  0.304397,
  0.368018,
  0.278639,
  0.321869,
  0.310153,
  0.373287,
  0.318448,
  0.370016,
  0.241534,
  0.268012,
  0.284879,
  0.314179,
  0.304684,
  0.295438,
  0.332093,
  0.275289,
  0.54507,
  0.281804,
  0.277258,
  0.512863,
  0.315112,
  0.25845,
  0.335675,
  0.274581,
  0.295445,
  0.279732,
  0.339079,
  0.281013,
  0.30919,
  0.375015,
  0.285932,
  0.361581,
  0.336602,
  0.327868,
  0.382061,
  0.358385,
  0.336436,
  0.357041,
  0.320228,
  0.261631,
  0.314039,
  0.3116,
  0.679327,
  0.373014,
  0.279743,
  0.29727,
  0.436968,
  0.26346,
  0.507506,
  0.384653,
  0.262009,
  0.475518,
  0.230888,
  0.271245,
  0.368017,
  0.454949,
  0.271366,
  0.316665,
  0.424496,
  0.427529,
  0.313016,
  0.41229,
  0.442676,
  0.46268,
  0.476819,
  0.302357,
  0.20901,
  0.353604,
  0.408142,
  0.31201,
  0.329349,
  0.337014,
  0.489677,
  0.302661,
  0.461008,
  0.429022,
  0.363016,
  0.419833,
  0.320942,
  0.260295,
  0.442816,
  0.280016,
  0.421288,
  0.42758,
  0.340022,
  0.470674,
  0.278184,
  0.417014,
  0.420021,
  0.463013,
  0.46025,
  0.315906,
  0.288363,
  0.250016,
  0.459903,
  0.457938,
  0.407188,
  0.403656,
  0.462008,
  0.374536,
  0.368265,
  0.447048,
  0.360347,
  0.379804,
  0.344216,
  0.296626,
  0.450613,
  0.404162,
  0.402014,
  0.247729,
  0.254417,
  0.483712,
  0.429018,
  0.277117,
  0.339214,
  0.397564,
  0.382323,
  0.26607,
  0.292208,
  0.258017,
  0.444735,
  0.409496,
  0.365343,
  0.428503,
  0.417666,
  0.341971,
  0.306246,
  0.436673,
  0.435441,
  0.40886,
  0.453675,
  0.423018,
  0.355918,
  0.440681,
  0.375357,
  0.397094,
  0.261355,
  0.458712,
  0.321356,
  0.417854,
  0.423893,
  0.450674,
  0.427142,
  0.468675,
  0.430512,
  0.383022,
  0.42631,
  0.416796,
  0.356178,
  0.468015,
  0.414059,
  0.70601,
  0.288356,
  0.426735,
  0.352977,
  0.377353,
  0.450108,
  0.323495,
  0.237259,
  0.42946,
  0.232011,
  0.264981,
  0.402148,
  0.292122,
  0.404623,
  0.292064,
  0.280354,
  0.336341,
  0.437677,
  0.427989,
  0.321227,
  0.409763,
  0.364478,
  0.428769,
  0.412654,
  0.770929,
  0.314023,
  0.310381,
  0.334692,
  0.561525,
  0.354609,
  0.437407,
  0.39603,
  0.327022,
  0.233015,
  0.286007,
  0.323761,
  0.561076,
  0.321649,
  0.300261,
  0.228429,
  0.424539,
  0.27501,
  0.488015,
  0.330666,
  0.543822,
  0.384921,
  0.319219,
  0.518781,
  0.365597,
  0.272843,
  0.351356,
  0.42426,
  0.298015,
  0.280003,
  0.460175,
  0.290001,
  0.274016,
  0.399691,
  0.31682,
  0.435654,
  0.339015,
  0.431326,
  0.268106,
  0.264928,
  0.04685,
  0.348022,
  0.54102,
  0.259105,
  0.381879,
  0.267539,
  0.246008,
  0.32488,
  0.316009,
  0.360327,
  0.307137,
  0.29363,
  0.322836,
  0.342007,
  0.428026,
  0.467899,
  0.284665,
  0.302078,
  0.325443,
  0.704208,
  0.245612,
  0.289008,
  0.28284,
  0.287016,
  0.356025,
  0.246647,
  0.316836,
  0.290267,
  0.293754,
  0.44905,
  0.22603,
  0.281013,
  0.701161,
  0.267873,
  0.398747,
  0.200596,
  0.286014,
  0.430102,
  0.226632,
  0.439021,
  0.435015,
  0.267513,
  0.298016,
  0.324018,
  0.423017,
  0.327668,
  0.282358,
  0.336603,
  0.451018,
  0.267191,
  0.410618,
  0.37602,
  0.615011,
  0.381185,
  0.42602,
  0.325014,
  0.248102,
  0.47047,
  0.29301,
  0.274224,
  0.384371,
  0.264375,
  0.327717,
  0.359609,
  0.303006,
  0.201965,
  0.361006,
  0.28701,
  0.291502,
  0.339839,
  0.35309,
  0.77768,
  0.418669,
  0.402544,
  0.482963,
  0.455022,
  0.445015,
  0.289151,
  0.371271,
  0.438537,
  0.249558,
  0.436015,
  0.33984,
  0.39517,
  0.382984,
  0.306257,
  0.354854,
  0.345011,
  0.28405,
  0.34086,
  0.345162,
  0.313777,
  0.313825,
  0.374657,
  0.36351,
  0.351022,
  0.286983,
  0.356009,
  0.368016,
  0.314481,
  0.427548,
  0.302858,
  0.353348,
  0.448829,
  0.270366,
  0.37998,
  0.310011,
  0.36243,
  0.43001,
  0.349168,
  0.366256,
  0.341096,
  0.395344,
  0.34121,
  0.271234,
  0.32301,
  0.365389,
  0.457243,
  0.374171,
  0.342854,
  0.313977,
  0.294895,
  0.073999,
  0.280892,
  0.357765,
  0.419013,
  0.668729,
  0.388048,
  0.413016,
  0.337991,
  0.385015,
  0.338107,
  0.325061,
  0.435012,
  0.294866,
  0.433171,
  0.398985,
  0.326858,
  0.337016,
  0.258018,
  0.327661,
  0.34775,
  0.346848,
  0.413013,
  0.331016,
  0.378136,
  0.331434,
  0.390169,
  0.297853,
  0.320765,
  0.289013,
  0.403513,
  0.301165,
  0.655969,
  0.26656,
  0.347472,
  0.372022,
  0.351622,
  0.345856,
  0.460194,
  0.33017,
  0.302782,
  0.436175,
  0.348974,
  0.429011,
  0.26284,
  0.588019,
  0.342016,
  0.253863,
  0.366022,
  0.350009,
  0.297492,
  0.298211,
  0.361162,
  0.619166,
  0.427016,
  0.405018,
  0.272898,
  0.278272,
  0.382729,
  0.393023,
  0.328853,
  0.277995,
  0.361143,
  0.420059,
  0.31273,
  0.4081,
  0.251548,
  0.436866,
  0.293712,
  0.301387,
  0.400463,
  0.435158,
  0.375137,
  0.077985,
  0.368022,
  0.375852,
  0.300871,
  0.358008,
  0.29476,
  0.380718,
  0.305018,
  0.385756,
  0.370157,
  0.350822,
  0.388197,
  0.422004,
  0.32089,
  0.366115,
  0.411016,
  0.265746,
  0.291583,
  0.350588,
  0.239221,
  0.355878,
  0.339996,
  0.362535,
  0.405171,
  0.336088,
  0.424139,
  0.657143,
  0.37186,
  0.296844,
  0.408749,
  0.389167,
  0.486896,
  0.410982,
  0.30597,
  0.289413,
  0.260989,
  0.258514,
  0.29045,
  0.34454,
  0.365286,
  0.337899,
  0.277962,
  0.373011,
  0.282026,
  0.826321,
  0.424178,
  0.348093,
  0.485948,
  0.389377,
  0.59192,
  0.568357,
  0.326193,
  0.291366,
  0.47097,
  0.045325,
  0.552306,
  0.513977,
  0.572327,
  0.556144,
  0.449635,
  0.465317,
  0.518985,
  0.371666,
  0.561037,
  0.474445,
  0.528011,
  0.475378,
  0.54666,
  0.499913,
  0.322335,
  0.384474,
  0.490743,
  0.337449,
  0.545745,
  0.420905,
  0.339506,
  0.391012,
  0.564016,
  0.313643,
  0.392306,
  0.426671,
  0.463713,
  0.509444,
  0.077613,
  0.549165,
  0.462948,
  0.54313,
  0.28701,
  0.421892,
  0.562204,
  0.374011,
  0.49338,
  0.519935,
  0.407334,
  0.474638,
  0.564085,
  0.363354,
  0.510038,
  0.542472,
  0.339426,
  0.540605,
  0.492015,
  0.563605,
  0.286585,
  0.350018,
  0.477401,
  0.556909,
  0.322394,
  0.303875,
  0.550091,
  0.335267,
  0.347549,
  0.985999,
  0.572664,
  0.307988,
  0.366003,
  0.323048,
  0.398106,
  0.457375,
  0.330009,
  0.472416,
  0.540286,
  0.454789,
  0.513538,
  0.558119,
  0.368647,
  0.531458,
  0.563034,
  0.486917,
  0.531677,
  0.53216,
  0.443925,
  0.450063,
  0.481462,
  0.571998,
  0.224152,
  0.487553,
  0.479368,
  0.487313,
  0.564658,
  0.301412,
  0.549466,
  0.45848,
  0.342859,
  0.301059,
  0.466871,
  0.380729,
  0.486615,
  0.478387,
  0.462651,
  0.792014,
  0.574633,
  0.981005,
  0.349647,
  0.461687,
  0.356022,
  0.372234,
  0.481907,
  0.488667,
  0.565732,
  0.537008,
  0.510013,
  0.371856,
  0.565016,
  0.335535,
  0.5621,
  0.371013,
  0.845382,
  0.522041,
  0.453904,
  0.52768,
  0.620021,
  0.305016,
  0.397033,
  0.382992,
  0.317335,
  0.571895,
  0.389418,
  0.568172,
  0.299305,
  0.068908,
  0.393881,
  0.452132,
  0.515736,
  0.691937,
  0.308097,
  0.427014,
  0.529015,
  0.397019,
  0.415027,
  0.442258,
  0.393011,
  0.414011,
  0.58377,
  0.503842,
  0.374963,
  0.361993,
  0.426016,
  0.406137,
  0.286013,
  0.534631,
  0.302022,
  0.309316,
  0.336359,
  0.331014,
  0.468774,
  0.390015,
  0.398011,
  0.365183,
  0.458933,
  0.434014,
  0.379811,
  0.43073,
  0.42782,
  0.43501,
  0.482884,
  0.380018,
  0.292017,
  0.461011,
  0.279016,
  0.316992,
  0.503015,
  0.463021,
  0.351013,
  0.430824,
  0.281022,
  0.321007,
  0.713036,
  0.558011,
  0.435649,
  0.286772,
  0.349014,
  0.31564,
  0.396671,
  0.34014,
  0.395886,
  0.473823,
  0.392896,
  0.551017,
  0.423015,
  0.439889,
  0.481022,
  0.286019,
  0.493019,
  0.388309,
  0.325022,
  0.438015,
  0.457013,
  0.316016,
  0.319016,
  0.455013,
  0.199003,
  0.553444,
  0.460575,
  0.521016,
  0.427941,
  0.408105,
  0.510579,
  0.392006,
  0.367864,
  0.520157,
  0.444871,
  0.398476,
  0.44456,
  0.448014,
  1.430019,
  0.400015,
  0.374016,
  0.319015,
  0.457029,
  0.398556,
  0.388015,
  0.368013,
  0.482634,
  0.416018,
  0.398018,
  0.383076,
  0.322018,
  0.319756,
  0.40827,
  0.378575,
  0.347022,
  0.383039,
  0.314008,
  0.69702,
  0.500016,
  0.359007,
  0.664686,
  0.306012,
  0.387573,
  0.271628,
  0.316386,
  0.369171,
  0.430015,
  0.371022,
  0.326013,
  0.323015,
  0.397014,
  0.287015,
  0.365522,
  0.429015,
  0.307016,
  0.357684,
  0.435189,
  0.607006,
  0.531016,
  0.374641,
  0.540613,
  0.323864,
  0.432747,
  0.455011,
  0.524009,
  0.380132,
  0.527009,
  0.338006,
  0.300022,
  0.339692,
  0.523017,
  0.53893,
  0.386012,
  0.321012,
  0.43501,
  0.341013,
  0.542016,
  0.309004,
  0.498007,
  0.349022,
  0.370022,
  0.345797,
  0.62601,
  0.394367,
  0.379018,
  0.351793,
  0.388243,
  0.404016,
  0.414322,
  0.427012,
  0.819676,
  0.415563,
  0.330898,
  0.48552,
  0.407501,
  0.425015,
  0.531005,
  0.525009,
  0.457436,
  0.417754,
  0.387386,
  0.30193,
  0.425101,
  0.353158,
  0.409251,
  0.498022,
  0.391014,
  0.503467,
  0.752011,
  0.344015,
  0.380194,
  0.38997,
  0.207068,
  0.272039,
  0.204996,
  0.311871,
  0.31286,
  0.308017,
  0.323598,
  0.304959,
  0.297009,
  0.255386,
  0.294626,
  0.366009,
  0.236288,
  0.194752,
  0.293952,
  0.302389,
  0.303013,
  0.276229,
  0.227042,
  0.310634,
  0.208018,
  0.338011,
  0.389395,
  0.274012,
  0.399008,
  0.221583,
  0.361016,
  0.313514,
  0.232019,
  0.26248,
  0.314856,
  0.311078,
  0.269045,
  0.230536,
  0.307767,
  0.328015,
  0.371559,
  0.310022,
  0.346014,
  0.237013,
  0.309404,
  0.308636,
  0.319013,
  0.260014,
  0.39443,
  0.262595,
  0.278012,
  0.259243,
  0.321293,
  0.329595,
  0.291032,
  0.336865,
  0.308457,
  0.351008,
  0.280005,
  0.310012,
  0.258006,
  0.254045,
  0.210965,
  0.233354,
  0.471019,
  0.408888,
  0.236016,
  0.316384,
  0.236601,
  0.290399,
  0.227022,
  0.272292,
  0.347013,
  0.280338,
  0.580138,
  0.23975,
  0.276977,
  0.321013,
  0.238534,
  0.270013,
  0.303802,
  0.346008,
  0.331021,
  0.372065,
  0.317023,
  0.296015,
  0.28039,
  0.251015,
  0.286013,
  0.297013,
  0.220016,
  0.323943,
  0.319995,
  0.254022,
  0.28201,
  0.322011,
  0.287009,
  0.344137,
  0.211008,
  0.337891,
  0.210016,
  0.285018,
  0.306014,
  0.284697,
  0.277217,
  0.327788,
  0.26301,
  0.300012,
  0.299908,
  0.237008,
  0.358009,
  0.217022,
  0.250099,
  0.291932,
  0.189345,
  0.213865,
  0.323084,
  0.43709,
  0.204015,
  0.234018,
  0.197012,
  0.313016,
  0.293466,
  0.342958,
  0.34978,
  0.304045,
  0.608155,
  0.332011,
  0.354013,
  0.355587,
  0.197106,
  0.346923,
  0.261016,
  0.318632,
  0.252007,
  0.639019,
  0.299015,
  0.338018,
  0.257749,
  0.238013,
  0.258018,
  0.325014,
  0.254146,
  0.254872,
  0.310415,
  0.220953,
  0.221077,
  0.340998,
  0.291414,
  0.292593,
  0.252015,
  0.316476,
  0.271142,
  0.271161,
  0.7009,
  0.272015,
  0.336013,
  0.337016,
  0.307011,
  0.313013,
  0.343015,
  0.318752,
  0.276279,
  0.257665,
  0.354375,
  0.240966,
  0.253264,
  0.345187,
  0.332067,
  0.338962,
  0.245702,
  0.249041,
  0.289013,
  0.248162,
  0.238955,
  0.235012,
  0.050165,
  0.302176,
  0.30984,
  0.269212,
  0.26197,
  0.303012,
  0.237011,
  0.273389,
  0.447211,
  0.341149,
  0.26792,
  0.039128,
  0.303273,
  0.306009,
  0.26204,
  0.316004,
  0.464029,
  0.231435,
  0.29364,
  0.273507,
  0.290782,
  0.331178,
  0.297138,
  0.288899,
  0.306255,
  0.380298,
  0.33252,
  0.322362,
  0.33874,
  0.250121,
  0.337675,
  0.288155,
  0.280655,
  0.375745,
  0.361733,
  0.325388,
  0.319274,
  0.339868,
  0.414651,
  0.255839,
  0.408847,
  0.366171,
  0.35402,
  0.369169,
  0.054769,
  0.284782,
  0.345725,
  0.326413,
  0.31264,
  0.35142,
  0.27677,
  0.311018,
  0.313015,
  0.271043,
  0.352022,
  0.3427,
  0.392272,
  0.314003,
  0.255235,
  0.254015,
  0.26501,
  0.259865,
  0.296184,
  0.272022,
  0.331527,
  0.255511,
  0.261009,
  0.352776,
  0.318558,
  0.307467,
  0.433997,
  0.226009,
  0.366005,
  0.257678,
  0.372505,
  0.281017,
  0.404897,
  0.35656,
  0.271378,
  0.360345,
  0.268725,
  0.311243,
  0.400783,
  0.343649,
  0.333068,
  0.276634,
  0.323517,
  0.31052,
  0.336676,
  0.303737,
  0.352713,
  0.423353,
  0.232437,
  0.349388,
  0.290175,
  0.259585,
  0.297495,
  0.293853,
  0.370583,
  0.275451,
  0.296213,
  0.279089,
  0.26173,
  0.317596,
  0.266883,
  0.344811,
  0.393713,
  0.336016,
  0.343321,
  0.385272,
  0.350394,
  0.276071,
  0.271708,
  0.499029,
  0.305359,
  0.3626,
  0.260431,
  0.333744,
  0.370719,
  0.31591,
  0.360035,
  0.344042,
  0.257652,
  0.361527,
  0.323921,
  0.316605,
  0.365855,
  0.300786,
  0.276124,
  0.288142,
  0.317527,
  0.280329,
  0.289304,
  0.220663,
  0.282037,
  0.488636,
  0.355744,
  0.333273,
  0.214365,
  0.319927,
  0.280613,
  0.276993,
  0.248877,
  0.286326,
  0.250893,
  0.236016,
  0.275234,
  0.293011,
  0.297605,
  0.320069,
  0.30998,
  0.290446,
  0.309515,
  0.395218,
  0.321342,
  0.338149,
  0.264967,
  0.299173,
  0.275944,
  0.356412,
  0.389616,
  0.248025,
  0.326219,
  0.648682,
  0.916593,
  0.900305,
  0.583661,
  0.630993,
  0.695864,
  0.913747,
  0.454279,
  0.358806,
  0.907115,
  0.859165,
  0.511586,
  0.902367,
  0.576908,
  0.623874,
  0.544898,
  0.665701,
  0.335385,
  0.356794,
  0.574392,
  0.658138,
  0.854996,
  0.617647,
  0.6522,
  0.560013,
  0.853288,
  0.670726,
  0.605407,
  0.330609,
  0.508825,
  0.345184,
  0.676194,
  0.349979,
  0.602235,
  0.60515,
  0.878113,
  0.53696,
  0.367399,
  0.856586,
  0.334488,
  0.522408,
  0.775838,
  0.68301,
  0.53501,
  0.865784,
  0.694309,
  0.705675,
  0.523574,
  0.76817,
  0.576859,
  0.663554,
  0.632843,
  0.609836,
  0.690328,
  0.385013,
  0.581472,
  0.332016,
  0.868415,
  0.591441,
  0.689343,
  0.595515,
  0.351568,
  0.334502,
  0.60987,
  0.328275,
  0.771681,
  0.332182,
  0.599999,
  0.698319,
  0.679126,
  0.721073,
  0.620443,
  0.629011,
  0.747676,
  0.606439,
  0.610184,
  0.592016,
  0.588984,
  0.685012,
  0.665369,
  0.43748,
  0.844665,
  0.329078,
  0.318188,
  0.602073,
  0.816141,
  0.879645,
  0.686157,
  0.707593,
  0.413444,
  0.664464,
  0.613768,
  0.595104,
  0.868922,
  0.773594,
  0.773733,
  0.777989,
  0.758177,
  0.764586,
  0.627881,
  0.763809,
  0.533172,
  0.598171,
  0.433016,
  0.744094,
  0.771789,
  0.690159,
  0.766593,
  0.538262,
  0.413398,
  0.3634,
  0.749672,
  0.849243,
  0.763199,
  0.592522,
  0.06717,
  0.325469,
  0.861189,
  0.617108,
  0.599011,
  0.661871,
  0.710829,
  0.553303,
  0.324674,
  0.330144,
  0.370167,
  0.444006,
  0.326156,
  0.446024,
  0.369011,
  0.477006,
  0.910019,
  0.477936,
  0.318863,
  0.44502,
  0.345161,
  0.444151,
  0.504707,
  0.366859,
  0.312415,
  0.465008,
  0.434008,
  0.492001,
  0.40898,
  0.435998,
  0.351869,
  0.415014,
  0.325418,
  0.446614,
  0.37187,
  0.327639,
  0.365176,
  0.420012,
  0.589011,
  0.36293,
  0.412015,
  0.333944,
  0.661631,
  0.302163,
  0.364167,
  0.368013,
  0.424855,
  0.423015,
  0.365015,
  0.44776,
  0.347869,
  0.448171,
  0.42386,
  0.239168,
  0.405849,
  0.39514,
  0.502015,
  0.302166,
  0.431862,
  0.400005,
  0.297167,
  0.686998,
  0.493027,
  0.437139,
  0.286015,
  0.409862,
  0.450022,
  0.276018,
  0.39602,
  0.323862,
  0.501857,
  0.480166,
  0.342942,
  0.431012,
  0.332169,
  0.460864,
  0.263713,
  0.434293,
  0.372176,
  0.443015,
  0.469012,
  0.392052,
  0.344823,
  0.303013,
  0.395947,
  0.389168,
  0.403016,
  0.091014,
  0.045852,
  0.497015,
  0.499022,
  0.326016,
  0.375138,
  0.371078,
  0.337696,
  0.434018,
  0.323505,
  0.523016,
  0.464018,
  0.313868,
  0.268858,
  0.405173,
  0.349018,
  0.462654,
  0.331853,
  0.424022,
  0.427082,
  0.404018,
  0.490201,
  0.33684,
  0.412596,
  0.429988,
  0.642751,
  0.376129,
  0.314167,
  0.280016,
  0.349809,
  0.320828,
  0.427102,
  0.346234,
  0.339642,
  0.347983,
  0.355015,
  0.310018,
  0.429004,
  0.343862,
  0.351172,
  0.305022,
  0.300265,
  0.362868,
  0.472858,
  0.469036,
  0.478854,
  0.424015,
  0.472169,
  0.430166,
  0.377655,
  0.046012,
  0.455169,
  0.337044,
  0.294013,
  0.397013,
  0.654209,
  0.288023,
  0.401022,
  0.428174,
  0.352908,
  0.30602,
  0.355019,
  0.277012,
  0.325071,
  0.248597,
  0.341195,
  0.3536,
  0.311226,
  0.444445,
  0.267663,
  0.331439,
  0.370154,
  0.312781,
  0.314011,
  0.329332,
  0.27459,
  0.309695,
  0.326069,
  0.378965,
  0.275008,
  0.250007,
  0.259711,
  0.399204,
  0.407552,
  0.379515,
  0.283589,
  0.34806,
  0.329284,
  0.321352,
  0.439511,
  0.407278,
  0.318015,
  0.271267,
  0.283981,
  0.317857,
  0.381646,
  0.308266,
  0.297544,
  0.337001,
  0.317012,
  0.3726,
  0.25001,
  0.253001,
  0.359587,
  0.411985,
  0.419287,
  0.319011,
  0.380961,
  0.401694,
  0.283013,
  0.434335,
  0.426012,
  0.429031,
  0.393012,
  0.412828,
  0.371594,
  0.354568,
  0.340811,
  0.338622,
  0.331399,
  0.223266,
  0.33803,
  0.305745,
  0.267012,
  0.345013,
  0.355022,
  0.349017,
  0.42106,
  0.300011,
  0.253014,
  0.41802,
  0.366009,
  0.314009,
  0.392121,
  0.39201,
  0.327956,
  0.284951,
  0.309004,
  0.245016,
  0.388012,
  0.606156,
  0.38601,
  0.515148,
  0.365947,
  0.377233,
  0.258797,
  0.370097,
  0.35417,
  0.263528,
  0.424026,
  0.06627,
  0.35294,
  0.379012,
  0.425003,
  0.373644,
  0.248137,
  0.329951,
  0.423487,
  0.326544,
  0.342371,
  0.328505,
  0.290016,
  0.373329,
  0.309587,
  0.259003,
  0.331623,
  0.356513,
  0.386461,
  0.41,
  0.304543,
  0.417146,
  0.251022,
  0.321529,
  0.330356,
  0.376142,
  0.371708,
  0.342015,
  0.423882,
  0.34314,
  0.240411,
  0.283016,
  0.343293,
  0.340697,
  0.349022,
  0.362008,
  0.334016,
  0.347014,
  0.303145,
  0.344195,
  0.339243,
  0.37755,
  0.245004,
  0.344011,
  0.556694,
  0.315056,
  0.416024,
  0.37207,
  0.39248,
  0.300997,
  0.400655,
  0.291,
  0.270224,
  0.244244,
  0.305014,
  0.241003,
  0.394263,
  0.433997,
  0.343644,
  0.403726,
  0.463019,
  0.375011,
  0.331037,
  0.310843,
  0.301003,
  0.278807,
  0.23601,
  0.366948,
  0.270891,
  0.271893,
  0.224333,
  0.217827,
  0.350898,
  0.276435,
  0.309559,
  0.277015,
  0.336497,
  0.283426,
  0.245966,
  0.363014,
  0.274672,
  0.385893,
  0.298509,
  0.271491,
  0.398016,
  0.308022,
  0.373018,
  0.266142,
  0.257016,
  0.327031,
  0.288012,
  0.424599,
  0.294961,
  0.281896,
  0.270771,
  0.416142,
  0.335896,
  0.418758,
  0.281329,
  0.302013,
  0.280987,
  0.315066,
  0.362798,
  0.281136,
  0.654168,
  0.27379,
  0.234689,
  0.328284,
  0.298295,
  0.280903,
  0.254739,
  0.289013,
  0.568075,
  0.308992,
  0.306939,
  0.387896,
  0.254892,
  0.309892,
  0.278158,
  0.284425,
  0.262726,
  0.366884,
  0.341998,
  0.347995,
  0.306051,
  0.308023,
  0.321014,
  0.267229,
  0.276925,
  0.262944,
  0.299338,
  0.321013,
  0.235736,
  0.290409,
  0.383016,
  0.249534,
  0.287894,
  0.291457,
  0.33382,
  0.249015,
  0.306016,
  0.242965,
  0.045892,
  0.358022,
  0.403019,
  0.272902,
  0.23951,
  0.27989,
  0.319013,
  0.244816,
  0.265425,
  0.285853,
  0.27202,
  0.251054,
  0.300182,
  0.299809,
  0.192015,
  0.200117,
  0.281578,
  0.278533,
  0.330171,
  0.340385,
  0.398958,
  0.228154,
  0.280896,
  0.292018,
  0.373133,
  0.334013,
  0.271731,
  0.305305,
  0.341012,
  0.25067,
  0.275452,
  0.663153,
  0.266903,
  0.354022,
  0.335009,
  0.376002,
  0.256015,
  0.284721,
  0.329433,
  0.28566,
  0.312132,
  0.351226,
  0.375875,
  0.339013,
  0.309135,
  0.360421,
  0.358488,
  0.33476,
  0.287015,
  0.286135,
  0.283133,
  0.447385,
  0.294838,
  0.556916,
  0.247453,
  0.282401,
  0.217016,
  0.223016,
  0.266726,
  0.326892,
  0.280129,
  0.686622,
  0.246292,
  0.384994,
  0.294036,
  0.377112,
  0.283917,
  0.270338,
  0.273136,
  0.246285,
  0.308385,
  0.284684,
  0.244226,
  0.263648,
  0.280737,
  0.387277,
  0.359098,
  0.298777,
  0.296965,
  0.245369,
  0.309022,
  0.288133,
  0.277684,
  0.28413,
  0.296494,
  0.266015,
  0.307011,
  0.243013,
  0.369011,
  0.328009,
  0.272474,
  0.221413,
  0.275004,
  0.256408,
  0.365665,
  0.303006,
  0.310024,
  0.304791,
  0.272936,
  0.28289,
  0.285011,
  0.331228,
  0.303736,
  0.265445,
  0.296655,
  0.266009,
  0.227502,
  0.282013,
  0.440014,
  0.327015,
  0.393676,
  0.268397,
  0.233053,
  0.238671,
  0.22027,
  0.378995,
  0.257856,
  0.309045,
  0.425668,
  0.282343,
  0.265011,
  0.233979,
  0.350022,
  0.307016,
  0.291711,
  0.344986,
  0.332036,
  0.239501,
  0.304443,
  0.295589,
  0.354938,
  0.332006,
  0.269529,
  0.217012,
  0.242237,
  0.282814,
  0.262398,
  0.303948,
  0.280009,
  0.369011,
  0.331211,
  0.238012,
  0.296009,
  0.256016,
  0.331018,
  0.321011,
  0.31601,
  0.258009,
  0.318202,
  0.268018,
  0.298341,
  0.29419,
  0.305584,
  0.658019,
  0.257136,
  0.314994,
  0.318014,
  0.307981,
  0.293428,
  0.281009,
  0.259016,
  0.342141,
  0.372035,
  0.269987,
  0.248566,
  0.264578,
  0.375773,
  0.641482,
  0.239553,
  0.360891,
  0.277047,
  0.327066,
  0.310812,
  0.270047,
  0.265334,
  0.282591,
  0.290018,
  0.301012,
  0.228273,
  0.369022,
  0.301009,
  0.275299,
  0.280011,
  0.28188,
  0.266859,
  0.235751,
  0.263661,
  0.243662,
  0.231046,
  0.571976,
  0.274057,
  0.2936,
  0.356831,
  0.041957,
  0.337135,
  0.298792,
  0.271496,
  0.313874,
  0.302806,
  0.224204,
  0.236012,
  0.303015,
  0.316014,
  0.314985,
  0.636019,
  0.250398,
  0.314635,
  0.327846,
  0.222016,
  0.31201,
  0.322022,
  0.274016,
  0.283969,
  0.258016,
  0.293017,
  0.365043,
  0.295805,
  0.362896,
  0.255011,
  0.351045,
  0.290167,
  0.282919,
  0.310784,
  0.251012,
  0.249358,
  0.251671,
  0.293016,
  0.289005,
  0.305127,
  0.317891,
  0.338014,
  0.303516,
  0.287057,
  0.238688,
  0.286954,
  0.338995,
  0.26,
  0.303025,
  0.255969,
  0.310013,
  0.319644,
  0.256969,
  0.28701,
  0.274134,
  0.250027,
  0.282022,
  0.270013,
  0.270009,
  0.251087,
  0.346016,
  0.321017,
  0.272007,
  0.268016,
  0.315741,
  0.332634,
  0.300013,
  0.268903,
  0.301012,
  0.289016,
  0.244022,
  0.294035,
  0.309046,
  0.344035,
  0.267656,
  0.352365,
  0.256932,
  0.285018,
  0.266849,
  0.260657,
  0.320015,
  0.286938,
  0.27397,
  0.240672,
  0.346783,
  0.239614,
  0.284207,
  0.282299,
  0.322257,
  0.274222,
  0.322123,
  0.277578,
  0.557838,
  0.3892,
  0.403842,
  0.418014,
  0.407557,
  0.297665,
  0.410911,
  0.429941,
  0.296317,
  0.395687,
  0.268032,
  0.422998,
  0.320817,
  0.41505,
  0.498006,
  0.40814,
  0.278001,
  0.424074,
  0.300941,
  0.476012,
  0.425021,
  0.402684,
  0.309007,
  0.259019,
  0.259016,
  0.262018,
  0.530681,
  0.400194,
  0.352011,
  0.480019,
  0.399007,
  0.43175,
  0.457974,
  0.436195,
  0.318979,
  0.323005,
  0.485011,
  0.332195,
  0.24135,
  0.282003,
  0.637016,
  0.379025,
  0.304876,
  0.49188,
  0.280022,
  0.301713,
  0.509141,
  0.435019,
  0.354013,
  0.457029,
  0.431797,
  0.454024,
  0.259009,
  0.543004,
  0.423256,
  0.286021,
  0.323995,
  0.688375,
  0.235766,
  0.442039,
  0.328018,
  0.47615,
  0.287873,
  0.449668,
  0.272744,
  0.463015,
  0.290016,
  0.442883,
  0.394062,
  0.271329,
  0.248459,
  0.237819,
  0.393978,
  0.294014,
  0.390147,
  0.323006,
  0.741017,
  0.437745,
  0.370004,
  0.517031,
  0.526999,
  0.465014,
  0.287,
  0.318466,
  0.285007,
  0.446014,
  0.415563,
  0.780019,
  0.490014,
  0.924472,
  0.538006,
  0.422014,
  0.332847,
  0.410909,
  0.403796,
  0.401005,
  0.447001,
  0.49901,
  0.297204,
  0.483413,
  0.273595,
  0.317964,
  0.332152,
  0.336012,
  0.505016,
  0.484012,
  0.299022,
  0.477007,
  0.464017,
  0.365021,
  0.314198,
  0.390719,
  0.390998,
  0.41401,
  0.38001,
  0.272001,
  0.579436,
  0.282984,
  0.429036,
  0.527045,
  0.474009,
  0.440316,
  0.313865,
  0.305242,
  0.279007,
  0.465013,
  0.275122,
  0.682408,
  0.29411,
  0.403024,
  0.444993,
  0.310998,
  0.410056,
  0.478022,
  0.43104,
  0.377693,
  0.407037,
  0.418944,
  0.045861,
  0.505015,
  0.399013,
  0.293058,
  0.536116,
  0.463567,
  0.472998,
  0.422433,
  0.677311,
  0.542685,
  0.42602,
  0.320009,
  0.295798,
  0.296498,
  0.395116,
  0.285696,
  0.477692,
  0.37401,
  0.231342,
  0.231638,
  0.374874,
  0.247444,
  0.569337,
  0.409696,
  0.350018,
  0.051838,
  0.409784,
  0.32032,
  0.390038,
  0.330386,
  0.209016,
  0.375921,
  0.331022,
  0.364018,
  0.271337,
  0.271266,
  0.443611,
  0.237385,
  0.357022,
  0.302012,
  0.407693,
  0.331628,
  0.458009,
  0.369902,
  0.310336,
  0.419728,
  0.283012,
  0.33502,
  0.425016,
  0.274328,
  0.346694,
  0.275878,
  0.250014,
  0.351013,
  0.355334,
  0.312698,
  0.310804,
  0.348334,
  0.34076,
  0.400009,
  0.699019,
  0.424015,
  0.208335,
  0.440018,
  0.049325,
  0.284015,
  0.265329,
  0.319646,
  0.415693,
  0.389685,
  0.388016,
  0.260336,
  0.432695,
  0.448015,
  0.333015,
  0.380578,
  0.34745,
  0.378888,
  0.251335,
  0.363467,
  0.191016,
  0.297004,
  0.313531,
  0.399975,
  0.338693,
  0.216341,
  0.403719,
  0.286303,
  0.328106,
  0.19891,
  0.362016,
  0.444686,
  0.59633,
  0.304695,
  0.295703,
  0.337691,
  0.394014,
  0.295333,
  0.278335,
  0.387069,
  0.432984,
  0.452694,
  0.417335,
  0.387765,
  0.367963,
  0.325233,
  0.276905,
  0.435658,
  0.301318,
  0.20528,
  0.286003,
  0.59268,
  0.373703,
  0.389333,
  0.200062,
  0.419703,
  0.189021,
  0.231318,
  0.404695,
  0.337335,
  0.259427,
  0.416339,
  0.397019,
  0.393338,
  0.290696,
  0.280018,
  0.321018,
  0.370014,
  0.309322,
  0.203372,
  0.276009,
  0.224334,
  0.344697,
  0.240337,
  0.375015,
  0.352331,
  0.203334,
  0.26333,
  0.306694,
  0.346718,
  0.350322,
  0.295333,
  0.39469,
  0.416333,
  0.316288,
  0.322016,
  0.247323,
  0.290341,
  0.302022,
  0.249339,
  0.330022,
  0.368373,
  0.296214,
  0.32301,
  0.303004,
  0.260012,
  0.311353,
  0.34293,
  0.305832,
  0.269334,
  0.424699,
  0.362695,
  0.423016,
  0.351938,
  0.317341,
  0.282307,
  0.386022,
  0.414019,
  0.245324,
  0.215341,
  0.297015,
  0.409696,
  0.360019,
  0.250334,
  0.34834,
  0.329102,
  0.327341,
  0.353008,
  0.268341,
  0.317697,
  0.39869,
  0.34759,
  0.378337,
  0.032615,
  0.388612,
  0.244341,
  0.343333,
  0.378014,
  0.241424,
  0.335696,
  0.407005,
  0.694009,
  0.227335,
  0.362018,
  0.419694,
  0.370694,
  0.331015,
  0.302333,
  0.257946,
  0.225536,
  0.887066,
  0.26252,
  0.854008,
  0.306636,
  0.235326,
  0.665242,
  0.657284,
  0.237987,
  0.911961,
  0.330094,
  0.293578,
  0.670867,
  0.849008,
  0.310275,
  0.847082,
  0.866372,
  0.856017,
  0.871006,
  0.871002,
  0.314624,
  0.322294,
  0.682621,
  0.924367,
  0.303181,
  0.325753,
  0.297584,
  0.243622,
  0.345758,
  0.322592,
  0.959443,
  0.305751,
  0.953507,
  0.943124,
  0.87791,
  0.313609,
  0.691584,
  0.327036,
  0.300659,
  0.887433,
  0.952147,
  0.906723,
  0.292547,
  0.922007,
  0.29459,
  0.297595,
  0.309867,
  0.658896,
  0.941441,
  0.382001,
  0.894023,
  0.486588,
  0.531472,
  0.949124,
  0.32154,
  0.577578,
  1.003989,
  0.878289,
  0.362593,
  0.292256,
  1.324008,
  0.933014,
  0.902018,
  0.670099,
  0.312284,
  0.321509,
  0.238669,
  0.641421,
  0.915941,
  0.62501,
  0.920018,
  0.423593,
  0.312799,
  0.262491,
  1.303607,
  0.879118,
  0.29946,
  0.28259,
  0.882734,
  0.049022,
  0.283462,
  0.673248,
  0.656203,
  0.664454,
  0.333785,
  0.885991,
  0.921011,
  1.088586,
  0.990018,
  0.321041,
  1.008149,
  0.901011,
  0.42268,
  0.285586,
  0.934012,
  0.30429,
  0.270505,
  0.948434,
  0.922018,
  0.994165,
  0.673309,
  0.421859,
  0.898013,
  0.33159,
  0.291882,
  0.29659,
  0.237329,
  0.661987,
  0.662013,
  0.937243,
  0.872501,
  0.982438,
  0.313123,
  0.31902,
  0.837594,
  0.840511,
  0.832937,
  0.399176,
  0.296655,
  0.819635,
  0.911636,
  0.432107,
  1.308473,
  0.155991,
  0.921469,
  0.961125,
  0.286862,
  0.831514,
  0.84283,
  0.297195,
  0.893517,
  0.92502,
  0.316644,
  0.398835,
  0.564181,
  0.398363,
  0.455199,
  0.657359,
  0.846961,
  0.390549,
  0.851831,
  0.836615,
  0.369893,
  0.91892,
  0.851934,
  0.295613,
  0.38539,
  0.519833,
  0.297227,
  0.311016,
  0.628333,
  0.418132,
  0.299262,
  0.376346,
  0.391936,
  0.418786,
  0.33823,
  0.820353,
  0.846444,
  0.893287,
  0.406227,
  0.400262,
  0.292716,
  0.404479,
  0.315907,
  0.388864,
  0.841809,
  0.412284,
  0.875963,
  0.322092,
  0.854605,
  0.618115,
  0.401755,
  0.395011,
  0.326017,
  0.828548,
  0.442447,
  0.859116,
  0.755536,
  0.818541,
  0.872832,
  0.491235,
  0.877006,
  0.30848,
  0.894089,
  0.400786,
  0.86849,
  0.846671,
  0.238082,
  0.827627,
  0.83774,
  0.506605,
  0.41848,
  0.833418,
  0.392986,
  0.38018,
  0.282035,
  0.28418,
  0.832001,
  0.311785,
  1.316986,
  0.832415,
  0.272245,
  0.354859,
  0.336877,
  0.846918,
  0.883263,
  0.87576,
  0.643638,
  0.834049,
  0.286094,
  0.310497,
  0.882506,
  0.307298,
  0.826885,
  1.639585,
  0.418094,
  0.293203,
  0.426596,
  0.836975,
  0.430981,
  0.857613,
  0.854883,
  0.463548,
  0.871695,
  0.386006,
  0.413874,
  0.85205,
  0.308156,
  0.843734,
  0.294167,
  0.405792,
  0.299926,
  0.308858,
  0.833994,
  0.321474,
  0.845537,
  0.392429,
  0.979529,
  0.734246,
  0.403543,
  0.905226,
  0.787765,
  0.761591,
  0.261613,
  0.762993,
  0.88552,
  0.792029,
  0.268384,
  0.772789,
  0.747229,
  0.366443,
  0.356979,
  0.760009,
  0.497246,
  0.407993,
  1.264993,
  0.848666,
  0.735016,
  0.398167,
  0.372454,
  0.356715,
  0.302644,
  0.257018,
  0.409538,
  0.707559,
  0.302995,
  0.259892,
  0.271763,
  0.733126,
  0.273154,
  0.267016,
  0.363736,
  0.758779,
  0.270448,
  0.393275,
  0.806719,
  0.796084,
  0.734228,
  0.722227,
  0.284039,
  0.702547,
  0.37912,
  0.259585,
  0.764858,
  0.769266,
  0.479007,
  0.257502,
  0.384187,
  0.700457,
  0.693018,
  0.299009,
  0.682292,
  0.365817,
  0.746221,
  0.23961,
  0.782971,
  0.29782,
  0.279013,
  0.263287,
  0.375151,
  0.382931,
  0.250641,
  0.144487,
  0.268207,
  0.257016,
  0.283013,
  0.415866,
  0.252666,
  0.368176,
  0.342012,
  0.392936,
  0.777876,
  0.797295,
  0.739684,
  0.30652,
  0.398499,
  0.363864,
  0.798339,
  0.26468,
  0.268004,
  0.727332,
  0.667999,
  0.703372,
  0.344326,
  0.278404,
  0.274009,
  0.374417,
  0.298009,
  0.258146,
  0.341006,
  0.26558,
  0.425924,
  0.366028,
  0.272023,
  0.318534,
  0.371259,
  0.278013,
  0.247753,
  0.249812,
  0.149629,
  0.370342,
  0.325022,
  0.734279,
  0.768345,
  0.743348,
  0.353172,
  0.765685,
  0.291826,
  0.771352,
  0.25076,
  0.279961,
  0.258577,
  0.355231,
  0.273403,
  0.818331,
  0.789131,
  0.541009,
  0.749966,
  0.274935,
  0.744012,
  0.371018,
  0.793628,
  0.552072,
  0.358249,
  0.318106,
  0.19524,
  0.256938,
  0.422415,
  0.360764,
  0.334005,
  0.527881,
  0.941356,
  0.322467,
  0.592002,
  0.317377,
  0.962868,
  0.329104,
  0.368799,
  0.379064,
  0.375821,
  0.367259,
  0.391038,
  0.326602,
  0.339776,
  0.331012,
  0.262662,
  0.369058,
  0.33005,
  0.382804,
  0.374944,
  0.345286,
  0.489463,
  0.348686,
  0.271698,
  0.32813,
  0.359727,
  0.331643,
  0.344909,
  0.298618,
  0.383249,
  0.422495,
  0.288936,
  0.272558,
  0.347315,
  0.395685,
  0.371669,
  0.303284,
  0.348247,
  0.352017,
  0.44078,
  0.335415,
  0.365208,
  0.383833,
  0.339263,
  0.298095,
  0.342007,
  0.319795,
  0.444783,
  0.611301,
  0.297778,
  0.382624,
  0.653606,
  0.309785,
  0.383259,
  0.33948,
  0.3495,
  0.32802,
  0.519629,
  0.320366,
  0.352063,
  0.353764,
  0.350071,
  0.334475,
  0.370202,
  0.264884,
  0.50757,
  0.34698,
  0.324572,
  0.340652,
  0.295968,
  0.311829,
  0.343709,
  0.474463,
  0.345782,
  0.359823,
  0.347916,
  0.269467,
  0.364253,
  0.333949,
  0.311178,
  0.332145,
  0.326884,
  0.320697,
  0.270059,
  0.417244,
  0.343227,
  0.273343,
  0.330845,
  0.342219,
  0.518663,
  0.326017,
  0.505033,
  0.470421,
  0.301787,
  0.053654,
  0.314378,
  0.333279,
  0.27505,
  0.356315,
  0.911123,
  0.339889,
  0.351111,
  0.365143,
  0.281739,
  0.375842,
  0.388013,
  0.348583,
  0.596102,
  0.385653,
  0.359403,
  0.436551,
  0.316046,
  0.384247,
  0.292778,
  0.45805,
  0.326592,
  0.337236,
  0.565507,
  0.347714,
  0.376136,
  0.323249,
  0.271783,
  0.388677,
  0.346091,
  0.307409,
  0.371055,
  0.324341,
  0.452204,
  0.336046,
  0.291145,
  0.315657,
  0.349022,
  0.360262,
  0.311736,
  0.321936,
  0.366104,
  0.333635,
  0.321149,
  0.367324,
  0.274522,
  0.354854,
  0.389283,
  0.372529,
  0.404299,
  0.36569,
  0.372636,
  0.367077,
  0.356154,
  0.332753,
  0.443785,
  0.369183,
  0.321612,
  0.276685,
  0.348022,
  0.284018,
  0.040964,
  0.262662,
  0.283011,
  0.283565,
  0.462788,
  0.377774,
  0.266538,
  0.282058,
  0.488221,
  0.547241,
  0.292449,
  0.332937,
  0.796019,
  0.254016,
  0.257016,
  0.300735,
  0.291387,
  0.348662,
  0.28766,
  0.245196,
  0.240008,
  0.267116,
  0.369505,
  0.322016,
  0.287613,
  0.269984,
  0.286204,
  0.29078,
  0.48259,
  0.359012,
  0.267636,
  0.317737,
  0.294022,
  0.304016,
  0.284015,
  0.48306,
  0.385875,
  0.281268,
  0.376973,
  0.309003,
  0.303858,
  0.281249,
  0.488015,
  0.271022,
  0.300016,
  0.040379,
  0.27714,
  0.611922,
  0.396063,
  0.571007,
  0.276252,
  0.356944,
  0.26887,
  0.39278,
  0.307012,
  0.286012,
  0.27101,
  0.270019,
  0.277885,
  0.306004,
  0.303011,
  0.373929,
  0.288669,
  0.296099,
  0.279577,
  0.278995,
  0.301554,
  0.266481,
  0.283015,
  0.405009,
  0.283002,
  0.908007,
  0.259579,
  0.438163,
  0.287016,
  0.373155,
  0.263178,
  0.294113,
  0.294143,
  0.252115,
  0.632512,
  0.279171,
  0.348862,
  0.252014,
  0.271016,
  0.244127,
  0.256016,
  0.332006,
  0.321687,
  0.273006,
  0.366016,
  0.298017,
  0.323014,
  0.295875,
  0.289498,
  0.408016,
  0.300018,
  0.277018,
  0.323759,
  0.278932,
  0.287108,
  0.273148,
  0.312934,
  0.279015,
  0.322016,
  0.286784,
  0.32526,
  0.305008,
  0.279207,
  0.350659,
  0.279015,
  0.328843,
  0.256893,
  0.289244,
  0.361007,
  0.729011,
  0.302016,
  0.349021,
  0.356014,
  0.392683,
  0.236878,
  0.2598,
  0.290101,
  0.500371,
  0.195863,
  0.28014,
  0.402152,
  0.514664,
  0.285637,
  0.382515,
  0.164189,
  0.273,
  0.239012,
  0.383685,
  0.238016,
  0.239794,
  0.250808,
  0.446361,
  0.390016,
  0.388657,
  0.431933,
  0.222958,
  0.409185,
  0.198441,
  0.262934,
  0.198875,
  0.247013,
  0.451024,
  0.235045,
  0.419973,
  0.453012,
  0.236995,
  0.399008,
  0.189119,
  0.395365,
  0.389018,
  0.506689,
  0.413022,
  0.227971,
  0.403012,
  0.519744,
  0.372001,
  0.264169,
  0.223,
  0.257519,
  0.43412,
  0.414016,
  0.252275,
  0.242861,
  0.431205,
  0.417359,
  0.398542,
  0.474025,
  0.404481,
  0.415149,
  0.039559,
  0.257007,
  0.259812,
  0.417055,
  0.226255,
  0.191788,
  0.408024,
  0.35501,
  0.403012,
  0.458024,
  0.415538,
  0.206789,
  0.253007,
  0.195998,
  0.251672,
  0.43908,
  0.295457,
  0.39066,
  0.254008,
  0.246583,
  0.492014,
  0.221021,
  0.225616,
  0.298699,
  0.414957,
  0.430721,
  0.298962,
  0.44203,
  0.28182,
  0.222247,
  0.273166,
  0.404105,
  0.23004,
  0.390024,
  0.250005,
  0.395024,
  0.273014,
  0.419937,
  0.382488,
  0.458043,
  0.244998,
  0.441016,
  0.263099,
  0.241007,
  0.265867,
  0.430893,
  0.445913,
  0.423022,
  0.228879,
  0.292833,
  0.432022,
  0.191944,
  0.39569,
  0.405348,
  0.412015,
  0.257007,
  0.247013,
  0.45303,
  0.395152,
  0.431016,
  0.401775,
  0.39596,
  0.419953,
  0.244006,
  0.410013,
  0.318933,
  0.400012,
  0.472164,
  0.415017,
  0.552087,
  0.442861,
  0.263499,
  0.576229,
  0.310144,
  0.297422,
  0.267869,
  0.485014,
  0.1639,
  0.335019,
  0.597864,
  0.430015,
  0.307362,
  0.581999,
  0.405953,
  0.385327,
  0.39935,
  0.43401,
  0.289022,
  0.423397,
  0.323022,
  0.349394,
  0.469447,
  0.403067,
  0.353907,
  0.345093,
  0.336861,
  0.28199,
  0.409014,
  0.411718,
  0.407116,
  0.363014,
  0.061494,
  0.393351,
  0.259395,
  0.361974,
  0.335674,
  0.439128,
  0.37401,
  0.31598,
  0.406054,
  0.499602,
  0.41172,
  0.589009,
  0.357015,
  0.504016,
  0.375676,
  0.469321,
  0.570613,
  0.383918,
  0.590015,
  0.423883,
  0.578785,
  0.441022,
  0.301064,
  0.402017,
  0.416007,
  0.60701,
  0.36404,
  0.380013,
  0.309288,
  0.311272,
  0.274018,
  0.374011,
  0.378951,
  0.350977,
  0.469549,
  0.343818,
  0.551234,
  0.289229,
  0.359013,
  0.375958,
  0.461244,
  0.364296,
  0.290998,
  0.478012,
  0.272438,
  0.421494,
  0.386013,
  0.3681,
  0.319799,
  0.607019,
  0.393015,
  0.498628,
  0.385391,
  0.385081,
  0.50732,
  0.371089,
  0.288394,
  0.370676,
  0.547014,
  0.396455,
  0.303038,
  0.352789,
  0.430012,
  0.315087,
  0.59909,
  0.26098,
  0.289597,
  0.491982,
  0.309981,
  0.400829,
  0.391022,
  0.06101,
  0.37157,
  0.389013,
  0.411022,
  0.390015,
  0.373013,
  0.428533,
  0.382811,
  0.332043,
  0.380759,
  0.298746,
  0.33188,
  0.335682,
  0.515352,
  0.288574,
  0.321644,
  0.272529,
  0.331011,
  0.648119,
  0.26296,
  0.400645,
  0.365078,
  0.446999,
  0.395647,
  0.493597,
  0.455433,
  0.362139,
  0.369014,
  0.374385,
  0.664019,
  0.299866,
  0.352554,
  0.299017,
  0.448961,
  0.638019,
  0.310015,
  0.379632,
  0.402228,
  0.379286,
  0.34098,
  0.364872,
  0.390217,
  0.285036,
  0.307782,
  0.776339,
  0.290187,
  0.788778,
  0.905956,
  0.303533,
  0.821475,
  0.802631,
  0.313941,
  0.286017,
  0.785754,
  1.216608,
  0.317156,
  0.754257,
  0.29048,
  0.46197,
  0.373275,
  0.810625,
  0.244406,
  0.321873,
  0.302773,
  0.349813,
  0.809801,
  0.796548,
  0.28516,
  0.818923,
  0.850162,
  0.31199,
  0.390383,
  0.536493,
  0.799456,
  0.294595,
  0.294429,
  0.320018,
  0.795187,
  0.893907,
  0.259885,
  0.27192,
  0.793578,
  0.248405,
  0.249595,
  0.796087,
  0.821375,
  0.395034,
  0.933325,
  0.331894,
  0.810259,
  0.87409,
  0.294632,
  0.222999,
  0.26078,
  0.388774,
  0.287974,
  0.776821,
  0.317625,
  1.500341,
  0.783688,
  0.871064,
  0.790679,
  0.883178,
  0.787391,
  0.793827,
  0.286974,
  0.795633,
  0.315948,
  0.264577,
  0.761682,
  0.400833,
  0.794921,
  0.776345,
  0.812292,
  0.795015,
  0.776325,
  0.796528,
  0.787577,
  0.80956,
  0.317394,
  0.26358,
  0.273446,
  0.826384,
  0.936553,
  0.78348,
  0.792492,
  0.309643,
  0.292634,
  0.753,
  0.751937,
  0.798652,
  0.327402,
  0.315864,
  0.754027,
  0.756013,
  0.280023,
  0.315215,
  0.298183,
  0.320058,
  0.83162,
  0.787463,
  0.272449,
  0.799389,
  0.774014,
  0.35308,
  0.410049,
  0.315539,
  0.304532,
  0.345965,
  0.802539,
  0.279275,
  0.797429,
  0.039533,
  0.299315,
  0.760314,
  0.291741,
  0.798299,
  0.922359,
  0.296114,
  0.401377,
  0.308984,
  0.412011,
  0.228005,
  0.369023,
  0.256012,
  0.408793,
  0.301673,
  0.426022,
  0.242842,
  0.363645,
  0.344024,
  0.385018,
  0.521345,
  0.374864,
  0.282441,
  0.285017,
  0.39801,
  0.378068,
  0.40216,
  0.25246,
  0.332018,
  0.429016,
  0.325014,
  0.426274,
  0.391321,
  0.246992,
  0.242167,
  0.319314,
  0.43563,
  0.447509,
  0.308019,
  0.31061,
  0.364014,
  0.362018,
  0.377018,
  0.636551,
  0.364595,
  0.369165,
  0.250001,
  0.301229,
  0.397642,
  1.024365,
  0.199174,
  0.33,
  0.423169,
  0.365016,
  0.273641,
  0.293203,
  0.372831,
  0.236149,
  0.257022,
  0.420819,
  0.4232,
  0.468018,
  0.404006,
  0.321066,
  0.426012,
  0.419022,
  0.391014,
  0.400776,
  0.275491,
  0.248985,
  0.359013,
  0.67241,
  0.383632,
  0.294074,
  0.262003,
  0.368054,
  0.23616,
  0.301859,
  0.347002,
  0.392383,
  0.284899,
  0.31801,
  0.319559,
  0.307799,
  0.377371,
  0.229991,
  0.243667,
  0.322861,
  0.283003,
  0.221005,
  0.437809,
  0.337213,
  0.306472,
  0.327656,
  0.405944,
  0.258015,
  0.437279,
  0.437303,
  0.573244,
  0.218672,
  0.258129,
  0.39568,
  0.28201,
  0.223987,
  0.402019,
  0.306838,
  0.406027,
  0.310014,
  0.25101,
  0.321022,
  0.347026,
  0.290472,
  0.239878,
  0.371671,
  0.446263,
  0.413787,
  0.385022,
  0.24101,
  1.023361,
  0.330007,
  0.424022,
  0.44502,
  0.302013,
  0.321005,
  0.422697,
  0.321481,
  0.40202,
  0.242844,
  0.449605,
  0.393006,
  0.26401,
  0.423362,
  0.390357,
  0.299006,
  0.405416,
  0.423011,
  0.273512,
  0.276936,
  0.418572,
  0.341457,
  0.405013,
  0.455959,
  0.325017,
  0.293014,
  0.345026,
  0.253334,
  0.23178,
  0.374022,
  0.463902,
  0.328125,
  0.358008,
  0.391193,
  0.398667,
  0.256365,
  0.323026,
  0.256014,
  0.406199,
  0.331831,
  0.304021,
  0.28493,
  0.258157,
  0.292997,
  0.413188,
  0.417126,
  0.30903,
  0.272014,
  0.445024,
  0.762636,
  0.376015,
  0.380325,
  0.788306,
  0.39492,
  0.398604,
  0.764119,
  0.318007,
  0.802039,
  0.778746,
  0.332739,
  0.447649,
  0.841711,
  0.354376,
  0.77186,
  0.392137,
  0.780457,
  0.383348,
  0.415011,
  0.372206,
  0.762832,
  0.367048,
  0.381076,
  0.905608,
  0.885352,
  0.787697,
  0.504162,
  0.392942,
  0.367149,
  0.804626,
  0.805577,
  0.425673,
  0.755199,
  0.066688,
  0.430228,
  0.51043,
  0.745353,
  0.389145,
  0.787941,
  0.411246,
  0.841233,
  0.770015,
  0.750394,
  0.75974,
  0.791016,
  0.942564,
  0.765242,
  0.332316,
  0.363952,
  0.345468,
  0.442118,
  0.524125,
  0.421902,
  0.770548,
  0.830626,
  0.816928,
  0.814994,
  0.807788,
  0.804733,
  0.434501,
  0.809728,
  0.76734,
  0.848431,
  0.911166,
  0.372413,
  0.401054,
  0.906012,
  0.366527,
  0.757742,
  0.943013,
  0.415852,
  0.428203,
  0.394859,
  0.382942,
  0.370522,
  0.377631,
  0.398925,
  0.766843,
  0.441139,
  0.775409,
  0.817236,
  0.389695,
  0.771936,
  0.767461,
  0.369436,
  0.820885,
  0.414109,
  0.427631,
  0.406343,
  0.788621,
  0.444872,
  0.8379,
  0.786493,
  0.788496,
  0.405528,
  0.790648,
  0.83431,
  0.380979,
  0.808573,
  0.877753,
  0.41471,
  0.378975,
  0.78361,
  0.333556,
  0.795117,
  0.388886,
  0.389863,
  0.888543,
  0.836103,
  0.629372,
  0.898525,
  0.410688,
  0.350508,
  0.780131,
  0.437806,
  0.805706,
  0.785234,
  0.389847,
  0.826182,
  0.198404,
  0.73251,
  0.435152,
  0.857213,
  0.417579,
  0.452707,
  0.785211,
  0.774998,
  0.428421,
  0.443575,
  0.375676,
  0.76887,
  0.40338,
  0.361053,
  0.376856,
  0.314056,
  0.396083,
  0.313294,
  0.263969,
  0.732714,
  0.301005,
  0.289957,
  0.322485,
  0.401012,
  0.309925,
  0.317653,
  0.380103,
  0.45701,
  0.343343,
  0.198655,
  0.320789,
  0.306965,
  0.314249,
  0.435966,
  0.304977,
  0.354507,
  0.304013,
  0.285013,
  0.521319,
  0.363662,
  0.328169,
  0.404762,
  0.33102,
  0.328275,
  0.341617,
  0.530626,
  0.25597,
  0.208968,
  0.342173,
  0.392375,
  0.320789,
  0.345965,
  0.333416,
  0.537607,
  0.405016,
  0.276668,
  0.405015,
  0.348022,
  0.331013,
  0.305887,
  0.833436,
  0.409002,
  0.406917,
  0.224112,
  0.318174,
  0.306014,
  0.395061,
  0.395808,
  0.333012,
  0.402064,
  0.233978,
  0.540954,
  0.377753,
  0.296971,
  0.348294,
  0.314256,
  0.309966,
  0.307344,
  0.312342,
  0.331923,
  0.326011,
  0.55895,
  0.440974,
  0.383403,
  0.349974,
  0.214909,
  0.282273,
  0.303906,
  0.284977,
  0.347891,
  0.520756,
  0.475966,
  0.365877,
  0.25901,
  0.301022,
  0.327018,
  0.469018,
  0.443057,
  0.306013,
  0.178013,
  0.490013,
  0.354804,
  0.236971,
  0.348016,
  0.242022,
  0.349011,
  0.42196,
  0.738013,
  0.344012,
  0.292016,
  0.370764,
  0.51601,
  0.375015,
  0.322015,
  0.32606,
  0.248663,
  0.214873,
  0.45801,
  0.564857,
  0.336049,
  0.362008,
  0.408067,
  0.316013,
  0.330828,
  0.360038,
  0.276941,
  0.428058,
  0.48966,
  0.402074,
  0.410701,
  0.341497,
  0.38397,
  0.396376,
  0.525014,
  0.539969,
  0.54901,
  0.431994,
  0.546415,
  0.34021,
  0.364925,
  0.312565,
  0.287022,
  0.263971,
  0.282678,
  0.296332,
  0.555061,
  0.411007,
  0.547965,
  0.356154,
  0.284014,
  0.379992,
  0.333847,
  0.215751,
  0.045305,
  0.397601,
  0.377008,
  0.641875,
  0.500841,
  0.660295,
  0.494021,
  0.627358,
  0.440684,
  0.387054,
  0.665933,
  0.636903,
  0.503251,
  0.574654,
  0.389478,
  0.620479,
  0.400739,
  0.587673,
  0.648819,
  0.520115,
  0.386096,
  0.548938,
  0.363016,
  0.620015,
  0.547012,
  0.55722,
  0.381176,
  0.524936,
  0.656721,
  0.505794,
  0.644944,
  0.392137,
  0.378114,
  0.499302,
  0.412723,
  0.408911,
  0.641261,
  0.443969,
  0.4086,
  0.389104,
  0.379019,
  0.40718,
  0.460587,
  0.657067,
  0.69729,
  0.373005,
  0.632237,
  0.451015,
  0.646692,
  0.45443,
  0.654834,
  0.885219,
  0.38182,
  0.533212,
  0.566015,
  0.651285,
  0.990303,
  0.627902,
  0.644581,
  0.539018,
  0.484505,
  0.470599,
  0.624381,
  0.531056,
  0.453023,
  0.440689,
  0.383804,
  0.37998,
  0.658013,
  0.544691,
  0.475227,
  0.443801,
  0.64706,
  0.48508,
  0.432821,
  0.490016,
  0.637694,
  0.35281,
  0.059858,
  0.647101,
  0.38623,
  0.439625,
  0.401905,
  0.451925,
  0.372003,
  0.374084,
  0.628709,
  0.544479,
  0.461628,
  0.622964,
  0.558418,
  0.645938,
  0.492116,
  0.622382,
  0.415944,
  0.430013,
  0.42323,
  0.651668,
  0.986019,
  0.548169,
  0.620883,
  0.353586,
  0.385203,
  0.490829,
  0.468071,
  0.407892,
  0.63606,
  0.391012,
  0.359424,
  0.653613,
  0.537641,
  0.520097,
  0.645015,
  0.456035,
  0.397273,
  0.456804,
  0.353927,
  0.487185,
  0.373936,
  0.490027,
  0.445042,
  0.575987,
  0.3762,
  0.627601,
  0.648258,
  0.343984,
  0.481724,
  0.416367,
  0.468091,
  0.412014,
  0.611999,
  0.647696,
  0.578433,
  0.54092,
  0.623801,
  0.35876,
  0.539678,
  0.36043,
  0.824013,
  0.829917,
  0.824881,
  0.812007,
  0.341213,
  0.786626,
  0.339982,
  0.411016,
  0.822461,
  0.726067,
  0.711774,
  0.29305,
  0.75868,
  0.738,
  0.2854,
  0.362878,
  0.836065,
  0.722909,
  0.49798,
  0.680958,
  0.736358,
  0.254072,
  0.336893,
  0.367076,
  0.718614,
  0.571443,
  0.279664,
  0.708361,
  0.487665,
  0.708137,
  0.72863,
  0.686884,
  0.706029,
  0.815363,
  0.26824,
  0.386726,
  0.797343,
  0.688054,
  0.813486,
  0.727633,
  0.685424,
  0.377055,
  0.779634,
  0.817516,
  0.811693,
  0.672846,
  0.500267,
  0.299456,
  0.590259,
  0.259809,
  0.585644,
  0.275403,
  0.337018,
  0.698366,
  0.816932,
  0.702413,
  0.812966,
  0.578395,
  0.338748,
  0.709721,
  0.19863,
  0.430536,
  0.360022,
  0.351231,
  0.746623,
  0.345402,
  0.689352,
  0.719252,
  0.392257,
  0.693789,
  0.363773,
  0.500015,
  0.716625,
  0.574394,
  0.795645,
  0.311375,
  0.762214,
  0.619082,
  0.256565,
  1.148614,
  0.284712,
  0.517567,
  0.57245,
  0.325572,
  0.556091,
  0.79227,
  0.247759,
  0.793194,
  0.570952,
  0.713381,
  0.61543,
  0.263938,
  0.711199,
  0.330598,
  0.77215,
  0.360405,
  0.347167,
  0.556012,
  0.367013,
  0.337017,
  0.683015,
  0.704346,
  0.615812,
  0.323283,
  0.746016,
  0.795299,
  0.670169,
  0.344068,
  0.785789,
  0.620152,
  0.698963,
  0.282018,
  0.317344,
  0.682797,
  0.576937,
  0.263298,
  0.770789,
  0.757722,
  0.579168,
  0.687767,
  0.687817,
  0.707933,
  0.562356,
  0.26309,
  0.370551,
  0.276847,
  0.269393,
  0.570051,
  0.57701,
  0.412049,
  0.564573,
  0.784622,
  0.568403,
  0.789596,
  0.700524,
  0.271228,
  0.2654,
  0.772602,
  0.26768,
  0.276018,
  0.210792,
  0.491716,
  0.264114,
  0.245272,
  0.246478,
  0.261022,
  0.222365,
  0.238795,
  0.20499,
  0.229502,
  0.344845,
  0.350047,
  0.311624,
  0.268551,
  0.24554,
  0.243517,
  0.258049,
  0.285554,
  0.282641,
  0.299222,
  0.258364,
  0.26065,
  0.276877,
  0.236016,
  0.219064,
  0.297245,
  0.231927,
  0.380421,
  0.300205,
  0.351449,
  0.267582,
  0.224622,
  0.224971,
  0.242165,
  0.362938,
  0.03913,
  0.249029,
  0.228488,
  0.222423,
  0.302613,
  0.308539,
  0.237398,
  0.305034,
  0.27218,
  0.218888,
  0.267707,
  0.391759,
  0.311582,
  0.246693,
  0.257553,
  0.265618,
  0.355112,
  0.279022,
  0.292013,
  0.293779,
  0.333752,
  0.425016,
  0.220372,
  0.217417,
  0.212459,
  0.242495,
  0.334884,
  0.274008,
  0.320572,
  0.254631,
  0.266018,
  0.250022,
  0.241118,
  0.285679,
  0.271556,
  0.289544,
  0.337566,
  0.2947,
  0.357824,
  0.397595,
  0.26041,
  0.448966,
  0.257557,
  0.328133,
  0.217903,
  0.371014,
  0.289016,
  0.255125,
  0.276016,
  0.230133,
  0.420016,
  0.236133,
  0.636009,
  0.215527,
  0.449431,
  0.278096,
  0.447961,
  0.293409,
  0.236401,
  0.556979,
  0.256364,
  0.352008,
  0.275305,
  0.56202,
  0.251007,
  0.265015,
  0.229092,
  0.215903,
  0.263345,
  0.314287,
  0.264665,
  0.263282,
  0.345504,
  0.269006,
  0.49001,
  0.228154,
  0.311146,
  0.33794,
  0.210935,
  0.275499,
  0.244299,
  0.258244,
  0.249789,
  0.04183,
  0.526112,
  0.315462,
  0.450806,
  0.305514,
  0.39845,
  0.257621,
  0.227428,
  0.358016,
  0.311004,
  0.279027,
  0.279137,
  0.328205,
  0.235994,
  0.362012,
  0.256068,
  0.266013,
  0.378013,
  0.29245,
  0.289022,
  0.256013,
  0.221289,
  0.273736,
  0.397016,
  0.336406,
  0.445019,
  0.35457,
  0.590005,
  0.403401,
  0.275926,
  0.295721,
  0.219888,
  0.270015,
  0.228593,
  0.377015,
  0.538983,
  0.27274,
  0.273855,
  0.293018,
  0.252673,
  0.250016,
  0.247144,
  0.345235,
  0.247014,
  0.259922,
  0.338031,
  0.283776,
  0.277055,
  0.248333,
  0.039072,
  0.286645,
  0.28302,
  0.405011,
  0.277009,
  0.292022,
  0.275012,
  0.305016,
  0.308397,
  0.267748,
  0.32257,
  0.262313,
  0.256995,
  0.247039,
  0.268851,
  0.260042,
  0.259991,
  0.416009,
  0.357772,
  0.247012,
  0.224967,
  0.308012,
  0.247046,
  0.304989,
  0.288022,
  0.314979,
  0.298012,
  0.311907,
  0.313967,
  0.251036,
  0.260899,
  0.287015,
  0.347018,
  0.302011,
  0.363678,
  0.295012,
  0.296884,
  0.339016,
  0.322015,
  0.292022,
  0.237267,
  0.374007,
  0.392976,
  0.314013,
  0.318843,
  0.247018,
  0.290126,
  0.281018,
  0.402861,
  0.274494,
  0.585015,
  0.247549,
  0.265017,
  0.312053,
  0.293015,
  0.322014,
  0.265119,
  0.278677,
  0.242027,
  0.37313,
  0.259625,
  0.275425,
  0.659641,
  0.236014,
  0.27305,
  0.267021,
  0.271004,
  0.275167,
  0.349898,
  0.263072,
  0.268962,
  0.33178,
  0.240035,
  0.305341,
  0.278003,
  0.567047,
  0.488988,
  0.262983,
  0.370016,
  0.407012,
  0.274465,
  0.234585,
  0.261447,
  0.256791,
  0.291044,
  0.276674,
  0.29029,
  0.267205,
  0.627908,
  0.291069,
  0.256901,
  0.299016,
  0.268018,
  0.305913,
  0.345005,
  0.872009,
  0.280225,
  0.272014,
  0.575166,
  0.264129,
  0.304355,
  0.291013,
  0.422031,
  0.436011,
  0.238656,
  0.341628,
  0.240012,
  0.392011,
  0.36301,
  0.25184,
  0.279569,
  0.283015,
  0.388047,
  0.309012,
  0.285165,
  0.257009,
  0.437019,
  0.262007,
  0.326863,
  0.255169,
  0.382022,
  0.377061,
  0.257016,
  0.264862,
  0.298066,
  0.294474,
  0.35001,
  0.264011,
  0.245666,
  0.29402,
  0.382011,
  0.586014,
  0.348013,
  0.26514,
  0.519019,
  0.303132,
  0.263902,
  0.290018,
  0.38071,
  0.301413,
  0.249102,
  0.307921,
  0.354602,
  0.305152,
  0.270169,
  0.232185,
  0.320929,
  0.248563,
  0.234175,
  0.290061,
  0.341654,
  0.284795,
  0.287526,
  0.275797,
  0.29286,
  0.367441,
  0.232405,
  0.280653,
  0.045594,
  0.323818,
  0.413195,
  0.2814,
  0.261025,
  0.263609,
  0.324935,
  0.339583,
  0.28382,
  0.292462,
  0.276743,
  0.271888,
  0.408046,
  0.266915,
  0.290359,
  0.607011,
  0.283602,
  0.270587,
  0.260328,
  0.307584,
  0.325456,
  0.339344,
  0.240061,
  0.363163,
  0.30501,
  0.325665,
  0.297614,
  0.638447,
  0.347619,
  0.250385,
  0.273437,
  0.345014,
  0.366721,
  0.287934,
  0.326224,
  0.265831,
  0.399557,
  0.274898,
  0.370017,
  0.251764,
  0.272973,
  0.341735,
  0.252552,
  0.299889,
  0.331573,
  0.349857,
  0.260483,
  0.266439,
  0.221844,
  0.248184,
  0.259695,
  0.355965,
  0.26369,
  0.250739,
  0.282588,
  0.247326,
  0.374841,
  0.316618,
  0.272022,
  0.349018,
  0.274939,
  0.299985,
  0.257063,
  0.323998,
  0.251417,
  0.294215,
  0.280022,
  0.25531,
  0.264009,
  0.258013,
  0.291637,
  0.561024,
  0.338869,
  0.323603,
  0.319073,
  0.260951,
  0.247909,
  0.275384,
  0.243069,
  0.301001,
  0.271308,
  0.316822,
  0.288536,
  0.330251,
  0.281906,
  0.245461,
  0.287307,
  0.289603,
  0.249006,
  0.321345,
  0.604019,
  0.308414,
  0.323565,
  0.304038,
  0.281631,
  0.291797,
  0.333924,
  0.312009,
  0.319594,
  0.357038,
  0.265193,
  0.258228,
  0.264802,
  0.309736,
  0.308407,
  0.28191,
  0.33353,
  0.325114,
  0.207441,
  0.264382,
  0.267622,
  0.273055,
  0.280616,
  0.340623,
  0.283418,
  0.317014,
  0.36545,
  0.322068,
  0.25101,
  0.333292,
  0.235395,
  0.275391,
  0.341415,
  0.311124,
  0.314878,
  0.304676,
  0.350002,
  0.29927,
  0.299544,
  0.395002,
  0.319148,
  0.321352,
  0.34582,
  0.494019,
  0.442846,
  0.308766,
  0.331008,
  0.335567,
  0.309209,
  0.313579,
  0.427068,
  0.319807,
  0.296009,
  0.282163,
  0.272005,
  0.26586,
  0.280586,
  0.313072,
  0.314852,
  0.255014,
  0.316966,
  0.283646,
  0.425064,
  0.330892,
  0.346009,
  0.319341,
  0.328354,
  0.268963,
  0.39333,
  0.412019,
  0.268015,
  0.353729,
  0.333667,
  0.258171,
  0.323857,
  0.302108,
  0.333083,
  0.288948,
  0.321005,
  0.378008,
  0.24691,
  0.324013,
  0.303459,
  0.340145,
  0.237626,
  0.372159,
  0.373895,
  0.378895,
  0.324011,
  0.291397,
  0.350015,
  0.313202,
  0.344842,
  0.34401,
  0.263012,
  0.239431,
  0.569617,
  0.420954,
  0.322012,
  0.293141,
  0.398833,
  0.35406,
  0.309011,
  0.362163,
  0.307011,
  0.365014,
  0.367019,
  0.289008,
  0.314961,
  0.370063,
  0.28413,
  0.318761,
  0.304998,
  0.288574,
  0.359996,
  0.339539,
  0.412845,
  0.273014,
  0.337764,
  0.276014,
  0.257352,
  0.280568,
  0.33494,
  0.374235,
  0.358014,
  0.37701,
  0.434019,
  0.402011,
  0.324029,
  0.40701,
  0.261086,
  0.359012,
  0.339012,
  0.321953,
  0.360173,
  0.242871,
  0.281563,
  0.328908,
  0.34038,
  0.401939,
  0.276913,
  0.271884,
  0.336743,
  0.302995,
  0.356505,
  0.326371,
  0.32765,
  0.310012,
  0.33301,
  0.307856,
  0.389012,
  0.274742,
  0.37094,
  0.345976,
  0.327022,
  0.300912,
  0.262015,
  0.308559,
  0.365009,
  0.295121,
  0.264556,
  0.22857,
  0.309448,
  0.309014,
  0.33914,
  0.329022,
  0.288011,
  0.262016,
  0.290443,
  0.364003,
  0.307013,
  0.282009,
  0.367022,
  0.330283,
  0.33843,
  0.258015,
  0.350125,
  0.350907,
  0.270113,
  0.343009,
  0.29343,
  0.348951,
  0.388013,
  0.332797,
  0.305016,
  0.321015,
  0.329282,
  0.345285,
  0.295928,
  0.242018,
  0.33276,
  0.043004,
  0.339103,
  0.327893,
  0.407602,
  0.384602,
  0.403875,
  0.423924,
  0.372009,
  0.335915,
  0.377914,
  0.471424,
  0.291419,
  0.426603,
  0.464005,
  0.316865,
  0.328959,
  0.419016,
  0.386948,
  0.335875,
  0.38903,
  0.313529,
  0.377066,
  0.358014,
  0.386668,
  0.305593,
  0.467518,
  0.267686,
  0.249931,
  0.343011,
  0.428442,
  0.360426,
  0.402109,
  0.194198,
  0.352559,
  0.384596,
  0.390919,
  0.784423,
  0.344954,
  0.364707,
  0.337946,
  0.30544,
  0.363027,
  0.388532,
  0.424707,
  0.307015,
  0.397066,
  0.35709,
  0.393518,
  0.389475,
  0.391022,
  0.461512,
  0.478935,
  0.331788,
  0.38734,
  0.36502,
  0.315025,
  0.383051,
  0.406157,
  0.439841,
  0.354,
  0.389364,
  0.372991,
  0.399654,
  0.367637,
  0.464601,
  0.351506,
  0.358015,
  0.476605,
  0.468004,
  0.406577,
  0.428081,
  0.318101,
  0.38074,
  0.363684,
  0.285058,
  0.410427,
  0.282607,
  0.378991,
  0.258468,
  0.392483,
  0.33834,
  0.362098,
  0.348263,
  0.282444,
  0.348005,
  0.293018,
  0.327453,
  0.32307,
  0.385016,
  0.357946,
  0.453016,
  0.388446,
  0.386894,
  0.355953,
  0.318989,
  0.42602,
  0.293894,
  0.420601,
  0.370292,
  0.381607,
  0.413766,
  0.371028,
  0.265011,
  0.368559,
  0.364015,
  0.282995,
  0.376966,
  0.305353,
  0.376136,
  0.331802,
  0.359037,
  0.319505,
  0.351236,
  0.404756,
  0.310832,
  0.339013,
  0.443803,
  0.34404,
  0.341135,
  0.314744,
  0.390013,
  0.400426,
  0.317575,
  0.296309,
  0.376064,
  0.399735,
  0.333022,
  0.39912,
  0.352193,
  0.338702,
  0.338121,
  0.059279,
  0.391089,
  0.316175,
  0.355009,
  0.587504,
  0.321854,
  0.299605,
  0.347012,
  0.414844,
  0.36245,
  0.367951,
  0.359014,
  0.436807,
  0.270007,
  0.263974,
  0.376424,
  0.406128,
  0.39001,
  0.432162,
  0.394008,
  0.376605,
  0.404018
]