{
  "1000": [
    0.369298,
    0.558815,
    0.427027,
    0.987049,
    0.601845,
    0.623035,
    0.490039,
    0.93198,
    0.46502,
    0.710537,
    2.902421,
    0.84498,
    0.849318,
    0.444992,
    0.575032,
    0.77906,
    0.899991,
    0.954687,
    1.112413,
    0.737095,
    0.97202,
    0.880996,
    0.472822,
    0.849196,
    0.51002,
    1.016519,
    0.50482,
    0.572026,
    0.49798
  ],
  "1048576": [
    0.651258,
    0.515653,
    0.554125,
    0.76698,
    0.614883,
    0.702012,
    0.547018,
    0.889982,
    0.445852,
    0.71798,
    0.562091,
    0.493204,
    0.503981,
    0.54198,
    0.769069,
    0.525979,
    0.75598,
    0.357046,
    0.457618,
    0.422238,
    0.717984,
    0.50498,
    0.526983,
    0.603987,
    0.746981,
    0.803077,
    0.374432,
    0.750098,
    0.872787,
    0.853876,
    0.67546,
    0.49393,
    0.79831,
    0.572319,
    0.513297,
    0.791569,
    0.587589
  ],
  "51200": [
    0.721359,
    0.460336,
    0.646119,
    0.722893,
    0.569762,
    0.620675,
    0.391834,
    0.522623,
    0.607738,
    0.764368,
    0.833028,
    0.860901,
    0.570142,
    0.544932,
    0.64198,
    0.482772,
    0.68798,
    0.623262,
    0.743809,
    0.563454,
    0.742525,
    0.77798,
    0.844001,
    0.701128,
    0.475987,
    0.558217,
    0.673489,
    0.822411,
    0.451567,
    0.645478,
    0.473481,
    0.758823,
    0.758173,
    0.74098,
    0.589461,
    0.71195,
    0.415687,
    0.476108,
    0.559599,
    0.548864,
    0.611777,
    0.577895,
    0.669051,
    0.578518,
    1.041071,
    0.67798,
    0.746979,
    0.54198,
    1.271326,
    0.978262,
    0.953019,
    0.863734,
    1.066699,
    0.782593,
    0.594121,
    0.452333,
    0.444982,
    0.627031,
    0.659018,
    0.756987,
    0.620539,
    1.739047,
    0.387538,
    0.433501,
    0.611068,
    0.785081,
    0.974143,
    0.527333,
    0.50098,
    0.815824,
    0.63033,
    0.623915,
    0.577981,
    0.589032,
    0.576093,
    0.644496,
    0.4637,
    0.698834,
    0.602478,
    0.663099,
    0.465384,
    0.714323,
    0.499598,
    0.725045,
    0.68265,
    0.550866,
    0.466065,
    0.62498,
    0.684208,
    0.592063,
    0.501381,
    0.784979,
    0.493077,
    0.63498,
    0.852094,
    0.477446,
    0.62298,
    0.727011,
    0.690982,
    0.469982,
    0.620566,
    0.725412,
    0.691176,
    0.572624,
    0.647069,
    0.511072,
    0.483985,
    0.644072,
    0.528816,
    0.945055,
    1.311002,
    0.578979,
    0.9721,
    0.610957,
    0.839761,
    0.524985,
    0.827772,
    0.594174,
    1.16999,
    0.48298,
    0.660305,
    0.757131,
    0.509889,
    0.72498,
    0.771697,
    0.545616,
    0.731788,
    0.530836,
    0.653862,
    0.655487,
    0.745405,
    0.657873,
    0.498999,
    0.587582,
    0.743991,
    0.586668,
    0.425978,
    0.495341,
    0.684889,
    0.593984,
    0.766685,
    0.74698,
    0.468283,
    0.63398,
    0.68198,
    0.558986,
    0.374413,
    0.517982,
    0.42617,
    0.524619,
    0.609854,
    0.616542,
    0.684694,
    0.565171,
    0.54581,
    0.593686,
    0.63698,
    0.542488,
    0.444709,
    0.494027,
    0.57198,
    0.554572,
    0.580984,
    0.60998,
    0.3467,
    0.3967,
    0.84298,
    0.485026,
    0.68798,
    0.59048,
    0.653982,
    0.56098,
    0.47132,
    0.557965,
    0.728004,
    0.44533,
    0.923253,
    0.808582,
    0.737963,
    0.458284,
    0.57898,
    0.612959,
    0.72498,
    0.677981,
    0.909885,
    0.48698,
    0.694166,
    0.404208,
    0.511982,
    0.599986,
    0.46639,
    0.430002,
    0.360828,
    0.683893,
    0.60198,
    0.922823,
    0.60703,
    0.466608,
    0.55287,
    0.549672,
    0.835839,
    0.592157,
    0.658807,
    0.897982,
    1.055607,
    0.619045,
    0.70273,
    0.45311,
    0.558981,
    0.61998,
    0.65998,
    0.71498,
    0.604729,
    0.843098,
    0.559774,
    0.570985,
    0.466932,
    0.491003,
    0.62398,
    0.675154,
    0.54098,
    0.753249,
    0.565069,
    0.563064,
    0.355248,
    0.50498,
    0.50998,
    0.596996,
    0.586855,
    0.54911,
    0.751969,
    0.701416,
    0.840236,
    0.60741,
    0.613785,
    0.70732,
    0.958982,
    0.787654,
    0.67521,
    0.63498,
    0.347159,
    0.617141,
    0.788695,
    0.542688,
    0.409085,
    0.90126,
    0.886063,
    0.746982,
    0.438518,
    0.634784,
    0.58498,
    1.027523,
    0.709719,
    0.423437,
    1.138301,
    0.918379,
    0.981603,
    0.827612,
    1.022663,
    0.794862,
    1.001982,
    0.643987,
    0.676266,
    0.584982,
    0.629411,
    0.450291,
    0.492953,
    0.645906,
    0.573578,
    0.592371,
    0.580016,
    0.41282,
    0.697557,
    0.403424,
    0.521068,
    0.562853,
    0.493086,
    0.64898,
    0.79298,
    0.95698,
    1.232617,
    0.309046,
    0.419048,
    0.540091,
    0.484042,
    0.61198,
    0.735979,
    0.551564,
    0.616647,
    0.564353,
    0.661993,
    0.514362,
    0.53698,
    0.72711,
    0.698024,
    0.899464,
    0.537912,
    0.686347,
    0.727965,
    0.673358,
    0.482099,
    0.463876,
    0.378762,
    0.579117,
    0.737498,
    0.84353,
    0.6889,
    0.583456,
    0.666222,
    0.398042,
    0.433513,
    0.696477,
    0.536099,
    0.655814,
    0.711852,
    0.506162,
    0.540032,
    0.835989,
    0.837608,
    0.828796,
    0.779979,
    0.75548,
    0.99398,
    0.710982,
    0.622215,
    0.779983,
    0.644276,
    0.451881,
    0.61698,
    0.953562,
    0.818123,
    0.77873,
    0.628,
    0.95658,
    0.462431,
    0.98198,
    0.85475,
    0.640581,
    0.69205,
    0.502891,
    0.501728,
    0.636984,
    0.745017,
    0.546724,
    0.658012,
    0.5762,
    0.722801,
    0.599889,
    0.359984,
    0.558089,
    0.581881,
    0.651137,
    0.476951,
    0.504932,
    0.904172,
    0.663332,
    0.583554,
    0.550873,
    0.657012,
    0.417995,
    0.483829,
    0.564003,
    0.503828,
    0.411952,
    0.708502,
    0.695895,
    0.523025,
    0.457005,
    0.477837,
    0.857569
  ],
  "5242880": [
    0.601184,
    0.612787,
    0.545983,
    0.378109,
    1.119248,
    0.530406,
    0.692995,
    0.395986,
    0.84798,
    0.391581,
    0.621054,
    0.520042,
    0.846725,
    0.684953,
    0.876829,
    0.42878,
    0.53871,
    0.582991
  ],
  "ALL": [
    0.721359,
    0.460336,
    0.646119,
    0.722893,
    0.569762,
    0.620675,
    0.369298,
    0.391834,
    0.522623,
    0.607738,
    0.764368,
    0.833028,
    0.860901,
    0.570142,
    0.544932,
    0.64198,
    0.482772,
    0.68798,
    0.623262,
    0.743809,
    0.563454,
    0.742525,
    0.77798,
    0.844001,
    0.701128,
    0.475987,
    0.558217,
    0.673489,
    0.822411,
    0.451567,
    0.645478,
    0.473481,
    0.758823,
    0.758173,
    0.74098,
    0.589461,
    0.71195,
    0.415687,
    0.651258,
    0.558815,
    0.476108,
    0.559599,
    0.548864,
    0.611777,
    0.577895,
    0.515653,
    0.601184,
    0.612787,
    0.427027,
    0.669051,
    0.578518,
    1.041071,
    0.67798,
    0.554125,
    0.545983,
    0.987049,
    0.746979,
    0.54198,
    1.271326,
    0.978262,
    0.953019,
    0.863734,
    1.066699,
    0.782593,
    0.594121,
    0.378109,
    0.452333,
    0.444982,
    0.627031,
    0.659018,
    0.756987,
    0.620539,
    1.739047,
    0.387538,
    0.433501,
    0.611068,
    0.785081,
    0.974143,
    0.527333,
    0.50098,
    0.815824,
    0.63033,
    0.623915,
    0.577981,
    0.589032,
    0.76698,
    0.601845,
    0.576093,
    0.644496,
    0.4637,
    0.698834,
    0.602478,
    0.663099,
    0.465384,
    0.614883,
    0.714323,
    0.499598,
    0.725045,
    0.68265,
    0.550866,
    0.466065,
    0.62498,
    0.684208,
    0.592063,
    0.501381,
    0.784979,
    0.702012,
    0.547018,
    0.889982,
    1.119248,
    0.530406,
    0.623035,
    0.493077,
    0.63498,
    0.852094,
    0.477446,
    0.62298,
    0.727011,
    0.690982,
    0.469982,
    0.490039,
    0.620566,
    0.725412,
    0.691176,
    0.572624,
    0.647069,
    0.511072,
    0.483985,
    0.644072,
    0.528816,
    0.945055,
    0.445852,
    0.93198,
    1.311002,
    0.578979,
    0.9721,
    0.610957,
    0.839761,
    0.524985,
    0.827772,
    0.594174,
    1.16999,
    0.692995,
    0.48298,
    0.660305,
    0.757131,
    0.509889,
    0.72498,
    0.771697,
    0.545616,
    0.731788,
    0.530836,
    0.653862,
    0.655487,
    0.745405,
    0.657873,
    0.498999,
    0.587582,
    0.743991,
    0.586668,
    0.425978,
    0.495341,
    0.684889,
    0.593984,
    0.766685,
    0.74698,
    0.468283,
    0.71798,
    0.46502,
    0.63398,
    0.68198,
    0.558986,
    0.562091,
    0.374413,
    0.517982,
    0.42617,
    0.493204,
    0.503981,
    0.54198,
    0.395986,
    0.524619,
    0.609854,
    0.616542,
    0.684694,
    0.565171,
    0.54581,
    0.593686,
    0.63698,
    0.542488,
    0.444709,
    0.494027,
    0.769069,
    0.84798,
    0.57198,
    0.554572,
    0.580984,
    0.60998,
    0.3467,
    0.3967,
    0.84298,
    0.525979,
    0.710537,
    0.485026,
    0.68798,
    0.59048,
    0.653982,
    0.56098,
    0.47132,
    0.557965,
    0.75598,
    0.391581,
    2.902421,
    0.728004,
    0.44533,
    0.923253,
    0.808582,
    0.737963,
    0.458284,
    0.57898,
    0.612959,
    0.84498,
    0.72498,
    0.677981,
    0.909885,
    0.48698,
    0.694166,
    0.357046,
    0.404208,
    0.511982,
    0.599986,
    0.457618,
    0.422238,
    0.717984,
    0.46639,
    0.430002,
    0.360828,
    0.683893,
    0.60198,
    0.922823,
    0.60703,
    0.466608,
    0.55287,
    0.549672,
    0.50498,
    0.849318,
    0.835839,
    0.592157,
    0.658807,
    0.897982,
    1.055607,
    0.619045,
    0.70273,
    0.444992,
    0.575032,
    0.45311,
    0.558981,
    0.61998,
    0.65998,
    0.71498,
    0.604729,
    0.843098,
    0.559774,
    0.570985,
    0.466932,
    0.491003,
    0.62398,
    0.526983,
    0.603987,
    0.675154,
    0.54098,
    0.753249,
    0.621054,
    0.565069,
    0.563064,
    0.355248,
    0.50498,
    0.50998,
    0.596996,
    0.586855,
    0.54911,
    0.751969,
    0.701416,
    0.840236,
    0.60741,
    0.613785,
    0.70732,
    0.958982,
    0.787654,
    0.67521,
    0.746981,
    0.803077,
    0.63498,
    0.347159,
    0.617141,
    0.788695,
    0.542688,
    0.409085,
    0.520042,
    0.77906,
    0.899991,
    0.90126,
    0.886063,
    0.746982,
    0.438518,
    0.634784,
    0.58498,
    0.374432,
    0.750098,
    0.954687,
    1.112413,
    1.027523,
    0.709719,
    0.423437,
    1.138301,
    0.918379,
    0.981603,
    0.827612,
    0.872787,
    1.022663,
    0.794862,
    1.001982,
    0.643987,
    0.676266,
    0.584982,
    0.629411,
    0.853876,
    0.846725,
    0.737095,
    0.97202,
    0.450291,
    0.492953,
    0.645906,
    0.573578,
    0.592371,
    0.580016,
    0.41282,
    0.697557,
    0.403424,
    0.521068,
    0.562853,
    0.493086,
    0.64898,
    0.79298,
    0.95698,
    1.232617,
    0.309046,
    0.419048,
    0.540091,
    0.67546,
    0.684953,
    0.880996,
    0.472822,
    0.484042,
    0.61198,
    0.735979,
    0.551564,
    0.616647,
    0.564353,
    0.661993,
    0.514362,
    0.53698,
    0.72711,
    0.849196,
    0.698024,
    0.899464,
    0.537912,
    0.686347,
    0.727965,
    0.49393,
    0.673358,
    0.482099,
    0.463876,
    0.378762,
    0.579117,
    0.737498,
    0.84353,
    0.6889,
    0.583456,
    0.79831,
    0.876829,
    0.666222,
    0.398042,
    0.433513,
    0.696477,
    0.536099,
    0.655814,
    0.711852,
    0.572319,
    0.506162,
    0.540032,
    0.835989,
    0.837608,
    0.828796,
    0.779979,
    0.75548,
    0.513297,
    0.791569,
    0.51002,
    0.99398,
    0.710982,
    0.622215,
    0.779983,
    0.42878,
    0.644276,
    0.451881,
    0.61698,
    0.953562,
    0.818123,
    0.77873,
    1.016519,
    0.628,
    0.95658,
    0.462431,
    0.98198,
    0.85475,
    0.640581,
    0.69205,
    0.502891,
    0.501728,
    0.636984,
    0.745017,
    0.546724,
    0.658012,
    0.5762,
    0.50482,
    0.722801,
    0.599889,
    0.359984,
    0.558089,
    0.581881,
    0.651137,
    0.476951,
    0.572026,
    0.504932,
    0.904172,
    0.663332,
    0.583554,
    0.550873,
    0.587589,
    0.49798,
    0.657012,
    0.417995,
    0.483829,
    0.564003,
    0.503828,
    0.53871,
    0.411952,
    0.708502,
    0.695895,
    0.523025,
    0.457005,
    0.477837,
    0.857569,
    0.582991
  ]
}