{
  "1048576": [
    3.110972,
    2.673702,
    1.928211,
    3.167366,
    3.011,
    1.8594,
    2.928043,
    1.746103,
    1.971794,
    2.367107,
    2.019,
    2.502163,
    3.072781,
    2.676,
    2.904073,
    2.055078,
    3.373,
    5.863596,
    3.686672,
    3.812746,
    1.815834,
    3.545418,
    5.015732,
    3.462895,
    2.893694,
    3.35,
    4.764467,
    4.214871,
    2.711724,
    4.22497,
    2.752362,
    2.953236,
    2.413298,
    4.281,
    17.445395,
    5.833143,
    4.196596,
    2.115855,
    2.944,
    3.567,
    1.250404,
    2.277595,
    2.367054,
    4.728,
    5.955885,
    2.193914,
    3.065,
    1.84482,
    2.030121,
    33.276928,
    19.074358,
    2.057829,
    2.077897,
    1.899758,
    2.08116,
    3.478897,
    2.946467,
    4.332673,
    20.039865,
    3.593417,
    2.170407,
    2.786504,
    4.846165,
    3.104404,
    4.625,
    2.475475,
    3.696523,
    2.849714,
    3.351,
    26.8,
    5.891546,
    2.285902,
    1.545,
    1.896565,
    2.499301,
    11.066868,
    5.109434,
    4.604018,
    2.964,
    6.304568,
    2.450303,
    3.893,
    3.493,
    6.928802,
    2.6913,
    3.488239,
    3.465386,
    3.592,
    3.383121,
    2.844982,
    1.957806,
    3.411073,
    4.34,
    2.740129,
    5.796637,
    5.77415,
    3.427856,
    4.189738,
    3.723889,
    3.741828,
    3.38777,
    3.44121,
    4.059199,
    3.347,
    4.159767,
    2.781947,
    3.94783,
    2.121,
    3.885428,
    2.901489,
    2.19,
    1.913061,
    1.574,
    8.708575,
    2.927,
    4.411,
    4.094,
    3.657079,
    2.844,
    4.423578,
    3.176632,
    3.223,
    3.718125,
    3.107752,
    3.607972,
    4.08316,
    3.686231,
    2.008,
    2.667,
    4.222385,
    2.882103,
    3.154882,
    3.555242,
    3.791691,
    6.44627,
    8.266237,
    2.07174,
    4.511989,
    2.405278,
    2.027869,
    3.13,
    2.639,
    1.950505,
    4.120283,
    3.563926,
    4.352589,
    2.529845,
    3.956756,
    2.478607,
    5.663703,
    4.489495,
    3.590062,
    3.722,
    2.994,
    4.414,
    3.623,
    3.635557,
    7.80248,
    3.556221,
    4.793469,
    5.657592,
    6.064317,
    3.113,
    2.934408,
    2.273581,
    4.91171,
    2.577064,
    3.25229,
    4.265251,
    3.617608,
    9.655868,
    2.748195,
    1.709,
    4.314223,
    4.437783,
    3.335569,
    3.703706,
    4.810371,
    4.114219,
    3.286422,
    3.396,
    4.903,
    4.533,
    4.302,
    5.631442,
    2.538653,
    3.045197,
    6.261123,
    4.183518,
    4.308312,
    4.661519,
    4.644989,
    3.362575,
    3.387,
    3.300245,
    6.702132,
    3.983,
    4.468,
    3.558,
    2.96944,
    13.77,
    4.42154
  ],
  "51200": [
    0.449267,
    0.535492,
    0.467392,
    0.393188,
    0.969158,
    0.48084,
    0.371897,
    0.628632,
    0.768399,
    0.558128,
    0.621,
    0.810205,
    0.379704,
    0.339,
    0.825293,
    0.457,
    0.333874,
    0.612419,
    0.483561,
    0.580904,
    0.352958,
    1.029,
    0.373666,
    0.510237,
    0.466103,
    0.700267,
    0.672649,
    0.532859,
    0.441,
    0.656,
    0.547249,
    0.381838,
    0.495279,
    0.683335,
    0.557,
    0.772026,
    0.634197,
    0.525467,
    0.643136,
    0.894762,
    0.540634,
    0.676,
    0.424917,
    0.398103,
    0.520314,
    0.533,
    0.488116,
    0.574942,
    3.165,
    0.807728,
    0.455,
    0.68408,
    0.697441,
    0.610074,
    0.930536,
    0.96,
    0.875544,
    1.009121,
    0.652428,
    0.555704,
    0.694846,
    0.60778,
    1.136108,
    0.836105,
    0.509976,
    0.423477,
    0.389409,
    0.602097,
    0.489419,
    0.567046,
    0.341177,
    0.921675,
    0.496823,
    1.248586,
    0.409655,
    0.605906,
    0.365503,
    0.384013,
    0.616137,
    0.919,
    0.724,
    0.96961,
    0.982851,
    0.853,
    0.555889,
    0.928,
    0.551788,
    0.707,
    0.547685,
    0.57414,
    0.925888,
    0.806,
    0.84,
    0.808814,
    0.688067,
    0.720753,
    0.784,
    0.647897,
    0.693,
    0.607,
    0.703,
    0.993,
    0.703,
    0.58,
    0.695768,
    0.479884,
    0.45,
    0.491535,
    0.633895,
    0.961974,
    0.606853,
    0.718809,
    0.797102,
    0.526444,
    0.895597,
    0.910897,
    1.001,
    8.408,
    0.807,
    0.82925,
    0.883984,
    0.858463,
    0.750588,
    0.640051,
    0.689544,
    0.752485,
    0.372342,
    0.611406,
    0.677702,
    0.731809,
    0.771169,
    0.479,
    0.487906,
    0.585777,
    0.635632,
    0.844,
    1.018428,
    0.853,
    0.582826,
    0.678,
    0.501,
    0.762,
    0.501,
    0.406442,
    0.348066,
    0.785,
    0.757484,
    0.727,
    0.336,
    0.835,
    0.617197,
    0.511,
    0.542892,
    0.505763,
    0.377989,
    0.429613,
    0.387849,
    0.626,
    0.333,
    2.693,
    0.597,
    0.977243,
    0.398,
    0.422351,
    0.739826,
    0.499534,
    0.495,
    0.401942,
    0.378111,
    0.375664,
    1.120596,
    0.664811,
    0.565111,
    0.592801,
    0.668,
    0.369043,
    0.958475,
    0.954086,
    0.604457,
    0.644,
    0.947198,
    1.013657,
    0.794525,
    0.623,
    0.729,
    1.029,
    1.200771,
    0.440903,
    0.345053,
    0.699003,
    0.613,
    0.459,
    1.133239,
    0.469038,
    0.896,
    0.711,
    0.454,
    0.362762,
    2.543,
    0.537759,
    0.592538,
    0.807758,
    0.903482,
    0.538708,
    0.419,
    0.858176,
    0.412332,
    0.730593,
    0.392956,
    0.717516,
    0.559,
    0.440976,
    0.728043,
    0.506653,
    0.933,
    0.464098,
    0.329598,
    0.428897,
    0.687976,
    0.34014,
    0.373772,
    0.351934,
    0.361306,
    0.902,
    0.540237,
    0.419776,
    0.516107,
    0.333762,
    0.528337,
    0.403698,
    0.521897,
    0.355789,
    0.898897,
    0.350516,
    0.578129,
    0.731233,
    1.619598,
    0.792,
    0.574461,
    0.367808,
    0.555479,
    0.716187,
    0.788,
    0.587017,
    0.572138,
    0.534694,
    1.258811,
    0.575494,
    0.711683,
    0.755864,
    0.783681,
    0.915753,
    0.631731,
    0.620489,
    0.695747,
    0.525754,
    0.605718,
    0.912248,
    0.523,
    0.356585,
    0.312029,
    0.579,
    0.37561,
    0.598239,
    0.354,
    1.044,
    0.546,
    0.359805,
    0.681566,
    0.599923,
    0.709545,
    0.580604,
    0.386,
    0.748245,
    0.64405,
    0.483402,
    0.743217,
    0.563574,
    0.654285,
    0.538968,
    0.659,
    0.825261,
    0.399385,
    0.529941,
    1.414164,
    0.643441,
    0.254983,
    0.431138,
    0.544155,
    0.578339,
    0.612,
    0.656617,
    0.365222,
    0.577643,
    0.609692,
    0.363,
    0.805,
    1.042,
    0.797132,
    0.764432,
    1.28695,
    1.181024,
    0.829341,
    0.624398,
    1.113,
    0.655232,
    0.947622,
    0.717877,
    0.749895,
    0.599,
    0.923427,
    0.633611,
    0.617939,
    0.954471,
    0.71014,
    0.85667,
    0.983514,
    0.686432,
    0.676403,
    0.542299,
    0.688042,
    0.897,
    0.579,
    0.634003,
    0.652197,
    0.80841,
    0.597355,
    0.419,
    0.444103,
    0.786096,
    0.371551,
    0.658056,
    1.620991,
    0.83661,
    0.627,
    0.442489,
    0.710284,
    0.509453,
    0.509,
    0.599235,
    0.424,
    0.663151,
    0.703,
    0.404124,
    0.587,
    0.448,
    0.797,
    0.409,
    0.964,
    0.653,
    0.435,
    0.488,
    0.358,
    0.608104,
    0.462,
    0.369442,
    0.88394,
    0.386934,
    0.843,
    0.805352,
    0.652,
    0.546897,
    0.322,
    0.711794,
    1.022567,
    0.777538,
    1.191,
    1.674155,
    1.131698,
    0.968755,
    0.67,
    0.883147,
    1.133679,
    0.488,
    0.501,
    1.1727,
    0.896585,
    0.437715,
    0.628938,
    0.612,
    0.568189,
    0.327,
    0.523014,
    0.754842,
    0.371539,
    0.300656,
    0.374413,
    0.559764,
    0.535521,
    0.394778,
    0.785649,
    0.651,
    0.556,
    0.596236,
    0.427,
    0.617,
    0.483853,
    0.883965,
    0.899024,
    1.187296,
    0.813436,
    0.817466,
    0.614222,
    0.655799,
    0.805,
    0.809155,
    0.861808,
    0.736348,
    0.823252,
    0.594,
    0.388103,
    0.998,
    0.726974,
    0.737659,
    1.156949,
    0.823419,
    0.673103,
    1.104,
    0.567,
    0.756417,
    0.687485,
    2.103499,
    0.572172,
    0.709442,
    1.005314,
    0.523766,
    0.675897,
    0.706862,
    0.749,
    0.476342,
    0.707813,
    0.795513,
    0.562593,
    0.562664,
    0.640985,
    0.729299,
    0.524438,
    0.366911,
    0.57,
    0.39032,
    0.453,
    0.897137,
    0.839,
    0.41294,
    0.697796,
    0.317,
    0.479,
    0.65106,
    0.372299,
    0.816008,
    1.00208,
    0.931212,
    0.568143,
    0.828524,
    0.585135,
    0.41492,
    0.445357,
    0.847332,
    0.65726,
    0.80417,
    0.657451,
    0.772942,
    0.837128,
    0.629512,
    0.976623,
    0.52467,
    0.85,
    0.673155,
    1.111676,
    0.950693,
    0.748188,
    0.466,
    1.115,
    0.545822,
    0.596892,
    0.921627,
    0.734475,
    0.632919,
    1.038057,
    0.95497,
    0.82238,
    0.839279,
    7.446,
    0.694992,
    0.756673,
    0.83527,
    0.628956,
    0.850754,
    0.904053,
    0.806715,
    0.820743,
    0.528736,
    0.662289,
    0.68302,
    0.606428,
    0.835648,
    0.868655,
    0.803228,
    0.803508,
    0.634187,
    0.691335,
    0.56081,
    1.024731,
    0.708,
    0.679007,
    0.913926,
    0.752,
    0.674,
    1.458078,
    0.665,
    1.24615,
    0.701843,
    0.629196,
    0.828288,
    0.50796,
    0.51065,
    0.311222,
    0.610235,
    0.609471,
    0.372,
    0.413,
    0.489,
    0.498,
    0.465598,
    0.552588,
    0.584,
    0.663841,
    0.799626,
    0.433346,
    0.404747,
    0.454614,
    0.522897,
    0.609,
    0.42866,
    0.368508,
    0.391,
    0.441598,
    0.412,
    0.43,
    0.641,
    0.423975,
    0.436,
    0.746363,
    0.483,
    0.487,
    0.423558,
    0.4295,
    0.81464,
    0.42,
    0.536,
    0.524103,
    0.416998,
    0.55167,
    0.665198,
    0.720752,
    0.597953,
    0.966,
    0.63,
    0.509897,
    0.468,
    0.538105,
    0.610353,
    0.457,
    0.376,
    0.561,
    0.413134,
    0.583957,
    0.330605,
    0.814631,
    0.683785,
    0.942,
    0.634764,
    0.561567,
    0.955607,
    0.977883,
    0.691,
    0.762379,
    0.812,
    0.631,
    0.678011,
    0.699,
    0.593362,
    0.863,
    1.132922,
    0.5637,
    0.80675,
    0.457791,
    0.544051,
    0.397278,
    0.47851,
    0.429,
    0.315411,
    0.739221,
    0.983,
    0.646102,
    0.680023,
    0.918978,
    0.719357,
    0.954095,
    0.718727,
    0.84896,
    0.307539,
    0.553,
    0.358296,
    0.434364,
    1.217,
    0.713507,
    0.471,
    0.419246,
    0.561,
    0.925794,
    0.518729,
    0.312806,
    1.252587,
    0.565653,
    0.841,
    0.678694,
    0.826195,
    0.750961,
    1.379,
    0.587712,
    0.673514,
    0.804296,
    0.842953,
    0.924973,
    0.560295,
    0.910082,
    0.581832,
    0.881194,
    0.554021,
    0.891338,
    0.981271,
    0.652128,
    0.657328,
    0.366064,
    0.393425,
    0.757691,
    0.69185,
    0.65573,
    0.692945,
    0.772549,
    0.590952,
    0.749349,
    0.91567,
    0.808614,
    0.819299,
    0.844,
    0.910916,
    0.512792,
    0.549,
    0.371,
    0.297035,
    0.3617,
    0.326897,
    0.35,
    0.643821,
    0.371,
    0.431925,
    0.504,
    0.353,
    0.661488,
    0.67,
    1.173,
    1.341198,
    0.75665,
    0.764773,
    0.593,
    1.186954,
    0.725584,
    0.612,
    0.873581,
    0.641388,
    1.280667,
    0.87303,
    0.881906,
    0.619425,
    0.589,
    0.680793,
    0.992,
    0.425,
    0.630798,
    0.61698,
    0.306988,
    0.360104,
    0.497,
    0.575,
    0.359583,
    0.549313,
    0.62,
    0.468704,
    0.573296,
    0.321585,
    0.376,
    0.356,
    0.466,
    0.594641,
    0.475,
    0.676208,
    0.435,
    0.449,
    0.309,
    0.348557,
    0.53477,
    0.331,
    0.688,
    0.428,
    0.338425,
    0.505,
    0.648476,
    0.288675,
    0.393284,
    0.699,
    0.36749,
    0.564798,
    0.828561,
    0.583054,
    0.801078,
    1.063544,
    0.675739,
    0.682518,
    0.574815,
    0.652,
    0.604198,
    0.982,
    0.775391,
    0.815805,
    0.57,
    0.710436,
    0.566365,
    0.648,
    0.63641,
    0.639,
    0.625248,
    0.64,
    0.828675,
    0.956,
    0.823,
    0.770818,
    0.613403,
    0.664,
    0.668974,
    0.749,
    0.869898,
    0.979409,
    0.833696,
    0.708537,
    0.584395,
    0.89617,
    0.789905,
    0.839293,
    1.168,
    1.112499,
    0.663747,
    0.769897,
    0.779071,
    1.008596,
    0.727073,
    0.669331,
    0.908699,
    0.745,
    0.651195,
    0.583797,
    0.431818,
    0.854071,
    1.216934,
    1.011894,
    0.79301,
    0.688777,
    0.886816,
    0.656916,
    0.602438,
    0.747083,
    0.992074,
    0.570644,
    0.665583,
    0.642943,
    0.604,
    0.565,
    0.57,
    0.585553,
    1.203,
    0.793,
    0.611,
    1.083355,
    1.112,
    0.574,
    0.904308,
    0.693657,
    0.813461,
    0.608698,
    0.854396,
    0.631053,
    0.561411,
    0.515416,
    0.659,
    0.667419,
    0.789493,
    0.647058,
    0.725894,
    0.729804,
    0.900169,
    0.729886,
    0.72212,
    0.453567,
    0.333461,
    0.38,
    0.343,
    0.339615,
    0.671989,
    0.443592,
    0.61725,
    0.310762,
    0.505,
    1.514495,
    1.333586,
    0.654,
    0.875398,
    0.972633,
    0.918,
    0.869824,
    0.627701,
    1.146,
    0.709534,
    0.879872,
    0.679703,
    1.12,
    0.578821,
    0.732588,
    0.727,
    0.762668,
    1.121779,
    0.737,
    0.660499,
    0.485871,
    0.57753,
    0.329461,
    0.358838,
    0.667292,
    0.30143,
    0.306621,
    0.351736,
    0.51592,
    0.345626,
    0.385,
    0.643467,
    1.024554,
    0.794816,
    0.663,
    0.721531,
    0.713,
    0.56965,
    0.811964,
    0.564862,
    0.811191,
    0.662494,
    0.663193,
    0.633351,
    0.61122,
    0.925246,
    0.714078,
    0.634876,
    1.153111,
    0.769482,
    0.544302,
    0.604,
    0.791,
    0.667,
    0.747,
    0.67088,
    0.768,
    0.483,
    0.634,
    0.869564,
    0.769452,
    0.604551,
    0.607,
    0.558,
    0.891877,
    0.588225,
    0.762071,
    0.822752,
    0.808446,
    0.806158,
    0.663897,
    0.693075,
    0.779748,
    0.676,
    0.70802,
    0.691588,
    0.686981,
    0.636851,
    0.77715,
    0.457079,
    0.96377,
    0.726807,
    0.651461,
    0.727424,
    0.800198,
    0.685705,
    0.863,
    0.783256,
    0.786,
    0.965306,
    1.38,
    0.831,
    0.939,
    0.766,
    0.766,
    0.785278,
    0.836957,
    1.016721,
    0.656148,
    0.649016,
    0.66432,
    0.899151,
    1.098668,
    0.532063,
    0.63323,
    0.985987,
    0.74,
    0.799547,
    1.32289,
    0.853073,
    0.66139,
    0.555,
    0.938441,
    0.549,
    0.784408,
    0.605163,
    0.9418,
    0.753956,
    0.401,
    1.184267,
    0.83,
    0.593,
    0.676512,
    0.509,
    0.79267,
    0.921,
    0.363881,
    0.836792,
    0.651111,
    0.989076,
    0.518,
    0.632989,
    0.680307,
    0.418438,
    0.796,
    0.957964,
    0.69837,
    0.736445,
    0.568036,
    0.636226,
    0.886,
    0.684555,
    0.961697,
    1.574303,
    0.673166,
    0.72,
    0.817467,
    0.642,
    0.74478,
    1.044,
    0.542306,
    0.644454,
    0.633,
    0.597,
    0.546306,
    0.71306,
    0.635,
    0.366,
    0.932,
    0.612247,
    0.962,
    0.43566,
    1.118011,
    0.683,
    0.516,
    0.875069,
    0.75716,
    0.608217,
    0.988388,
    0.782242,
    0.928116,
    0.686639,
    0.53
  ],
  "5242880": [
    6.758,
    76.914974,
    6.04818,
    5.728,
    4.172127,
    7.490814,
    4.929462,
    5.733682,
    7.809452,
    10.437015,
    9.005,
    8.662204,
    8.375692,
    7.707036,
    11.593519,
    9.107,
    6.708008,
    5.577961,
    4.039874,
    10.131908,
    8.478719,
    9.045,
    76.122474,
    8.698,
    6.330284,
    6.529153,
    8.045059,
    13.36961,
    8.601606,
    6.263,
    6.249,
    6.208997,
    4.22856,
    6.94725,
    8.773058,
    6.778916,
    13.090318,
    6.957587,
    7.765431,
    10.772516,
    93.440716,
    12.062155,
    5.944332,
    9.410092,
    5.917434,
    10.328,
    10.975778,
    6.400059,
    34.378015,
    8.276086,
    4.5926,
    5.153515,
    4.935199,
    8.324743,
    5.937104,
    6.999889,
    10.023,
    5.722185,
    5.122,
    5.975447,
    10.491443,
    9.138626,
    8.817676,
    8.235,
    5.530665,
    9.897422,
    9.736486,
    8.812043,
    6.769309,
    7.53245,
    52.038112,
    6.941103,
    6.578867,
    9.433,
    9.053311,
    9.588897,
    9.353412,
    9.998035,
    6.238634,
    3.877745,
    5.185,
    6.416176,
    6.834582,
    9.3911,
    6.865584,
    3.900908,
    3.736,
    7.871776,
    97.931231,
    8.527436,
    10.027,
    9.265,
    8.455,
    8.16315,
    12.423859,
    60.083889,
    7.480966,
    43.256181,
    14.473,
    10.489597,
    12.159659,
    7.108549,
    9.898,
    7.784111,
    7.504921,
    11.021385,
    12.548802,
    9.9782,
    19.656441,
    9.642,
    13.27463,
    10.338238,
    7.180054,
    6.721,
    11.94693,
    7.803,
    6.471058,
    6.22,
    6.735625,
    7.2174
  ],
  "ALL": [
    0.449267,
    0.535492,
    0.467392,
    0.393188,
    0.969158,
    0.48084,
    0.371897,
    0.628632,
    0.768399,
    0.558128,
    0.621,
    3.110972,
    2.673702,
    6.758,
    0.810205,
    0.379704,
    0.339,
    0.825293,
    0.457,
    0.333874,
    0.612419,
    0.483561,
    0.580904,
    1.928211,
    3.167366,
    3.011,
    1.8594,
    2.928043,
    76.914974,
    0.352958,
    1.029,
    0.373666,
    0.510237,
    0.466103,
    0.700267,
    0.672649,
    0.532859,
    0.441,
    0.656,
    0.547249,
    0.381838,
    1.746103,
    1.971794,
    2.367107,
    2.019,
    0.495279,
    0.683335,
    0.557,
    0.772026,
    0.634197,
    0.525467,
    0.643136,
    0.894762,
    0.540634,
    2.502163,
    3.072781,
    2.676,
    6.04818,
    0.676,
    0.424917,
    0.398103,
    0.520314,
    0.533,
    0.488116,
    0.574942,
    3.165,
    0.807728,
    0.455,
    0.68408,
    0.697441,
    2.904073,
    2.055078,
    5.728,
    4.172127,
    0.610074,
    0.930536,
    0.96,
    0.875544,
    1.009121,
    0.652428,
    3.373,
    5.863596,
    3.686672,
    3.812746,
    7.490814,
    0.555704,
    0.694846,
    0.60778,
    1.136108,
    0.836105,
    0.509976,
    0.423477,
    1.815834,
    3.545418,
    4.929462,
    5.733682,
    7.809452,
    0.389409,
    0.602097,
    0.489419,
    0.567046,
    0.341177,
    0.921675,
    0.496823,
    1.248586,
    0.409655,
    0.605906,
    0.365503,
    0.384013,
    5.015732,
    0.616137,
    0.919,
    0.724,
    0.96961,
    0.982851,
    0.853,
    0.555889,
    0.928,
    0.551788,
    0.707,
    3.462895,
    0.547685,
    0.57414,
    0.925888,
    0.806,
    0.84,
    0.808814,
    0.688067,
    2.893694,
    3.35,
    4.764467,
    4.214871,
    10.437015,
    9.005,
    0.720753,
    0.784,
    0.647897,
    0.693,
    0.607,
    0.703,
    0.993,
    0.703,
    0.58,
    2.711724,
    4.22497,
    8.662204,
    0.695768,
    0.479884,
    0.45,
    0.491535,
    0.633895,
    0.961974,
    0.606853,
    0.718809,
    0.797102,
    0.526444,
    0.895597,
    2.752362,
    2.953236,
    2.413298,
    0.910897,
    1.001,
    8.408,
    0.807,
    0.82925,
    0.883984,
    0.858463,
    0.750588,
    4.281,
    17.445395,
    5.833143,
    0.640051,
    0.689544,
    0.752485,
    0.372342,
    0.611406,
    0.677702,
    0.731809,
    0.771169,
    0.479,
    0.487906,
    0.585777,
    4.196596,
    2.115855,
    8.375692,
    7.707036,
    0.635632,
    0.844,
    1.018428,
    0.853,
    0.582826,
    2.944,
    3.567,
    11.593519,
    9.107,
    6.708008,
    0.678,
    0.501,
    0.762,
    0.501,
    0.406442,
    0.348066,
    0.785,
    0.757484,
    0.727,
    0.336,
    0.835,
    0.617197,
    0.511,
    0.542892,
    5.577961,
    0.505763,
    0.377989,
    0.429613,
    0.387849,
    0.626,
    0.333,
    2.693,
    0.597,
    0.977243,
    0.398,
    0.422351,
    1.250404,
    2.277595,
    4.039874,
    0.739826,
    0.499534,
    0.495,
    0.401942,
    0.378111,
    0.375664,
    1.120596,
    0.664811,
    0.565111,
    0.592801,
    0.668,
    0.369043,
    2.367054,
    10.131908,
    8.478719,
    0.958475,
    0.954086,
    0.604457,
    0.644,
    0.947198,
    1.013657,
    0.794525,
    0.623,
    0.729,
    1.029,
    4.728,
    5.955885,
    9.045,
    1.200771,
    0.440903,
    0.345053,
    0.699003,
    0.613,
    0.459,
    1.133239,
    0.469038,
    0.896,
    0.711,
    0.454,
    0.362762,
    2.543,
    2.193914,
    3.065,
    0.537759,
    0.592538,
    0.807758,
    0.903482,
    0.538708,
    0.419,
    0.858176,
    0.412332,
    0.730593,
    0.392956,
    0.717516,
    0.559,
    0.440976,
    76.122474,
    8.698,
    0.728043,
    0.506653,
    0.933,
    0.464098,
    0.329598,
    0.428897,
    0.687976,
    0.34014,
    0.373772,
    0.351934,
    0.361306,
    0.902,
    1.84482,
    0.540237,
    0.419776,
    0.516107,
    0.333762,
    0.528337,
    0.403698,
    0.521897,
    0.355789,
    2.030121,
    33.276928,
    19.074358,
    2.057829,
    2.077897,
    0.898897,
    0.350516,
    0.578129,
    0.731233,
    1.619598,
    0.792,
    0.574461,
    0.367808,
    1.899758,
    2.08116,
    6.330284,
    6.529153,
    0.555479,
    0.716187,
    0.788,
    0.587017,
    0.572138,
    0.534694,
    1.258811,
    0.575494,
    0.711683,
    0.755864,
    3.478897,
    2.946467,
    4.332673,
    8.045059,
    13.36961,
    0.783681,
    0.915753,
    0.631731,
    0.620489,
    0.695747,
    0.525754,
    0.605718,
    0.912248,
    20.039865,
    8.601606,
    0.523,
    0.356585,
    0.312029,
    0.579,
    0.37561,
    0.598239,
    0.354,
    1.044,
    0.546,
    0.359805,
    0.681566,
    3.593417,
    2.170407,
    6.263,
    6.249,
    0.599923,
    0.709545,
    0.580604,
    0.386,
    0.748245,
    0.64405,
    0.483402,
    0.743217,
    0.563574,
    0.654285,
    0.538968,
    0.659,
    0.825261,
    0.399385,
    0.529941,
    1.414164,
    0.643441,
    0.254983,
    0.431138,
    0.544155,
    0.578339,
    0.612,
    0.656617,
    0.365222,
    0.577643,
    0.609692,
    0.363,
    2.786504,
    6.208997,
    4.22856,
    6.94725,
    0.805,
    1.042,
    0.797132,
    0.764432,
    1.28695,
    1.181024,
    0.829341,
    0.624398,
    1.113,
    8.773058,
    6.778916,
    13.090318,
    0.655232,
    0.947622,
    0.717877,
    0.749895,
    0.599,
    0.923427,
    0.633611,
    0.617939,
    0.954471,
    0.71014,
    0.85667,
    4.846165,
    6.957587,
    7.765431,
    0.983514,
    0.686432,
    0.676403,
    0.542299,
    0.688042,
    0.897,
    0.579,
    0.634003,
    0.652197,
    0.80841,
    0.597355,
    0.419,
    3.104404,
    4.625,
    10.772516,
    0.444103,
    0.786096,
    0.371551,
    0.658056,
    1.620991,
    0.83661,
    0.627,
    0.442489,
    0.710284,
    93.440716,
    0.509453,
    0.509,
    0.599235,
    0.424,
    0.663151,
    0.703,
    0.404124,
    0.587,
    0.448,
    0.797,
    0.409,
    0.964,
    0.653,
    0.435,
    2.475475,
    3.696523,
    0.488,
    0.358,
    0.608104,
    0.462,
    0.369442,
    0.88394,
    0.386934,
    0.843,
    0.805352,
    0.652,
    0.546897,
    0.322,
    0.711794,
    1.022567,
    2.849714,
    3.351,
    0.777538,
    1.191,
    1.674155,
    1.131698,
    0.968755,
    0.67,
    0.883147,
    1.133679,
    0.488,
    0.501,
    1.1727,
    26.8,
    12.062155,
    0.896585,
    0.437715,
    0.628938,
    0.612,
    0.568189,
    0.327,
    0.523014,
    0.754842,
    0.371539,
    0.300656,
    5.891546,
    2.285902,
    1.545,
    5.944332,
    9.410092,
    0.374413,
    0.559764,
    0.535521,
    0.394778,
    0.785649,
    0.651,
    0.556,
    0.596236,
    0.427,
    0.617,
    0.483853,
    1.896565,
    2.499301,
    11.066868,
    5.917434,
    0.883965,
    0.899024,
    1.187296,
    0.813436,
    5.109434,
    4.604018,
    2.964,
    6.304568,
    10.328,
    10.975778,
    0.817466,
    0.614222,
    0.655799,
    0.805,
    0.809155,
    0.861808,
    0.736348,
    0.823252,
    0.594,
    6.400059,
    34.378015,
    8.276086,
    0.388103,
    0.998,
    0.726974,
    0.737659,
    1.156949,
    0.823419,
    2.450303,
    3.893,
    4.5926,
    5.153515,
    4.935199,
    8.324743,
    5.937104,
    0.673103,
    1.104,
    0.567,
    0.756417,
    0.687485,
    2.103499,
    0.572172,
    0.709442,
    1.005314,
    0.523766,
    3.493,
    6.928802,
    2.6913,
    0.675897,
    0.706862,
    0.749,
    0.476342,
    0.707813,
    0.795513,
    0.562593,
    0.562664,
    0.640985,
    0.729299,
    3.488239,
    3.465386,
    6.999889,
    0.524438,
    0.366911,
    0.57,
    0.39032,
    0.453,
    0.897137,
    0.839,
    0.41294,
    0.697796,
    0.317,
    0.479,
    0.65106,
    3.592,
    10.023,
    5.722185,
    5.122,
    0.372299,
    0.816008,
    1.00208,
    0.931212,
    0.568143,
    0.828524,
    0.585135,
    0.41492,
    0.445357,
    3.383121,
    2.844982,
    1.957806,
    5.975447,
    10.491443,
    0.847332,
    0.65726,
    0.80417,
    0.657451,
    0.772942,
    0.837128,
    3.411073,
    4.34,
    9.138626,
    8.817676,
    0.629512,
    0.976623,
    0.52467,
    0.85,
    0.673155,
    1.111676,
    0.950693,
    0.748188,
    0.466,
    1.115,
    0.545822,
    0.596892,
    0.921627,
    0.734475,
    2.740129,
    0.632919,
    1.038057,
    0.95497,
    0.82238,
    0.839279,
    7.446,
    0.694992,
    5.796637,
    5.77415,
    0.756673,
    0.83527,
    0.628956,
    0.850754,
    0.904053,
    0.806715,
    0.820743,
    0.528736,
    0.662289,
    0.68302,
    0.606428,
    3.427856,
    4.189738,
    3.723889,
    8.235,
    0.835648,
    0.868655,
    0.803228,
    0.803508,
    3.741828,
    3.38777,
    5.530665,
    9.897422,
    0.634187,
    0.691335,
    0.56081,
    1.024731,
    0.708,
    0.679007,
    0.913926,
    0.752,
    0.674,
    1.458078,
    9.736486,
    0.665,
    1.24615,
    0.701843,
    0.629196,
    0.828288,
    3.44121,
    4.059199,
    3.347,
    4.159767,
    8.812043,
    6.769309,
    0.50796,
    0.51065,
    0.311222,
    0.610235,
    0.609471,
    0.372,
    0.413,
    0.489,
    0.498,
    0.465598,
    0.552588,
    0.584,
    0.663841,
    2.781947,
    7.53245,
    0.799626,
    0.433346,
    0.404747,
    0.454614,
    0.522897,
    0.609,
    0.42866,
    0.368508,
    0.391,
    0.441598,
    0.412,
    3.94783,
    0.43,
    0.641,
    0.423975,
    0.436,
    0.746363,
    0.483,
    0.487,
    0.423558,
    0.4295,
    0.81464,
    0.42,
    0.536,
    0.524103,
    0.416998,
    2.121,
    52.038112,
    0.55167,
    0.665198,
    0.720752,
    0.597953,
    0.966,
    0.63,
    0.509897,
    3.885428,
    2.901489,
    6.941103,
    0.468,
    0.538105,
    0.610353,
    0.457,
    0.376,
    0.561,
    0.413134,
    0.583957,
    0.330605,
    2.19,
    1.913061,
    1.574,
    8.708575,
    2.927,
    6.578867,
    0.814631,
    0.683785,
    0.942,
    0.634764,
    0.561567,
    0.955607,
    0.977883,
    0.691,
    0.762379,
    0.812,
    0.631,
    4.411,
    4.094,
    9.433,
    0.678011,
    0.699,
    0.593362,
    0.863,
    1.132922,
    0.5637,
    0.80675,
    0.457791,
    0.544051,
    0.397278,
    0.47851,
    0.429,
    0.315411,
    3.657079,
    0.739221,
    0.983,
    0.646102,
    0.680023,
    0.918978,
    0.719357,
    0.954095,
    0.718727,
    0.84896,
    2.844,
    4.423578,
    3.176632,
    9.053311,
    0.307539,
    0.553,
    0.358296,
    0.434364,
    1.217,
    0.713507,
    0.471,
    0.419246,
    0.561,
    0.925794,
    0.518729,
    0.312806,
    3.223,
    9.588897,
    1.252587,
    0.565653,
    0.841,
    0.678694,
    0.826195,
    0.750961,
    1.379,
    3.718125,
    3.107752,
    3.607972,
    4.08316,
    9.353412,
    9.998035,
    0.587712,
    0.673514,
    0.804296,
    0.842953,
    0.924973,
    0.560295,
    0.910082,
    0.581832,
    0.881194,
    3.686231,
    6.238634,
    0.554021,
    0.891338,
    0.981271,
    0.652128,
    0.657328,
    0.366064,
    0.393425,
    0.757691,
    0.69185,
    0.65573,
    0.692945,
    0.772549,
    0.590952,
    0.749349,
    2.008,
    3.877745,
    0.91567,
    0.808614,
    0.819299,
    0.844,
    0.910916,
    0.512792,
    2.667,
    4.222385,
    0.549,
    0.371,
    0.297035,
    0.3617,
    0.326897,
    0.35,
    0.643821,
    0.371,
    0.431925,
    0.504,
    0.353,
    2.882103,
    3.154882,
    5.185,
    6.416176,
    0.661488,
    0.67,
    1.173,
    1.341198,
    0.75665,
    0.764773,
    0.593,
    1.186954,
    0.725584,
    3.555242,
    6.834582,
    9.3911,
    0.612,
    0.873581,
    0.641388,
    1.280667,
    0.87303,
    0.881906,
    0.619425,
    0.589,
    0.680793,
    3.791691,
    6.44627,
    8.266237,
    0.992,
    0.425,
    0.630798,
    0.61698,
    0.306988,
    0.360104,
    0.497,
    0.575,
    0.359583,
    0.549313,
    0.62,
    0.468704,
    2.07174,
    4.511989,
    2.405278,
    6.865584,
    0.573296,
    0.321585,
    0.376,
    0.356,
    0.466,
    0.594641,
    0.475,
    0.676208,
    0.435,
    0.449,
    0.309,
    0.348557,
    2.027869,
    3.13,
    0.53477,
    0.331,
    0.688,
    0.428,
    0.338425,
    0.505,
    0.648476,
    0.288675,
    0.393284,
    0.699,
    0.36749,
    2.639,
    1.950505,
    3.900908,
    3.736,
    0.564798,
    0.828561,
    0.583054,
    0.801078,
    1.063544,
    0.675739,
    0.682518,
    4.120283,
    3.563926,
    7.871776,
    0.574815,
    0.652,
    0.604198,
    0.982,
    0.775391,
    0.815805,
    0.57,
    0.710436,
    4.352589,
    2.529845,
    3.956756,
    2.478607,
    5.663703,
    97.931231,
    0.566365,
    0.648,
    0.63641,
    0.639,
    0.625248,
    0.64,
    0.828675,
    0.956,
    0.823,
    0.770818,
    0.613403,
    4.489495,
    3.590062,
    3.722,
    2.994,
    4.414,
    0.664,
    0.668974,
    0.749,
    0.869898,
    0.979409,
    0.833696,
    0.708537,
    0.584395,
    3.623,
    3.635557,
    7.80248,
    0.89617,
    0.789905,
    0.839293,
    1.168,
    1.112499,
    0.663747,
    0.769897,
    0.779071,
    1.008596,
    3.556221,
    4.793469,
    8.527436,
    0.727073,
    0.669331,
    0.908699,
    0.745,
    0.651195,
    0.583797,
    0.431818,
    5.657592,
    6.064317,
    3.113,
    2.934408,
    2.273581,
    0.854071,
    1.216934,
    1.011894,
    0.79301,
    0.688777,
    0.886816,
    0.656916,
    0.602438,
    0.747083,
    0.992074,
    0.570644,
    10.027,
    0.665583,
    0.642943,
    0.604,
    0.565,
    0.57,
    0.585553,
    1.203,
    0.793,
    0.611,
    9.265,
    1.083355,
    1.112,
    0.574,
    0.904308,
    0.693657,
    0.813461,
    0.608698,
    0.854396,
    8.455,
    8.16315,
    0.631053,
    0.561411,
    0.515416,
    0.659,
    0.667419,
    0.789493,
    0.647058,
    0.725894,
    0.729804,
    0.900169,
    0.729886,
    4.91171,
    0.72212,
    0.453567,
    0.333461,
    0.38,
    0.343,
    0.339615,
    0.671989,
    0.443592,
    0.61725,
    0.310762,
    0.505,
    1.514495,
    2.577064,
    12.423859,
    60.083889,
    1.333586,
    0.654,
    0.875398,
    0.972633,
    0.918,
    0.869824,
    0.627701,
    1.146,
    0.709534,
    3.25229,
    4.265251,
    3.617608,
    0.879872,
    0.679703,
    1.12,
    0.578821,
    0.732588,
    0.727,
    0.762668,
    1.121779,
    0.737,
    0.660499,
    9.655868,
    0.485871,
    0.57753,
    0.329461,
    0.358838,
    0.667292,
    0.30143,
    0.306621,
    0.351736,
    0.51592,
    0.345626,
    0.385,
    0.643467,
    2.748195,
    1.709,
    7.480966,
    43.256181,
    1.024554,
    0.794816,
    0.663,
    0.721531,
    0.713,
    0.56965,
    4.314223,
    4.437783,
    3.335569,
    14.473,
    10.489597,
    12.159659,
    0.811964,
    0.564862,
    0.811191,
    0.662494,
    0.663193,
    0.633351,
    0.61122,
    0.925246,
    0.714078,
    0.634876,
    3.703706,
    4.810371,
    7.108549,
    1.153111,
    0.769482,
    0.544302,
    0.604,
    0.791,
    0.667,
    0.747,
    0.67088,
    4.114219,
    3.286422,
    0.768,
    0.483,
    0.634,
    0.869564,
    0.769452,
    0.604551,
    0.607,
    0.558,
    0.891877,
    3.396,
    4.903,
    4.533,
    4.302,
    5.631442,
    0.588225,
    0.762071,
    0.822752,
    0.808446,
    0.806158,
    0.663897,
    0.693075,
    0.779748,
    0.676,
    0.70802,
    0.691588,
    0.686981,
    2.538653,
    3.045197,
    6.261123,
    0.636851,
    0.77715,
    0.457079,
    0.96377,
    0.726807,
    0.651461,
    0.727424,
    4.183518,
    4.308312,
    9.898,
    7.784111,
    7.504921,
    0.800198,
    0.685705,
    0.863,
    0.783256,
    0.786,
    0.965306,
    1.38,
    0.831,
    0.939,
    0.766,
    0.766,
    11.021385,
    0.785278,
    0.836957,
    1.016721,
    0.656148,
    0.649016,
    0.66432,
    0.899151,
    1.098668,
    4.661519,
    12.548802,
    9.9782,
    0.532063,
    0.63323,
    0.985987,
    0.74,
    0.799547,
    1.32289,
    0.853073,
    0.66139,
    0.555,
    0.938441,
    0.549,
    0.784408,
    4.644989,
    19.656441,
    9.642,
    0.605163,
    0.9418,
    0.753956,
    0.401,
    1.184267,
    0.83,
    0.593,
    0.676512,
    3.362575,
    3.387,
    13.27463,
    10.338238,
    7.180054,
    0.509,
    0.79267,
    0.921,
    0.363881,
    0.836792,
    0.651111,
    0.989076,
    0.518,
    0.632989,
    0.680307,
    0.418438,
    0.796,
    3.300245,
    6.721,
    0.957964,
    0.69837,
    0.736445,
    0.568036,
    0.636226,
    0.886,
    0.684555,
    0.961697,
    1.574303,
    0.673166,
    11.94693,
    0.72,
    0.817467,
    0.642,
    0.74478,
    1.044,
    0.542306,
    0.644454,
    0.633,
    0.597,
    0.546306,
    0.71306,
    0.635,
    6.702132,
    3.983,
    0.366,
    0.932,
    0.612247,
    0.962,
    0.43566,
    1.118011,
    0.683,
    0.516,
    0.875069,
    4.468,
    3.558,
    7.803,
    6.471058,
    6.22,
    0.75716,
    0.608217,
    0.988388,
    0.782242,
    0.928116,
    0.686639,
    0.53,
    2.96944,
    13.77,
    4.42154,
    6.735625,
    7.2174
  ]
}