{
  "1048576": [
    0.205202,
    0.213186,
    0.336395,
    0.598611,
    0.624632,
    0.45,
    0.601612,
    0.626763,
    0.338704,
    0.713903,
    0.769,
    0.484641,
    0.524,
    0.324,
    0.201,
    0.194056,
    0.574055,
    0.871301,
    0.521159,
    0.438788,
    0.392103,
    0.245929,
    0.46125,
    0.394152,
    0.460516,
    0.470128,
    0.487458,
    0.674373,
    0.255,
    0.509,
    0.143385,
    0.475,
    0.477,
    0.162,
    0.441009,
    0.598846,
    0.46265,
    0.437246,
    0.249223,
    0.426539,
    0.273,
    0.174653,
    0.670097,
    0.504933,
    0.613089,
    0.399565,
    0.527093,
    0.537929,
    0.413,
    0.488,
    0.473686,
    0.512319,
    0.676189,
    0.164168,
    0.523795,
    0.283,
    0.463039,
    0.403897,
    0.354,
    0.349,
    0.277,
    0.661,
    0.926,
    0.326064,
    0.351845,
    0.431861,
    0.581245,
    0.238,
    0.339804,
    0.329744,
    0.229117,
    0.395592,
    0.158,
    0.45,
    0.38059,
    0.237308,
    0.364246,
    0.593,
    0.471,
    0.456043,
    0.255878,
    0.477763,
    0.270671,
    0.126,
    0.624031,
    0.382886,
    0.351,
    0.367,
    0.109,
    0.376889,
    0.22838,
    0.379887,
    0.491978,
    0.399569,
    0.49768,
    0.470777,
    0.129,
    0.361219,
    0.721246,
    0.402141,
    0.495,
    0.464,
    0.312,
    0.54043,
    0.51,
    0.316,
    0.277689,
    0.252461,
    0.443,
    0.16,
    0.266,
    0.556309,
    0.415806,
    0.753129,
    0.397442,
    0.415407,
    0.482471,
    0.390622,
    0.726609,
    0.448885,
    0.441406,
    0.38333,
    0.474756,
    0.603384,
    0.521,
    0.471026,
    0.566,
    0.45541,
    0.456006,
    0.479291,
    0.649232,
    0.687891,
    0.522348,
    0.373633,
    0.235135,
    0.474206,
    0.29688,
    0.167635,
    0.641202,
    0.168909,
    0.43752,
    0.684584,
    0.638177,
    0.559533,
    0.240224,
    0.332804,
    0.417713,
    0.611095,
    0.920415,
    0.593589,
    0.409389,
    0.544314,
    0.673794,
    0.405443,
    0.276634,
    0.584677,
    0.729,
    0.403708,
    0.686,
    0.592,
    0.594302,
    0.447,
    0.7638,
    0.238,
    0.398519,
    0.160072,
    0.228418,
    0.396166,
    0.204736,
    0.229,
    0.391,
    0.405,
    0.382871,
    0.532103,
    0.436,
    0.286148,
    0.283347,
    0.51161,
    0.176,
    0.160008,
    0.414799,
    0.274797,
    0.475579,
    0.377352,
    0.15026,
    0.282043,
    0.450963,
    0.355,
    0.473276,
    0.646643,
    0.330305,
    0.366164,
    0.208189,
    0.655,
    0.43723,
    0.548794,
    0.186965,
    0.273127,
    0.230017,
    0.811084,
    0.574,
    0.541725,
    0.5,
    0.603,
    0.634461,
    0.341222,
    0.654393,
    0.53,
    0.373512,
    0.552115,
    0.396773
  ],
  "51200": [
    0.14201,
    0.159378,
    0.394897,
    0.313,
    0.247431,
    0.398,
    0.323232,
    0.512,
    0.225474,
    0.222915,
    0.502,
    0.164476,
    0.401,
    0.221887,
    0.339195,
    0.245672,
    0.439889,
    0.534805,
    0.211162,
    0.34,
    0.393699,
    0.420578,
    0.268275,
    0.458,
    0.203058,
    0.184036,
    0.548257,
    0.726761,
    0.646344,
    0.599,
    0.575,
    0.443951,
    0.391854,
    0.518887,
    0.603,
    0.35839,
    0.393,
    0.388646,
    0.244688,
    0.32969,
    0.417528,
    0.181889,
    0.470071,
    0.189863,
    0.539614,
    0.391701,
    0.204472,
    0.270064,
    0.323541,
    0.177358,
    0.440897,
    0.484801,
    0.369526,
    0.18069,
    0.17083,
    0.224621,
    0.18438,
    0.397276,
    0.172503,
    0.116629,
    0.472522,
    0.412003,
    0.243485,
    0.543,
    0.252255,
    0.261289,
    0.399,
    0.440802,
    0.437993,
    0.432,
    0.483193,
    0.393989,
    0.438,
    0.570941,
    0.42,
    0.41195,
    0.688,
    0.469947,
    0.381,
    0.510376,
    0.578488,
    0.711,
    0.690752,
    0.53,
    0.738876,
    0.765,
    0.644,
    0.555,
    0.474,
    0.551,
    0.524,
    0.625586,
    0.392926,
    0.348952,
    0.385844,
    0.434277,
    0.581224,
    0.194842,
    0.3,
    0.221,
    0.288486,
    0.238213,
    0.28116,
    0.555397,
    0.656,
    0.393136,
    0.85,
    0.556727,
    0.399,
    0.436376,
    0.417064,
    0.502,
    0.60143,
    0.333385,
    0.179159,
    0.335848,
    0.47959,
    0.16671,
    0.417281,
    0.36684,
    0.293787,
    0.248507,
    0.196188,
    0.313527,
    0.308386,
    0.648591,
    0.45919,
    0.725852,
    0.547262,
    0.615085,
    0.437583,
    0.425591,
    0.430116,
    0.699352,
    0.755577,
    0.626285,
    0.480944,
    0.46277,
    0.294,
    0.35,
    0.529,
    0.333,
    0.45,
    0.297,
    0.337,
    0.145672,
    0.559,
    0.389,
    0.413941,
    0.384948,
    0.174578,
    0.512,
    0.225327,
    0.370751,
    0.340605,
    0.413,
    0.200111,
    0.492476,
    0.43,
    0.193,
    0.283127,
    0.176974,
    0.527679,
    0.319751,
    0.167,
    0.157413,
    0.353,
    0.165684,
    0.462,
    0.302,
    0.193132,
    0.224,
    0.359584,
    0.144887,
    0.19761,
    0.404056,
    0.344034,
    0.540745,
    0.670881,
    0.531,
    0.442662,
    0.359287,
    0.457424,
    0.500889,
    0.364448,
    0.377959,
    0.504812,
    0.13,
    0.141054,
    0.45,
    0.159388,
    0.370918,
    0.42,
    0.413,
    0.147204,
    0.41,
    0.137498,
    0.488189,
    0.176,
    0.362249,
    0.275178,
    0.336625,
    0.198084,
    0.116328,
    0.232243,
    0.164475,
    0.16453,
    0.536303,
    0.192332,
    0.447868,
    0.735049,
    0.567,
    0.680498,
    0.794256,
    0.517339,
    0.587773,
    0.511306,
    0.70248,
    0.627228,
    0.534997,
    0.465901,
    0.613134,
    0.397031,
    0.655413,
    0.471031,
    0.663732,
    0.681501,
    0.443461,
    0.559,
    0.486,
    0.482023,
    0.711,
    0.366432,
    0.4335,
    0.680955,
    0.654063,
    0.708,
    0.438381,
    0.371,
    0.397,
    0.430192,
    0.468,
    0.47148,
    0.413621,
    0.422,
    0.173,
    0.406906,
    0.12276,
    0.422815,
    0.266013,
    0.528479,
    0.335462,
    0.222,
    0.430387,
    0.347,
    0.168425,
    0.293676,
    0.477,
    0.233,
    0.232672,
    0.4,
    0.53348,
    0.373708,
    0.25798,
    0.510322,
    0.185953,
    0.212458,
    0.202858,
    0.287,
    0.433234,
    0.554445,
    0.453228,
    0.454,
    0.751532,
    0.679775,
    0.50939,
    0.567,
    0.50234,
    0.466043,
    0.634,
    0.401418,
    0.187205,
    0.22,
    0.171645,
    0.222223,
    0.502353,
    0.589918,
    0.268,
    0.269634,
    0.459355,
    0.626043,
    0.222295,
    0.43,
    0.583835,
    0.554,
    0.39,
    0.413,
    0.58,
    0.633646,
    0.420012,
    0.617,
    0.501929,
    0.62,
    0.643,
    0.410032,
    0.515,
    0.158855,
    0.259485,
    0.250046,
    0.525726,
    0.15211,
    0.468504,
    0.321751,
    0.175311,
    0.412828,
    0.261889,
    0.2124,
    0.19866,
    0.254052,
    0.309527,
    0.425956,
    0.53,
    0.433111,
    0.184832,
    0.308,
    0.273,
    0.156914,
    0.180216,
    0.511479,
    0.37,
    0.178,
    0.496388,
    0.342095,
    0.158019,
    0.237037,
    0.172701,
    0.46,
    0.283,
    0.481103,
    0.383052,
    0.522384,
    0.178,
    0.444,
    0.186,
    0.454866,
    0.435,
    0.32439,
    0.428822,
    0.369381,
    0.667411,
    0.401,
    0.162,
    0.179966,
    0.207687,
    0.465,
    0.2515,
    0.365752,
    0.157206,
    0.14,
    0.298323,
    0.27,
    0.37661,
    0.16971,
    0.165555,
    0.406,
    0.238,
    0.202,
    0.368,
    0.230059,
    0.368,
    0.591239,
    0.456,
    0.676748,
    0.622,
    0.542,
    0.578,
    0.430281,
    0.396933,
    0.393159,
    0.620897,
    0.554143,
    0.578,
    0.659577,
    0.739465,
    0.452129,
    0.578609,
    0.397812,
    0.439319,
    0.5104,
    0.583597,
    0.682003,
    0.482424,
    0.734553,
    0.671101,
    0.663039,
    0.486477,
    0.358544,
    0.427446,
    0.422,
    0.427472,
    0.360726,
    0.121279,
    0.212582,
    0.279557,
    0.236922,
    0.128,
    0.16106,
    0.260866,
    0.417434,
    0.56668,
    0.225909,
    0.269149,
    0.302767,
    0.253521,
    0.247855,
    0.404132,
    0.268,
    0.357596,
    0.149865,
    0.433,
    0.553123,
    0.382803,
    0.350941,
    0.131,
    0.463,
    0.19555,
    0.175359,
    0.292726,
    0.249282,
    0.162351,
    0.390394,
    0.30272,
    0.508653,
    0.106011,
    0.322182,
    0.504936,
    0.207454,
    0.250909,
    0.460263,
    0.489,
    0.20417,
    0.150229,
    0.243,
    0.165002,
    0.307891,
    0.272156,
    0.420259,
    0.501,
    0.669,
    0.452,
    0.44,
    0.48,
    0.668103,
    0.743,
    0.714847,
    0.611,
    0.527167,
    0.587,
    0.439897,
    0.563,
    0.653307,
    0.46643,
    0.607,
    0.359886,
    0.620057,
    0.693146,
    0.589813,
    0.361252,
    0.411749,
    0.625341,
    0.470534,
    0.584,
    0.42,
    0.375235,
    0.362,
    0.444,
    0.591472,
    0.74525,
    0.771184,
    0.624802,
    0.36564,
    0.709309,
    0.672688,
    0.610737,
    0.442,
    0.424,
    0.720905,
    0.596153,
    0.395199,
    0.457,
    0.42935,
    0.683576,
    0.490283,
    0.458371,
    0.396219,
    0.594992,
    0.529691,
    0.404365,
    0.626998,
    0.413273,
    0.513927,
    0.52224,
    0.209706,
    0.198905,
    0.503407,
    0.518544,
    0.481,
    0.324344,
    0.200006,
    0.287708,
    0.160118,
    0.199647,
    0.36303,
    0.197831,
    0.172926,
    0.34,
    0.502632,
    0.207218,
    0.481789,
    0.26,
    0.287376,
    0.210568,
    0.285695,
    0.342696,
    0.205044,
    0.24474,
    0.277158,
    0.186284,
    0.401278,
    0.443039,
    0.382,
    0.485897,
    0.538659,
    0.55145,
    0.41609,
    0.577652,
    0.537,
    0.695,
    0.735461,
    0.43,
    0.379297,
    0.608903,
    0.509684,
    0.417801,
    0.713942,
    0.543,
    0.552406,
    0.697458,
    0.789708,
    0.431,
    0.52987,
    0.47451,
    0.678298,
    0.73842,
    0.728335,
    0.676175,
    0.60271,
    0.535025,
    0.509,
    0.707718,
    0.378091,
    0.570243,
    0.608,
    0.382559,
    0.76933,
    0.494657,
    0.390897,
    0.576502,
    0.394446,
    0.558,
    0.426,
    0.48,
    0.67996,
    0.332055,
    0.156,
    0.341533,
    0.469,
    0.405,
    0.309249,
    0.240623,
    0.180982,
    0.400564,
    0.482905,
    0.365224,
    0.329164,
    0.629583,
    0.528453,
    0.433587,
    0.382709,
    0.839483,
    0.521,
    0.738576,
    0.701819,
    0.586174,
    0.781758,
    0.541,
    0.412654,
    0.693,
    0.691,
    0.564832,
    0.480093,
    0.335,
    0.345155,
    0.39227,
    0.335,
    0.439,
    0.459478,
    0.598607,
    0.626928,
    0.458164,
    0.147103,
    0.19869,
    0.243,
    0.324095,
    0.448951,
    0.650572,
    0.19,
    0.467,
    0.45293,
    0.354,
    0.462,
    0.449,
    0.180111,
    0.232,
    0.180897,
    0.301818,
    0.288103,
    0.346103,
    0.450432,
    0.278489,
    0.442029,
    0.392,
    0.133994,
    0.154739,
    0.365,
    0.40124,
    0.308,
    0.279877,
    0.34023,
    0.434484,
    0.386,
    0.114,
    0.238,
    0.119888,
    0.343875,
    0.462986,
    0.250172,
    0.355561,
    0.468,
    0.647315,
    0.433474,
    0.451805,
    0.418,
    0.505,
    0.536905,
    0.405111,
    0.525,
    0.437,
    0.550301,
    0.424574,
    0.596,
    0.406674,
    0.517,
    0.692437,
    0.514,
    0.424452,
    0.432,
    0.585829,
    0.528,
    0.640736,
    0.442263,
    0.357819,
    0.363915,
    0.707,
    0.423155,
    0.483466,
    0.486134,
    0.500938,
    0.551443,
    0.483,
    0.765357,
    0.426788,
    0.432151,
    0.519,
    0.643995,
    0.418037,
    0.613722,
    0.416985,
    0.368,
    0.611,
    0.624621,
    0.58821,
    0.392954,
    0.432838,
    0.745913,
    0.528612,
    0.393292,
    0.439419,
    0.471638,
    0.224919,
    0.419363,
    0.386909,
    0.23856,
    0.251513,
    0.323,
    0.201267,
    0.199042,
    0.368402,
    0.463136,
    0.207778,
    0.409799,
    0.36577,
    0.145946,
    0.18509,
    0.488513,
    0.664929,
    0.527889,
    0.287005,
    0.665919,
    0.370936,
    0.548023,
    0.537258,
    0.313736,
    0.547587,
    0.519,
    0.559081,
    0.315839,
    0.604,
    0.36017,
    0.399943,
    0.419736,
    0.388421,
    0.689,
    0.695589,
    0.502682,
    0.535903,
    0.446745,
    0.404541,
    0.477999,
    0.551621,
    0.464,
    0.436761,
    0.736,
    0.393824,
    0.57245,
    0.463297,
    0.463006,
    0.492614,
    0.633968,
    0.582625,
    0.648672,
    0.349378,
    0.446224,
    0.462019,
    0.625429,
    0.668231,
    0.525973,
    0.582711,
    0.703581,
    0.358638,
    0.577445,
    0.608802,
    0.635104,
    0.525,
    0.453461,
    0.703624,
    0.364239,
    0.820921,
    0.519,
    0.736756,
    0.380992,
    0.645,
    0.422407,
    0.436866,
    0.658,
    0.442485,
    0.566,
    0.635,
    0.431831,
    0.556995,
    0.374,
    0.417738,
    0.436,
    0.191887,
    0.358108,
    0.318885,
    0.254,
    0.269,
    0.219266,
    0.135158,
    0.264937,
    0.414167,
    0.426,
    0.228845,
    0.37,
    0.431989,
    0.420651,
    0.435103,
    0.580819,
    0.461987,
    0.49,
    0.433021,
    0.467178,
    0.460334,
    0.428927,
    0.395753,
    0.464398,
    0.419555,
    0.182223,
    0.275,
    0.215283,
    0.189259,
    0.172608,
    0.462403,
    0.173058,
    0.401233,
    0.221594,
    0.299777,
    0.251912,
    0.332539,
    0.309281,
    0.311856,
    0.166298,
    0.161788,
    0.410125,
    0.397937,
    0.396,
    0.39,
    0.172194,
    0.192,
    0.37063,
    0.428134,
    0.267723,
    0.336,
    0.187,
    0.506436,
    0.319,
    0.307,
    0.189341,
    0.441,
    0.484553,
    0.141732,
    0.223624,
    0.222,
    0.217,
    0.358891,
    0.164,
    0.479445,
    0.262103,
    0.178801,
    0.198405,
    0.268,
    0.264,
    0.244404,
    0.318398,
    0.47256,
    0.161401,
    0.253103,
    0.155063,
    0.329938,
    0.279761,
    0.352755,
    0.166897,
    0.366,
    0.545981,
    0.377269,
    0.624126,
    0.270223,
    0.612574,
    0.588,
    0.278587,
    0.498497,
    0.370157,
    0.326653,
    0.547061,
    0.358309,
    0.389806,
    0.41048,
    0.222357,
    0.16,
    0.234,
    0.448,
    0.339934,
    0.369072,
    0.188,
    0.194565,
    0.233194,
    0.345342,
    0.372103,
    0.542896,
    0.39949,
    0.72863,
    0.365,
    0.491,
    0.448,
    0.330505,
    0.680706,
    0.642555,
    0.450517,
    0.611665,
    0.411223,
    0.437472,
    0.497758,
    0.746156,
    0.36899,
    0.38467,
    0.391108,
    0.705016,
    0.664362,
    0.638392,
    0.419361,
    0.462968,
    0.468,
    0.491005,
    0.471419,
    0.515757,
    0.349806,
    0.454552,
    0.374892,
    0.217709,
    0.264432,
    0.425,
    0.470652,
    0.217787,
    0.401876,
    0.408719,
    0.359898,
    0.290053,
    0.388,
    0.35199,
    0.586258,
    0.758004,
    0.523768,
    0.650498,
    0.400028,
    0.487229,
    0.40991,
    0.535195,
    0.473,
    0.418444,
    0.702184,
    0.5863,
    0.497118,
    0.745117,
    0.53413,
    0.409,
    0.670532,
    0.412,
    0.445514,
    0.421897,
    0.596828,
    0.399897,
    0.377416,
    0.389004,
    0.417539,
    0.367812,
    0.695341,
    0.57707,
    0.35536,
    0.42292,
    0.476583,
    0.342437,
    0.381918,
    0.376891,
    0.413391,
    0.449,
    0.698625,
    0.479355,
    0.493111,
    0.605504,
    0.705,
    0.5973,
    0.634653,
    0.43,
    0.507785,
    0.501623,
    0.529648,
    0.550177,
    0.439897,
    0.636638,
    0.381328,
    0.489,
    0.474903,
    0.454,
    0.555563,
    0.429028,
    0.354,
    0.37,
    0.502,
    0.512,
    0.42447,
    0.356539,
    0.284,
    0.401422,
    0.375,
    0.317241,
    0.138595,
    0.4,
    0.419,
    0.343,
    0.324,
    0.349461,
    0.294885,
    0.137,
    0.421319,
    0.338,
    0.46704,
    0.56022,
    0.451574,
    0.575017,
    0.485,
    0.401369,
    0.525937,
    0.633,
    0.65,
    0.696921,
    0.62,
    0.589,
    0.334,
    0.202,
    0.170124,
    0.402143,
    0.252155,
    0.432886,
    0.147,
    0.210474,
    0.291101,
    0.434222,
    0.354,
    0.332743,
    0.418858,
    0.400139,
    0.160521,
    0.444182,
    0.251731,
    0.550506,
    0.185403,
    0.186343,
    0.328645,
    0.643,
    0.157105,
    0.275127,
    0.503237,
    0.432,
    0.207338,
    0.243235,
    0.357,
    0.239531,
    0.414,
    0.501424,
    0.153618,
    0.27546,
    0.474,
    0.257595,
    0.389,
    0.277,
    0.333,
    0.458,
    0.384618,
    0.203,
    0.271,
    0.179455,
    0.49,
    0.42161,
    0.194344,
    0.188,
    0.207,
    0.411,
    0.411875,
    0.191698,
    0.272267,
    0.208588,
    0.538897,
    0.286206,
    0.171746,
    0.172,
    0.196,
    0.310791,
    0.165745,
    0.204,
    0.137848,
    0.119381,
    0.55167,
    0.648803,
    0.427,
    0.483,
    0.568,
    0.657513,
    0.473436,
    0.417053,
    0.42861,
    0.427689,
    0.531905,
    0.679,
    0.555,
    0.484604,
    0.332723,
    0.573918,
    0.362,
    0.305249,
    0.399297,
    0.466165,
    0.301121,
    0.266,
    0.423,
    0.242592,
    0.220027,
    0.519716,
    0.248,
    0.240079,
    0.282,
    0.216719,
    0.164913,
    0.191,
    0.325197,
    0.158587,
    0.223669,
    0.2328,
    0.189799,
    0.255,
    0.158754,
    0.425883,
    0.327605,
    0.205356,
    0.325972,
    0.208826,
    0.356905,
    0.53268,
    0.247378,
    0.416953,
    0.373247,
    0.376954,
    0.293105,
    0.164936,
    0.332625,
    0.371,
    0.344,
    0.434036,
    0.113714,
    0.210032,
    0.444,
    0.343349,
    0.292,
    0.306177,
    0.182838,
    0.360524,
    0.382445,
    0.168554,
    0.382,
    0.563853,
    0.613734,
    0.266466,
    0.472207,
    0.443141,
    0.259103,
    0.209681,
    0.530872,
    0.435667,
    0.373245,
    0.479689,
    0.494797,
    0.181523,
    0.388,
    0.207848,
    0.640821,
    0.245558,
    0.228702,
    0.581103,
    0.327298,
    0.175,
    0.384029,
    0.211,
    0.21483,
    0.215,
    0.473,
    0.449,
    0.505538,
    0.232453,
    0.277906,
    0.413528,
    0.482192,
    0.318725,
    0.321099,
    0.181,
    0.447208,
    0.118747,
    0.314328,
    0.229048,
    0.294749,
    0.757248,
    0.495384,
    0.548805,
    0.504,
    0.58661,
    0.775811,
    0.506,
    0.675,
    0.7,
    0.42,
    0.711,
    0.443612,
    0.582117,
    0.244429,
    0.232929,
    0.362725,
    0.446152,
    0.410643,
    0.357977,
    0.398725,
    0.408251,
    0.607179,
    0.535442,
    0.463391,
    0.325308,
    0.473591,
    0.296234,
    0.390614,
    0.329223,
    0.302856,
    0.288976,
    0.304037,
    0.22084,
    0.198281,
    0.206373,
    0.185989,
    0.390676,
    0.176687,
    0.569,
    0.697556,
    0.77,
    0.640861,
    0.959,
    0.553,
    0.656,
    0.634285,
    0.725688,
    0.649504,
    0.780806,
    0.587228,
    0.723,
    0.616,
    0.468633,
    0.59819,
    0.746957,
    0.626437,
    0.416071,
    0.419461,
    0.625876,
    0.429717,
    0.576,
    0.604,
    0.345805,
    0.60512,
    0.484263,
    0.512984,
    0.383214,
    0.544,
    0.380237,
    0.592805,
    0.403,
    0.572694,
    0.73547,
    0.449778,
    0.607893,
    0.73874,
    0.619328,
    0.405008,
    0.454584,
    0.619713,
    0.558,
    0.653931,
    0.532488
  ],
  "5242880": [
    0.287,
    0.478,
    0.224897,
    0.392295,
    0.192484,
    0.389366,
    0.430415,
    0.305889,
    0.753465,
    0.679642,
    0.254459,
    0.535123,
    0.31852,
    0.517329,
    0.296,
    0.556132,
    0.358662,
    0.134959,
    0.160897,
    0.429285,
    0.497888,
    0.483946,
    0.543213,
    0.528446,
    0.422448,
    0.15557,
    0.28459,
    0.685,
    0.406795,
    0.542293,
    0.398,
    0.271438,
    0.209,
    0.160528,
    0.338,
    0.493983,
    0.337551,
    0.172731,
    0.164,
    0.688,
    0.52811,
    0.465103,
    0.434457,
    0.149684,
    0.634147,
    0.526,
    0.536042,
    0.468574,
    0.258852,
    0.209,
    0.747,
    0.588922,
    0.36,
    0.401194,
    0.435265,
    0.768548,
    0.649668,
    0.652301,
    0.909331,
    0.723002,
    0.446,
    0.364219,
    0.441423,
    0.434269,
    0.524388,
    0.426,
    0.454,
    0.166508,
    0.51,
    0.224308,
    0.20994,
    0.573,
    0.295758,
    0.209,
    0.157,
    0.429619,
    0.417855,
    0.567023,
    0.555169,
    0.506084,
    0.61912,
    0.517,
    0.686775,
    0.425805,
    0.155963,
    0.348047,
    0.468,
    0.31,
    0.172393,
    0.408702,
    0.162153,
    0.443577,
    0.194078,
    0.285273,
    0.187305,
    0.173985,
    0.279554,
    0.154351,
    0.195629,
    0.329,
    0.227282,
    0.475785,
    0.394852,
    0.413058,
    0.580731,
    0.576897,
    0.583319,
    0.363691,
    0.416064,
    0.395474,
    0.526359,
    0.809,
    0.711,
    0.424821,
    0.467837,
    0.492319,
    0.422419
  ],
  "ALL": [
    0.14201,
    0.159378,
    0.394897,
    0.313,
    0.247431,
    0.398,
    0.323232,
    0.512,
    0.225474,
    0.222915,
    0.502,
    0.164476,
    0.401,
    0.287,
    0.478,
    0.224897,
    0.221887,
    0.339195,
    0.245672,
    0.439889,
    0.534805,
    0.211162,
    0.34,
    0.393699,
    0.420578,
    0.268275,
    0.458,
    0.203058,
    0.184036,
    0.205202,
    0.213186,
    0.336395,
    0.548257,
    0.726761,
    0.646344,
    0.599,
    0.575,
    0.443951,
    0.391854,
    0.518887,
    0.603,
    0.35839,
    0.393,
    0.598611,
    0.624632,
    0.45,
    0.601612,
    0.626763,
    0.388646,
    0.244688,
    0.32969,
    0.417528,
    0.181889,
    0.470071,
    0.189863,
    0.539614,
    0.391701,
    0.204472,
    0.270064,
    0.323541,
    0.177358,
    0.440897,
    0.484801,
    0.338704,
    0.369526,
    0.18069,
    0.17083,
    0.224621,
    0.18438,
    0.397276,
    0.172503,
    0.116629,
    0.472522,
    0.412003,
    0.243485,
    0.543,
    0.252255,
    0.261289,
    0.392295,
    0.192484,
    0.399,
    0.440802,
    0.437993,
    0.432,
    0.483193,
    0.393989,
    0.438,
    0.570941,
    0.42,
    0.41195,
    0.688,
    0.469947,
    0.381,
    0.510376,
    0.713903,
    0.389366,
    0.578488,
    0.711,
    0.690752,
    0.53,
    0.738876,
    0.765,
    0.644,
    0.555,
    0.474,
    0.551,
    0.524,
    0.625586,
    0.392926,
    0.769,
    0.484641,
    0.524,
    0.348952,
    0.385844,
    0.434277,
    0.581224,
    0.194842,
    0.3,
    0.221,
    0.288486,
    0.238213,
    0.28116,
    0.555397,
    0.324,
    0.201,
    0.194056,
    0.430415,
    0.305889,
    0.656,
    0.393136,
    0.85,
    0.556727,
    0.399,
    0.436376,
    0.417064,
    0.502,
    0.60143,
    0.574055,
    0.871301,
    0.521159,
    0.438788,
    0.392103,
    0.753465,
    0.679642,
    0.333385,
    0.179159,
    0.335848,
    0.47959,
    0.16671,
    0.417281,
    0.36684,
    0.293787,
    0.248507,
    0.196188,
    0.313527,
    0.308386,
    0.245929,
    0.46125,
    0.394152,
    0.254459,
    0.648591,
    0.45919,
    0.725852,
    0.547262,
    0.615085,
    0.437583,
    0.425591,
    0.430116,
    0.699352,
    0.755577,
    0.626285,
    0.480944,
    0.460516,
    0.470128,
    0.487458,
    0.674373,
    0.46277,
    0.294,
    0.35,
    0.529,
    0.333,
    0.45,
    0.297,
    0.337,
    0.145672,
    0.559,
    0.389,
    0.255,
    0.509,
    0.143385,
    0.475,
    0.477,
    0.413941,
    0.384948,
    0.174578,
    0.512,
    0.225327,
    0.370751,
    0.340605,
    0.413,
    0.200111,
    0.492476,
    0.43,
    0.193,
    0.283127,
    0.176974,
    0.535123,
    0.31852,
    0.527679,
    0.319751,
    0.167,
    0.157413,
    0.353,
    0.165684,
    0.462,
    0.302,
    0.193132,
    0.224,
    0.359584,
    0.144887,
    0.19761,
    0.162,
    0.517329,
    0.296,
    0.404056,
    0.344034,
    0.540745,
    0.670881,
    0.531,
    0.442662,
    0.359287,
    0.457424,
    0.500889,
    0.364448,
    0.377959,
    0.441009,
    0.598846,
    0.46265,
    0.556132,
    0.358662,
    0.504812,
    0.13,
    0.141054,
    0.45,
    0.159388,
    0.370918,
    0.42,
    0.413,
    0.147204,
    0.41,
    0.437246,
    0.249223,
    0.426539,
    0.273,
    0.174653,
    0.134959,
    0.137498,
    0.488189,
    0.176,
    0.362249,
    0.275178,
    0.336625,
    0.198084,
    0.116328,
    0.232243,
    0.164475,
    0.16453,
    0.536303,
    0.192332,
    0.447868,
    0.160897,
    0.429285,
    0.735049,
    0.567,
    0.680498,
    0.794256,
    0.517339,
    0.587773,
    0.511306,
    0.70248,
    0.627228,
    0.534997,
    0.465901,
    0.613134,
    0.670097,
    0.504933,
    0.497888,
    0.483946,
    0.397031,
    0.655413,
    0.471031,
    0.663732,
    0.681501,
    0.443461,
    0.559,
    0.486,
    0.613089,
    0.399565,
    0.527093,
    0.537929,
    0.413,
    0.488,
    0.543213,
    0.528446,
    0.482023,
    0.711,
    0.366432,
    0.4335,
    0.680955,
    0.654063,
    0.708,
    0.438381,
    0.371,
    0.397,
    0.430192,
    0.468,
    0.47148,
    0.473686,
    0.512319,
    0.676189,
    0.413621,
    0.422,
    0.173,
    0.406906,
    0.12276,
    0.422815,
    0.266013,
    0.528479,
    0.335462,
    0.222,
    0.430387,
    0.347,
    0.168425,
    0.164168,
    0.422448,
    0.15557,
    0.293676,
    0.477,
    0.233,
    0.232672,
    0.4,
    0.53348,
    0.373708,
    0.25798,
    0.510322,
    0.185953,
    0.212458,
    0.202858,
    0.287,
    0.523795,
    0.283,
    0.28459,
    0.433234,
    0.554445,
    0.453228,
    0.454,
    0.751532,
    0.679775,
    0.50939,
    0.567,
    0.50234,
    0.466043,
    0.634,
    0.401418,
    0.463039,
    0.403897,
    0.685,
    0.406795,
    0.187205,
    0.22,
    0.171645,
    0.222223,
    0.502353,
    0.589918,
    0.268,
    0.269634,
    0.459355,
    0.626043,
    0.222295,
    0.43,
    0.354,
    0.349,
    0.277,
    0.542293,
    0.583835,
    0.554,
    0.39,
    0.413,
    0.58,
    0.633646,
    0.420012,
    0.617,
    0.501929,
    0.62,
    0.643,
    0.410032,
    0.515,
    0.661,
    0.926,
    0.398,
    0.158855,
    0.259485,
    0.250046,
    0.525726,
    0.15211,
    0.468504,
    0.321751,
    0.175311,
    0.412828,
    0.261889,
    0.2124,
    0.19866,
    0.326064,
    0.351845,
    0.431861,
    0.581245,
    0.254052,
    0.309527,
    0.425956,
    0.53,
    0.433111,
    0.184832,
    0.308,
    0.273,
    0.156914,
    0.180216,
    0.511479,
    0.37,
    0.238,
    0.339804,
    0.329744,
    0.271438,
    0.178,
    0.496388,
    0.342095,
    0.158019,
    0.237037,
    0.172701,
    0.46,
    0.283,
    0.481103,
    0.383052,
    0.522384,
    0.178,
    0.229117,
    0.395592,
    0.158,
    0.45,
    0.444,
    0.186,
    0.454866,
    0.435,
    0.32439,
    0.428822,
    0.369381,
    0.667411,
    0.401,
    0.162,
    0.179966,
    0.207687,
    0.465,
    0.2515,
    0.38059,
    0.209,
    0.365752,
    0.157206,
    0.14,
    0.298323,
    0.27,
    0.37661,
    0.16971,
    0.165555,
    0.406,
    0.238,
    0.202,
    0.368,
    0.230059,
    0.237308,
    0.160528,
    0.338,
    0.368,
    0.591239,
    0.456,
    0.676748,
    0.622,
    0.542,
    0.578,
    0.430281,
    0.396933,
    0.393159,
    0.620897,
    0.554143,
    0.578,
    0.364246,
    0.593,
    0.471,
    0.659577,
    0.739465,
    0.452129,
    0.578609,
    0.397812,
    0.439319,
    0.5104,
    0.583597,
    0.682003,
    0.482424,
    0.734553,
    0.671101,
    0.663039,
    0.486477,
    0.456043,
    0.493983,
    0.358544,
    0.427446,
    0.422,
    0.427472,
    0.360726,
    0.121279,
    0.212582,
    0.279557,
    0.236922,
    0.128,
    0.16106,
    0.260866,
    0.255878,
    0.477763,
    0.270671,
    0.337551,
    0.417434,
    0.56668,
    0.225909,
    0.269149,
    0.302767,
    0.253521,
    0.247855,
    0.404132,
    0.268,
    0.357596,
    0.149865,
    0.433,
    0.553123,
    0.126,
    0.624031,
    0.382886,
    0.382803,
    0.350941,
    0.131,
    0.463,
    0.19555,
    0.175359,
    0.292726,
    0.249282,
    0.162351,
    0.390394,
    0.30272,
    0.508653,
    0.106011,
    0.322182,
    0.351,
    0.172731,
    0.504936,
    0.207454,
    0.250909,
    0.460263,
    0.489,
    0.20417,
    0.150229,
    0.243,
    0.165002,
    0.307891,
    0.272156,
    0.367,
    0.109,
    0.376889,
    0.22838,
    0.164,
    0.420259,
    0.501,
    0.669,
    0.452,
    0.44,
    0.48,
    0.668103,
    0.743,
    0.714847,
    0.611,
    0.527167,
    0.587,
    0.439897,
    0.563,
    0.653307,
    0.688,
    0.46643,
    0.607,
    0.359886,
    0.620057,
    0.693146,
    0.589813,
    0.361252,
    0.411749,
    0.625341,
    0.470534,
    0.584,
    0.42,
    0.375235,
    0.362,
    0.379887,
    0.52811,
    0.444,
    0.591472,
    0.74525,
    0.771184,
    0.624802,
    0.36564,
    0.709309,
    0.672688,
    0.610737,
    0.442,
    0.424,
    0.720905,
    0.596153,
    0.395199,
    0.457,
    0.491978,
    0.42935,
    0.683576,
    0.490283,
    0.458371,
    0.396219,
    0.594992,
    0.529691,
    0.404365,
    0.626998,
    0.413273,
    0.513927,
    0.52224,
    0.399569,
    0.49768,
    0.465103,
    0.434457,
    0.209706,
    0.198905,
    0.503407,
    0.518544,
    0.481,
    0.324344,
    0.200006,
    0.287708,
    0.160118,
    0.199647,
    0.36303,
    0.197831,
    0.172926,
    0.34,
    0.502632,
    0.207218,
    0.481789,
    0.26,
    0.287376,
    0.210568,
    0.285695,
    0.342696,
    0.205044,
    0.24474,
    0.277158,
    0.186284,
    0.401278,
    0.443039,
    0.470777,
    0.129,
    0.361219,
    0.149684,
    0.382,
    0.485897,
    0.538659,
    0.55145,
    0.41609,
    0.577652,
    0.537,
    0.695,
    0.735461,
    0.43,
    0.379297,
    0.608903,
    0.509684,
    0.721246,
    0.634147,
    0.526,
    0.417801,
    0.713942,
    0.543,
    0.552406,
    0.697458,
    0.789708,
    0.431,
    0.52987,
    0.47451,
    0.678298,
    0.73842,
    0.728335,
    0.676175,
    0.60271,
    0.535025,
    0.536042,
    0.509,
    0.707718,
    0.378091,
    0.570243,
    0.608,
    0.382559,
    0.76933,
    0.494657,
    0.390897,
    0.576502,
    0.394446,
    0.558,
    0.426,
    0.48,
    0.67996,
    0.468574,
    0.332055,
    0.156,
    0.341533,
    0.469,
    0.405,
    0.309249,
    0.240623,
    0.180982,
    0.400564,
    0.482905,
    0.365224,
    0.329164,
    0.402141,
    0.495,
    0.258852,
    0.209,
    0.629583,
    0.528453,
    0.433587,
    0.382709,
    0.839483,
    0.521,
    0.738576,
    0.701819,
    0.586174,
    0.781758,
    0.541,
    0.412654,
    0.693,
    0.691,
    0.464,
    0.747,
    0.564832,
    0.480093,
    0.335,
    0.345155,
    0.39227,
    0.335,
    0.439,
    0.459478,
    0.598607,
    0.626928,
    0.458164,
    0.312,
    0.54043,
    0.51,
    0.588922,
    0.36,
    0.147103,
    0.19869,
    0.243,
    0.324095,
    0.448951,
    0.650572,
    0.19,
    0.467,
    0.45293,
    0.354,
    0.462,
    0.449,
    0.316,
    0.277689,
    0.252461,
    0.401194,
    0.180111,
    0.232,
    0.180897,
    0.301818,
    0.288103,
    0.346103,
    0.450432,
    0.278489,
    0.442029,
    0.392,
    0.133994,
    0.154739,
    0.365,
    0.40124,
    0.308,
    0.435265,
    0.279877,
    0.34023,
    0.434484,
    0.386,
    0.114,
    0.238,
    0.119888,
    0.343875,
    0.462986,
    0.250172,
    0.355561,
    0.468,
    0.647315,
    0.443,
    0.16,
    0.266,
    0.433474,
    0.451805,
    0.418,
    0.505,
    0.536905,
    0.405111,
    0.525,
    0.437,
    0.550301,
    0.424574,
    0.596,
    0.406674,
    0.517,
    0.692437,
    0.514,
    0.556309,
    0.424452,
    0.432,
    0.585829,
    0.528,
    0.640736,
    0.442263,
    0.357819,
    0.363915,
    0.707,
    0.423155,
    0.483466,
    0.486134,
    0.415806,
    0.753129,
    0.768548,
    0.649668,
    0.500938,
    0.551443,
    0.483,
    0.765357,
    0.426788,
    0.432151,
    0.519,
    0.643995,
    0.418037,
    0.397442,
    0.415407,
    0.482471,
    0.390622,
    0.652301,
    0.909331,
    0.723002,
    0.613722,
    0.416985,
    0.368,
    0.611,
    0.624621,
    0.58821,
    0.392954,
    0.432838,
    0.745913,
    0.528612,
    0.393292,
    0.439419,
    0.471638,
    0.726609,
    0.446,
    0.364219,
    0.224919,
    0.419363,
    0.386909,
    0.23856,
    0.251513,
    0.323,
    0.201267,
    0.199042,
    0.368402,
    0.463136,
    0.207778,
    0.409799,
    0.36577,
    0.145946,
    0.18509,
    0.448885,
    0.488513,
    0.664929,
    0.527889,
    0.287005,
    0.665919,
    0.370936,
    0.548023,
    0.537258,
    0.313736,
    0.547587,
    0.519,
    0.559081,
    0.315839,
    0.604,
    0.36017,
    0.399943,
    0.419736,
    0.388421,
    0.689,
    0.695589,
    0.502682,
    0.535903,
    0.446745,
    0.404541,
    0.477999,
    0.551621,
    0.464,
    0.436761,
    0.736,
    0.393824,
    0.441406,
    0.441423,
    0.57245,
    0.463297,
    0.463006,
    0.492614,
    0.633968,
    0.582625,
    0.648672,
    0.349378,
    0.446224,
    0.462019,
    0.625429,
    0.668231,
    0.525973,
    0.582711,
    0.703581,
    0.38333,
    0.358638,
    0.577445,
    0.608802,
    0.635104,
    0.525,
    0.453461,
    0.703624,
    0.364239,
    0.820921,
    0.519,
    0.736756,
    0.380992,
    0.645,
    0.422407,
    0.474756,
    0.603384,
    0.436866,
    0.658,
    0.442485,
    0.566,
    0.635,
    0.431831,
    0.556995,
    0.374,
    0.417738,
    0.521,
    0.471026,
    0.566,
    0.45541,
    0.456006,
    0.434269,
    0.524388,
    0.436,
    0.191887,
    0.358108,
    0.318885,
    0.254,
    0.269,
    0.219266,
    0.135158,
    0.264937,
    0.414167,
    0.426,
    0.228845,
    0.37,
    0.426,
    0.454,
    0.166508,
    0.431989,
    0.420651,
    0.435103,
    0.580819,
    0.461987,
    0.49,
    0.433021,
    0.467178,
    0.460334,
    0.428927,
    0.395753,
    0.464398,
    0.479291,
    0.649232,
    0.687891,
    0.522348,
    0.419555,
    0.182223,
    0.275,
    0.215283,
    0.189259,
    0.172608,
    0.462403,
    0.173058,
    0.401233,
    0.221594,
    0.299777,
    0.251912,
    0.332539,
    0.309281,
    0.373633,
    0.235135,
    0.311856,
    0.166298,
    0.161788,
    0.410125,
    0.397937,
    0.396,
    0.39,
    0.172194,
    0.192,
    0.37063,
    0.428134,
    0.267723,
    0.336,
    0.187,
    0.474206,
    0.51,
    0.506436,
    0.319,
    0.307,
    0.189341,
    0.441,
    0.484553,
    0.141732,
    0.223624,
    0.222,
    0.217,
    0.358891,
    0.164,
    0.479445,
    0.262103,
    0.224308,
    0.20994,
    0.178801,
    0.198405,
    0.268,
    0.264,
    0.244404,
    0.318398,
    0.47256,
    0.161401,
    0.253103,
    0.155063,
    0.329938,
    0.279761,
    0.352755,
    0.166897,
    0.29688,
    0.167635,
    0.366,
    0.545981,
    0.377269,
    0.624126,
    0.270223,
    0.612574,
    0.588,
    0.278587,
    0.498497,
    0.370157,
    0.326653,
    0.547061,
    0.358309,
    0.389806,
    0.641202,
    0.573,
    0.41048,
    0.222357,
    0.16,
    0.234,
    0.448,
    0.339934,
    0.369072,
    0.188,
    0.194565,
    0.233194,
    0.345342,
    0.372103,
    0.168909,
    0.295758,
    0.209,
    0.157,
    0.542896,
    0.39949,
    0.72863,
    0.365,
    0.491,
    0.448,
    0.330505,
    0.680706,
    0.642555,
    0.450517,
    0.611665,
    0.411223,
    0.43752,
    0.684584,
    0.638177,
    0.429619,
    0.437472,
    0.497758,
    0.746156,
    0.36899,
    0.38467,
    0.391108,
    0.705016,
    0.664362,
    0.638392,
    0.419361,
    0.462968,
    0.468,
    0.491005,
    0.559533,
    0.417855,
    0.567023,
    0.471419,
    0.515757,
    0.349806,
    0.454552,
    0.374892,
    0.217709,
    0.264432,
    0.425,
    0.470652,
    0.217787,
    0.401876,
    0.408719,
    0.359898,
    0.290053,
    0.240224,
    0.332804,
    0.388,
    0.35199,
    0.586258,
    0.758004,
    0.523768,
    0.650498,
    0.400028,
    0.487229,
    0.40991,
    0.535195,
    0.473,
    0.418444,
    0.702184,
    0.5863,
    0.417713,
    0.611095,
    0.497118,
    0.745117,
    0.53413,
    0.409,
    0.670532,
    0.412,
    0.445514,
    0.421897,
    0.596828,
    0.399897,
    0.377416,
    0.920415,
    0.593589,
    0.409389,
    0.544314,
    0.673794,
    0.389004,
    0.417539,
    0.367812,
    0.695341,
    0.57707,
    0.35536,
    0.42292,
    0.476583,
    0.342437,
    0.381918,
    0.376891,
    0.413391,
    0.405443,
    0.276634,
    0.555169,
    0.506084,
    0.449,
    0.698625,
    0.479355,
    0.493111,
    0.605504,
    0.705,
    0.5973,
    0.634653,
    0.43,
    0.507785,
    0.501623,
    0.529648,
    0.584677,
    0.729,
    0.403708,
    0.686,
    0.550177,
    0.439897,
    0.636638,
    0.381328,
    0.489,
    0.474903,
    0.454,
    0.555563,
    0.429028,
    0.354,
    0.37,
    0.502,
    0.512,
    0.592,
    0.61912,
    0.517,
    0.42447,
    0.356539,
    0.284,
    0.401422,
    0.375,
    0.317241,
    0.138595,
    0.4,
    0.419,
    0.343,
    0.324,
    0.349461,
    0.294885,
    0.137,
    0.421319,
    0.338,
    0.46704,
    0.56022,
    0.451574,
    0.575017,
    0.485,
    0.401369,
    0.525937,
    0.633,
    0.65,
    0.696921,
    0.62,
    0.594302,
    0.447,
    0.7638,
    0.686775,
    0.425805,
    0.589,
    0.334,
    0.202,
    0.170124,
    0.402143,
    0.252155,
    0.432886,
    0.147,
    0.210474,
    0.291101,
    0.434222,
    0.354,
    0.332743,
    0.418858,
    0.238,
    0.155963,
    0.400139,
    0.160521,
    0.444182,
    0.251731,
    0.550506,
    0.185403,
    0.186343,
    0.328645,
    0.643,
    0.157105,
    0.275127,
    0.503237,
    0.398519,
    0.160072,
    0.228418,
    0.348047,
    0.432,
    0.207338,
    0.243235,
    0.357,
    0.239531,
    0.414,
    0.501424,
    0.153618,
    0.27546,
    0.474,
    0.257595,
    0.389,
    0.277,
    0.333,
    0.458,
    0.396166,
    0.384618,
    0.203,
    0.271,
    0.179455,
    0.49,
    0.42161,
    0.194344,
    0.188,
    0.207,
    0.411,
    0.411875,
    0.204736,
    0.229,
    0.391,
    0.468,
    0.31,
    0.191698,
    0.272267,
    0.208588,
    0.538897,
    0.286206,
    0.171746,
    0.172,
    0.196,
    0.310791,
    0.165745,
    0.204,
    0.137848,
    0.119381,
    0.405,
    0.382871,
    0.172393,
    0.55167,
    0.648803,
    0.427,
    0.483,
    0.568,
    0.657513,
    0.473436,
    0.417053,
    0.42861,
    0.427689,
    0.531905,
    0.679,
    0.555,
    0.532103,
    0.436,
    0.408702,
    0.484604,
    0.332723,
    0.573918,
    0.362,
    0.305249,
    0.399297,
    0.466165,
    0.301121,
    0.266,
    0.423,
    0.242592,
    0.220027,
    0.519716,
    0.248,
    0.286148,
    0.283347,
    0.240079,
    0.282,
    0.216719,
    0.164913,
    0.191,
    0.325197,
    0.158587,
    0.223669,
    0.51161,
    0.176,
    0.160008,
    0.414799,
    0.162153,
    0.443577,
    0.194078,
    0.285273,
    0.2328,
    0.189799,
    0.255,
    0.158754,
    0.425883,
    0.327605,
    0.205356,
    0.325972,
    0.208826,
    0.356905,
    0.53268,
    0.247378,
    0.416953,
    0.373247,
    0.274797,
    0.187305,
    0.376954,
    0.293105,
    0.164936,
    0.332625,
    0.371,
    0.344,
    0.434036,
    0.113714,
    0.210032,
    0.444,
    0.343349,
    0.475579,
    0.377352,
    0.15026,
    0.173985,
    0.279554,
    0.292,
    0.306177,
    0.182838,
    0.360524,
    0.382445,
    0.168554,
    0.382,
    0.563853,
    0.613734,
    0.266466,
    0.472207,
    0.443141,
    0.259103,
    0.282043,
    0.450963,
    0.355,
    0.209681,
    0.530872,
    0.435667,
    0.373245,
    0.479689,
    0.494797,
    0.181523,
    0.388,
    0.207848,
    0.640821,
    0.245558,
    0.228702,
    0.473276,
    0.646643,
    0.154351,
    0.195629,
    0.581103,
    0.327298,
    0.175,
    0.384029,
    0.211,
    0.21483,
    0.215,
    0.473,
    0.449,
    0.505538,
    0.232453,
    0.330305,
    0.366164,
    0.208189,
    0.655,
    0.329,
    0.277906,
    0.413528,
    0.482192,
    0.318725,
    0.321099,
    0.181,
    0.447208,
    0.118747,
    0.314328,
    0.229048,
    0.294749,
    0.43723,
    0.227282,
    0.475785,
    0.394852,
    0.413058,
    0.757248,
    0.495384,
    0.548805,
    0.504,
    0.58661,
    0.775811,
    0.506,
    0.675,
    0.7,
    0.42,
    0.711,
    0.443612,
    0.548794,
    0.580731,
    0.576897,
    0.583319,
    0.582117,
    0.244429,
    0.232929,
    0.362725,
    0.446152,
    0.410643,
    0.357977,
    0.398725,
    0.408251,
    0.607179,
    0.535442,
    0.463391,
    0.325308,
    0.473591,
    0.186965,
    0.363691,
    0.296234,
    0.390614,
    0.329223,
    0.302856,
    0.288976,
    0.304037,
    0.22084,
    0.198281,
    0.206373,
    0.185989,
    0.390676,
    0.176687,
    0.273127,
    0.230017,
    0.416064,
    0.395474,
    0.569,
    0.697556,
    0.77,
    0.640861,
    0.959,
    0.553,
    0.656,
    0.634285,
    0.725688,
    0.649504,
    0.780806,
    0.587228,
    0.723,
    0.616,
    0.811084,
    0.574,
    0.468633,
    0.59819,
    0.746957,
    0.626437,
    0.416071,
    0.419461,
    0.625876,
    0.429717,
    0.541725,
    0.5,
    0.603,
    0.634461,
    0.526359,
    0.809,
    0.711,
    0.424821,
    0.576,
    0.604,
    0.345805,
    0.60512,
    0.484263,
    0.512984,
    0.383214,
    0.544,
    0.380237,
    0.592805,
    0.403,
    0.341222,
    0.654393,
    0.53,
    0.373512,
    0.467837,
    0.572694,
    0.73547,
    0.449778,
    0.607893,
    0.73874,
    0.619328,
    0.405008,
    0.454584,
    0.619713,
    0.558,
    0.653931,
    0.532488,
    0.552115,
    0.396773,
    0.492319,
    0.422419
  ]
}