{
  "1048576": [
    0.448042,
    0.477999,
    0.464005,
    0.579674,
    0.334691,
    0.484406,
    0.651792,
    0.889757,
    0.604418,
    0.609254,
    0.531095,
    0.629335,
    0.434452,
    0.759822,
    0.377365,
    0.679755,
    0.54653,
    0.299801,
    0.835992,
    0.82912,
    0.498596,
    0.409715,
    0.665538,
    0.574,
    0.329,
    0.558014,
    0.312,
    0.856426,
    0.598,
    1.096,
    0.781377,
    0.758802,
    0.625072,
    0.662741,
    0.381688,
    0.693176,
    0.526303,
    0.572914,
    0.771,
    0.452,
    0.987316,
    0.676058,
    0.62596,
    0.662473,
    0.633932,
    0.597302,
    0.683346,
    0.626788,
    0.565805,
    0.639,
    0.7168,
    0.328911,
    0.462,
    0.414234,
    0.734368,
    0.791466,
    0.359,
    0.587598,
    0.566041,
    0.915311,
    0.548737,
    0.569451,
    0.561685,
    0.553671,
    0.552446,
    0.75434,
    0.63463,
    0.742564,
    0.376418,
    0.897,
    0.574754,
    0.391622,
    0.606,
    0.442251,
    0.491,
    0.688111,
    0.383575,
    0.423395,
    0.778304,
    0.862695,
    0.527032,
    0.679569,
    0.88,
    0.375838,
    0.367,
    0.565424,
    0.515,
    0.472536,
    0.564707,
    0.418407,
    0.398897,
    0.522,
    0.639424,
    0.764601,
    0.580846,
    0.364755,
    0.573897,
    0.54523,
    0.842889,
    0.580109,
    0.612056,
    0.233045,
    0.608812,
    0.649672
  ],
  "51200": [
    0.774133,
    0.714585,
    0.627214,
    1.022367,
    0.696059,
    0.644725,
    0.603384,
    0.616458,
    0.812262,
    0.802503,
    0.550802,
    0.607612,
    0.606721,
    0.418971,
    0.606752,
    0.442329,
    0.344897,
    0.569236,
    0.340997,
    0.702749,
    0.685121,
    0.393539,
    0.379,
    0.511429,
    0.657103,
    0.449799,
    0.571811,
    0.445159,
    0.780317,
    0.562644,
    0.472241,
    0.321871,
    0.388895,
    0.465135,
    0.379988,
    0.504,
    0.59363,
    0.574246,
    0.671583,
    0.667264,
    0.461295,
    0.315907,
    0.506322,
    0.551777,
    0.456546,
    0.280103,
    0.578512,
    0.64019,
    0.357709,
    0.464374,
    0.777409,
    0.8,
    0.462438,
    0.736,
    0.583111,
    0.380232,
    0.707706,
    0.569925,
    0.592636,
    0.919279,
    0.803599,
    0.4576,
    0.416052,
    0.476495,
    0.549,
    0.781136,
    0.396309,
    0.309,
    0.619,
    0.465,
    0.753524,
    0.912827,
    0.433539,
    0.507164,
    0.357608,
    0.358438,
    0.565372,
    0.643101,
    0.679478,
    0.86132,
    0.376265,
    0.735843,
    0.430283,
    0.459223,
    0.869464,
    0.847302,
    0.611785,
    0.503057,
    0.520863,
    0.446685,
    0.87607,
    0.625372,
    0.6482,
    0.882,
    0.352765,
    0.797297,
    0.542207,
    0.535756,
    0.565,
    0.62384,
    0.611718,
    0.94832,
    0.526519,
    0.947317,
    0.541636,
    0.661756,
    0.472843,
    0.548449,
    0.416709,
    0.633,
    0.788361,
    0.939643,
    0.735,
    0.605648,
    0.390874,
    0.378386,
    0.642093,
    0.581344,
    0.465999,
    0.615102,
    0.622455,
    0.665914,
    0.701246,
    0.674,
    0.541238,
    0.544,
    0.253,
    0.641539,
    0.415,
    0.45,
    0.809,
    0.733,
    0.476285,
    0.868261,
    0.743408,
    0.424336,
    1.159971,
    0.809656,
    0.545,
    0.54431,
    0.555525,
    0.623,
    0.504134,
    0.516361,
    0.408132,
    0.416752,
    0.304687,
    0.886,
    0.716,
    0.605,
    0.689396,
    0.391,
    0.994825,
    0.715696,
    0.78839,
    1.111831,
    0.7895,
    0.655692,
    0.766672,
    0.744572,
    0.856098,
    0.425855,
    0.767446,
    0.713113,
    0.479548,
    0.554,
    0.828,
    0.438223,
    0.405465,
    0.655478,
    0.715,
    0.630139,
    0.741946,
    0.895,
    0.419308,
    0.550008,
    0.365607,
    0.580721,
    0.590842,
    0.497,
    0.491,
    0.604,
    0.435103,
    0.499,
    0.540008,
    0.562,
    0.510338,
    0.75327,
    0.263982,
    0.819888,
    0.837557,
    0.468794,
    0.797897,
    0.446667,
    0.544491,
    0.781165,
    0.334456,
    0.525938,
    0.333,
    0.848038,
    0.473968,
    0.653685,
    0.571,
    0.620252,
    0.546317,
    0.494818,
    0.589171,
    0.777576,
    0.293,
    0.730458,
    0.57047,
    0.637647,
    0.303605,
    0.414,
    0.954,
    0.595322,
    0.587994,
    0.417362,
    0.323389,
    0.681059,
    0.54635,
    0.695,
    0.616,
    0.670949,
    0.807576,
    0.544154,
    0.530214,
    0.653965,
    0.897134,
    0.745656,
    0.34,
    0.632282,
    0.878759,
    0.788598,
    1.587233,
    0.464732,
    0.679249,
    0.555136,
    0.594695,
    0.643323,
    0.667357,
    0.695213,
    0.615656,
    0.621726,
    0.528589,
    0.571864,
    0.854693,
    0.747819,
    0.590487,
    0.938721,
    0.501242,
    1.023712,
    0.617433,
    0.417,
    0.59,
    0.767909,
    0.726971,
    0.699253,
    0.489,
    0.321765,
    0.710903,
    0.389199,
    0.40039,
    0.518579,
    0.624018,
    0.542,
    0.483376,
    0.388335,
    0.399565,
    0.497411,
    0.58,
    0.604,
    0.496489,
    0.693148,
    0.57227,
    0.773802,
    0.352431,
    0.384006,
    0.544593,
    0.451,
    0.622709,
    0.445051,
    0.560963,
    0.406872,
    0.466691,
    0.458,
    0.484064,
    0.633963,
    0.431774,
    0.686,
    0.553906,
    0.416589,
    0.544,
    0.574097,
    0.807,
    0.55407,
    0.707296,
    1.13714,
    1.032097,
    0.620197,
    0.634406,
    0.584097,
    0.776,
    0.830404,
    0.458323,
    0.394578,
    0.794,
    0.682666,
    0.437,
    0.379142,
    0.47007,
    0.639619,
    0.325055,
    0.400465,
    0.737126,
    0.705699,
    0.703556,
    0.729446,
    0.715472,
    0.956034,
    0.841948,
    0.656926,
    0.659649,
    0.712431,
    0.614972,
    0.622973,
    0.752,
    0.741497,
    0.659934,
    0.646905,
    0.835763,
    0.689862,
    0.678019,
    0.664825,
    0.651119,
    0.749805,
    0.789192,
    0.765108,
    0.811,
    0.538653,
    0.688417,
    0.701662,
    0.668341,
    0.603854,
    0.651972,
    0.5578,
    0.830628,
    0.953,
    0.261398,
    0.530237,
    0.513824,
    0.654779,
    0.351,
    0.845283,
    0.390991,
    0.438698,
    0.927301,
    0.848522,
    0.337072,
    0.645888,
    0.538879,
    0.702151,
    0.6213,
    0.974906,
    0.755409,
    0.346,
    0.503928,
    0.987209,
    0.768485,
    0.82,
    0.693,
    0.43,
    0.594,
    0.691,
    0.532693,
    0.674,
    0.882,
    0.559022,
    0.462317,
    0.674048,
    0.242539,
    0.697,
    0.698795,
    0.858106,
    0.645049,
    0.584,
    0.588927,
    0.574357,
    0.59841,
    0.586111,
    0.492641,
    0.63743,
    0.617,
    0.384103,
    0.518541,
    0.452,
    0.497,
    0.645,
    0.607643,
    0.454206,
    0.432302,
    0.662535,
    0.575014,
    1.126023,
    0.713754,
    0.877547,
    0.417666,
    0.433617,
    0.616644,
    0.540103,
    0.784334,
    0.588984,
    0.666262,
    0.561115,
    0.42292,
    0.8,
    0.540413,
    0.40287,
    0.623646,
    0.398499,
    0.400434,
    0.369795,
    0.287719,
    0.642934,
    0.542506,
    0.674,
    0.43391,
    0.467637,
    0.491525,
    0.732994,
    0.696275,
    0.544,
    0.814,
    0.743,
    0.735965,
    0.870408,
    0.552,
    0.620558,
    0.776516,
    0.768,
    0.303,
    0.44321,
    0.652487,
    0.593108,
    0.506712,
    0.629654,
    0.399811,
    0.433,
    0.584055,
    0.689522,
    0.409427,
    0.61836,
    0.450085,
    0.762438,
    0.626718,
    0.55588,
    0.827998,
    0.691438,
    0.852365,
    0.821574,
    0.395562,
    0.506272,
    0.395153,
    0.640806,
    0.398405,
    0.683236,
    0.804,
    0.423888,
    0.458,
    0.448,
    0.622712,
    0.3405,
    0.660577,
    0.616836,
    0.598203,
    0.480573,
    0.829352,
    0.514959,
    0.597865,
    0.550927,
    0.358,
    0.661508,
    0.478235,
    0.715039,
    0.805909,
    0.696295,
    0.556982,
    0.488631,
    0.661384,
    0.630573,
    0.707782,
    0.78044,
    0.801925,
    0.76692,
    0.691466,
    0.61318,
    0.576331,
    0.582195,
    0.856547,
    0.626929,
    0.806012,
    0.424404,
    0.582606,
    0.430127,
    0.30878,
    0.463794,
    0.557042,
    0.577575,
    0.633958,
    0.798705,
    0.446,
    0.597352,
    0.391,
    0.306594,
    0.570012,
    0.587078,
    0.531,
    0.426427,
    0.595712,
    0.560103,
    0.388,
    0.608906,
    0.812118,
    0.760574,
    0.595,
    0.429196,
    0.757,
    0.847143,
    0.614621,
    0.424069,
    0.815,
    0.492795,
    0.563087,
    0.60683,
    0.582149,
    0.786,
    0.776,
    0.775772,
    0.603402,
    0.502102,
    0.392306,
    0.742086,
    0.315757,
    0.499281,
    0.4179,
    0.722084,
    0.619,
    0.648,
    0.834828,
    0.688976,
    0.602352
  ],
  "5242880": [
    0.698846,
    0.681273,
    0.649,
    0.489288,
    0.493657,
    0.673784,
    0.880277,
    0.437933,
    0.550017,
    0.866889,
    0.269309,
    0.376142,
    0.636,
    0.514396,
    0.843948,
    0.363008,
    0.727041,
    0.559103,
    0.579,
    0.958867,
    0.549943,
    0.462412,
    0.306001,
    0.656222,
    0.596338,
    0.514304,
    0.479447,
    0.703222,
    0.586506,
    0.552955,
    0.603694,
    0.714,
    0.761591,
    0.796,
    0.664886,
    0.806384,
    0.519102,
    0.605773,
    0.879931,
    0.357,
    0.403,
    0.591683,
    0.6292,
    0.436843,
    0.632363,
    0.60702,
    0.53,
    0.571108,
    0.621087,
    0.468782,
    0.437,
    0.536462,
    0.542406,
    0.813183,
    0.752712,
    0.683412,
    0.427,
    0.283622,
    0.611061
  ],
  "ALL": [
    0.774133,
    0.714585,
    0.627214,
    1.022367,
    0.696059,
    0.644725,
    0.603384,
    0.616458,
    0.812262,
    0.802503,
    0.550802,
    0.607612,
    0.606721,
    0.418971,
    0.606752,
    0.442329,
    0.344897,
    0.569236,
    0.340997,
    0.448042,
    0.477999,
    0.464005,
    0.702749,
    0.685121,
    0.393539,
    0.379,
    0.511429,
    0.657103,
    0.449799,
    0.571811,
    0.698846,
    0.445159,
    0.780317,
    0.562644,
    0.472241,
    0.321871,
    0.388895,
    0.465135,
    0.379988,
    0.504,
    0.579674,
    0.334691,
    0.681273,
    0.649,
    0.59363,
    0.574246,
    0.671583,
    0.667264,
    0.461295,
    0.315907,
    0.506322,
    0.551777,
    0.456546,
    0.280103,
    0.578512,
    0.489288,
    0.493657,
    0.673784,
    0.64019,
    0.357709,
    0.464374,
    0.777409,
    0.8,
    0.462438,
    0.736,
    0.583111,
    0.484406,
    0.651792,
    0.380232,
    0.707706,
    0.569925,
    0.592636,
    0.919279,
    0.803599,
    0.4576,
    0.416052,
    0.889757,
    0.604418,
    0.609254,
    0.531095,
    0.880277,
    0.437933,
    0.476495,
    0.549,
    0.781136,
    0.396309,
    0.309,
    0.619,
    0.465,
    0.753524,
    0.912827,
    0.629335,
    0.433539,
    0.507164,
    0.357608,
    0.358438,
    0.565372,
    0.643101,
    0.434452,
    0.759822,
    0.377365,
    0.550017,
    0.679478,
    0.86132,
    0.376265,
    0.735843,
    0.430283,
    0.459223,
    0.869464,
    0.847302,
    0.611785,
    0.679755,
    0.866889,
    0.503057,
    0.520863,
    0.446685,
    0.87607,
    0.625372,
    0.6482,
    0.882,
    0.54653,
    0.299801,
    0.352765,
    0.797297,
    0.542207,
    0.535756,
    0.565,
    0.62384,
    0.611718,
    0.94832,
    0.526519,
    0.835992,
    0.82912,
    0.269309,
    0.376142,
    0.947317,
    0.541636,
    0.661756,
    0.472843,
    0.548449,
    0.416709,
    0.633,
    0.788361,
    0.939643,
    0.735,
    0.498596,
    0.636,
    0.605648,
    0.390874,
    0.378386,
    0.642093,
    0.581344,
    0.465999,
    0.615102,
    0.622455,
    0.665914,
    0.701246,
    0.409715,
    0.665538,
    0.674,
    0.541238,
    0.544,
    0.253,
    0.641539,
    0.415,
    0.45,
    0.809,
    0.733,
    0.574,
    0.329,
    0.558014,
    0.514396,
    0.476285,
    0.868261,
    0.743408,
    0.424336,
    1.159971,
    0.809656,
    0.545,
    0.54431,
    0.312,
    0.856426,
    0.555525,
    0.623,
    0.504134,
    0.516361,
    0.408132,
    0.416752,
    0.304687,
    0.886,
    0.716,
    0.605,
    0.689396,
    0.391,
    0.598,
    0.994825,
    0.715696,
    0.78839,
    1.111831,
    0.7895,
    0.655692,
    0.766672,
    0.744572,
    0.856098,
    0.843948,
    0.425855,
    0.767446,
    0.713113,
    0.479548,
    0.554,
    0.828,
    0.438223,
    0.405465,
    0.655478,
    0.715,
    1.096,
    0.363008,
    0.630139,
    0.741946,
    0.895,
    0.419308,
    0.781377,
    0.758802,
    0.625072,
    0.662741,
    0.727041,
    0.550008,
    0.365607,
    0.580721,
    0.590842,
    0.497,
    0.491,
    0.604,
    0.435103,
    0.499,
    0.540008,
    0.562,
    0.510338,
    0.75327,
    0.381688,
    0.263982,
    0.819888,
    0.837557,
    0.468794,
    0.797897,
    0.446667,
    0.544491,
    0.781165,
    0.334456,
    0.525938,
    0.333,
    0.848038,
    0.473968,
    0.653685,
    0.693176,
    0.571,
    0.620252,
    0.546317,
    0.494818,
    0.589171,
    0.777576,
    0.293,
    0.730458,
    0.57047,
    0.637647,
    0.526303,
    0.572914,
    0.303605,
    0.414,
    0.954,
    0.595322,
    0.587994,
    0.417362,
    0.771,
    0.559103,
    0.579,
    0.958867,
    0.549943,
    0.323389,
    0.681059,
    0.54635,
    0.695,
    0.616,
    0.670949,
    0.807576,
    0.544154,
    0.530214,
    0.653965,
    0.897134,
    0.745656,
    0.34,
    0.632282,
    0.452,
    0.878759,
    0.788598,
    1.587233,
    0.464732,
    0.679249,
    0.555136,
    0.594695,
    0.643323,
    0.667357,
    0.987316,
    0.462412,
    0.695213,
    0.615656,
    0.621726,
    0.528589,
    0.571864,
    0.854693,
    0.747819,
    0.590487,
    0.938721,
    0.501242,
    0.676058,
    0.62596,
    0.662473,
    1.023712,
    0.617433,
    0.417,
    0.59,
    0.767909,
    0.726971,
    0.699253,
    0.489,
    0.321765,
    0.710903,
    0.633932,
    0.597302,
    0.683346,
    0.389199,
    0.40039,
    0.518579,
    0.624018,
    0.542,
    0.483376,
    0.388335,
    0.399565,
    0.497411,
    0.58,
    0.626788,
    0.306001,
    0.656222,
    0.604,
    0.496489,
    0.693148,
    0.57227,
    0.773802,
    0.352431,
    0.384006,
    0.544593,
    0.451,
    0.565805,
    0.639,
    0.596338,
    0.514304,
    0.622709,
    0.445051,
    0.560963,
    0.406872,
    0.466691,
    0.458,
    0.484064,
    0.633963,
    0.7168,
    0.328911,
    0.462,
    0.479447,
    0.431774,
    0.686,
    0.553906,
    0.416589,
    0.544,
    0.574097,
    0.807,
    0.55407,
    0.414234,
    0.734368,
    0.707296,
    1.13714,
    1.032097,
    0.620197,
    0.634406,
    0.584097,
    0.776,
    0.830404,
    0.458323,
    0.791466,
    0.703222,
    0.394578,
    0.794,
    0.682666,
    0.437,
    0.379142,
    0.47007,
    0.639619,
    0.325055,
    0.400465,
    0.359,
    0.587598,
    0.586506,
    0.737126,
    0.705699,
    0.703556,
    0.729446,
    0.715472,
    0.956034,
    0.841948,
    0.566041,
    0.915311,
    0.548737,
    0.569451,
    0.552955,
    0.603694,
    0.656926,
    0.659649,
    0.712431,
    0.614972,
    0.622973,
    0.752,
    0.741497,
    0.561685,
    0.714,
    0.761591,
    0.796,
    0.659934,
    0.646905,
    0.835763,
    0.689862,
    0.678019,
    0.664825,
    0.651119,
    0.749805,
    0.789192,
    0.765108,
    0.553671,
    0.664886,
    0.811,
    0.538653,
    0.688417,
    0.701662,
    0.668341,
    0.603854,
    0.651972,
    0.5578,
    0.830628,
    0.953,
    0.552446,
    0.75434,
    0.806384,
    0.261398,
    0.530237,
    0.513824,
    0.654779,
    0.351,
    0.845283,
    0.390991,
    0.438698,
    0.927301,
    0.848522,
    0.63463,
    0.742564,
    0.376418,
    0.337072,
    0.645888,
    0.538879,
    0.702151,
    0.6213,
    0.974906,
    0.755409,
    0.346,
    0.519102,
    0.605773,
    0.879931,
    0.503928,
    0.987209,
    0.768485,
    0.82,
    0.693,
    0.43,
    0.594,
    0.691,
    0.532693,
    0.674,
    0.882,
    0.559022,
    0.897,
    0.574754,
    0.462317,
    0.674048,
    0.242539,
    0.391622,
    0.606,
    0.442251,
    0.357,
    0.697,
    0.698795,
    0.858106,
    0.645049,
    0.584,
    0.588927,
    0.574357,
    0.59841,
    0.491,
    0.688111,
    0.586111,
    0.492641,
    0.63743,
    0.617,
    0.384103,
    0.518541,
    0.452,
    0.497,
    0.645,
    0.607643,
    0.454206,
    0.383575,
    0.403,
    0.432302,
    0.662535,
    0.575014,
    1.126023,
    0.713754,
    0.877547,
    0.417666,
    0.433617,
    0.616644,
    0.423395,
    0.778304,
    0.862695,
    0.591683,
    0.540103,
    0.784334,
    0.588984,
    0.666262,
    0.561115,
    0.42292,
    0.8,
    0.540413,
    0.40287,
    0.623646,
    0.398499,
    0.527032,
    0.679569,
    0.88,
    0.6292,
    0.400434,
    0.369795,
    0.287719,
    0.642934,
    0.542506,
    0.674,
    0.43391,
    0.467637,
    0.491525,
    0.732994,
    0.375838,
    0.436843,
    0.632363,
    0.696275,
    0.544,
    0.814,
    0.743,
    0.735965,
    0.870408,
    0.552,
    0.620558,
    0.776516,
    0.768,
    0.303,
    0.367,
    0.565424,
    0.515,
    0.44321,
    0.652487,
    0.593108,
    0.506712,
    0.629654,
    0.399811,
    0.433,
    0.584055,
    0.689522,
    0.60702,
    0.53,
    0.409427,
    0.61836,
    0.450085,
    0.762438,
    0.626718,
    0.55588,
    0.827998,
    0.691438,
    0.852365,
    0.821574,
    0.395562,
    0.571108,
    0.621087,
    0.506272,
    0.395153,
    0.640806,
    0.398405,
    0.683236,
    0.804,
    0.423888,
    0.458,
    0.448,
    0.622712,
    0.472536,
    0.564707,
    0.418407,
    0.3405,
    0.660577,
    0.616836,
    0.598203,
    0.480573,
    0.829352,
    0.514959,
    0.597865,
    0.468782,
    0.437,
    0.550927,
    0.358,
    0.661508,
    0.478235,
    0.715039,
    0.805909,
    0.696295,
    0.556982,
    0.488631,
    0.661384,
    0.398897,
    0.522,
    0.639424,
    0.536462,
    0.630573,
    0.707782,
    0.78044,
    0.801925,
    0.76692,
    0.691466,
    0.61318,
    0.576331,
    0.582195,
    0.856547,
    0.626929,
    0.806012,
    0.542406,
    0.813183,
    0.424404,
    0.582606,
    0.430127,
    0.30878,
    0.463794,
    0.557042,
    0.577575,
    0.633958,
    0.798705,
    0.446,
    0.764601,
    0.580846,
    0.752712,
    0.683412,
    0.597352,
    0.391,
    0.306594,
    0.570012,
    0.587078,
    0.531,
    0.426427,
    0.595712,
    0.560103,
    0.364755,
    0.573897,
    0.54523,
    0.842889,
    0.427,
    0.388,
    0.608906,
    0.812118,
    0.760574,
    0.595,
    0.429196,
    0.757,
    0.847143,
    0.614621,
    0.580109,
    0.612056,
    0.233045,
    0.283622,
    0.424069,
    0.815,
    0.492795,
    0.563087,
    0.60683,
    0.582149,
    0.786,
    0.776,
    0.775772,
    0.603402,
    0.502102,
    0.392306,
    0.608812,
    0.742086,
    0.315757,
    0.499281,
    0.4179,
    0.722084,
    0.619,
    0.648,
    0.834828,
    0.688976,
    0.602352,
    0.649672,
    0.611061
  ]
}