{
  "1048576": [
    1.775384,
    0.641277,
    1.797923,
    0.988241,
    1.943367,
    0.771176,
    2.513275,
    1.157013,
    2.052902,
    1.666811,
    1.13788,
    0.599589,
    2.660533,
    1.740972,
    0.98417,
    1.588926,
    2.236208,
    0.939,
    2.689,
    0.620357,
    1.011847,
    1.012358,
    0.731682,
    1.53,
    2.153846,
    2.096,
    1.813045,
    1.645086,
    0.792979,
    2.065092,
    2.076366,
    2.460814,
    2.492,
    1.686564,
    1.160079,
    0.658058,
    1.643369,
    1.472723,
    1.808805,
    0.864774,
    2.19436,
    1.864237,
    1.130016,
    1.072613,
    1.035723,
    1.913142,
    1.944771,
    1.369939,
    1.479169,
    2.137898,
    1.58089,
    0.973359,
    1.959054,
    2.065,
    0.830751,
    1.41052,
    1.285127,
    0.861826,
    0.959753,
    1.210632,
    1.049332,
    1.586747,
    1.045914,
    0.801948,
    0.84,
    1.966306,
    2.377897,
    1.028,
    1.155,
    0.708411,
    0.686252,
    1.869578,
    0.808087,
    2.15,
    0.988,
    2.926373,
    1.022168,
    1.069518,
    2.112861,
    2.0413,
    1.387145,
    2.116928,
    2.129267,
    0.778,
    1.349397,
    0.975208,
    2.545442,
    2.194376,
    0.834187,
    1.668761,
    0.736874,
    0.977559,
    0.714262,
    0.890634,
    0.965182,
    0.98,
    0.862824
  ],
  "51200": [
    0.812872,
    0.765,
    0.801189,
    0.58133,
    0.37342,
    0.586897,
    1.103068,
    1.252335,
    1.936285,
    0.323961,
    0.408,
    1.079244,
    0.427215,
    0.484797,
    0.419794,
    0.518805,
    0.572317,
    0.602204,
    0.516338,
    0.244813,
    2.149399,
    0.729903,
    0.902166,
    0.374493,
    0.628403,
    1.424124,
    0.545452,
    1.194148,
    0.372628,
    1.035851,
    1.099244,
    1.237005,
    0.320162,
    0.851959,
    0.520467,
    0.957222,
    0.822176,
    0.374427,
    1.067422,
    0.960145,
    1.202486,
    1.379197,
    0.419048,
    0.877834,
    0.608289,
    0.894772,
    1.041986,
    0.634,
    0.669889,
    0.636716,
    0.631188,
    1.360508,
    0.251762,
    0.472865,
    0.91216,
    1.633187,
    1.240724,
    0.45144,
    0.975569,
    0.992956,
    0.339339,
    0.617676,
    1.478712,
    0.854474,
    0.347755,
    0.860358,
    0.547476,
    0.599286,
    0.520702,
    0.577843,
    0.740731,
    0.437508,
    0.63331,
    0.614451,
    0.407135,
    0.390081,
    1.464755,
    1.007243,
    0.41608,
    1.508226,
    0.982939,
    0.335119,
    0.467403,
    1.687396,
    0.943941,
    0.730188,
    0.613908,
    0.455927,
    0.385284,
    0.964256,
    1.078069,
    0.685084,
    0.371078,
    1.012937,
    0.61563,
    0.259435,
    0.422535,
    1.038917,
    1.236032,
    0.456807,
    1.405451,
    0.853208,
    1.291946,
    0.512,
    0.911286,
    1.031952,
    0.502,
    1.76737,
    0.602451,
    0.91622,
    0.860041,
    0.362403,
    0.363523,
    0.283752,
    0.285578,
    1.104431,
    0.297606,
    0.97173,
    0.987273,
    0.617605,
    1.508225,
    1.311613,
    1.180911,
    0.401199,
    0.909698,
    0.52779,
    0.703,
    1.25655,
    0.678513,
    0.934054,
    1.488478,
    0.439559,
    0.372772,
    0.747103,
    1.013,
    0.456012,
    0.382926,
    0.246943,
    0.647994,
    0.781418,
    0.917643,
    0.907,
    0.801,
    1.083971,
    0.157376,
    1.192763,
    0.3738,
    1.159397,
    0.830391,
    1.845903,
    1.423,
    0.864432,
    0.303967,
    0.516891,
    0.63362,
    0.299721,
    1.35965,
    0.606055,
    0.533366,
    1.433753,
    0.392801,
    0.466668,
    1.5686,
    1.337643,
    0.239985,
    0.651856,
    1.354106,
    0.315493,
    0.391445,
    0.737218,
    0.737286,
    0.261935,
    0.425897,
    0.368,
    1.017423,
    0.369,
    0.235,
    0.866103,
    1.749959,
    1.207574,
    0.376103,
    1.501,
    0.33182,
    0.185,
    0.607291,
    0.592,
    1.760551,
    0.261,
    1.104504,
    0.538,
    0.749,
    0.640861,
    1.513392,
    0.695786,
    1.559,
    0.526711,
    0.518679,
    1.43592,
    0.606596,
    1.86561,
    0.795363,
    1.435138,
    0.615059,
    0.896066,
    1.158586,
    0.48317,
    0.884,
    0.73837,
    0.804131,
    1.027161,
    0.395508,
    0.193326,
    0.430263,
    0.881895,
    1.012,
    0.329636,
    1.04,
    0.310429,
    0.538316,
    0.333916,
    0.384961,
    0.466,
    1.078285,
    0.588155,
    0.982206,
    0.597226,
    0.303101,
    1.573,
    0.232488,
    0.421,
    0.232,
    0.336,
    0.594151,
    0.577903,
    0.239739,
    0.297,
    0.355,
    0.892,
    0.76326,
    1.029,
    0.548,
    0.512952,
    0.536,
    0.789021,
    0.49206,
    0.809187,
    1.209788,
    1.427901,
    1.093115,
    0.550526,
    1.41065,
    0.592,
    0.576335,
    1.165594,
    0.961385,
    0.513916,
    2.21849,
    0.691807,
    1.260993,
    1.115676,
    0.359,
    1.047489,
    0.308537,
    1.461188,
    0.839887,
    0.866796,
    0.538008,
    1.415761,
    0.86757,
    1.025716,
    0.314586,
    1.630334,
    1.10772,
    0.501,
    0.435545,
    1.079334,
    0.876191,
    1.215246,
    2.160699,
    0.972646,
    0.280281,
    1.411125,
    0.497993,
    0.877132,
    0.508193,
    0.413206,
    1.603899,
    0.623777,
    1.119855,
    0.486437,
    1.348474,
    0.586542,
    0.522895,
    0.243434,
    1.834088,
    0.497459,
    0.343114,
    1.8044,
    1.142506,
    0.605943,
    1.43147,
    0.391,
    0.582308,
    0.701205,
    0.327746,
    1.668322,
    0.761754,
    0.452,
    0.667174,
    0.551641,
    1.609003,
    0.214624,
    0.366215,
    1.773147,
    0.627209,
    0.357391,
    1.200317,
    0.245,
    1.357,
    0.837,
    0.520137,
    0.984,
    0.962,
    1.72799,
    1.524319,
    0.69951,
    0.312957,
    0.397685,
    0.823732,
    0.508873,
    0.659684,
    0.524591,
    0.617668,
    1.156402,
    0.618984,
    0.482204,
    1.02809,
    0.242572,
    0.418378,
    0.505454,
    0.597,
    1.091426,
    1.605096,
    0.345089,
    1.479225,
    1.006417,
    0.613,
    0.314074,
    0.887,
    1.687,
    0.442,
    0.639557,
    1.103,
    0.519642,
    0.672,
    0.369222,
    0.774746,
    0.349373,
    0.695988,
    0.27469,
    0.870396,
    0.508422,
    0.713815,
    1.47485,
    0.623553,
    1.595023,
    0.37175,
    1.358,
    0.62802,
    0.775258,
    0.487286,
    1.596,
    0.469603,
    1.121992,
    0.30244,
    0.213862,
    0.932397,
    0.443182,
    0.939392,
    0.61779,
    1.028421,
    1.025714,
    0.761033,
    0.576269,
    1.139879,
    1.063,
    0.307313,
    0.350584,
    0.489,
    1.413437,
    0.57547,
    0.348589,
    0.389766,
    0.381476,
    1.109735,
    0.503193,
    0.594926,
    0.418984,
    0.526476,
    0.277354,
    0.936073,
    0.427139,
    0.779758,
    0.746097,
    0.397455,
    0.692,
    0.4183,
    0.504,
    0.64838,
    0.363233,
    0.641824,
    0.471,
    0.836871,
    0.734,
    0.658,
    0.294,
    0.973636,
    0.891812,
    0.414528,
    0.877,
    1.231,
    1.447,
    1.526,
    0.456823,
    1.042,
    0.806999,
    0.854852,
    0.78,
    0.314253,
    1.009287,
    0.23023,
    0.308,
    0.428892,
    1.416103,
    0.601655,
    0.602974,
    1.65679,
    0.174903,
    0.420653,
    0.904571,
    0.298481,
    0.225694,
    1.250584,
    0.512409,
    1.176694,
    0.433207,
    0.794622,
    0.384,
    1.051,
    0.965059,
    0.538,
    1.080681,
    0.267243,
    1.28689,
    0.987345,
    1.067,
    0.329059,
    0.611,
    0.970224,
    0.665827,
    0.434,
    0.985772,
    1.748763,
    0.662983,
    0.287054,
    0.598028,
    1.028237,
    1.290168,
    0.623519,
    1.30718,
    0.271618,
    0.592323,
    0.375867,
    1.082674,
    0.36966,
    0.791747,
    0.603615,
    0.46009,
    1.395684,
    0.539597,
    0.421597,
    0.40296,
    0.404,
    0.700846,
    0.881981,
    0.323629,
    0.482398,
    1.062179,
    1.06,
    0.603161,
    0.454017,
    0.790573,
    0.519516,
    1.202103,
    0.963154,
    1.726781,
    0.458003,
    0.487842,
    1.012103,
    0.364496,
    0.871,
    0.577472,
    0.795157,
    0.820327,
    0.4,
    1.027808,
    1.434749,
    1.077903,
    1.644714,
    1.064863,
    0.991767,
    1.051646,
    0.742998,
    0.473,
    1.115975,
    1.012,
    0.303,
    0.250917,
    0.547,
    1.253576,
    0.98598,
    0.406,
    1.44787,
    0.687238,
    0.642425,
    1.239153,
    0.511489,
    1.36121,
    0.748053,
    1.205013,
    0.751897,
    0.985927,
    1.418206,
    1.708386,
    0.525324,
    1.00267,
    0.725119,
    0.636612,
    0.900002,
    0.475,
    1.027411,
    0.362897,
    0.352678,
    0.547,
    0.462,
    0.484145,
    0.428383,
    1.031016,
    0.243329,
    0.50206,
    1.270619,
    0.35955,
    1.637094,
    0.319156,
    0.575515,
    0.377303,
    1.509632,
    0.191,
    0.432924,
    0.553265,
    0.936855,
    0.823202,
    1.02189,
    0.529313,
    0.792084,
    0.737547,
    1.186017,
    0.786429,
    1.904621,
    0.609969,
    1.148794,
    0.820334,
    0.580203,
    0.688561,
    1.425167,
    0.710431,
    1.444825,
    0.753619,
    1.131921,
    0.719071,
    1.66402,
    0.8492,
    0.684594,
    0.453103,
    0.550413,
    0.306616,
    0.840838,
    0.468349,
    0.332206,
    1.019529,
    0.966789,
    1.199517,
    0.341961,
    0.374428,
    1.865448,
    0.967556,
    0.781248,
    1.137145,
    0.343556,
    0.543799,
    0.357785,
    0.84386,
    0.679834,
    0.682708,
    1.263779,
    0.385829,
    1.026626,
    1.065446,
    1.127292,
    0.919139,
    1.27,
    0.510938,
    0.292457,
    0.349845,
    0.584
  ],
  "5242880": [
    2.758521,
    2.791738,
    3.115906,
    2.868357,
    1.523317,
    2.735991,
    3.240584,
    2.707369,
    1.681089,
    2.354,
    3.431897,
    1.622703,
    3.226578,
    3.518627,
    3.743876,
    5.343,
    3.353565,
    3.566195,
    1.388344,
    2.192499,
    3.107416,
    2.681662,
    2.835867,
    1.390796,
    2.713375,
    1.192631,
    2.89,
    3.473375,
    2.971403,
    1.514011,
    2.221398,
    2.165835,
    2.484038,
    2.221897,
    2.986299,
    3.974317,
    3.163826,
    2.289148,
    2.473814,
    2.842571
  ],
  "ALL": [
    0.812872,
    0.765,
    0.801189,
    0.58133,
    0.37342,
    0.586897,
    1.103068,
    1.252335,
    1.936285,
    0.323961,
    0.408,
    1.079244,
    0.427215,
    0.484797,
    0.419794,
    0.518805,
    0.572317,
    0.602204,
    0.516338,
    0.244813,
    2.149399,
    0.729903,
    0.902166,
    0.374493,
    0.628403,
    1.424124,
    0.545452,
    1.194148,
    0.372628,
    1.035851,
    1.775384,
    2.758521,
    1.099244,
    1.237005,
    0.320162,
    0.851959,
    0.520467,
    0.957222,
    0.822176,
    0.374427,
    1.067422,
    0.960145,
    1.202486,
    1.379197,
    0.641277,
    2.791738,
    3.115906,
    2.868357,
    0.419048,
    0.877834,
    0.608289,
    0.894772,
    1.041986,
    0.634,
    0.669889,
    0.636716,
    0.631188,
    1.360508,
    0.251762,
    0.472865,
    0.91216,
    1.633187,
    1.797923,
    1.523317,
    1.240724,
    0.45144,
    0.975569,
    0.992956,
    0.339339,
    0.617676,
    1.478712,
    0.854474,
    0.347755,
    0.860358,
    0.547476,
    0.599286,
    0.520702,
    0.988241,
    1.943367,
    2.735991,
    0.577843,
    0.740731,
    0.437508,
    0.63331,
    0.614451,
    0.407135,
    0.390081,
    1.464755,
    1.007243,
    0.41608,
    1.508226,
    0.982939,
    0.335119,
    0.467403,
    1.687396,
    0.943941,
    0.730188,
    0.613908,
    0.455927,
    0.385284,
    0.964256,
    1.078069,
    0.685084,
    0.371078,
    1.012937,
    0.61563,
    0.259435,
    0.422535,
    1.038917,
    1.236032,
    0.771176,
    3.240584,
    0.456807,
    1.405451,
    0.853208,
    1.291946,
    0.512,
    0.911286,
    1.031952,
    0.502,
    1.76737,
    0.602451,
    0.91622,
    0.860041,
    0.362403,
    0.363523,
    0.283752,
    0.285578,
    1.104431,
    0.297606,
    0.97173,
    0.987273,
    0.617605,
    1.508225,
    1.311613,
    1.180911,
    0.401199,
    0.909698,
    0.52779,
    0.703,
    2.513275,
    1.157013,
    2.052902,
    1.666811,
    1.25655,
    0.678513,
    0.934054,
    1.488478,
    0.439559,
    0.372772,
    0.747103,
    1.013,
    0.456012,
    0.382926,
    0.246943,
    0.647994,
    0.781418,
    1.13788,
    0.599589,
    2.707369,
    0.917643,
    0.907,
    0.801,
    1.083971,
    0.157376,
    1.192763,
    0.3738,
    1.159397,
    0.830391,
    1.845903,
    1.423,
    0.864432,
    2.660533,
    1.740972,
    1.681089,
    2.354,
    0.303967,
    0.516891,
    0.63362,
    0.299721,
    1.35965,
    0.606055,
    0.533366,
    1.433753,
    0.392801,
    0.466668,
    1.5686,
    1.337643,
    0.239985,
    0.651856,
    1.354106,
    0.98417,
    0.315493,
    0.391445,
    0.737218,
    0.737286,
    0.261935,
    0.425897,
    0.368,
    1.017423,
    0.369,
    0.235,
    1.588926,
    2.236208,
    0.939,
    2.689,
    0.620357,
    3.431897,
    0.866103,
    1.749959,
    1.207574,
    0.376103,
    1.501,
    0.33182,
    0.185,
    0.607291,
    0.592,
    1.760551,
    0.261,
    1.011847,
    1.012358,
    0.731682,
    1.53,
    1.622703,
    1.104504,
    0.538,
    0.749,
    0.640861,
    1.513392,
    0.695786,
    1.559,
    0.526711,
    0.518679,
    1.43592,
    0.606596,
    1.86561,
    2.153846,
    2.096,
    3.226578,
    3.518627,
    0.795363,
    1.435138,
    0.615059,
    0.896066,
    1.158586,
    0.48317,
    0.884,
    0.73837,
    0.804131,
    1.027161,
    0.395508,
    0.193326,
    1.813045,
    1.645086,
    0.792979,
    3.743876,
    0.430263,
    0.881895,
    1.012,
    0.329636,
    1.04,
    0.310429,
    0.538316,
    0.333916,
    0.384961,
    0.466,
    1.078285,
    0.588155,
    0.982206,
    0.597226,
    2.065092,
    5.343,
    0.303101,
    1.573,
    0.232488,
    0.421,
    0.232,
    0.336,
    0.594151,
    0.577903,
    0.239739,
    0.297,
    0.355,
    0.892,
    0.76326,
    1.029,
    2.076366,
    2.460814,
    0.548,
    0.512952,
    0.536,
    0.789021,
    0.49206,
    0.809187,
    1.209788,
    1.427901,
    1.093115,
    0.550526,
    1.41065,
    0.592,
    0.576335,
    1.165594,
    2.492,
    1.686564,
    0.961385,
    0.513916,
    2.21849,
    0.691807,
    1.260993,
    1.115676,
    0.359,
    1.047489,
    0.308537,
    1.461188,
    0.839887,
    0.866796,
    0.538008,
    1.160079,
    0.658058,
    3.353565,
    1.415761,
    0.86757,
    1.025716,
    0.314586,
    1.630334,
    1.10772,
    0.501,
    0.435545,
    1.079334,
    0.876191,
    1.215246,
    2.160699,
    0.972646,
    0.280281,
    1.411125,
    1.643369,
    0.497993,
    0.877132,
    0.508193,
    0.413206,
    1.603899,
    0.623777,
    1.119855,
    0.486437,
    1.348474,
    0.586542,
    0.522895,
    0.243434,
    1.834088,
    1.472723,
    1.808805,
    0.864774,
    0.497459,
    0.343114,
    1.8044,
    1.142506,
    0.605943,
    1.43147,
    0.391,
    0.582308,
    0.701205,
    0.327746,
    2.19436,
    1.864237,
    1.130016,
    3.566195,
    1.388344,
    2.192499,
    1.668322,
    0.761754,
    0.452,
    0.667174,
    0.551641,
    1.609003,
    0.214624,
    0.366215,
    1.773147,
    0.627209,
    0.357391,
    1.072613,
    1.035723,
    1.913142,
    1.944771,
    3.107416,
    1.200317,
    0.245,
    1.357,
    0.837,
    0.520137,
    0.984,
    0.962,
    1.72799,
    1.524319,
    0.69951,
    0.312957,
    0.397685,
    0.823732,
    1.369939,
    1.479169,
    2.137898,
    0.508873,
    0.659684,
    0.524591,
    0.617668,
    1.156402,
    0.618984,
    0.482204,
    1.02809,
    0.242572,
    0.418378,
    0.505454,
    0.597,
    1.091426,
    1.58089,
    0.973359,
    1.959054,
    1.605096,
    0.345089,
    1.479225,
    1.006417,
    0.613,
    0.314074,
    0.887,
    1.687,
    0.442,
    0.639557,
    1.103,
    0.519642,
    0.672,
    2.065,
    2.681662,
    2.835867,
    0.369222,
    0.774746,
    0.349373,
    0.695988,
    0.27469,
    0.870396,
    0.508422,
    0.713815,
    1.47485,
    0.623553,
    1.595023,
    0.37175,
    1.358,
    0.62802,
    0.830751,
    1.41052,
    0.775258,
    0.487286,
    1.596,
    0.469603,
    1.121992,
    0.30244,
    0.213862,
    0.932397,
    0.443182,
    0.939392,
    0.61779,
    1.028421,
    1.025714,
    1.285127,
    1.390796,
    2.713375,
    0.761033,
    0.576269,
    1.139879,
    1.063,
    0.307313,
    0.350584,
    0.489,
    1.413437,
    0.57547,
    0.861826,
    0.959753,
    1.210632,
    1.049332,
    1.586747,
    1.045914,
    0.801948,
    0.348589,
    0.389766,
    0.381476,
    1.109735,
    0.503193,
    0.594926,
    0.418984,
    0.526476,
    0.277354,
    0.936073,
    0.427139,
    0.779758,
    0.746097,
    0.397455,
    0.692,
    0.84,
    0.4183,
    0.504,
    0.64838,
    0.363233,
    0.641824,
    0.471,
    0.836871,
    0.734,
    0.658,
    0.294,
    0.973636,
    0.891812,
    0.414528,
    1.966306,
    2.377897,
    1.028,
    0.877,
    1.231,
    1.447,
    1.526,
    0.456823,
    1.042,
    0.806999,
    0.854852,
    0.78,
    0.314253,
    1.009287,
    0.23023,
    0.308,
    0.428892,
    1.155,
    0.708411,
    1.416103,
    0.601655,
    0.602974,
    1.65679,
    0.174903,
    0.420653,
    0.904571,
    0.298481,
    0.225694,
    1.250584,
    0.512409,
    1.176694,
    0.433207,
    0.794622,
    0.686252,
    1.192631,
    0.384,
    1.051,
    0.965059,
    0.538,
    1.080681,
    0.267243,
    1.28689,
    0.987345,
    1.067,
    0.329059,
    0.611,
    0.970224,
    0.665827,
    0.434,
    2.89,
    3.473375,
    0.985772,
    1.748763,
    0.662983,
    0.287054,
    0.598028,
    1.028237,
    1.290168,
    0.623519,
    1.30718,
    0.271618,
    0.592323,
    0.375867,
    1.082674,
    1.869578,
    2.971403,
    1.514011,
    0.36966,
    0.791747,
    0.603615,
    0.46009,
    1.395684,
    0.539597,
    0.421597,
    0.40296,
    0.404,
    0.700846,
    0.881981,
    0.808087,
    2.15,
    0.988,
    2.221398,
    2.165835,
    0.323629,
    0.482398,
    1.062179,
    1.06,
    0.603161,
    0.454017,
    0.790573,
    0.519516,
    1.202103,
    0.963154,
    1.726781,
    0.458003,
    2.926373,
    1.022168,
    1.069518,
    2.484038,
    0.487842,
    1.012103,
    0.364496,
    0.871,
    0.577472,
    0.795157,
    0.820327,
    0.4,
    1.027808,
    1.434749,
    1.077903,
    1.644714,
    1.064863,
    0.991767,
    2.112861,
    2.221897,
    1.051646,
    0.742998,
    0.473,
    1.115975,
    1.012,
    0.303,
    0.250917,
    0.547,
    1.253576,
    0.98598,
    0.406,
    1.44787,
    0.687238,
    0.642425,
    2.0413,
    2.986299,
    1.239153,
    0.511489,
    1.36121,
    0.748053,
    1.205013,
    0.751897,
    0.985927,
    1.418206,
    1.708386,
    0.525324,
    1.00267,
    0.725119,
    1.387145,
    2.116928,
    2.129267,
    3.974317,
    0.636612,
    0.900002,
    0.475,
    1.027411,
    0.362897,
    0.352678,
    0.547,
    0.462,
    0.484145,
    0.428383,
    1.031016,
    0.243329,
    0.778,
    1.349397,
    3.163826,
    2.289148,
    0.50206,
    1.270619,
    0.35955,
    1.637094,
    0.319156,
    0.575515,
    0.377303,
    1.509632,
    0.191,
    0.432924,
    0.553265,
    0.936855,
    0.823202,
    1.02189,
    0.975208,
    2.473814,
    0.529313,
    0.792084,
    0.737547,
    1.186017,
    0.786429,
    1.904621,
    0.609969,
    1.148794,
    0.820334,
    0.580203,
    0.688561,
    1.425167,
    0.710431,
    1.444825,
    2.545442,
    2.194376,
    0.753619,
    1.131921,
    0.719071,
    1.66402,
    0.8492,
    0.684594,
    0.453103,
    0.550413,
    0.306616,
    0.840838,
    0.468349,
    0.332206,
    1.019529,
    0.966789,
    0.834187,
    1.668761,
    1.199517,
    0.341961,
    0.374428,
    1.865448,
    0.967556,
    0.781248,
    1.137145,
    0.343556,
    0.543799,
    0.357785,
    0.84386,
    0.679834,
    0.736874,
    0.977559,
    0.714262,
    2.842571,
    0.682708,
    1.263779,
    0.385829,
    1.026626,
    1.065446,
    1.127292,
    0.919139,
    1.27,
    0.510938,
    0.292457,
    0.349845,
    0.584,
    0.890634,
    0.965182,
    0.98,
    0.862824
  ]
}