[
  0.165364,
  0.376015,
  0.321423,
  0.19,
  0.130284,
  0.192263,
  0.318818,
  0.404292,
  0.486168,
  0.390103,
  0.258614,
  0.423,
  0.288946,
  0.851077,
  0.121531,
  0.162361,
  0.131026,
  0.440379,
  0.276955,
  0.284,
  0.194004,
  0.190914,
  0.457,
  0.472,
  0.153961,
  0.394932,
  0.164,
  0.10725,
  0.406,
  0.231155,
  0.102192,
  0.474004,
  0.347461,
  0.372206,
  0.203569,
  0.293498,
  0.330036,
  0.29544,
  0.267,
  0.502067,
  0.475993,
  0.558,
  0.201661,
  0.134374,
  0.4186,
  0.172,
  0.301,
  0.361,
  0.430804,
  0.404007,
  0.14518,
  0.570078,
  0.376652,
  0.208918,
  0.369665,
  0.431097,
  0.409289,
  0.155897,
  0.360897,
  0.43,
  0.179973,
  0.362,
  0.397443,
  0.271412,
  0.319767,
  0.722793,
  0.199742,
  0.188445,
  0.343952,
  0.417327,
  0.212536,
  0.171584,
  0.21,
  0.415619,
  0.412,
  0.415,
  0.356,
  0.749,
  0.378459,
  0.183,
  0.410091,
  0.232,
  0.48014,
  0.511538,
  0.200653,
  0.292143,
  0.356772,
  0.258173,
  0.164019,
  0.318476,
  0.185,
  0.298119,
  0.239846,
  0.464,
  0.385264,
  0.475177,
  0.37757,
  0.133249,
  0.187023,
  0.122358,
  0.119037,
  0.21274,
  0.286188,
  0.098639,
  0.245741,
  0.282676,
  0.220093,
  0.378634,
  0.366302,
  0.277398,
  0.206543,
  0.381726,
  0.166544,
  0.225243,
  0.544667,
  0.38565,
  0.192895,
  0.545074,
  0.249859,
  0.195027,
  0.213787,
  0.208464,
  0.360576,
  0.23953,
  0.277179,
  0.609745,
  0.519855,
  0.297206,
  0.346512,
  0.324473,
  0.397022,
  0.514315,
  0.450656,
  0.679663,
  0.546546,
  0.388158,
  0.330673,
  0.339,
  0.366111,
  0.286618,
  0.39132,
  0.336886,
  0.57576,
  0.450808,
  0.445,
  0.187,
  0.390569,
  0.368,
  0.195943,
  0.358787,
  0.237787,
  0.274,
  0.18188,
  0.199477,
  0.13355,
  0.234,
  0.433,
  0.41257,
  0.135195,
  0.238188,
  0.48,
  0.391698,
  0.163516,
  0.401,
  0.128,
  0.374364,
  0.213001,
  0.269732,
  0.303,
  0.154677,
  0.533472,
  0.412512,
  0.35188,
  0.142711,
  0.225946,
  0.163,
  0.249419,
  0.456,
  0.401604,
  0.195713,
  0.508717,
  0.277701,
  0.424,
  0.226,
  0.493881,
  0.389096,
  0.353133,
  0.335276,
  0.140248,
  0.405499,
  0.448146,
  0.390354,
  0.156659,
  0.385897,
  0.207746,
  0.310283,
  0.222066,
  0.166536,
  0.405,
  0.171,
  0.154897,
  0.365913,
  0.334,
  0.241,
  0.270908,
  0.24127,
  0.191341,
  0.170992,
  0.198502,
  0.352,
  0.130741,
  0.40699,
  0.329778,
  0.215043,
  0.196,
  0.494102,
  0.397072,
  0.188,
  0.497074,
  0.26,
  0.190405,
  0.358542,
  0.192314,
  0.367845,
  0.112679,
  0.280892,
  0.259,
  0.12,
  0.231372,
  0.258,
  0.160944,
  0.14294,
  0.448,
  0.115544,
  0.219,
  0.17,
  0.138069,
  0.169,
  0.224867,
  0.45053,
  0.408942,
  0.450103,
  0.330589,
  0.294537,
  0.33175,
  0.32765,
  0.255868,
  0.227,
  0.255368,
  0.408,
  0.316,
  0.164,
  0.1519,
  0.326,
  0.394465,
  0.48029,
  0.384897,
  0.310755,
  0.302597,
  0.171663,
  0.182805,
  0.670786,
  0.219771,
  0.176237,
  0.182957,
  0.227132,
  0.2168,
  0.294585,
  0.197007,
  0.227477,
  0.196,
  0.262873,
  0.399545,
  0.301735,
  0.174466,
  0.506863,
  0.254645,
  0.332427,
  0.185,
  0.151224,
  0.408669,
  0.254842,
  0.139,
  0.38,
  0.194204,
  0.224526,
  0.492463,
  0.368,
  0.232,
  0.39348,
  0.162373,
  0.169824,
  0.1427,
  0.333377,
  0.339042,
  0.2916,
  0.444802,
  0.442958,
  0.303621,
  0.282463,
  0.36,
  0.544863,
  0.405861,
  0.299981,
  0.257494,
  0.339831,
  0.326837,
  0.255412,
  0.192017,
  0.186471,
  0.331,
  0.136152,
  0.130355,
  0.19507,
  0.188439,
  0.407123,
  0.420622,
  0.417984,
  0.274564,
  0.413323,
  0.388224,
  0.237114,
  0.252,
  0.374,
  0.125551,
  0.319495,
  0.157272,
  0.406115,
  0.403594,
  0.206488,
  0.564026,
  0.38,
  0.23293,
  0.314342,
  0.36872,
  0.408147,
  0.296,
  0.29702,
  0.306729,
  0.457578,
  0.361,
  0.251642,
  0.295532,
  0.446925,
  0.171468,
  0.237519,
  0.286,
  0.385057,
  0.36305,
  0.271034,
  0.285202,
  0.465671,
  0.162488,
  0.331859,
  0.289,
  0.292134,
  0.489341,
  0.259776,
  0.469371,
  0.16961,
  0.162685,
  0.189996,
  0.226699,
  0.392,
  0.379682,
  0.363227,
  0.105,
  0.386123,
  0.214947,
  0.171865,
  0.218721,
  0.416175,
  0.46795,
  0.196595,
  0.226,
  0.434,
  0.438073,
  0.253388,
  0.285845,
  0.321651,
  0.163754,
  0.323043,
  0.222,
  0.220097,
  0.232,
  0.196602,
  0.134644,
  0.147502,
  0.761705,
  0.320403,
  0.370242,
  0.217045,
  0.195595,
  0.474741,
  0.417307,
  0.160847,
  0.18893,
  0.128333,
  0.422103,
  0.378,
  0.291,
  0.2635,
  0.177243,
  0.159681,
  0.190585,
  0.387842,
  0.420124,
  0.377697,
  0.38985,
  0.336,
  0.459,
  0.479069,
  0.41,
  0.301656,
  0.412933,
  0.174,
  0.340119,
  0.160721,
  0.179,
  0.279403,
  0.394425,
  0.424141,
  0.462475,
  0.261066,
  0.17979,
  0.313948,
  0.442476,
  0.362298,
  0.250232,
  0.259908,
  0.225343,
  0.167264,
  0.614516,
  0.335213,
  0.628569,
  0.490851,
  0.686593,
  0.383667,
  0.613,
  0.630418,
  0.412395,
  0.631631,
  0.569777,
  0.357485,
  0.328887,
  0.600318,
  0.574873,
  0.454614,
  0.733639,
  0.116,
  0.262287,
  0.476304,
  0.223171,
  0.214,
  0.389558,
  0.191691,
  0.235,
  0.359368,
  0.205694,
  0.163,
  0.434,
  0.125766,
  0.398,
  0.241066,
  0.285092,
  0.467868,
  0.185954,
  0.28307,
  0.539351,
  0.248696,
  0.309651,
  0.291909,
  0.383674,
  0.377,
  0.291,
  0.388093,
  0.131134,
  0.423934,
  0.208611,
  0.440741,
  0.107628,
  0.07834,
  0.393867,
  0.411578,
  0.520029,
  0.354165,
  0.167555,
  0.113103,
  0.241654,
  0.363,
  0.281318,
  0.246741,
  0.260555,
  0.394243,
  0.324,
  0.477,
  0.24195,
  0.150177,
  0.12359,
  0.440778,
  0.755607,
  0.724834,
  0.366975,
  0.379981,
  0.209484,
  0.406338,
  0.436977,
  0.16675,
  0.276566,
  0.142278,
  0.232006,
  0.47473,
  0.367847,
  0.446,
  0.228,
  0.169,
  0.389402,
  0.421698,
  0.23812,
  0.291266,
  0.475248,
  0.2797,
  0.564074,
  0.586,
  0.420769,
  0.253285,
  0.404409,
  0.291225,
  0.348267,
  0.197046,
  0.359614,
  0.377095,
  0.130733,
  0.294172,
  0.377085,
  0.170956,
  0.388658,
  0.501319,
  0.535,
  0.149885,
  0.288,
  0.394103,
  0.139051,
  0.441,
  0.301022,
  0.379403,
  0.185554,
  0.45598,
  0.148252,
  0.257986,
  0.210019,
  0.471,
  0.227787,
  0.43861,
  0.21,
  0.135,
  0.224437,
  0.125555,
  0.371558,
  0.219086,
  0.309306,
  0.215866,
  0.158859,
  0.388254,
  0.402744,
  0.167,
  0.105103,
  0.224,
  0.377553,
  0.399,
  0.279159,
  0.161932,
  0.37012,
  0.366232,
  0.454807,
  0.398812,
  0.359747,
  0.172065,
  0.194346,
  0.291243,
  0.323378,
  0.141,
  0.214,
  0.226,
  0.278698,
  0.354,
  0.158383,
  0.186037,
  0.169673,
  0.172263,
  0.119623,
  0.376498,
  0.409293,
  0.165428,
  0.506296,
  0.303341,
  0.286,
  0.246517,
  0.433886,
  0.182272,
  0.43891,
  0.387795,
  0.523274,
  0.278238,
  0.17124,
  0.438704,
  0.404789,
  0.453347,
  0.505897,
  0.222146,
  0.178003,
  0.386473,
  0.372,
  0.175416,
  0.164647,
  0.387887,
  0.134914,
  0.13775,
  0.3568,
  0.226806,
  0.282,
  0.707859,
  0.092091,
  0.157647,
  0.371,
  0.332851,
  0.379,
  0.278,
  0.179,
  0.157,
  0.196,
  0.176,
  0.394166,
  0.165,
  0.27292,
  0.182,
  0.131277,
  0.29,
  0.14,
  0.211,
  0.234942,
  0.11415,
  0.178565,
  0.176099,
  0.184811,
  0.147212,
  0.109797,
  0.338386,
  0.242103,
  0.354954,
  0.504381,
  0.393918,
  0.407879,
  0.237577,
  0.271465,
  0.296207,
  0.157,
  0.384,
  0.280443,
  0.205,
  0.473,
  0.389327,
  0.207,
  0.386,
  0.218,
  0.218,
  0.386599,
  0.196,
  0.22,
  0.391212,
  0.277841,
  0.224024,
  0.233102,
  0.274687,
  0.473786,
  0.096134,
  0.144932,
  0.117396,
  0.120557,
  0.22889,
  0.410964,
  0.252403,
  0.343665,
  0.361668,
  0.171279,
  0.456298,
  0.192355,
  0.741293,
  0.334093,
  0.445781,
  0.233085,
  0.287909,
  0.352,
  0.33,
  0.218537,
  0.647,
  0.206195,
  0.212218,
  0.468,
  0.216,
  0.367701,
  0.494,
  0.204018,
  0.241
]