[
  0.879107,
  1.089531,
  0.26415,
  0.932839,
  1.139209,
  1.332255,
  0.903351,
  1.101753,
  1.165544,
  1.169075,
  1.173531,
  0.990756,
  1.393011,
  0.908,
  0.924976,
  0.909024,
  0.980747,
  1.167935,
  0.901636,
  1.165163,
  1.095075,
  1.199531,
  1.091003,
  0.826952,
  1.362376,
  1.084249,
  0.844075,
  0.92932,
  1.093531,
  1.143376,
  0.983,
  0.30464,
  0.918231,
  1.126805,
  0.971,
  0.925,
  0.909,
  1.136602,
  1.181075,
  0.839075,
  1.086703,
  1.080642,
  0.9741,
  1.07447,
  0.265413,
  1.077252,
  1.197237,
  0.902546,
  1.101062,
  0.854075,
  1.081547,
  0.969687,
  1.174311,
  0.970075,
  1.111531,
  1.131415,
  1.096646,
  0.304341,
  1.042249,
  1.095846,
  1.12,
  1.069076,
  1.1626,
  1.323,
  1.005067,
  1.011255,
  1.109448,
  1.096291,
  0.991932,
  0.982726,
  0.985274,
  1.172748,
  0.997,
  1.398526,
  1.183845,
  1.008106,
  1.096486,
  1.204,
  1.323822,
  1.881026,
  0.985463,
  0.997742,
  1.098531,
  1.160531,
  0.983567,
  1.128,
  0.944537,
  0.995352,
  1.277655,
  1.144147,
  0.980465,
  1.100475,
  1.085941,
  1.057019,
  1.020626,
  1.176087,
  0.281091,
  1.036621,
  1.10965,
  0.994352,
  1.087642,
  1.181669,
  1.226222,
  0.980352,
  1.042642,
  1.061591,
  1.19932,
  1.140352,
  1.174418,
  0.307111,
  1.149352,
  1.208531,
  0.974714,
  1.064084,
  0.960352,
  1.127531,
  0.940617,
  1.224785,
  0.914,
  0.859527,
  0.87158,
  0.967418,
  0.967418,
  1.829016,
  0.883244,
  0.964363,
  1.067592,
  1.173597,
  1.085011,
  0.945,
  1.109678,
  1.076198,
  0.789871,
  1.199519,
  1.109429,
  0.956,
  0.846487,
  1.266305,
  0.255,
  0.845115,
  0.868273,
  0.915436,
  1.008157,
  0.916042,
  0.873681,
  0.920519,
  1.029528,
  0.988268,
  0.991511,
  0.931521,
  0.916519,
  1.052951,
  1.021094,
  0.952287,
  1.072589,
  1.064519,
  1.163612,
  0.890255,
  0.925162,
  0.988519,
  1.050011,
  0.897649,
  0.980528,
  0.885519,
  1.033536,
  0.921519,
  1.010344,
  1.116519,
  1.134491,
  0.17993,
  0.884506,
  0.914341,
  0.871398,
  0.937519,
  0.794209,
  0.983519,
  1.033612,
  0.870774,
  1.041739,
  1.10141,
  1.378058,
  0.962794,
  1.014852,
  1.048634,
  1.079852,
  1.039895,
  1.323984,
  0.965244,
  1.03541,
  1.094891,
  0.936787,
  0.970856,
  1.178202,
  1.094,
  0.965499,
  1.02341,
  1.077823,
  1.035915,
  1.097401,
  1.36541,
  0.961499,
  1.041,
  1.071173,
  0.955987,
  1.08141,
  1.09841,
  1.186352,
  1.104731,
  0.982132,
  1.205726,
  0.994964,
  1.112,
  1.065,
  1.067548,
  0.958993,
  0.967352,
  1.074386,
  0.956942,
  1.016346,
  0.298025,
  0.962352,
  1.07741,
  1.077942,
  1.191695,
  0.975245,
  1.07841,
  1.075008,
  1.150042,
  1.077352,
  1.159309,
  1.086,
  0.969575,
  1.12241,
  1.034761,
  1.06441,
  0.997352,
  1.10841,
  1.033769,
  1.125287,
  1.131636,
  1.242352,
  1.000709,
  1.012061,
  1.274591,
  1.147976,
  1.119834,
  0.989892,
  1.132352,
  1.145599,
  0.999613,
  1.093433,
  1.088118,
  1.139729,
  1.015352,
  1.052336,
  0.973863,
  1.018487,
  1.014355,
  0.970149,
  1.02953,
  1.007714,
  1.0912,
  1.124719,
  1.054713,
  1.019004,
  1.023352,
  1.09169,
  1.087511,
  1.158796,
  1.218422,
  0.959352,
  1.078533,
  1.070555,
  1.081268,
  1.124209,
  1.051543,
  1.092856,
  0.973352,
  1.019388,
  0.29,
  1.070104,
  1.144599,
  1.143352,
  1.12744,
  1.082,
  0.968352,
  1.06914,
  1.044036,
  1.049196,
  1.021352,
  1.044196,
  1.076,
  1.047517,
  0.944352,
  1.016982,
  0.982075,
  1.053597,
  0.285382,
  1.162784,
  1.114,
  0.929846,
  1.058352,
  0.968725,
  0.956,
  0.986177,
  0.996,
  1.062639,
  0.998741,
  0.911713,
  1.029352,
  1.071897,
  1.131091,
  1.047,
  0.942592,
  1.078352,
  0.959361,
  0.977,
  1.260361,
  1.376298,
  1.112713,
  1.184352,
  0.951,
  0.944434,
  1.286361,
  1.076,
  1.120639,
  1.095771,
  1.006498,
  0.984584,
  1.075961,
  1.0,
  0.98,
  0.996639,
  1.068763,
  1.145902,
  0.943807,
  0.953352,
  1.113,
  1.134,
  0.951352,
  1.032713,
  0.281227,
  1.149713,
  1.151,
  1.049,
  1.138639,
  0.993713,
  0.962041,
  1.044713,
  1.081352,
  0.954028,
  0.970713,
  0.965352,
  0.976713,
  0.951713,
  0.975258,
  0.975262,
  0.979191,
  1.053911,
  1.093408,
  0.275,
  1.035953,
  1.042561,
  0.929687,
  0.936291,
  0.852,
  0.859,
  0.904604,
  0.924849,
  1.392561,
  0.963126,
  0.865396,
  1.352884,
  1.025428,
  0.895383,
  0.951561,
  0.956165,
  0.93541,
  0.956374,
  1.087084,
  0.884422,
  0.932844,
  0.886568,
  0.985598,
  1.201604,
  1.063561,
  1.107418,
  1.049,
  1.614074,
  0.925932,
  1.207,
  0.840936,
  1.046165,
  1.126561,
  0.976,
  0.858505,
  1.014092,
  0.899915,
  1.107,
  0.970274,
  1.075614,
  0.939957,
  0.973062,
  0.904,
  0.979396,
  0.252249,
  0.875165,
  0.941561,
  1.010561,
  1.118165,
  0.839561,
  0.873309,
  1.049534,
  1.081561,
  0.936386,
  0.997561,
  0.872561,
  0.952818,
  0.886561,
  0.958391,
  0.877055,
  0.95709,
  1.009712,
  1.204549,
  0.926542,
  1.346971,
  0.8996,
  0.873221,
  0.976549,
  1.163578,
  0.914,
  1.1169,
  1.028689,
  1.124327,
  0.882578,
  1.059727,
  0.902372,
  0.934,
  1.067918,
  1.423342,
  1.321921,
  0.948267,
  1.353602,
  0.889318,
  1.006475,
  0.940957,
  0.863578,
  1.278549,
  0.879305,
  0.817556,
  1.020295,
  0.895985,
  1.458879,
  1.111836,
  0.964029,
  1.079971,
  0.833604,
  1.057276,
  0.998578,
  1.09772,
  0.260578,
  0.937578,
  1.031331,
  0.881607,
  1.020362,
  0.868197,
  1.116962,
  0.986897,
  1.122549,
  0.916578,
  1.059549,
  0.853023,
  1.024302,
  0.259,
  0.917578,
  0.960921,
  0.893578,
  1.044,
  1.077549,
  0.899185,
  0.960578,
  1.092549,
  0.983671,
  1.698283,
  0.863797,
  0.958257,
  1.141694,
  0.222386,
  1.146091,
  0.871603,
  0.979912,
  0.831027,
  0.994897,
  1.037413,
  1.065206,
  0.862321,
  0.854016,
  1.02843,
  0.966297,
  0.915452,
  1.08529,
  0.873743,
  0.995207,
  0.854576,
  1.027709,
  0.858913,
  0.999683,
  0.960103,
  1.192903,
  0.966231,
  0.964729,
  0.883099,
  1.055738,
  0.838606,
  1.0148,
  1.072897,
  1.008897,
  1.001376,
  0.875581,
  1.065041,
  0.244293,
  0.895672,
  1.005955,
  0.910144,
  0.978041,
  0.931808,
  0.973066,
  0.897144,
  1.018749,
  0.965398,
  1.063727,
  0.808122,
  0.939279,
  0.829581,
  1.003041,
  0.849623,
  0.997102,
  0.246552,
  0.884144,
  0.993784,
  0.851548,
  0.979041,
  1.144754,
  1.221574,
  0.284967,
  1.103,
  1.024687,
  1.223,
  0.984229,
  1.103754,
  1.476574,
  0.982481,
  1.073663,
  1.150181,
  1.213361,
  1.256361,
  1.14018,
  1.24837,
  1.09618,
  1.052574,
  1.369754,
  1.021694,
  1.32082,
  0.959574,
  1.13556,
  1.215,
  1.111754,
  1.160574,
  1.075562,
  1.081767,
  1.171981,
  1.231801,
  1.074574,
  1.220754,
  1.078761,
  1.088405,
  1.098585,
  1.260737,
  1.028317,
  0.959574,
  1.085,
  1.045574,
  1.178754,
  0.341,
  1.152939,
  1.285277,
  1.125574,
  1.316,
  0.984574,
  1.207,
  1.015574,
  1.122754,
  0.96984,
  1.106754,
  0.919574,
  1.090711,
  1.279271,
  1.167,
  1.010373,
  1.16578,
  0.935754,
  1.032115,
  1.07934,
  1.032891,
  1.085756,
  1.135579,
  1.02861,
  1.080228,
  1.132451,
  1.008101,
  1.032279,
  1.107719,
  1.213706,
  0.957,
  1.082249,
  1.018217,
  1.082457,
  1.175334,
  0.928683,
  0.993068,
  0.973241,
  1.050942,
  1.202285,
  1.076268,
  1.125046,
  1.16217,
  1.043412,
  0.990991,
  0.99461,
  1.076889,
  0.936952,
  1.019,
  0.996,
  1.120173,
  1.144497,
  1.084503,
  0.991704,
  1.018701,
  1.026438,
  0.990811,
  1.002541,
  1.06661,
  0.875672,
  0.279531,
  1.088556,
  0.879425,
  0.95761,
  1.02267,
  0.961328,
  1.055156,
  0.992636,
  1.003149,
  1.069094,
  1.036112,
  1.107615,
  0.97561,
  1.09429,
  0.941068,
  0.98661,
  1.02735,
  0.954168,
  1.040862,
  0.744379,
  0.758366,
  1.449768,
  0.915965,
  1.083991,
  0.804152,
  0.805037,
  0.742483,
  0.884552,
  1.120547,
  1.293781,
  0.80888,
  1.113073,
  0.72693,
  1.06,
  0.745208,
  0.99961,
  0.751703,
  0.960402,
  0.719982,
  0.98061,
  0.834598,
  0.76692,
  0.97261,
  1.089009,
  0.729762,
  1.01264,
  0.984,
  0.682,
  0.956402,
  0.819208,
  0.757463,
  1.062,
  0.942,
  0.279609,
  0.834208,
  0.93761,
  0.731364,
  0.953284,
  0.814769,
  0.92461,
  0.807208,
  0.967998,
  0.730983,
  1.01861,
  0.72697,
  1.051,
  0.850495,
  0.918824,
  1.067827,
  1.019984,
  1.069,
  0.209,
  0.855578,
  1.158706,
  1.235438,
  1.055,
  1.217246,
  1.202242,
  0.25564,
  0.887884,
  1.182294,
  0.978014,
  1.014668,
  1.027646,
  1.357399,
  1.326856,
  0.891577,
  0.869314,
  0.843126,
  1.200779,
  1.23116,
  1.007322,
  1.029738,
  1.09838,
  0.866196,
  1.215682,
  0.9266,
  0.891578,
  1.007793,
  1.330941,
  2.590256,
  0.867978,
  0.917637,
  0.882578,
  1.238129,
  0.88919,
  0.921369,
  1.216728,
  0.885143,
  1.221359,
  0.973578,
  1.331483,
  1.042578,
  0.987,
  0.920512,
  1.165,
  1.175784,
  1.184887,
  0.903578,
  1.192353,
  0.951129,
  1.275495,
  1.103224,
  1.319642,
  0.901578,
  1.141342,
  0.194512,
  0.879715,
  1.259678,
  0.860578,
  0.962118,
  1.159351,
  1.375578,
  0.94174,
  0.948599,
  0.874216,
  0.252761,
  0.863009,
  0.878208,
  0.963964,
  1.000072,
  0.898138,
  0.895212,
  0.857211,
  0.800507,
  0.966991,
  1.141209,
  1.272903,
  0.854144,
  0.868,
  0.950502,
  1.129389,
  1.028432,
  1.17102,
  0.811107,
  0.992352,
  0.894541,
  1.043837,
  1.238257,
  0.908004,
  0.97949,
  0.282701,
  1.048817,
  1.191125,
  0.946814,
  0.986897,
  0.880275,
  1.017716,
  1.087806,
  1.054853,
  1.044996,
  1.002927,
  1.050395,
  0.941278,
  1.012408,
  0.849719,
  0.998,
  0.906453,
  0.919831,
  0.870599,
  1.000479,
  1.03891,
  1.013061,
  0.964863,
  1.034887,
  0.840599,
  0.99614,
  0.996599,
  1.127262,
  0.253247,
  0.910609,
  0.989497,
  0.870693,
  1.002352,
  1.006352,
  1.0893,
  0.994075,
  1.619061,
  0.997639,
  0.920458,
  0.895257,
  1.008011,
  1.109209,
  0.912,
  1.112299,
  0.919207,
  1.030113,
  0.994827,
  1.044801,
  1.002945,
  0.939,
  0.842533,
  0.985041,
  1.017339,
  1.022075,
  1.091247,
  0.884338,
  0.996304,
  0.932844,
  1.024966,
  0.962075,
  1.593007,
  0.26974,
  0.897769,
  1.246857,
  1.123742,
  1.051828,
  0.976369,
  1.010944,
  0.914131,
  1.042055,
  1.108221,
  1.052247,
  1.028091,
  0.889077,
  0.997922,
  0.99289,
  1.041942,
  1.051627,
  1.110366,
  0.860785,
  0.963469,
  1.003516,
  1.171075,
  0.970075,
  1.123041,
  1.094714,
  1.028228,
  0.884,
  1.010379,
  0.975075,
  1.027944,
  0.267283,
  0.981041,
  0.917,
  0.820687,
  1.021193,
  1.01641,
  1.091314,
  0.267309,
  0.945342,
  1.117951,
  1.066581,
  0.874419,
  1.169712,
  1.197078,
  0.920717,
  0.927053,
  0.966,
  0.897,
  1.078211,
  0.951398,
  1.079316,
  0.942219,
  1.005313,
  0.902622,
  0.990581,
  1.087871,
  0.89861,
  0.969521,
  0.963721,
  0.980786,
  0.910829,
  0.96541,
  0.971108,
  1.24441,
  1.20625,
  0.876609,
  1.054765,
  0.27328,
  0.912595,
  1.027058,
  0.952,
  0.953581,
  0.939419,
  0.933991,
  0.999239,
  1.08841,
  1.089,
  0.924829,
  1.015658,
  0.911073,
  0.928947,
  0.996829,
  1.014513,
  0.94723,
  0.94741,
  0.274206,
  0.905572,
  0.963783,
  1.066602,
  1.068,
  0.959933,
  0.968807,
  0.966005,
  1.022829,
  0.975829,
  1.020265,
  0.885553,
  0.965813,
  1.060712,
  1.158269,
  1.025779,
  1.055752,
  1.062326,
  0.909255,
  0.973713,
  1.094178,
  1.273439,
  0.956878,
  1.085566,
  1.1613,
  1.187106,
  1.038958,
  0.975713,
  1.020063,
  0.900674,
  0.972013,
  1.032825,
  1.481317,
  1.172758,
  1.194713,
  0.917258,
  1.186999,
  1.038649,
  1.209194,
  1.041954,
  1.424539,
  1.471079,
  1.115732,
  1.616713,
  0.94029,
  1.078554,
  1.082379,
  1.093061,
  1.03446,
  1.044257,
  1.168405,
  1.033713,
  1.164326,
  0.904257,
  0.940849,
  0.956713,
  1.059758,
  0.974517,
  0.997948,
  0.227711,
  1.047713,
  1.051634,
  0.910713,
  1.040132,
  0.904722,
  1.046713,
  0.931441,
  1.056634,
  1.152634,
  1.12,
  0.984713,
  1.039219,
  0.271955,
  0.883075,
  1.099224,
  1.169096,
  1.303792,
  0.898736,
  1.254636,
  1.205546,
  1.090967,
  1.104978,
  0.294511,
  1.081403,
  0.912748,
  1.056239,
  0.965075,
  1.212148,
  0.977659,
  1.001503,
  1.099963,
  1.214715,
  1.213553,
  0.853075,
  1.060137,
  1.100212,
  1.27754,
  1.084546,
  1.079075,
  1.181287,
  1.131685,
  0.967,
  1.050681,
  0.830798,
  1.03341,
  1.097278,
  0.933,
  1.056724,
  0.900323,
  1.080876,
  1.088091,
  1.169803,
  0.266263,
  0.981075,
  1.118862,
  0.868991,
  1.02741,
  1.122335,
  1.022665,
  1.087262,
  1.096924,
  1.01741,
  1.121075,
  0.899075,
  1.12041,
  1.047075,
  1.04741,
  1.141416,
  1.12448,
  0.973075,
  1.142712,
  0.981075,
  1.072967,
  0.891381,
  0.968352,
  0.913748,
  0.977899,
  1.075953,
  1.124778,
  0.928754,
  0.966352,
  0.850402,
  0.980726,
  0.988319,
  0.909866,
  0.989272,
  0.959868,
  1.295659,
  1.009554,
  1.131988,
  1.030097,
  0.950352,
  0.974754,
  1.291901,
  0.889988,
  1.095957,
  1.144838,
  0.968754,
  0.979352,
  0.85318,
  1.244726,
  0.878754,
  0.945352,
  1.154666,
  1.014803,
  0.908039,
  0.979743,
  1.122444,
  1.044828,
  1.104872,
  0.87,
  1.061598,
  0.258211,
  0.989352,
  0.910055,
  1.055467,
  1.095455,
  1.007105,
  0.922137,
  0.986352,
  1.129754,
  1.021352,
  1.161754,
  1.058381,
  1.185233,
  0.872579,
  1.031352,
  1.030754,
  1.128352,
  1.04901,
  1.089352,
  1.104654,
  1.184754,
  0.950815,
  1.084423,
  0.796258,
  1.088676,
  0.843589,
  0.887457,
  1.034011,
  1.263907,
  0.985465,
  0.995961,
  0.927021,
  1.003739,
  1.080255,
  1.082329,
  0.788514,
  0.997265,
  0.775495,
  0.949312,
  2.192745,
  0.880163,
  0.779644,
  1.31799,
  0.867457,
  1.00005,
  0.807576,
  0.751518,
  0.919681,
  1.098865,
  0.889084,
  1.03247,
  1.08887,
  0.962162,
  1.124415,
  0.781008,
  0.957917,
  0.834083,
  0.846939,
  0.945987,
  0.816359,
  1.021402,
  0.287,
  0.77736,
  0.986312,
  1.059853,
  0.778576,
  0.594047,
  1.128687,
  1.051681,
  1.120346,
  0.972582,
  1.112725,
  0.175094,
  0.753047,
  1.049159,
  0.858819,
  1.047812,
  0.844658,
  1.068803,
  0.874681,
  0.972312,
  0.939325,
  1.096162,
  0.782302,
  0.959731,
  0.98758,
  1.062661,
  0.947615,
  1.110012,
  0.811296,
  0.907707,
  1.118063,
  1.331625,
  0.862776,
  0.81777,
  1.04242,
  1.091514,
  1.21438,
  0.908027,
  1.016374,
  1.176333,
  0.764947,
  0.955904,
  0.723,
  0.941937,
  1.000479,
  0.899035,
  0.693552,
  0.92089,
  0.219063,
  0.801731,
  1.05018,
  0.897606,
  0.924251,
  0.943229,
  0.777786,
  0.791053,
  0.869704,
  0.976309,
  0.89977,
  0.995288,
  0.772182,
  0.908102,
  0.893516,
  1.054197,
  0.71664,
  0.941968,
  0.74577,
  0.966465,
  0.72077,
  0.915465,
  0.267195,
  0.713963,
  0.919707,
  0.712877,
  0.912996,
  0.750677,
  0.862955,
  0.790836,
  0.941707,
  0.746112,
  0.932319,
  0.97161,
  0.972456,
  1.068819,
  1.004479,
  0.947752,
  1.061,
  1.470214,
  1.037762,
  1.29061,
  0.982526,
  1.013986,
  0.28221,
  1.206357,
  1.177803,
  0.979903,
  0.970413,
  0.995754,
  0.983752,
  0.960005,
  1.234068,
  0.980668,
  0.999914,
  1.014735,
  0.935413,
  0.988219,
  1.008296,
  1.030413,
  0.96,
  1.006574,
  0.984426,
  0.95961,
  1.231413,
  0.989383,
  1.202229,
  1.161878,
  1.066,
  1.177546,
  0.96461,
  1.032326,
  0.283586,
  1.05561,
  0.955,
  1.068323,
  1.130339,
  0.97861,
  1.057413,
  0.9083,
  0.999055,
  1.026036,
  1.175253,
  0.962052,
  0.958358,
  0.282241,
  1.121721,
  1.137139,
  0.948518,
  0.963933,
  1.00261,
  1.002827,
  1.094,
  1.197971,
  1.097832,
  1.172704,
  0.99261,
  1.022716,
  0.283,
  0.759677,
  1.07661,
  0.929009,
  0.282297,
  1.049465,
  0.903598,
  0.906871,
  0.939208,
  1.098122,
  0.768564,
  0.916,
  0.960278,
  0.962846,
  1.237773,
  0.935208,
  1.091452,
  0.759598,
  1.764742,
  1.253507,
  0.728545,
  0.966272,
  1.064368,
  0.725697,
  0.956385,
  0.937143,
  0.781208,
  1.03861,
  0.743554,
  0.281014,
  0.965925,
  0.884208,
  0.940712,
  0.779598,
  0.920598,
  0.985,
  0.985962,
  0.767835,
  0.999,
  0.734208,
  1.03961,
  0.858208,
  1.071763,
  0.849436,
  1.05961,
  0.738398,
  0.975713,
  0.810409,
  0.983697,
  0.956208,
  1.055962,
  0.789758,
  1.01361,
  0.286402,
  0.748586,
  1.06761,
  0.957378,
  0.968299,
  1.00961,
  0.843704,
  1.214396,
  1.377531,
  1.186728,
  0.935754,
  1.071978,
  1.118653,
  1.067135,
  0.975419,
  0.993396,
  1.109531,
  0.932,
  1.745135,
  1.390859,
  1.385996,
  1.096111,
  0.925188,
  1.017156,
  1.077497,
  1.09735,
  0.988331,
  0.955752,
  1.109655,
  0.927452,
  1.356264,
  1.094,
  0.983396,
  1.520531,
  0.96743,
  1.095408,
  1.159173,
  1.017396,
  1.116,
  1.060903,
  1.087,
  1.207246,
  1.101814,
  1.131568,
  0.971396,
  1.116,
  1.020865,
  1.137018,
  1.03978,
  1.22594,
  1.069649,
  1.182531,
  0.279,
  1.047035,
  1.120624,
  0.959093,
  1.108696,
  1.077626,
  1.096396,
  0.999531,
  0.936,
  1.100748,
  1.019876,
  1.058531,
  1.065396,
  0.895396,
  1.20165,
  0.309499,
  0.934011,
  0.93883,
  1.289591,
  2.063,
  1.079504,
  2.034581,
  0.9942,
  1.123011,
  1.138396,
  1.068294,
  0.948328,
  0.93228,
  1.046664,
  1.129636,
  1.145254,
  1.052311,
  1.056,
  0.967251,
  1.006011,
  1.031396,
  0.911355,
  0.970667,
  0.278005,
  0.923827,
  1.408396,
  1.166955,
  1.082385,
  1.089,
  0.858686,
  0.896877,
  1.085097,
  0.970746,
  0.93009,
  0.948395,
  0.968615,
  0.984,
  1.130499,
  1.06047,
  1.08663,
  0.960175,
  0.90707,
  0.906399,
  0.979293,
  1.135296,
  0.956084,
  0.965249,
  0.932011,
  0.961934,
  0.968873,
  0.98795,
  0.281,
  0.945296,
  1.017113,
  0.964011,
  1.008392,
  0.910452,
  0.980162,
  1.067011,
  1.086224,
  0.912011,
  0.913685,
  1.077879,
  1.491334,
  0.267645,
  1.140449,
  0.901048,
  1.16227,
  0.885137,
  0.949477,
  1.126485,
  1.220008,
  1.06138,
  1.002202,
  1.712332,
  1.11004,
  1.146165,
  0.937677,
  0.979311,
  1.162822,
  0.953493,
  0.933596,
  1.080579,
  0.921341,
  1.103846,
  0.868154,
  0.267565,
  0.917838,
  0.920063,
  1.088026,
  1.437149,
  1.221997,
  1.128448,
  0.949588,
  0.965477,
  1.308212,
  1.117089,
  0.976474,
  1.138745,
  1.074481,
  1.294254,
  1.071492,
  1.292273,
  1.024543,
  1.111718,
  0.888477,
  1.14539,
  0.936612,
  1.146346,
  0.240071,
  1.052477,
  1.116895,
  0.922156,
  1.14152,
  1.012403,
  1.259803,
  0.974805,
  1.156694,
  0.963734,
  1.176636,
  0.271173,
  1.002116,
  1.183089,
  1.014704,
  1.306754,
  1.355,
  1.11,
  1.189395,
  0.258516,
  0.953954,
  1.760422,
  1.458206,
  1.0637,
  1.174754,
  1.033548,
  1.187,
  1.169,
  1.167211,
  1.124872,
  1.190033,
  0.915741,
  1.316823,
  1.851439,
  1.284155,
  0.906789,
  1.096119,
  1.130173,
  0.898231,
  1.176754,
  0.890839,
  1.188,
  1.113024,
  1.19752,
  0.877991,
  1.093754,
  0.891,
  1.12359,
  1.001992,
  0.241328,
  1.014523,
  1.241,
  0.824361,
  1.139,
  1.048364,
  1.189557,
  1.125754,
  1.193989,
  0.861971,
  1.153754,
  1.172,
  0.80441,
  0.804048,
  1.050164,
  1.298754,
  0.855858,
  1.174754,
  0.900495,
  1.159754,
  0.331955,
  1.130031,
  1.266256,
  0.882164,
  1.192864,
  0.845947,
  1.228594,
  0.928973,
  1.197172,
  1.054249,
  1.133076,
  0.998901,
  0.961488,
  1.087886,
  1.092026,
  1.023466,
  0.945759,
  1.108616,
  0.96561,
  0.995557,
  1.0096,
  0.280399,
  0.974577,
  2.290644,
  1.26142,
  0.941868,
  0.96461,
  0.975,
  1.00077,
  0.944461,
  0.934608,
  0.948352,
  1.113784,
  1.165283,
  1.712525,
  1.06,
  0.289498,
  0.991,
  1.012639,
  0.996,
  1.102,
  1.238525,
  1.07591,
  0.974943,
  1.08361,
  0.983742,
  1.010797,
  1.023687,
  0.972847,
  1.019208,
  1.026152,
  1.05061,
  0.94961,
  1.013879,
  1.084028,
  1.087267,
  0.977713,
  0.997326,
  1.048939,
  1.065459,
  0.280289,
  0.96161,
  0.964399,
  0.95161,
  0.927172,
  0.975249,
  0.924,
  0.959199,
  0.988042,
  0.976062,
  0.957713,
  0.979165,
  1.037119,
  1.14941,
  0.900622,
  0.910814,
  1.352071,
  1.062031,
  0.895165,
  1.069119,
  0.995954,
  0.841046,
  0.923,
  1.020954,
  0.91215,
  1.09989,
  1.047935,
  1.029075,
  1.266165,
  0.986122,
  1.025899,
  0.992159,
  1.005,
  0.973791,
  1.09151,
  1.186165,
  1.363119,
  1.043954,
  1.040172,
  0.2677,
  1.053933,
  1.71079,
  0.839984,
  0.940165,
  1.012145,
  0.922046,
  0.954,
  1.045,
  0.860422,
  1.087119,
  0.938463,
  1.003119,
  0.99554,
  1.010686,
  1.098173,
  1.015875,
  0.928746,
  1.026119,
  1.086874,
  0.997,
  0.95494,
  1.030618,
  1.029119,
  0.881392,
  0.842165,
  0.993721,
  0.294954,
  0.898917,
  0.962872,
  0.933206,
  1.035119,
  0.994895,
  0.26433,
  1.020176,
  1.061905,
  1.220428,
  1.105494,
  1.133816,
  1.325196,
  0.903202,
  1.366818,
  0.870213,
  1.172587,
  0.794722,
  1.142367,
  1.107428,
  1.308176,
  1.012998,
  0.913228,
  1.188531,
  0.846501,
  1.131,
  1.205863,
  1.082048,
  0.791031,
  1.057531,
  0.974431,
  1.118948,
  0.957883,
  1.184391,
  0.788276,
  1.079934,
  0.872468,
  1.098468,
  1.0725,
  1.041263,
  1.215531,
  0.967118,
  1.151889,
  1.118591,
  0.737273,
  0.758361,
  0.960439,
  1.166531,
  0.893134,
  1.054892,
  0.781192,
  1.105363,
  0.174094,
  0.919711,
  1.124531,
  0.990006,
  1.283531,
  0.881516,
  1.19,
  0.901047,
  1.108531,
  0.94736,
  1.012593,
  0.93707,
  1.198509,
  0.807056,
  1.069152,
  0.175944,
  0.768453,
  1.068531,
  0.925588,
  1.225713,
  1.075,
  0.96601,
  0.847742,
  0.946953,
  0.972286,
  1.840742,
  0.873454,
  0.907597,
  0.970167,
  1.16969,
  0.83773,
  0.940135,
  0.857035,
  0.844725,
  0.968713,
  0.256065,
  1.167,
  0.946201,
  0.870578,
  0.972713,
  0.945047,
  1.129355,
  1.144,
  1.141135,
  1.207209,
  0.903561,
  1.044035,
  1.119578,
  1.152945,
  0.825103,
  1.03588,
  0.880573,
  1.017756,
  0.968588,
  0.93183,
  0.944806,
  1.014689,
  1.048053,
  0.815,
  0.94757,
  0.892784,
  0.952235,
  0.865,
  0.948196,
  1.033578,
  1.035307,
  0.858578,
  0.920919,
  0.913578,
  0.959805,
  0.859904,
  0.971713,
  1.013753,
  1.039369,
  0.256968,
  0.911035,
  0.958578,
  1.050535,
  1.063468,
  0.892028,
  1.015537,
  0.274633,
  1.088806,
  1.106984,
  1.135067,
  1.046056,
  1.293608,
  1.078031,
  1.315348,
  1.157138,
  1.188633,
  1.28398,
  1.18494,
  1.150835,
  1.159794,
  1.094416,
  1.18498,
  1.178937,
  1.178995,
  1.233555,
  1.18598,
  1.298442,
  1.08128,
  1.287951,
  1.148243,
  1.10998,
  1.14598,
  1.150432,
  1.156114,
  0.333066,
  1.308467,
  1.307066,
  1.139659,
  1.010422,
  1.13298,
  1.026049,
  1.066428,
  1.128186,
  1.219,
  1.162,
  1.191096,
  1.267348,
  1.073414,
  1.152038,
  1.171058,
  1.214006,
  1.08426,
  1.171,
  1.26592,
  1.271,
  1.029575,
  0.273828,
  1.184496,
  1.079771,
  1.16398,
  1.170134,
  1.263,
  1.14225,
  1.20498,
  1.188549,
  1.19092,
  1.13698,
  1.142568,
  0.952454,
  1.138341,
  0.95954,
  0.889492,
  1.314251,
  0.991149,
  0.979881,
  0.793419,
  0.794719,
  0.988575,
  0.855625,
  0.958055,
  0.967156,
  0.894041,
  0.871,
  0.890484,
  0.860409,
  0.970455,
  0.877867,
  1.254906,
  0.86088,
  1.046654,
  0.992144,
  1.183,
  1.289405,
  0.890057,
  0.950799,
  1.001,
  1.15968,
  0.852897,
  1.27965,
  0.944478,
  1.093106,
  0.898,
  1.007753,
  1.049539,
  0.823542,
  1.029077,
  0.953862,
  1.145,
  1.02261,
  1.094363,
  0.892221,
  0.989974,
  0.905677,
  1.007984,
  0.252827,
  0.904611,
  0.995963,
  0.851664,
  0.984352,
  0.980352,
  1.138962,
  0.894409,
  1.061463,
  0.930508,
  0.963455,
  0.855198,
  0.960352,
  0.252525,
  0.878702,
  0.978558,
  0.955352,
  0.99191,
  1.012573,
  1.14639,
  1.036322,
  1.088113,
  1.136125,
  0.942601,
  1.012034,
  0.968,
  0.943491,
  1.000839,
  1.018479,
  0.975705,
  0.975753,
  0.960368,
  0.978075,
  1.064282,
  1.019119,
  1.021578,
  1.030516,
  0.950383,
  0.953217,
  0.954054,
  0.975352,
  1.3615,
  1.087064,
  1.079161,
  1.057248,
  1.028779,
  1.099809,
  1.167352,
  1.03009,
  0.994006,
  0.977967,
  0.965997,
  0.973561,
  0.281248,
  0.961352,
  1.073604,
  0.968897,
  0.997,
  0.998858,
  0.983,
  0.973352,
  0.980191,
  0.949352,
  0.990896,
  1.093455,
  1.088903,
  1.11906,
  1.145894,
  1.044821,
  0.973012,
  0.971863,
  1.078604,
  0.292382,
  0.964959,
  1.065736,
  0.983772,
  1.091778,
  0.940689,
  1.07941,
  1.144027,
  0.994759,
  1.173334,
  0.904227,
  1.075476,
  1.186675,
  1.067099,
  1.118754,
  1.07886,
  1.081162,
  1.061822,
  0.917745,
  1.328126,
  1.011771,
  1.172855,
  1.267966,
  1.049318,
  1.236353,
  0.85163,
  1.004221,
  1.07991,
  1.230682,
  1.077751,
  1.348606,
  1.164773,
  1.115493,
  0.965353,
  1.008911,
  0.955851,
  1.017967,
  0.986549,
  1.123554,
  1.171303,
  1.064647,
  1.061942,
  0.978955,
  1.07941,
  0.29574,
  0.874779,
  1.024454,
  0.925656,
  1.01041,
  0.916762,
  1.024792,
  0.294213,
  1.115955,
  1.185591,
  0.973656,
  1.058059,
  0.957851,
  1.047446,
  0.97335,
  1.077107,
  1.000656,
  1.106267,
  0.294714,
  1.124751,
  0.970124,
  0.967124,
  0.997268,
  1.094787,
  1.401198,
  1.102476,
  1.012869,
  1.046713,
  1.116119,
  1.018794,
  0.977,
  1.037751,
  0.968713,
  1.083119,
  1.061985,
  1.064108,
  1.468803,
  1.077233,
  1.197713,
  1.33467,
  0.9245,
  1.030346,
  0.967678,
  0.939713,
  1.039843,
  1.358991,
  0.999406,
  0.994119,
  1.012713,
  1.039685,
  1.040177,
  0.944977,
  0.953713,
  1.059119,
  0.99011,
  1.010636,
  1.068067,
  1.127119,
  0.993103,
  1.071594,
  1.128119,
  1.109486,
  0.933703,
  1.135027,
  0.936884,
  0.296406,
  1.005713,
  1.05035,
  0.941713,
  1.006119,
  1.091119,
  0.982047,
  0.977185,
  0.948232,
  0.981713,
  1.035452,
  0.928713,
  1.028119,
  1.072119,
  1.097713,
  0.805546,
  0.987352,
  1.230784,
  0.915216,
  1.235368,
  0.854976,
  1.047989,
  0.855509,
  1.212708,
  1.209391,
  0.741,
  0.785644,
  0.765078,
  0.867521,
  1.073352,
  0.979969,
  1.229496,
  0.979152,
  0.985063,
  0.840612,
  0.971352,
  0.880038,
  0.725751,
  0.824319,
  0.98139,
  0.864973,
  0.283104,
  0.8953,
  0.809745,
  0.786208,
  0.983352,
  0.973969,
  0.978969,
  1.070202,
  0.970103,
  0.709753,
  0.830856,
  1.047103,
  0.718943,
  0.998455,
  0.713753,
  1.005008,
  0.717208,
  0.981352,
  0.74787,
  1.028497,
  0.828208,
  0.99996,
  0.905989,
  0.762208,
  0.950539,
  0.206416,
  1.079568,
  1.063,
  0.802208,
  0.970959,
  0.734226,
  1.027352,
  1.088737,
  1.261995,
  1.003618,
  1.004202,
  1.131084,
  0.967492,
  1.001516,
  0.991181,
  0.955075,
  1.055255,
  1.017466,
  1.000429,
  1.007781,
  0.92855,
  0.895297,
  0.963317,
  0.971125,
  1.107802,
  1.418652,
  0.865075,
  0.974612,
  1.278387,
  0.936014,
  1.083455,
  1.216136,
  1.32354,
  1.141202,
  1.019735,
  1.01029,
  1.043492,
  1.131535,
  0.932,
  1.101,
  1.127889,
  0.905862,
  0.869138,
  0.909506,
  1.013896,
  0.922075,
  0.971352,
  0.280704,
  0.980961,
  1.114574,
  0.974931,
  1.099352,
  0.993458,
  0.996588,
  1.103858,
  0.990832,
  0.900075,
  0.966352,
  1.068401,
  1.087,
  0.281293,
  0.892,
  0.996889,
  0.911075,
  1.017352,
  0.855075,
  0.970352,
  0.954455,
  0.904,
  1.063054,
  1.082032,
  1.114352,
  1.286613,
  0.980854,
  0.941538,
  1.297286,
  1.060111,
  0.977889,
  0.283,
  1.125352,
  1.343169,
  1.104794,
  1.180419,
  1.257534,
  1.27172,
  1.351187,
  1.293,
  0.984158,
  1.114608,
  1.337912,
  1.002275,
  1.226142,
  0.969091,
  1.234194,
  1.028152,
  1.101352,
  1.497937,
  1.552157,
  1.094785,
  1.133654,
  1.439615,
  0.956105,
  0.977352,
  1.500112,
  0.983103,
  1.046103,
  1.130218,
  0.974897,
  0.99539,
  1.141255,
  1.264935,
  1.098352,
  1.252422,
  0.995638,
  1.138683,
  1.088703,
  1.226974,
  1.126455,
  1.28095,
  0.989352,
  1.052517,
  1.243015,
  1.280255,
  1.019352,
  1.185357,
  1.250898,
  1.137364,
  0.290514,
  1.038035,
  1.090896,
  1.110352,
  1.27654,
  0.971872,
  1.328646,
  1.290774,
  0.974097,
  1.036805,
  1.060097,
  0.981352,
  1.104143,
  0.282393,
  0.996671,
  1.531897,
  1.042897,
  1.112226,
  1.152,
  1.041718,
  1.057646,
  1.096,
  1.26429,
  0.977303,
  1.347782,
  1.115352,
  1.155403,
  1.372251,
  1.207941,
  1.098897,
  0.968352,
  1.046578,
  1.080969,
  1.090474,
  1.014352,
  1.116702,
  0.959774,
  1.160226,
  1.038331,
  1.013774,
  1.115,
  1.146294,
  1.152422,
  0.980352,
  1.028578,
  0.995455,
  1.118,
  1.103352,
  1.158578,
  0.956352,
  1.02967,
  0.287671,
  0.969255,
  1.059578,
  0.985434,
  1.080578,
  1.169578,
  1.06,
  1.018352,
  1.115,
  0.967352,
  1.039578,
  1.063352,
  1.177932,
  0.956731,
  1.049869,
  0.943377,
  1.368677,
  0.890472,
  1.786471,
  0.949775,
  0.886303,
  1.096531,
  0.931694,
  2.114824,
  0.97996,
  1.06,
  1.347667,
  1.008707,
  1.116531,
  1.073575,
  1.23622,
  1.666,
  1.310809,
  0.846847,
  1.044531,
  0.997679,
  0.929351,
  1.345003,
  1.360531,
  1.565424,
  1.116364,
  1.059613,
  1.232828,
  1.118111,
  0.885989,
  1.164,
  1.292904,
  0.993911,
  1.034495,
  0.962506,
  0.994531,
  0.921696,
  1.104,
  0.305859,
  0.958707,
  1.077531,
  0.908176,
  1.075,
  0.893126,
  1.114107,
  0.935953,
  1.088531,
  0.888143,
  1.236531,
  0.263581,
  0.952042,
  1.126531,
  0.921707,
  1.131531,
  1.051596,
  1.244922,
  0.893662,
  1.031531,
  0.304184,
  1.079707,
  1.119531,
  0.940816,
  0.95561,
  1.165619,
  1.25801,
  1.185875,
  1.064741,
  1.002076,
  0.919698,
  1.241061,
  1.005899,
  1.386528,
  1.112232,
  1.202991,
  1.362753,
  1.030039,
  0.991595,
  1.060369,
  1.29261,
  0.972,
  0.986897,
  0.96061,
  1.239404,
  1.127103,
  1.084858,
  0.947713,
  1.19861,
  1.306,
  1.121897,
  1.016489,
  1.03761,
  1.164713,
  0.923131,
  1.031,
  1.073,
  1.006869,
  1.012,
  0.954,
  1.019,
  0.966713,
  1.07261,
  1.100858,
  1.105755,
  1.02661,
  1.166086,
  0.279831,
  0.927279,
  0.952073,
  1.121721,
  1.141713,
  0.945713,
  0.98561,
  0.939713,
  1.030694,
  1.12861,
  1.170713,
  1.032225,
  1.09861,
  1.093945,
  1.16361,
  0.873295,
  1.000713,
  1.098242,
  0.910867,
  1.043881,
  0.952581,
  0.924469,
  0.897074,
  1.249713,
  0.271679,
  1.160366,
  0.859956,
  0.927197,
  0.93806,
  0.919022,
  0.950322,
  1.192157,
  1.319713,
  0.904118,
  0.859419,
  0.932655,
  1.179,
  0.967561,
  0.893896,
  1.004713,
  0.924226,
  0.884979,
  1.404695,
  1.773,
  1.084692,
  1.12469,
  0.903892,
  0.913,
  0.923929,
  0.98657,
  0.907682,
  0.966713,
  0.88277,
  0.971,
  0.869401,
  0.248246,
  0.988713,
  1.020237,
  0.872128,
  0.995816,
  0.915,
  0.956418,
  1.01406,
  1.065706,
  0.867958,
  0.954977,
  0.871529,
  1.009713,
  0.864852,
  0.909222,
  1.008713,
  0.981107,
  1.074713,
  0.93044,
  0.921295,
  0.975713,
  0.84823,
  0.963744,
  1.714479,
  0.9,
  1.005812,
  1.198,
  0.911988,
  0.97423,
  0.950681,
  1.187826,
  1.197223,
  1.05361,
  1.120485,
  0.854,
  0.878078,
  0.915012,
  1.267519,
  0.975777,
  1.007584,
  1.15623,
  0.917169,
  0.868653,
  0.881,
  0.885676,
  1.025641,
  1.02623,
  1.049,
  0.993,
  0.862427,
  0.96423,
  0.853517,
  0.873,
  0.894012,
  0.89,
  0.928,
  0.91323,
  0.93623,
  0.876649,
  0.89654,
  0.994725,
  1.009223,
  0.927681,
  0.872276,
  0.248587,
  0.99423,
  1.035867,
  0.90623,
  0.91923,
  0.84123,
  0.863638,
  0.88423,
  0.886625,
  0.91223,
  0.921453,
  0.88923,
  0.920524,
  0.910556,
  0.905,
  1.008399,
  1.029222,
  1.276987,
  1.130191,
  0.96098,
  1.022001,
  0.990706,
  1.143246,
  1.230119,
  1.032101,
  1.112415,
  1.184982,
  1.039316,
  0.968546,
  1.921522,
  0.97026,
  0.998916,
  0.97492,
  1.292815,
  0.98381,
  1.182517,
  1.242278,
  1.045691,
  1.031112,
  1.03255,
  1.05886,
  1.008539,
  1.063656,
  1.156002,
  1.125186,
  1.066119,
  1.149712,
  0.993103,
  0.969478,
  0.981988,
  1.027357,
  1.041926,
  0.284468,
  1.155119,
  1.183756,
  0.944573,
  0.954564,
  0.985489,
  1.027041,
  1.037852,
  0.983283,
  0.955589,
  1.077897,
  0.98157,
  1.08983,
  1.078805,
  1.133459,
  1.002259,
  1.049605,
  0.947524,
  1.030903,
  0.283791,
  0.999119,
  0.969473,
  1.0049,
  1.021349,
  0.972754,
  1.017423,
  0.929072,
  1.027406,
  1.173539,
  0.921,
  0.923,
  0.920754,
  0.987454,
  0.863,
  1.13454,
  0.985,
  0.973589,
  0.969808,
  1.018299,
  1.074652,
  1.061912,
  1.321602,
  1.196178,
  0.941754,
  0.951557,
  1.110266,
  1.048589,
  0.944943,
  0.888139,
  0.945754,
  1.183754,
  1.256908,
  0.969268,
  1.037921,
  0.258122,
  1.022367,
  1.03873,
  1.007255,
  0.911286,
  0.998111,
  0.967,
  0.884501,
  0.938255,
  0.908343,
  1.051817,
  0.919616,
  0.982884,
  0.858754,
  0.965343,
  1.049,
  1.024817,
  0.940298,
  0.906754,
  0.258584,
  0.906806,
  0.961171,
  1.036343,
  1.07426,
  1.018754,
  1.033343,
  0.908754,
  0.956338,
  0.893763,
  1.033983,
  0.986551,
  1.053942,
  0.990518,
  0.963057,
  0.244552,
  0.984,
  1.191204,
  0.989332,
  1.046481,
  1.135788,
  1.194435,
  1.027243,
  0.912864,
  0.997747,
  0.959091,
  1.022574,
  1.128322,
  1.262595,
  1.286512,
  1.178986,
  1.01857,
  1.107455,
  1.075422,
  1.054652,
  1.021295,
  0.951891,
  1.036371,
  1.270282,
  1.292878,
  1.105433,
  1.020003,
  1.008455,
  1.054721,
  0.959628,
  0.979194,
  1.068406,
  1.039455,
  1.041249,
  0.984581,
  1.049431,
  1.002461,
  1.015047,
  0.962552,
  1.0454,
  0.24439,
  1.105966,
  1.083889,
  0.977081,
  1.02267,
  0.972352,
  1.04395,
  0.972158,
  1.081826,
  0.939352,
  1.08167,
  0.853079,
  1.08209,
  1.097896,
  0.929989,
  0.994391,
  1.011829,
  0.856823,
  0.990054,
  0.808045,
  0.890578,
  0.92727,
  0.993169,
  1.314517,
  0.936054,
  0.750325,
  0.767964,
  0.856784,
  0.865627,
  0.974198,
  1.102217,
  1.086,
  1.12227,
  0.901067,
  0.978861,
  1.05945,
  1.093439,
  1.018521,
  0.931424,
  0.957578,
  0.819178,
  0.255821,
  0.906795,
  1.020849,
  0.93121,
  0.850573,
  0.858232,
  0.827334,
  0.885334,
  0.922014,
  0.787724,
  0.940219,
  0.826635,
  0.864188,
  0.863948,
  0.98542,
  0.892681,
  0.976994,
  0.888578,
  0.914387,
  0.959004,
  1.04739,
  0.864104,
  0.893907,
  0.865578,
  0.939935,
  0.258951,
  0.948578,
  0.993627,
  0.897578,
  0.922024,
  0.207015,
  0.915578,
  0.920503,
  0.869578,
  1.012312,
  1.148515,
  0.328,
  1.002,
  1.160266,
  1.032266,
  0.96,
  1.110734,
  0.803228,
  1.373312,
  1.269744,
  1.096346,
  0.860266,
  1.102734,
  1.102312,
  1.227909,
  0.973266,
  1.215,
  0.978668,
  0.971,
  0.850386,
  1.011312,
  1.036266,
  1.237,
  0.862,
  1.001578,
  1.337312,
  0.874266,
  0.852266,
  0.818,
  1.169,
  0.909578,
  0.935266,
  1.069,
  1.03,
  1.194,
  0.926712,
  0.968554,
  1.020799,
  1.132,
  0.992266,
  1.195,
  0.900578,
  1.186312,
  1.098312,
  1.155199,
  0.304,
  0.853578,
  1.009,
  0.872234,
  1.064,
  0.859578,
  0.973312,
  0.917578,
  1.026312,
  1.111578,
  1.162415,
  0.886326,
  0.947744,
  0.962075,
  0.986312,
  0.923713,
  0.928154,
  0.982509,
  0.896972,
  1.005633,
  0.958114,
  1.145497,
  0.797859,
  1.043788,
  0.27297,
  0.98448,
  0.850756,
  0.940114,
  1.121727,
  0.891783,
  1.189998,
  0.916713,
  1.013533,
  0.894956,
  0.812599,
  0.977713,
  0.921807,
  1.213037,
  0.926116,
  0.889,
  0.813057,
  0.962713,
  1.187304,
  0.940028,
  0.853638,
  0.957649,
  0.865599,
  0.925713,
  0.948,
  1.110942,
  1.155919,
  0.813599,
  0.923412,
  1.083281,
  1.089888,
  0.887204,
  1.008766,
  0.896529,
  0.973173,
  0.252989,
  0.966442,
  1.009539,
  0.913599,
  0.940713,
  0.856349,
  0.986713,
  1.002529,
  1.073295,
  0.977599,
  1.005713,
  0.909599,
  0.963618,
  0.251502,
  0.884599,
  0.933713,
  0.864075,
  0.928643,
  0.896679,
  0.976734,
  0.901716,
  0.947734,
  1.355088,
  0.911869,
  0.946187,
  1.019075,
  0.97243,
  1.301068,
  0.916031,
  0.996638,
  0.946,
  0.897075,
  0.938458,
  0.935255,
  1.261572,
  0.939713,
  1.236961,
  1.125509,
  1.075382,
  1.119744,
  1.291,
  0.994452,
  0.902075,
  0.912497,
  1.21884,
  1.256398,
  0.268,
  0.999075,
  1.042713,
  0.966742,
  0.942042,
  1.091638,
  0.996279,
  1.077977,
  0.875539,
  0.951,
  1.020362,
  1.089318,
  1.040573,
  1.055899,
  0.936077,
  0.943805,
  0.859864,
  1.037713,
  0.909978,
  0.940232,
  1.064713,
  1.02402,
  0.927713,
  0.918,
  0.267,
  1.046713,
  1.021333,
  0.878075,
  0.962713,
  1.181754,
  1.423976,
  1.430879,
  1.110442,
  0.939062,
  1.150061,
  0.957664,
  1.112886,
  2.043126,
  0.966591,
  1.425989,
  1.20567,
  0.993532,
  0.976179,
  0.948514,
  1.143845,
  1.061894,
  1.241467,
  1.336059,
  1.023007,
  1.084732,
  0.99335,
  1.159281,
  1.145142,
  0.978271,
  1.034904,
  1.087754,
  1.196499,
  1.298846,
  1.242041,
  1.096671,
  0.942975,
  1.225,
  1.125,
  1.103934,
  1.128132,
  0.271959,
  1.209713,
  1.245754,
  0.95689,
  1.118978,
  0.949371,
  1.135754,
  1.03643,
  1.235,
  1.20459,
  1.158243,
  0.970713,
  1.087,
  1.09443,
  1.257996,
  1.0439,
  1.251754,
  0.951931,
  1.108,
  0.273568,
  1.065455,
  1.087754,
  0.926624,
  1.105154,
  1.059816,
  1.199934,
  0.905915,
  1.433352,
  0.284,
  1.032032,
  0.950305,
  1.185344,
  0.974638,
  0.977379,
  1.031352,
  0.913512,
  1.152412,
  1.229713,
  1.051447,
  0.980735,
  0.94116,
  0.97439,
  1.022574,
  1.384,
  1.09455,
  0.994378,
  1.028487,
  0.929086,
  0.966,
  1.779,
  1.916,
  0.945798,
  0.960352,
  0.966272,
  1.026352,
  1.047436,
  0.954111,
  0.964538,
  0.947352,
  0.959577,
  0.965971,
  1.014932,
  0.965172,
  0.924001,
  1.012352,
  1.125223,
  1.156516,
  1.016712,
  1.039868,
  1.034522,
  1.089484,
  0.976583,
  0.993352,
  0.281889,
  1.106868,
  1.200352,
  0.970071,
  1.053,
  0.914249,
  0.968352,
  0.976429,
  1.055352,
  0.952193,
  1.011352,
  0.969826,
  0.994352,
  0.968935,
  0.976064,
  0.263736,
  0.709208,
  0.873894,
  0.838254,
  0.788349,
  0.923263,
  1.10315,
  0.862631,
  0.808189,
  0.881078,
  1.164781,
  0.724261,
  0.845175,
  0.736,
  1.004502,
  0.737609,
  0.923208,
  1.037085,
  0.959199,
  0.848383,
  0.779208,
  0.897599,
  0.892,
  0.882611,
  0.920609,
  1.099098,
  1.137208,
  0.815603,
  0.895945,
  0.814391,
  1.06,
  0.714208,
  0.811382,
  0.758029,
  0.897689,
  0.840012,
  0.845511,
  0.767927,
  0.852071,
  0.790785,
  0.82,
  0.726,
  0.885463,
  0.967208,
  0.986599,
  0.20846,
  0.855208,
  0.703208,
  0.868548,
  0.948599,
  0.932208,
  0.983439,
  0.802244,
  0.908204,
  0.843774,
  0.977355,
  0.786745,
  0.862599,
  0.712208,
  0.901599,
  0.252006,
  1.175754,
  1.278121,
  0.990051,
  1.220994,
  1.155622,
  1.1314,
  1.030352,
  1.131754,
  1.244944,
  1.089598,
  1.727687,
  1.097697,
  1.027956,
  1.082458,
  1.001455,
  1.15982,
  1.1506,
  1.27618,
  1.128876,
  1.12416,
  1.155255,
  1.199754,
  1.407085,
  0.974323,
  1.063422,
  1.264352,
  1.161961,
  1.2785,
  1.365509,
  1.471598,
  0.959103,
  1.065455,
  1.089,
  1.167962,
  0.976432,
  0.986255,
  1.169019,
  1.188891,
  0.282991,
  0.944352,
  1.187,
  1.091352,
  1.238754,
  0.986975,
  1.23,
  1.084352,
  1.237724,
  1.046114,
  1.102,
  1.074716,
  1.142754,
  1.082352,
  1.194754,
  0.9996,
  1.129754,
  1.118444,
  1.211,
  1.021645,
  1.125,
  0.282,
  1.084352,
  1.199154,
  0.914192,
  0.91844,
  1.040947,
  1.037239,
  1.058176,
  0.849865,
  0.933136,
  0.890192,
  0.899547,
  0.898719,
  0.922418,
  0.902404,
  0.971458,
  0.891374,
  0.949669,
  0.963192,
  0.972124,
  1.090804,
  1.115566,
  1.03407,
  1.036192,
  1.041165,
  1.166,
  0.988402,
  0.902165,
  0.985192,
  0.897489,
  0.957158,
  0.917011,
  0.888192,
  0.893668,
  0.938641,
  0.951,
  0.963386,
  0.908834,
  1.048958,
  0.908805,
  0.945165,
  0.871192,
  0.89578,
  0.266483,
  0.871033,
  0.918069,
  1.000346,
  0.955,
  0.945348,
  1.016192,
  0.92119,
  0.907546,
  0.884004,
  0.944246,
  0.993432,
  1.058192,
  0.840192,
  0.902165,
  0.860192,
  0.921,
  0.257719,
  0.886192,
  1.043165
]