[
  11.401647128943411,
  12.83170445783207,
  16.242139300521742,
  18.113216730307208,
  17.418359748962857,
  13.158613728994435,
  32.99495454252368,
  21.09886768336366,
  30.527591349739,
  16.627336458087946,
  17.330169629287827,
  18.60947713903864,
  19.585540070519897,
  5.5095723562464265,
  12.003442330698325,
  18.51973327060187,
  16.054047482725352,
  16.437990379132824,
  19.874598866874777,
  30.544218702201768,
  8.88130776239858,
  17.490696551635754,
  24.030277415794988,
  15.563814013610608,
  15.721247638212564,
  24.78762117551602,
  12.7123249386703,
  17.58672537858449,
  32.25660300050425,
  12.37320767947384,
  9.09997243611403,
  12.607015274698215,
  22.865640796492315,
  22.375476204791287,
  20.166653530118825,
  8.758651675777452,
  22.365818746039032,
  22.362886485305363,
  13.24683855602584,
  14.894542094022542,
  9.455698249180028,
  15.441295729809855,
  14.018059541012342,
  13.072683320932589,
  5.606248596298062,
  14.88722980246124,
  12.479765631906734,
  12.126036729857832,
  19.498504420057916,
  30.48144866458678,
  25.855154294087185,
  19.65380497664347,
  15.805130224621058,
  18.86381649279315,
  17.199040424834674,
  16.023445603460075,
  11.516054258724779,
  14.563478087635232,
  36.77164081236698,
  12.602978843927788,
  6.328991612878292,
  20.673208027390903,
  12.714062102078977,
  16.24329932904014,
  20.759697155636257,
  26.220305004195254,
  10.651320958937609,
  28.640640850736386,
  31.005741032476966,
  24.11918930065399,
  18.430850824351467,
  23.22497376109833,
  22.88238384832089,
  14.247852598460279,
  19.33969840699938,
  20468.749999956806,
  32.49007936507937,
  21.76820287034523,
  13.540981003760884,
  23.38657617668398,
  17.05402297892904,
  26.287991164024213,
  30.864546578606088,
  16.30696733228968,
  16.37336266373363,
  6.891637781410296,
  31.5015313110793,
  12.893985064237636,
  4.843654236149072,
  15.30894622095741,
  12.180879552487506,
  21.512651409653433,
  21.14485679605384,
  18.868598503878562,
  33.63666242142882,
  23.66794630158529,
  25.586737085533905,
  21.366684934366766,
  14.736002822113273,
  17.874608123095182,
  11.970239243963347,
  11.562991647812805,
  19.682909825227792,
  13.109270876363766,
  22.694262890341314,
  15.456745654176654,
  18.775310838886632,
  12.602202903547544,
  12.556552411624875,
  23.39325817014005,
  18.415181081676817,
  21.993327459491987,
  28.620617331422373,
  22.73358322921004,
  25.95860573356245,
  17.955752639358575,
  13.977472156021875,
  20.166951569758567,
  15.82510910869119,
  18.27909697353969,
  1.21583413275201,
  17.400294981489278,
  15.56410987548713,
  24.536540340319963,
  17.2847299043244,
  15.883439319926909,
  28.839786400653814,
  36.045416123692455,
  13.055881565015502,
  36.542856122685784,
  33.11452468776291,
  33.656296759129845,
  8.299644800544968,
  27.42936206422907,
  37.28471634015504,
  29.28918938255707,
  19.8762393062798,
  11.812324348031842,
  13.766242063919075,
  20.246243780848477,
  38.11330416162368,
  25.42165008631719,
  28.033815201090203,
  23.018380967910637,
  24.160897560745283,
  8.855123155160145,
  10.540171732385843,
  13.378442855462167,
  21.09886768336365,
  13.162040594546447,
  28.23412164725195,
  14.954556413609694,
  19.772844729736914,
  16.934446370288864,
  17.138700494013225,
  18.767133963527,
  15.664819732602712,
  10.158138173011551,
  11.967334839816768,
  40.12339628929024,
  13.843331529825502,
  16.860376519235768,
  15.34291293283411,
  15.915116785369943,
  15.623509207136726,
  21.861549306304678,
  14.62513218440081,
  24.314444041884702,
  26.961655997260227,
  9.80226658333991,
  16.42915047998203,
  20.466294044714612,
  17.405325657629007,
  14.135633017385745,
  12.111471393998922,
  14.514424900814396,
  7.8569577859452835,
  6.549056935801247,
  15.385757345700812,
  19.307045096541117,
  17.877184018725462,
  21.60734926977055,
  13.54129453948849,
  22.739518297153793,
  20.106827111984284,
  15.038111856001466,
  22.07265982627638,
  27.867407301515954,
  21.320615179496784,
  20.243941034808454,
  29.710281662542016,
  22.831591393291756,
  7.244126395959744,
  28.058217159463183,
  16.241752661167784,
  15.159117503295676,
  16.300344422544747,
  14.485612579969429,
  16.823514907432152,
  20366.91542318863,
  26.609055691331708,
  23.131014063656544,
  9.468645628058875,
  23.509329076051053,
  21.73584084187725,
  20.7545400160206,
  1.383155422239551,
  13.586280138725265,
  10.461093038885238,
  7.044246904403012,
  19.044506575733745,
  15.803421838929594,
  27.118829327751115,
  24.077058349556225,
  15.100405013611116,
  13.829302074184179,
  14.76012431855548,
  13.79728149319025,
  36.510265237322315,
  21.401535944124674,
  31.156056166520813,
  23.806962246155994,
  13.554162017554601,
  25.391376080781036,
  25.58098118489542,
  12.869380697893751,
  19.121809723104512,
  7.827123576299996,
  23.160720549464216,
  25.421176499810606,
  19.399452195010984,
  22.36777401376899,
  22.003020628419687,
  28.82313595719212,
  19.469386396278974,
  10.442440629543666,
  29.569076975304608,
  15.052322332039065,
  13.87349742609556,
  23.004281957337767,
  16.987148897676665,
  11.831955166463862,
  50.50956828585181,
  19.94130254761557,
  14.516586585344239,
  18.69992417252122,
  42.348115735137426,
  17.27342540200933,
  13.376126045175782,
  29.213318775734468,
  19.32855834332714,
  25.36714586689801,
  6.869353496301667,
  14.140515707846145
]