[
  15.08932882665379,
  12.69790881314233,
  31.37304114574349,
  5.0503775157193,
  17.73631421654267,
  17.975952669316623,
  24.387641562638112,
  38.08109368901071,
  28.16732801205562,
  108.27930647104216,
  33.329306042186595,
  17.24052471536971,
  67.95613431529947,
  45.20259236867233,
  44.43679144147396,
  35.3409964393946,
  12.272649174050711,
  15.106025415887762,
  7.060358119014693,
  31.371810859352294,
  12.382271682518558,
  13.135102741131751,
  30.644883262147847,
  39.59807949314464,
  20.626052250946856,
  17.474574494111067,
  20.989442310517813,
  27.02246242188822,
  29.629410152517455,
  39.59729550471706,
  25.55632934441626,
  29.735465861826746,
  34.77897958473895,
  25.756600128783003,
  28.621413826289455,
  27.460928248027084,
  59.64051678507796,
  25.206218374072897,
  26.059820317538893,
  66.74509214994288,
  64.58488067943301,
  48.546635111353844,
  27.214124130423688,
  85.8940496897078,
  50.59224547357507,
  34.479934832923135,
  9.200679470178876,
  45.97938973854969,
  22.305309500110116,
  21.976150382797055,
  6.36924926455075,
  24.31448352997671,
  15.935842298904616,
  33.285069981859635,
  32.118710754950285,
  118.8248225054214,
  23.23609029544687,
  26.486558071778585,
  38.37666698647221,
  19.48838127069118,
  31.396681370779106,
  11.441451233674483,
  27.761487182868418,
  7.312413736369227,
  38.96413838113747,
  9.119292890029309,
  31.898689761318032,
  27.80606658857795,
  30.41628487892422,
  32.59492252594353,
  29.047074414973792,
  5.82649994137084,
  23.714454256299874,
  24.02099434906106,
  25.63897123627916,
  38.828731319740015,
  29.33239469670303,
  20.252446748722843,
  61.04074469708532,
  31.686180072561335
]