{
  "1000": [
    0.51186,
    0.37998,
    0.4166,
    0.16698,
    0.405709,
    0.19398,
    0.15898,
    0.42398,
    0.498835,
    0.39798,
    0.337854,
    0.258761,
    0.16298,
    0.73978,
    0.295946,
    0.293098,
    0.345478,
    0.37398,
    0.24998,
    0.203353,
    0.19598,
    0.293979,
    0.387942,
    0.234474,
    0.244042,
    0.16598,
    0.426185,
    0.282546,
    0.19898,
    0.377981,
    0.492395,
    0.255896,
    0.273807,
    0.344953,
    0.257647,
    0.407978,
    0.439354
  ],
  "1048576": [
    0.450865,
    0.148487,
    0.164897,
    0.19298,
    0.290949,
    0.36503,
    0.248593,
    0.426492,
    0.32838,
    0.46498,
    0.364323,
    0.23088,
    0.61098,
    0.313976,
    0.466694,
    0.181979,
    0.26698,
    0.40798,
    0.135084,
    0.524202,
    0.336861,
    0.279375,
    0.378678,
    0.478979,
    0.509174,
    0.383505,
    0.184086,
    0.21098,
    0.47698,
    0.69498,
    0.215979,
    0.360194,
    0.19798,
    0.37255,
    0.256964,
    0.194981,
    0.439887,
    0.249985,
    0.220119,
    0.238165,
    0.25598,
    0.239927,
    0.225071,
    0.217979,
    0.253185,
    0.455776,
    0.24198,
    0.51789,
    0.183003,
    0.21998,
    0.157531,
    0.288939,
    0.403219,
    0.25998,
    0.17636,
    0.13498,
    0.15798,
    0.39898,
    0.23298,
    0.157663,
    0.192953,
    0.279952,
    0.54598,
    0.21298,
    0.337978,
    0.293405,
    0.297218,
    0.36498,
    0.26698,
    0.158593,
    0.157981,
    0.600239,
    0.276002,
    0.287429,
    0.331484,
    0.476902,
    0.36798,
    0.147455,
    0.413026,
    0.399627,
    0.221371,
    0.288188,
    0.165677,
    0.304263,
    0.46198,
    0.22798,
    0.235364,
    0.393465,
    0.315978,
    0.271331,
    0.352926,
    0.397888,
    0.498214,
    0.41162,
    0.20098,
    0.37898,
    0.170331,
    0.64498,
    0.21698,
    0.38298,
    0.200065,
    0.299269,
    0.260104,
    0.582439,
    0.294327,
    0.56057,
    0.36798,
    0.162369,
    0.345033,
    0.577629,
    0.19198,
    0.24598,
    0.271979,
    0.178979,
    0.378979
  ],
  "51200": [
    0.196648,
    0.289976,
    0.201951,
    0.201871,
    0.299871,
    0.212191,
    0.17598,
    0.21098,
    0.506667,
    0.493981,
    0.16598,
    0.30923,
    0.276767,
    0.434978,
    0.205979,
    0.162644,
    0.21698,
    0.183979,
    0.30798,
    0.20198,
    0.35198,
    0.20498,
    0.474055,
    0.272977,
    0.59198,
    0.21298,
    0.260109,
    0.21998,
    0.162593,
    0.264979,
    0.452797,
    0.23698,
    0.371608,
    0.425964,
    0.47098,
    0.40498,
    0.20398,
    0.23498,
    0.375979,
    0.29198,
    0.285069,
    0.306246,
    0.403196,
    0.48998,
    0.17298,
    0.558895,
    0.17398,
    0.198979,
    0.26298,
    0.20298,
    0.194173,
    0.20697,
    0.147922,
    0.13898,
    0.369022,
    0.24523,
    0.329053,
    0.31098,
    0.247976,
    0.16798,
    0.18098,
    0.185101,
    0.28898,
    0.55198,
    0.19798,
    0.30498,
    0.2894,
    0.250454,
    0.189033,
    0.398994,
    0.271262,
    0.175059,
    0.21998,
    0.280979,
    0.451014,
    0.63798,
    0.275965,
    0.291977,
    0.38498,
    0.193414,
    0.25498,
    0.264979,
    0.41498,
    0.367979,
    0.27998,
    0.317021,
    0.273046,
    0.381914,
    0.179676,
    0.175803,
    0.27591,
    0.217207,
    0.171662,
    0.54698,
    0.28998,
    0.23498,
    0.369123,
    0.19898,
    0.489071,
    0.392979,
    0.289101,
    0.278217,
    0.18898,
    0.29598,
    0.256503,
    0.352497,
    0.230912,
    0.187787,
    0.464981,
    0.24498,
    0.27298,
    0.22298,
    0.13598,
    0.372979,
    0.222063,
    0.165978,
    0.313278,
    0.332981,
    0.46198,
    0.28398,
    0.284511,
    0.20598,
    0.15698,
    0.26267,
    0.24898,
    0.26398,
    0.268834,
    0.13398,
    0.19298,
    0.26698,
    0.49198,
    0.434849,
    0.61798,
    0.221857,
    0.23398,
    0.201287,
    0.38898,
    0.519434,
    0.469979,
    0.38398,
    0.247762,
    0.301754,
    0.324366,
    0.321972,
    0.206979,
    2.036672,
    0.199256,
    0.38722,
    0.28998,
    0.27698,
    0.200298,
    0.21598,
    0.455996,
    0.320981,
    0.292979,
    0.212978,
    0.22696,
    0.49398,
    0.233489,
    0.287527,
    0.263643,
    0.163073,
    0.16898,
    0.396671,
    0.20213,
    0.46498,
    0.14498,
    0.21398,
    0.21498,
    0.487552,
    0.24798,
    0.433386,
    0.28792,
    0.42398,
    0.341981,
    0.429981,
    0.352985,
    0.17298,
    0.15498,
    0.23898,
    0.491964,
    0.49398,
    0.171981,
    0.23107,
    0.33998,
    0.42398,
    0.328969,
    0.22498,
    0.290199,
    0.257795,
    0.295026,
    0.293422,
    0.295217,
    0.1996,
    0.253835,
    0.158574,
    0.307605,
    0.186268,
    0.193491,
    0.315431,
    0.343733,
    0.31195,
    0.22813,
    0.30798,
    0.24198,
    0.32998,
    0.257959,
    0.49198,
    0.269743,
    0.71598,
    0.203116,
    0.352207,
    0.23798,
    0.56498,
    0.2037,
    0.26998,
    0.33598,
    0.35701,
    0.332836,
    0.287881,
    0.203327,
    0.169979,
    0.368706,
    0.151415,
    0.242732,
    0.25298,
    0.30198,
    0.26298,
    0.22698,
    0.290917,
    0.155983,
    0.324398,
    0.199475,
    0.28098,
    0.212979,
    0.358979,
    0.276784,
    0.29198,
    0.49398,
    0.240614,
    0.133485,
    0.419191,
    0.27998,
    0.29498,
    0.290723,
    0.406564,
    0.42998,
    0.31798,
    0.244124,
    0.290416,
    0.44898,
    0.26998,
    0.51598,
    0.31698,
    0.17598,
    0.258571,
    0.43498,
    0.182317,
    0.181979,
    0.339741,
    0.147321,
    0.216979,
    0.271428,
    0.252981,
    0.286981,
    0.532238,
    0.33798,
    0.24598,
    0.26498,
    0.24898,
    0.154287,
    0.320805,
    0.253776,
    0.42398,
    0.16098,
    0.394967,
    0.471741,
    0.253225,
    0.23777,
    0.307938,
    0.203982,
    0.44598,
    0.34798,
    0.243976,
    0.21098,
    0.240128,
    0.21498,
    0.310922,
    0.36198,
    0.09898,
    0.17998,
    0.29398,
    0.287648,
    0.16998,
    0.25798,
    0.193697,
    0.45298,
    0.23598,
    0.16998,
    0.57698,
    0.35798,
    0.407875,
    0.25998,
    0.259986,
    0.31098,
    0.372126,
    0.186978,
    0.26998,
    0.133784,
    0.17798,
    0.141302,
    0.388981,
    0.220119,
    0.165981,
    0.212023,
    0.41298,
    0.21398,
    0.39198,
    0.197979,
    0.285102,
    0.30398,
    0.333609,
    0.24598,
    0.318467,
    0.72698,
    0.227007,
    0.318978,
    0.284808,
    0.455597,
    0.243233,
    0.359857,
    0.33298,
    0.178903,
    0.157001,
    0.169979,
    0.287979,
    0.224203,
    0.253978,
    0.294058,
    0.248458,
    0.209912,
    0.365979,
    0.124508,
    0.36398,
    0.34898,
    0.34198,
    0.457868,
    0.252982,
    0.407037,
    0.298103,
    0.281951,
    0.18598,
    0.363979,
    0.292979,
    0.253978,
    0.23798,
    0.180827,
    0.26398,
    0.339828,
    0.213691,
    0.306455,
    0.299979,
    0.45798,
    0.18998,
    0.18878,
    0.334079,
    0.30198,
    0.25598,
    0.388065,
    0.22198,
    0.314098,
    0.398764,
    0.133143,
    0.423193,
    0.236824,
    0.405945,
    0.26598,
    0.326054,
    0.49198,
    0.13851,
    0.371975,
    0.593889,
    0.26598,
    0.559445,
    0.236983,
    0.193178,
    0.28398,
    0.40363,
    0.23898,
    0.264567,
    0.163903,
    0.222981,
    0.204579,
    0.35605,
    0.22898,
    0.362964,
    0.10998,
    0.361465,
    0.18598,
    0.51698,
    0.250374,
    0.187785,
    0.293979,
    0.433982,
    0.517931,
    0.218979,
    0.19298,
    0.455296,
    0.386056,
    0.156014,
    0.34732,
    0.242982,
    0.284981,
    0.17223,
    0.329143,
    0.34496,
    0.254917,
    0.155508,
    0.17109,
    0.200964,
    0.249851,
    0.153425,
    0.392532,
    0.29344,
    0.486911,
    0.117584,
    0.179761,
    0.529926,
    0.414501,
    0.501222,
    0.311074,
    0.190348,
    0.34107,
    0.518858,
    0.289979,
    0.18598,
    0.344798,
    0.4131,
    0.28515,
    0.171093,
    0.399314,
    0.27436,
    0.329995,
    0.20798,
    0.44767,
    0.24497,
    0.152397,
    0.208765,
    0.419668,
    0.469724,
    0.225999,
    0.330189,
    0.200981,
    0.429574,
    0.43998,
    0.379319,
    0.26182,
    0.450231,
    0.30421,
    0.423078,
    1.035061,
    0.41098,
    0.13998,
    0.25198,
    0.151973,
    0.137946,
    0.24998,
    0.32498,
    0.31798,
    0.41098,
    0.151986,
    0.183997,
    0.21398,
    0.24898,
    0.21498,
    0.26298,
    0.251071,
    0.152063,
    0.343301,
    0.171264,
    0.13898,
    0.244839,
    0.20098,
    0.38298,
    0.28998,
    0.151654,
    0.366901,
    0.365183,
    0.446602,
    0.3663,
    0.211089,
    0.416947,
    0.194059,
    0.223979,
    0.230242,
    0.390405,
    0.169167,
    0.302979,
    0.232015,
    0.284973,
    0.397979,
    0.149982,
    0.467979,
    0.30604,
    0.341979,
    0.190128,
    0.20898,
    0.466982,
    0.259979,
    0.23998,
    0.264008,
    0.220006,
    0.195356,
    0.369994,
    0.354686,
    0.424953,
    0.263266,
    0.180116,
    0.216983,
    0.19398,
    0.332515,
    0.689009,
    0.157977,
    0.17298,
    0.216978,
    0.425557,
    0.216307,
    0.517292,
    0.224973,
    0.182829,
    0.16198,
    0.28298,
    0.182325,
    0.207806,
    0.152393,
    0.20798,
    0.545928,
    0.186978,
    0.40598,
    0.226943,
    0.358983,
    0.45598,
    0.244979,
    0.28798,
    0.251314,
    0.17377,
    0.16398,
    0.387343,
    0.280981,
    0.389975,
    0.184117,
    0.409007,
    0.167529,
    0.290402,
    0.21598,
    0.40298,
    0.167351,
    0.161939,
    0.319978,
    0.459921,
    0.40798,
    0.212554,
    0.21998
  ],
  "5242880": [
    0.433978,
    0.302002,
    0.323979,
    0.16812,
    0.30398,
    0.26198,
    0.128544,
    0.445579,
    0.18998,
    0.19798,
    0.153443,
    0.467981,
    0.474987,
    0.20798,
    0.352964,
    0.24198,
    0.327427,
    0.19598,
    0.352345,
    0.31598,
    0.127176,
    0.443306,
    0.279089,
    0.233816,
    0.476166,
    0.20498,
    0.448113,
    0.413819,
    0.487759,
    0.31698,
    0.534816,
    0.22298,
    0.241875,
    0.17998,
    0.352142,
    0.615602,
    0.374156,
    0.267457,
    0.195504,
    58.611779,
    0.20295,
    0.315795,
    0.228168,
    0.421797,
    0.450979,
    0.233129,
    0.30098,
    0.35298,
    0.41898,
    0.212243,
    0.202973
  ],
  "ALL": [
    0.51186,
    0.196648,
    0.289976,
    0.201951,
    0.201871,
    0.299871,
    0.212191,
    0.17598,
    0.21098,
    0.506667,
    0.493981,
    0.16598,
    0.30923,
    0.450865,
    0.433978,
    0.302002,
    0.37998,
    0.276767,
    0.434978,
    0.205979,
    0.162644,
    0.21698,
    0.183979,
    0.30798,
    0.20198,
    0.35198,
    0.20498,
    0.148487,
    0.164897,
    0.19298,
    0.323979,
    0.474055,
    0.272977,
    0.59198,
    0.21298,
    0.260109,
    0.21998,
    0.162593,
    0.264979,
    0.452797,
    0.23698,
    0.371608,
    0.425964,
    0.47098,
    0.40498,
    0.16812,
    0.30398,
    0.4166,
    0.20398,
    0.23498,
    0.375979,
    0.29198,
    0.285069,
    0.306246,
    0.403196,
    0.48998,
    0.17298,
    0.558895,
    0.290949,
    0.36503,
    0.248593,
    0.426492,
    0.26198,
    0.16698,
    0.405709,
    0.17398,
    0.198979,
    0.26298,
    0.20298,
    0.194173,
    0.20697,
    0.147922,
    0.13898,
    0.369022,
    0.24523,
    0.32838,
    0.46498,
    0.364323,
    0.128544,
    0.329053,
    0.31098,
    0.247976,
    0.16798,
    0.18098,
    0.185101,
    0.28898,
    0.55198,
    0.19798,
    0.30498,
    0.2894,
    0.250454,
    0.189033,
    0.398994,
    0.23088,
    0.61098,
    0.271262,
    0.175059,
    0.21998,
    0.280979,
    0.451014,
    0.63798,
    0.275965,
    0.291977,
    0.38498,
    0.193414,
    0.313976,
    0.466694,
    0.181979,
    0.26698,
    0.40798,
    0.135084,
    0.19398,
    0.15898,
    0.25498,
    0.264979,
    0.41498,
    0.367979,
    0.27998,
    0.317021,
    0.273046,
    0.381914,
    0.524202,
    0.336861,
    0.279375,
    0.378678,
    0.478979,
    0.445579,
    0.42398,
    0.179676,
    0.175803,
    0.27591,
    0.217207,
    0.171662,
    0.54698,
    0.28998,
    0.23498,
    0.369123,
    0.19898,
    0.489071,
    0.509174,
    0.383505,
    0.18998,
    0.19798,
    0.392979,
    0.289101,
    0.278217,
    0.18898,
    0.29598,
    0.256503,
    0.352497,
    0.230912,
    0.187787,
    0.464981,
    0.24498,
    0.27298,
    0.22298,
    0.13598,
    0.184086,
    0.153443,
    0.372979,
    0.222063,
    0.165978,
    0.313278,
    0.332981,
    0.46198,
    0.28398,
    0.284511,
    0.20598,
    0.15698,
    0.26267,
    0.24898,
    0.26398,
    0.21098,
    0.47698,
    0.69498,
    0.498835,
    0.268834,
    0.13398,
    0.19298,
    0.26698,
    0.49198,
    0.434849,
    0.61798,
    0.221857,
    0.23398,
    0.201287,
    0.38898,
    0.215979,
    0.360194,
    0.19798,
    0.467981,
    0.519434,
    0.469979,
    0.38398,
    0.247762,
    0.301754,
    0.324366,
    0.321972,
    0.206979,
    2.036672,
    0.199256,
    0.38722,
    0.28998,
    0.27698,
    0.200298,
    0.21598,
    0.37255,
    0.39798,
    0.455996,
    0.320981,
    0.292979,
    0.212978,
    0.22696,
    0.49398,
    0.233489,
    0.287527,
    0.263643,
    0.163073,
    0.256964,
    0.194981,
    0.439887,
    0.249985,
    0.474987,
    0.337854,
    0.258761,
    0.16298,
    0.16898,
    0.396671,
    0.20213,
    0.46498,
    0.14498,
    0.21398,
    0.21498,
    0.487552,
    0.24798,
    0.433386,
    0.28792,
    0.220119,
    0.20798,
    0.42398,
    0.341981,
    0.429981,
    0.352985,
    0.17298,
    0.15498,
    0.23898,
    0.491964,
    0.49398,
    0.171981,
    0.23107,
    0.33998,
    0.42398,
    0.238165,
    0.25598,
    0.352964,
    0.73978,
    0.328969,
    0.22498,
    0.290199,
    0.257795,
    0.295026,
    0.293422,
    0.295217,
    0.1996,
    0.253835,
    0.158574,
    0.307605,
    0.239927,
    0.225071,
    0.217979,
    0.253185,
    0.295946,
    0.186268,
    0.193491,
    0.315431,
    0.343733,
    0.31195,
    0.22813,
    0.30798,
    0.24198,
    0.455776,
    0.24198,
    0.51789,
    0.183003,
    0.24198,
    0.327427,
    0.19598,
    0.32998,
    0.257959,
    0.49198,
    0.269743,
    0.71598,
    0.203116,
    0.352207,
    0.23798,
    0.56498,
    0.2037,
    0.26998,
    0.33598,
    0.35701,
    0.332836,
    0.21998,
    0.352345,
    0.293098,
    0.287881,
    0.203327,
    0.169979,
    0.368706,
    0.151415,
    0.242732,
    0.25298,
    0.30198,
    0.26298,
    0.22698,
    0.290917,
    0.155983,
    0.324398,
    0.199475,
    0.28098,
    0.212979,
    0.358979,
    0.276784,
    0.29198,
    0.49398,
    0.240614,
    0.133485,
    0.419191,
    0.27998,
    0.29498,
    0.157531,
    0.288939,
    0.31598,
    0.127176,
    0.443306,
    0.279089,
    0.345478,
    0.290723,
    0.406564,
    0.42998,
    0.31798,
    0.244124,
    0.290416,
    0.44898,
    0.26998,
    0.51598,
    0.31698,
    0.17598,
    0.403219,
    0.25998,
    0.233816,
    0.476166,
    0.258571,
    0.43498,
    0.182317,
    0.181979,
    0.339741,
    0.147321,
    0.216979,
    0.271428,
    0.252981,
    0.286981,
    0.532238,
    0.33798,
    0.24598,
    0.17636,
    0.13498,
    0.20498,
    0.37398,
    0.24998,
    0.203353,
    0.26498,
    0.24898,
    0.154287,
    0.320805,
    0.253776,
    0.42398,
    0.16098,
    0.394967,
    0.471741,
    0.253225,
    0.15798,
    0.39898,
    0.23298,
    0.23777,
    0.307938,
    0.203982,
    0.44598,
    0.34798,
    0.243976,
    0.21098,
    0.240128,
    0.21498,
    0.310922,
    0.36198,
    0.09898,
    0.17998,
    0.29398,
    0.157663,
    0.448113,
    0.19598,
    0.287648,
    0.16998,
    0.25798,
    0.193697,
    0.45298,
    0.23598,
    0.16998,
    0.57698,
    0.35798,
    0.407875,
    0.25998,
    0.259986,
    0.31098,
    0.192953,
    0.279952,
    0.293979,
    0.372126,
    0.186978,
    0.26998,
    0.133784,
    0.17798,
    0.141302,
    0.388981,
    0.220119,
    0.165981,
    0.212023,
    0.41298,
    0.21398,
    0.39198,
    0.197979,
    0.54598,
    0.285102,
    0.30398,
    0.333609,
    0.24598,
    0.318467,
    0.72698,
    0.227007,
    0.318978,
    0.284808,
    0.455597,
    0.243233,
    0.359857,
    0.33298,
    0.178903,
    0.21298,
    0.413819,
    0.387942,
    0.157001,
    0.169979,
    0.287979,
    0.224203,
    0.253978,
    0.294058,
    0.248458,
    0.209912,
    0.365979,
    0.124508,
    0.36398,
    0.34898,
    0.34198,
    0.457868,
    0.337978,
    0.252982,
    0.407037,
    0.298103,
    0.281951,
    0.18598,
    0.363979,
    0.292979,
    0.253978,
    0.23798,
    0.180827,
    0.26398,
    0.339828,
    0.293405,
    0.487759,
    0.31698,
    0.534816,
    0.234474,
    0.213691,
    0.306455,
    0.299979,
    0.45798,
    0.18998,
    0.18878,
    0.334079,
    0.30198,
    0.297218,
    0.36498,
    0.26698,
    0.158593,
    0.157981,
    0.22298,
    0.25598,
    0.388065,
    0.22198,
    0.314098,
    0.398764,
    0.133143,
    0.423193,
    0.236824,
    0.405945,
    0.26598,
    0.326054,
    0.49198,
    0.600239,
    0.241875,
    0.17998,
    0.352142,
    0.13851,
    0.371975,
    0.593889,
    0.26598,
    0.559445,
    0.236983,
    0.193178,
    0.28398,
    0.40363,
    0.23898,
    0.276002,
    0.287429,
    0.331484,
    0.476902,
    0.36798,
    0.615602,
    0.244042,
    0.264567,
    0.163903,
    0.222981,
    0.204579,
    0.35605,
    0.22898,
    0.362964,
    0.10998,
    0.361465,
    0.18598,
    0.51698,
    0.250374,
    0.147455,
    0.413026,
    0.399627,
    0.187785,
    0.293979,
    0.433982,
    0.517931,
    0.218979,
    0.19298,
    0.455296,
    0.386056,
    0.156014,
    0.34732,
    0.242982,
    0.284981,
    0.17223,
    0.329143,
    0.34496,
    0.221371,
    0.254917,
    0.155508,
    0.17109,
    0.200964,
    0.249851,
    0.153425,
    0.392532,
    0.29344,
    0.486911,
    0.117584,
    0.179761,
    0.529926,
    0.288188,
    0.165677,
    0.304263,
    0.374156,
    0.16598,
    0.414501,
    0.501222,
    0.311074,
    0.190348,
    0.34107,
    0.518858,
    0.289979,
    0.18598,
    0.344798,
    0.4131,
    0.28515,
    0.171093,
    0.399314,
    0.46198,
    0.267457,
    0.27436,
    0.329995,
    0.20798,
    0.44767,
    0.24497,
    0.152397,
    0.208765,
    0.419668,
    0.469724,
    0.225999,
    0.330189,
    0.22798,
    0.235364,
    0.393465,
    0.195504,
    58.611779,
    0.426185,
    0.282546,
    0.19898,
    0.200981,
    0.429574,
    0.43998,
    0.379319,
    0.26182,
    0.450231,
    0.30421,
    0.423078,
    1.035061,
    0.315978,
    0.271331,
    0.352926,
    0.20295,
    0.377981,
    0.41098,
    0.13998,
    0.25198,
    0.151973,
    0.137946,
    0.24998,
    0.32498,
    0.31798,
    0.41098,
    0.151986,
    0.397888,
    0.498214,
    0.41162,
    0.20098,
    0.37898,
    0.492395,
    0.255896,
    0.183997,
    0.21398,
    0.24898,
    0.21498,
    0.26298,
    0.251071,
    0.152063,
    0.343301,
    0.171264,
    0.13898,
    0.244839,
    0.20098,
    0.38298,
    0.28998,
    0.273807,
    0.151654,
    0.366901,
    0.365183,
    0.446602,
    0.3663,
    0.211089,
    0.416947,
    0.194059,
    0.223979,
    0.230242,
    0.390405,
    0.170331,
    0.64498,
    0.21698,
    0.315795,
    0.344953,
    0.169167,
    0.302979,
    0.232015,
    0.284973,
    0.397979,
    0.149982,
    0.467979,
    0.30604,
    0.341979,
    0.190128,
    0.20898,
    0.466982,
    0.259979,
    0.23998,
    0.38298,
    0.257647,
    0.407978,
    0.264008,
    0.220006,
    0.195356,
    0.369994,
    0.354686,
    0.424953,
    0.263266,
    0.180116,
    0.200065,
    0.299269,
    0.260104,
    0.582439,
    0.294327,
    0.56057,
    0.439354,
    0.216983,
    0.19398,
    0.332515,
    0.689009,
    0.157977,
    0.17298,
    0.216978,
    0.425557,
    0.216307,
    0.36798,
    0.162369,
    0.345033,
    0.577629,
    0.228168,
    0.421797,
    0.517292,
    0.224973,
    0.182829,
    0.16198,
    0.28298,
    0.182325,
    0.207806,
    0.152393,
    0.20798,
    0.19198,
    0.24598,
    0.450979,
    0.233129,
    0.30098,
    0.35298,
    0.41898,
    0.545928,
    0.186978,
    0.40598,
    0.226943,
    0.358983,
    0.45598,
    0.244979,
    0.28798,
    0.251314,
    0.17377,
    0.16398,
    0.387343,
    0.280981,
    0.389975,
    0.271979,
    0.178979,
    0.184117,
    0.409007,
    0.167529,
    0.290402,
    0.21598,
    0.40298,
    0.167351,
    0.161939,
    0.319978,
    0.459921,
    0.40798,
    0.212554,
    0.21998,
    0.378979,
    0.212243,
    0.202973
  ]
}