{
  "1000": [
    0.51186,
    0.37998,
    0.4166,
    0.16698,
    0.405709,
    0.19398,
    0.15898,
    0.42398,
    0.498835,
    0.39798,
    0.337854,
    0.258761,
    0.16298,
    0.73978,
    0.295946,
    0.293098,
    0.345478,
    0.37398,
    0.24998,
    0.203353,
    0.19598,
    0.293979,
    0.387942,
    0.234474,
    0.244042,
    0.16598,
    0.426185,
    0.282546,
    0.19898,
    0.377981,
    0.492395,
    0.255896,
    0.273807,
    0.344953,
    0.257647,
    0.407978,
    0.439354
  ],
  "1048576": [
    2.415853,
    0.771012,
    0.837068,
    1.265147,
    1.743933,
    2.263034,
    1.412995,
    1.814478,
    2.197385,
    2.116966,
    1.767336,
    1.099872,
    2.889085,
    2.041805,
    2.729741,
    0.886253,
    1.603891,
    1.623414,
    0.806966,
    3.164876,
    1.284846,
    1.308078,
    1.591089,
    2.775031,
    2.671964,
    2.566552,
    0.916607,
    0.83807,
    2.313762,
    4.925762,
    1.082966,
    2.146793,
    0.884079,
    1.712553,
    1.178006,
    0.984964,
    2.120172,
    1.3567,
    1.221122,
    1.106997,
    1.215965,
    1.203911,
    1.096348,
    0.848977,
    1.119587,
    2.076779,
    1.19176,
    2.332264,
    1.052211,
    1.166996,
    1.031457,
    1.483596,
    4.9972,
    1.283968,
    0.740965,
    0.543967,
    0.766966,
    2.782178,
    1.221976,
    0.848251,
    0.942957,
    1.40894,
    2.379325,
    0.914964,
    1.529968,
    1.315027,
    1.607737,
    2.198749,
    1.25219,
    0.803569,
    0.915188,
    2.862797,
    1.491967,
    1.67699,
    1.729976,
    2.749964,
    2.54854,
    0.798399,
    2.910975,
    1.598537,
    1.017359,
    1.183689,
    0.893752,
    1.684992,
    2.049984,
    1.049165,
    1.024479,
    1.825122,
    1.64248,
    1.737558,
    8.592965,
    2.633165,
    2.602261,
    3.130897,
    0.928266,
    1.348973,
    0.825567,
    2.727645,
    1.033399,
    1.282963,
    0.926851,
    1.008559,
    0.990965,
    2.38638,
    1.50456,
    1.538757,
    1.858965,
    0.790966,
    1.169209,
    3.649618,
    1.003966,
    1.551224,
    1.452995,
    0.772067,
    2.705447
  ],
  "51200": [
    0.501674,
    0.77596,
    0.370937,
    0.327879,
    0.911862,
    0.561965,
    0.383963,
    0.393997,
    1.377658,
    1.355965,
    0.307363,
    0.799206,
    0.761606,
    1.478793,
    0.415972,
    0.399972,
    0.441329,
    0.406962,
    0.617964,
    0.395072,
    1.022964,
    0.385413,
    1.784078,
    0.581962,
    1.972972,
    0.444964,
    0.760966,
    0.730088,
    0.299579,
    0.803974,
    1.046879,
    0.404962,
    0.835511,
    1.566119,
    1.244972,
    1.295018,
    0.49062,
    0.545972,
    1.121064,
    0.726964,
    0.647053,
    0.781106,
    1.511968,
    1.247106,
    0.291964,
    0.937866,
    0.385998,
    0.440964,
    0.872965,
    0.399964,
    0.471157,
    0.64796,
    0.379942,
    0.259971,
    1.271578,
    0.751517,
    1.225194,
    0.947674,
    0.749458,
    0.33704,
    0.479964,
    0.363666,
    0.351972,
    1.822964,
    0.519734,
    1.064,
    0.996,
    0.671437,
    0.337025,
    1.027499,
    0.812272,
    0.361125,
    0.396799,
    1.094329,
    1.699139,
    1.680163,
    0.640948,
    0.654048,
    0.889963,
    0.406485,
    0.680988,
    0.565964,
    1.443367,
    1.280965,
    0.633964,
    0.486971,
    0.697965,
    0.563897,
    0.418662,
    0.376065,
    0.484012,
    0.515196,
    0.367752,
    1.757833,
    0.773964,
    0.595966,
    0.725964,
    0.534964,
    1.298034,
    1.064962,
    0.935971,
    0.483964,
    0.386057,
    0.909054,
    0.723928,
    1.368619,
    0.667665,
    0.490972,
    1.311153,
    0.846966,
    0.476997,
    0.618965,
    0.2678,
    0.802293,
    0.412184,
    0.364057,
    0.974629,
    1.240964,
    1.061965,
    0.593964,
    1.070973,
    0.402972,
    0.264018,
    0.380966,
    0.583964,
    0.639964,
    0.569891,
    0.243963,
    0.350056,
    0.480732,
    1.723964,
    1.519611,
    1.795964,
    0.550811,
    0.585966,
    0.450279,
    0.866028,
    1.439417,
    1.207328,
    0.962965,
    0.426324,
    0.564973,
    0.798345,
    0.642961,
    0.466976,
    2.044652,
    0.405022,
    0.999086,
    0.506965,
    0.520119,
    0.491023,
    0.518963,
    1.12307,
    0.927975,
    0.698509,
    0.37897,
    0.502944,
    1.10256,
    0.512473,
    0.915135,
    0.569078,
    0.391973,
    0.301066,
    1.046971,
    0.356211,
    1.358011,
    0.482019,
    0.465605,
    0.821647,
    1.90294,
    0.469964,
    1.207964,
    0.922226,
    1.521964,
    0.666966,
    1.675965,
    1.216964,
    0.3531,
    0.310964,
    0.472964,
    1.629972,
    1.72597,
    0.478964,
    0.469815,
    1.213134,
    1.478228,
    1.07702,
    0.558972,
    1.071116,
    0.520826,
    0.672911,
    0.875009,
    1.055966,
    0.400637,
    0.497819,
    0.35656,
    0.965427,
    0.418973,
    0.382574,
    1.084963,
    1.042856,
    0.735935,
    0.594835,
    0.91123,
    0.640971,
    0.954218,
    0.588061,
    1.653964,
    0.86046,
    2.109974,
    0.409362,
    0.935186,
    0.672944,
    1.320966,
    0.575686,
    0.539151,
    0.507964,
    1.308966,
    0.677828,
    1.031528,
    0.555964,
    0.406964,
    1.283694,
    0.432963,
    0.402912,
    0.584963,
    0.898965,
    0.849065,
    0.663077,
    0.969901,
    0.358944,
    0.640012,
    0.435722,
    0.831528,
    0.492011,
    0.637973,
    0.647767,
    0.810971,
    1.679403,
    0.663964,
    0.339973,
    1.500015,
    0.921964,
    0.418974,
    1.005964,
    1.111547,
    1.500971,
    0.46897,
    0.566929,
    0.883866,
    1.118972,
    0.714965,
    1.638965,
    0.683965,
    0.412222,
    0.715992,
    1.172966,
    0.544302,
    0.5444,
    0.976732,
    0.250065,
    0.813998,
    0.633422,
    0.677526,
    0.925965,
    2.250069,
    1.176101,
    0.567593,
    0.704966,
    0.590755,
    0.287622,
    0.963866,
    0.783068,
    1.481964,
    0.376969,
    1.518961,
    1.435382,
    0.501064,
    0.709921,
    0.978964,
    0.438316,
    1.517433,
    0.654964,
    0.428968,
    0.435964,
    0.873965,
    0.415086,
    0.79513,
    0.654973,
    0.195964,
    0.407963,
    0.457966,
    0.837895,
    0.323118,
    0.580964,
    0.475942,
    1.258974,
    0.428964,
    0.428018,
    2.158153,
    0.97116,
    1.078859,
    0.582972,
    0.470101,
    0.933964,
    1.228078,
    0.426964,
    0.876589,
    0.240964,
    0.373964,
    0.243234,
    1.043965,
    0.589101,
    0.313963,
    0.382964,
    1.044964,
    0.479972,
    1.035195,
    0.54741,
    0.910096,
    0.654082,
    0.971842,
    0.533374,
    0.704051,
    2.696965,
    0.473993,
    0.737844,
    0.627431,
    1.648241,
    0.46197,
    0.834383,
    0.942098,
    0.244028,
    0.309964,
    0.504964,
    0.822001,
    0.409711,
    0.74096,
    1.021006,
    0.421785,
    0.338898,
    0.65096,
    0.328495,
    0.770543,
    1.176437,
    1.079964,
    1.537852,
    0.544964,
    1.022076,
    0.721964,
    0.734935,
    0.448965,
    1.023972,
    0.789956,
    0.506971,
    0.447964,
    0.470164,
    0.521964,
    1.0278,
    0.46101,
    0.771436,
    1.080186,
    0.963972,
    0.354966,
    0.384932,
    1.250869,
    0.920966,
    0.709164,
    0.935049,
    0.494964,
    0.835966,
    1.48116,
    0.286679,
    1.207001,
    0.60935,
    1.024583,
    0.629221,
    1.211864,
    1.433131,
    0.331658,
    0.997011,
    1.71153,
    0.77154,
    1.883889,
    0.529966,
    0.389557,
    0.916972,
    1.131969,
    0.554964,
    0.865964,
    0.288964,
    0.550966,
    0.521997,
    1.211466,
    0.700367,
    1.10699,
    0.286014,
    1.246449,
    0.351963,
    1.446119,
    0.596372,
    0.435495,
    0.953097,
    1.211043,
    1.942826,
    0.600933,
    0.629092,
    1.303789,
    0.969303,
    0.405045,
    1.250964,
    0.548964,
    0.521974,
    0.390165,
    1.067964,
    0.980427,
    0.601899,
    0.287968,
    0.390074,
    0.385918,
    0.67356,
    0.310439,
    0.735979,
    0.917375,
    2.036992,
    0.292799,
    0.519297,
    1.528918,
    1.141971,
    1.633419,
    1.055943,
    0.408334,
    1.40912,
    1.868841,
    2.722966,
    0.461874,
    0.769786,
    1.691931,
    0.986969,
    0.360885,
    1.067576,
    0.573026,
    1.171225,
    0.402974,
    1.186132,
    0.488096,
    0.401979,
    0.428168,
    1.531008,
    1.333714,
    0.428984,
    0.920547,
    0.420964,
    1.130716,
    1.1757,
    1.221973,
    0.430843,
    1.160073,
    0.915271,
    1.134772,
    1.227577,
    1.607676,
    0.357029,
    0.934671,
    0.294436,
    0.39593,
    0.880036,
    1.037964,
    0.492968,
    1.641972,
    0.390046,
    0.341147,
    0.653374,
    0.385116,
    0.359964,
    0.587964,
    0.755713,
    0.261985,
    0.528285,
    0.298972,
    0.256974,
    0.542741,
    0.433454,
    1.080026,
    0.606051,
    0.349056,
    1.255112,
    1.113175,
    1.197873,
    0.755473,
    0.476972,
    1.513508,
    0.369216,
    0.591013,
    0.485082,
    1.289414,
    0.297235,
    0.961209,
    0.43621,
    0.594665,
    0.687103,
    0.354977,
    1.334973,
    0.624027,
    0.931051,
    0.402974,
    0.564011,
    1.447213,
    0.576963,
    0.670964,
    0.646501,
    0.594966,
    0.377868,
    0.966964,
    1.282755,
    1.314938,
    0.666643,
    0.360816,
    0.425969,
    0.375996,
    0.876308,
    1.920964,
    0.251127,
    0.369966,
    0.500686,
    1.31531,
    0.464065,
    2.022307,
    0.420056,
    0.392845,
    0.603275,
    0.842964,
    0.444366,
    0.720971,
    0.364391,
    0.574964,
    1.792912,
    0.444976,
    1.046963,
    0.587993,
    0.969975,
    1.101965,
    0.435964,
    0.997966,
    0.714298,
    0.329948,
    0.328966,
    1.503964,
    0.593137,
    1.34796,
    0.397583,
    1.401534,
    0.476962,
    0.949987,
    0.649966,
    1.092239,
    0.400963,
    0.435955,
    0.708836,
    1.825905,
    1.516005,
    0.466539,
    0.549421
  ],
  "5242880": [
    5.057213,
    3.685992,
    6.396148,
    2.302124,
    3.721972,
    2.852974,
    1.920379,
    3.098013,
    2.643266,
    2.462921,
    1.928831,
    4.156964,
    6.047051,
    2.454645,
    3.964054,
    2.306003,
    3.53626,
    2.575078,
    3.757982,
    2.729444,
    1.815966,
    3.256427,
    2.908532,
    2.602679,
    3.341154,
    2.593528,
    3.517371,
    4.557905,
    3.881739,
    2.970974,
    7.439802,
    2.300974,
    2.365288,
    1.883026,
    3.246474,
    4.64997,
    2.687462,
    4.062641,
    4.184999,
    63.788932,
    1.969707,
    2.657183,
    2.674573,
    8.973967,
    3.3369,
    2.32103,
    3.106881,
    3.432609,
    3.697913,
    1.68626,
    2.324957
  ],
  "ALL": [
    0.51186,
    0.501674,
    0.77596,
    0.370937,
    0.327879,
    0.911862,
    0.561965,
    0.383963,
    0.393997,
    1.377658,
    1.355965,
    0.307363,
    0.799206,
    2.415853,
    5.057213,
    3.685992,
    0.37998,
    0.761606,
    1.478793,
    0.415972,
    0.399972,
    0.441329,
    0.406962,
    0.617964,
    0.395072,
    1.022964,
    0.385413,
    0.771012,
    0.837068,
    1.265147,
    6.396148,
    1.784078,
    0.581962,
    1.972972,
    0.444964,
    0.760966,
    0.730088,
    0.299579,
    0.803974,
    1.046879,
    0.404962,
    0.835511,
    1.566119,
    1.244972,
    1.295018,
    2.302124,
    3.721972,
    0.4166,
    0.49062,
    0.545972,
    1.121064,
    0.726964,
    0.647053,
    0.781106,
    1.511968,
    1.247106,
    0.291964,
    0.937866,
    1.743933,
    2.263034,
    1.412995,
    1.814478,
    2.852974,
    0.16698,
    0.405709,
    0.385998,
    0.440964,
    0.872965,
    0.399964,
    0.471157,
    0.64796,
    0.379942,
    0.259971,
    1.271578,
    0.751517,
    2.197385,
    2.116966,
    1.767336,
    1.920379,
    1.225194,
    0.947674,
    0.749458,
    0.33704,
    0.479964,
    0.363666,
    0.351972,
    1.822964,
    0.519734,
    1.064,
    0.996,
    0.671437,
    0.337025,
    1.027499,
    1.099872,
    2.889085,
    0.812272,
    0.361125,
    0.396799,
    1.094329,
    1.699139,
    1.680163,
    0.640948,
    0.654048,
    0.889963,
    0.406485,
    2.041805,
    2.729741,
    0.886253,
    1.603891,
    1.623414,
    0.806966,
    0.19398,
    0.15898,
    0.680988,
    0.565964,
    1.443367,
    1.280965,
    0.633964,
    0.486971,
    0.697965,
    0.563897,
    3.164876,
    1.284846,
    1.308078,
    1.591089,
    2.775031,
    3.098013,
    0.42398,
    0.418662,
    0.376065,
    0.484012,
    0.515196,
    0.367752,
    1.757833,
    0.773964,
    0.595966,
    0.725964,
    0.534964,
    1.298034,
    2.671964,
    2.566552,
    2.643266,
    2.462921,
    1.064962,
    0.935971,
    0.483964,
    0.386057,
    0.909054,
    0.723928,
    1.368619,
    0.667665,
    0.490972,
    1.311153,
    0.846966,
    0.476997,
    0.618965,
    0.2678,
    0.916607,
    1.928831,
    0.802293,
    0.412184,
    0.364057,
    0.974629,
    1.240964,
    1.061965,
    0.593964,
    1.070973,
    0.402972,
    0.264018,
    0.380966,
    0.583964,
    0.639964,
    0.83807,
    2.313762,
    4.925762,
    0.498835,
    0.569891,
    0.243963,
    0.350056,
    0.480732,
    1.723964,
    1.519611,
    1.795964,
    0.550811,
    0.585966,
    0.450279,
    0.866028,
    1.082966,
    2.146793,
    0.884079,
    4.156964,
    1.439417,
    1.207328,
    0.962965,
    0.426324,
    0.564973,
    0.798345,
    0.642961,
    0.466976,
    2.044652,
    0.405022,
    0.999086,
    0.506965,
    0.520119,
    0.491023,
    0.518963,
    1.712553,
    0.39798,
    1.12307,
    0.927975,
    0.698509,
    0.37897,
    0.502944,
    1.10256,
    0.512473,
    0.915135,
    0.569078,
    0.391973,
    1.178006,
    0.984964,
    2.120172,
    1.3567,
    6.047051,
    0.337854,
    0.258761,
    0.16298,
    0.301066,
    1.046971,
    0.356211,
    1.358011,
    0.482019,
    0.465605,
    0.821647,
    1.90294,
    0.469964,
    1.207964,
    0.922226,
    1.221122,
    2.454645,
    1.521964,
    0.666966,
    1.675965,
    1.216964,
    0.3531,
    0.310964,
    0.472964,
    1.629972,
    1.72597,
    0.478964,
    0.469815,
    1.213134,
    1.478228,
    1.106997,
    1.215965,
    3.964054,
    0.73978,
    1.07702,
    0.558972,
    1.071116,
    0.520826,
    0.672911,
    0.875009,
    1.055966,
    0.400637,
    0.497819,
    0.35656,
    0.965427,
    1.203911,
    1.096348,
    0.848977,
    1.119587,
    0.295946,
    0.418973,
    0.382574,
    1.084963,
    1.042856,
    0.735935,
    0.594835,
    0.91123,
    0.640971,
    2.076779,
    1.19176,
    2.332264,
    1.052211,
    2.306003,
    3.53626,
    2.575078,
    0.954218,
    0.588061,
    1.653964,
    0.86046,
    2.109974,
    0.409362,
    0.935186,
    0.672944,
    1.320966,
    0.575686,
    0.539151,
    0.507964,
    1.308966,
    0.677828,
    1.166996,
    3.757982,
    0.293098,
    1.031528,
    0.555964,
    0.406964,
    1.283694,
    0.432963,
    0.402912,
    0.584963,
    0.898965,
    0.849065,
    0.663077,
    0.969901,
    0.358944,
    0.640012,
    0.435722,
    0.831528,
    0.492011,
    0.637973,
    0.647767,
    0.810971,
    1.679403,
    0.663964,
    0.339973,
    1.500015,
    0.921964,
    0.418974,
    1.031457,
    1.483596,
    2.729444,
    1.815966,
    3.256427,
    2.908532,
    0.345478,
    1.005964,
    1.111547,
    1.500971,
    0.46897,
    0.566929,
    0.883866,
    1.118972,
    0.714965,
    1.638965,
    0.683965,
    0.412222,
    4.9972,
    1.283968,
    2.602679,
    3.341154,
    0.715992,
    1.172966,
    0.544302,
    0.5444,
    0.976732,
    0.250065,
    0.813998,
    0.633422,
    0.677526,
    0.925965,
    2.250069,
    1.176101,
    0.567593,
    0.740965,
    0.543967,
    2.593528,
    0.37398,
    0.24998,
    0.203353,
    0.704966,
    0.590755,
    0.287622,
    0.963866,
    0.783068,
    1.481964,
    0.376969,
    1.518961,
    1.435382,
    0.501064,
    0.766966,
    2.782178,
    1.221976,
    0.709921,
    0.978964,
    0.438316,
    1.517433,
    0.654964,
    0.428968,
    0.435964,
    0.873965,
    0.415086,
    0.79513,
    0.654973,
    0.195964,
    0.407963,
    0.457966,
    0.848251,
    3.517371,
    0.19598,
    0.837895,
    0.323118,
    0.580964,
    0.475942,
    1.258974,
    0.428964,
    0.428018,
    2.158153,
    0.97116,
    1.078859,
    0.582972,
    0.470101,
    0.933964,
    0.942957,
    1.40894,
    0.293979,
    1.228078,
    0.426964,
    0.876589,
    0.240964,
    0.373964,
    0.243234,
    1.043965,
    0.589101,
    0.313963,
    0.382964,
    1.044964,
    0.479972,
    1.035195,
    0.54741,
    2.379325,
    0.910096,
    0.654082,
    0.971842,
    0.533374,
    0.704051,
    2.696965,
    0.473993,
    0.737844,
    0.627431,
    1.648241,
    0.46197,
    0.834383,
    0.942098,
    0.244028,
    0.914964,
    4.557905,
    0.387942,
    0.309964,
    0.504964,
    0.822001,
    0.409711,
    0.74096,
    1.021006,
    0.421785,
    0.338898,
    0.65096,
    0.328495,
    0.770543,
    1.176437,
    1.079964,
    1.537852,
    1.529968,
    0.544964,
    1.022076,
    0.721964,
    0.734935,
    0.448965,
    1.023972,
    0.789956,
    0.506971,
    0.447964,
    0.470164,
    0.521964,
    1.0278,
    1.315027,
    3.881739,
    2.970974,
    7.439802,
    0.234474,
    0.46101,
    0.771436,
    1.080186,
    0.963972,
    0.354966,
    0.384932,
    1.250869,
    0.920966,
    1.607737,
    2.198749,
    1.25219,
    0.803569,
    0.915188,
    2.300974,
    0.709164,
    0.935049,
    0.494964,
    0.835966,
    1.48116,
    0.286679,
    1.207001,
    0.60935,
    1.024583,
    0.629221,
    1.211864,
    1.433131,
    2.862797,
    2.365288,
    1.883026,
    3.246474,
    0.331658,
    0.997011,
    1.71153,
    0.77154,
    1.883889,
    0.529966,
    0.389557,
    0.916972,
    1.131969,
    0.554964,
    1.491967,
    1.67699,
    1.729976,
    2.749964,
    2.54854,
    4.64997,
    0.244042,
    0.865964,
    0.288964,
    0.550966,
    0.521997,
    1.211466,
    0.700367,
    1.10699,
    0.286014,
    1.246449,
    0.351963,
    1.446119,
    0.596372,
    0.798399,
    2.910975,
    1.598537,
    0.435495,
    0.953097,
    1.211043,
    1.942826,
    0.600933,
    0.629092,
    1.303789,
    0.969303,
    0.405045,
    1.250964,
    0.548964,
    0.521974,
    0.390165,
    1.067964,
    0.980427,
    1.017359,
    0.601899,
    0.287968,
    0.390074,
    0.385918,
    0.67356,
    0.310439,
    0.735979,
    0.917375,
    2.036992,
    0.292799,
    0.519297,
    1.528918,
    1.183689,
    0.893752,
    1.684992,
    2.687462,
    0.16598,
    1.141971,
    1.633419,
    1.055943,
    0.408334,
    1.40912,
    1.868841,
    2.722966,
    0.461874,
    0.769786,
    1.691931,
    0.986969,
    0.360885,
    1.067576,
    2.049984,
    4.062641,
    0.573026,
    1.171225,
    0.402974,
    1.186132,
    0.488096,
    0.401979,
    0.428168,
    1.531008,
    1.333714,
    0.428984,
    0.920547,
    1.049165,
    1.024479,
    1.825122,
    4.184999,
    63.788932,
    0.426185,
    0.282546,
    0.19898,
    0.420964,
    1.130716,
    1.1757,
    1.221973,
    0.430843,
    1.160073,
    0.915271,
    1.134772,
    1.227577,
    1.64248,
    1.737558,
    8.592965,
    1.969707,
    0.377981,
    1.607676,
    0.357029,
    0.934671,
    0.294436,
    0.39593,
    0.880036,
    1.037964,
    0.492968,
    1.641972,
    0.390046,
    2.633165,
    2.602261,
    3.130897,
    0.928266,
    1.348973,
    0.492395,
    0.255896,
    0.341147,
    0.653374,
    0.385116,
    0.359964,
    0.587964,
    0.755713,
    0.261985,
    0.528285,
    0.298972,
    0.256974,
    0.542741,
    0.433454,
    1.080026,
    0.606051,
    0.273807,
    0.349056,
    1.255112,
    1.113175,
    1.197873,
    0.755473,
    0.476972,
    1.513508,
    0.369216,
    0.591013,
    0.485082,
    1.289414,
    0.825567,
    2.727645,
    1.033399,
    2.657183,
    0.344953,
    0.297235,
    0.961209,
    0.43621,
    0.594665,
    0.687103,
    0.354977,
    1.334973,
    0.624027,
    0.931051,
    0.402974,
    0.564011,
    1.447213,
    0.576963,
    0.670964,
    1.282963,
    0.257647,
    0.407978,
    0.646501,
    0.594966,
    0.377868,
    0.966964,
    1.282755,
    1.314938,
    0.666643,
    0.360816,
    0.926851,
    1.008559,
    0.990965,
    2.38638,
    1.50456,
    1.538757,
    0.439354,
    0.425969,
    0.375996,
    0.876308,
    1.920964,
    0.251127,
    0.369966,
    0.500686,
    1.31531,
    0.464065,
    1.858965,
    0.790966,
    1.169209,
    3.649618,
    2.674573,
    8.973967,
    2.022307,
    0.420056,
    0.392845,
    0.603275,
    0.842964,
    0.444366,
    0.720971,
    0.364391,
    0.574964,
    1.003966,
    1.551224,
    3.3369,
    2.32103,
    3.106881,
    3.432609,
    3.697913,
    1.792912,
    0.444976,
    1.046963,
    0.587993,
    0.969975,
    1.101965,
    0.435964,
    0.997966,
    0.714298,
    0.329948,
    0.328966,
    1.503964,
    0.593137,
    1.34796,
    1.452995,
    0.772067,
    0.397583,
    1.401534,
    0.476962,
    0.949987,
    0.649966,
    1.092239,
    0.400963,
    0.435955,
    0.708836,
    1.825905,
    1.516005,
    0.466539,
    0.549421,
    2.705447,
    1.68626,
    2.324957
  ]
}