{
  "1048576": [
    1.194,
    0.718973,
    0.758103,
    0.701969,
    0.625779,
    0.586,
    0.682778,
    1.07935,
    0.710272,
    0.7591,
    0.696,
    0.954994,
    0.550271,
    0.687,
    0.785963,
    0.622272,
    0.547673,
    0.71978,
    0.851591,
    0.82886,
    0.752281,
    0.93685,
    0.753937,
    0.67351,
    1.115371,
    0.922005,
    0.721472,
    0.698667,
    0.586651,
    0.867666,
    0.775747,
    0.612413,
    0.666518,
    0.838888,
    0.555463,
    0.760248,
    0.650307,
    0.796889,
    0.835474,
    0.707,
    0.817,
    0.829522,
    0.674867,
    0.657976,
    0.672505,
    0.640531,
    0.571988,
    1.092111,
    0.986028,
    0.844103,
    0.832686,
    0.547408,
    0.62,
    0.529009,
    0.563786,
    0.931053,
    0.906958,
    0.433738,
    0.581556,
    0.760591,
    0.564,
    0.650216,
    0.594201,
    0.568084,
    0.72263,
    0.73792,
    0.958974,
    1.007797,
    0.856048,
    0.601058,
    0.717,
    0.844396,
    0.697349,
    0.702,
    0.795846,
    0.918149,
    0.583,
    0.998454,
    0.699189,
    0.678383,
    0.789945,
    0.808442,
    0.611,
    0.528354,
    0.571718,
    0.554191,
    0.874637,
    0.691861,
    0.843675,
    0.806,
    0.887,
    0.94902,
    0.878589,
    0.635322,
    0.582285,
    1.038064,
    0.881705
  ],
  "51200": [
    0.654929,
    0.794069,
    0.877516,
    0.766672,
    0.738431,
    0.651774,
    0.598324,
    0.836569,
    0.915691,
    0.977988,
    0.638469,
    0.633034,
    0.7,
    0.882609,
    0.717647,
    0.96395,
    0.74032,
    0.79,
    0.680876,
    0.948143,
    0.629665,
    0.583079,
    0.611953,
    0.631955,
    0.771929,
    0.681083,
    0.73462,
    1.002075,
    0.858225,
    1.048,
    0.812806,
    0.815889,
    0.614787,
    0.810539,
    0.757932,
    0.850425,
    0.698371,
    0.799815,
    0.816327,
    0.88128,
    1.072232,
    0.805407,
    0.779918,
    0.69133,
    0.72,
    0.885433,
    0.646217,
    0.844,
    0.681139,
    0.872,
    0.549487,
    0.880281,
    0.870897,
    0.852325,
    0.528,
    0.577111,
    0.887,
    0.497262,
    1.113176,
    1.005014,
    0.734,
    0.640588,
    0.801748,
    1.089784,
    0.609003,
    0.722388,
    0.534903,
    0.857774,
    0.51491,
    0.622529,
    0.735889,
    0.748139,
    0.697508,
    0.606027,
    0.585452,
    0.657158,
    0.695008,
    0.93035,
    0.536,
    0.853934,
    0.773696,
    0.613754,
    0.695403,
    0.749582,
    0.875,
    0.746313,
    0.917608,
    0.951501,
    0.961197,
    0.838476,
    0.920925,
    0.974065,
    0.826224,
    0.517718,
    0.67769,
    0.840567,
    0.616561,
    0.644008,
    0.854,
    0.863206,
    0.811752,
    0.617249,
    0.826317,
    0.826597,
    0.996,
    0.599,
    0.561496,
    0.960338,
    0.563095,
    0.711449,
    0.761438,
    0.810314,
    0.921047,
    0.804942,
    0.870183,
    0.798,
    0.911078,
    0.626004,
    0.754204,
    0.859639,
    0.914933,
    0.965387,
    0.748021,
    0.791,
    0.648,
    0.53795,
    0.598831,
    0.727264,
    0.974629,
    0.773474,
    0.662008,
    0.780255,
    0.919624,
    0.74,
    0.7429,
    0.541273,
    0.879471,
    0.566,
    0.68073,
    0.83958,
    0.901671,
    0.796471,
    0.743541,
    0.597778,
    0.628,
    0.887661,
    0.955746,
    0.688914,
    0.559579,
    0.565688,
    0.688156,
    0.905066,
    0.653084,
    0.700237,
    0.801,
    0.91044,
    0.627,
    0.886887,
    0.797493,
    0.761077,
    0.620811,
    0.771074,
    0.688574,
    0.954233,
    0.82606,
    0.605014,
    0.904753,
    0.972103,
    0.626823,
    0.622841,
    0.64956,
    0.673,
    0.845193,
    0.753959,
    0.804139,
    1.187346,
    0.534102,
    0.675848,
    0.57216,
    0.637129,
    0.95,
    0.463332,
    0.531476,
    0.868816,
    0.634014,
    0.660065,
    0.632046,
    0.623794,
    0.645,
    0.644637,
    0.720804,
    0.756129,
    0.60876,
    0.827984,
    0.654752,
    0.724002,
    0.802567,
    0.623023,
    1.03233,
    0.842996,
    0.630908,
    0.905476,
    0.687209,
    0.849626,
    0.798136,
    0.88664,
    1.089486,
    0.640916,
    0.696533,
    0.582619,
    0.548,
    1.055107,
    1.279682,
    0.689322,
    0.851416,
    0.726664,
    0.748051,
    0.561528,
    0.639575,
    0.810703,
    0.974018,
    0.805365,
    0.62814,
    0.681881,
    0.629386,
    0.922368,
    0.626384,
    0.646996,
    1.009106,
    0.872504,
    0.649,
    0.587476,
    0.781897,
    0.612802,
    0.76,
    0.856637,
    1.109764,
    0.700715,
    0.643806,
    0.777182,
    0.487601,
    0.583675,
    0.738,
    0.891,
    1.07,
    0.538,
    0.933,
    0.634724,
    0.68599,
    0.760538,
    0.659287,
    0.638021,
    0.988357,
    0.916148,
    0.626609,
    0.868656,
    0.714086,
    0.631641,
    0.841897,
    0.874449,
    0.79647,
    0.544586,
    0.634536,
    0.677983,
    0.621716,
    0.760406,
    0.665116,
    0.900721,
    0.711809,
    0.993595,
    0.597,
    0.729,
    0.591457,
    0.634,
    1.117,
    0.821843,
    0.648452,
    0.540704,
    0.574821,
    0.567623,
    0.75388,
    0.558,
    0.767138,
    0.617111,
    0.610028,
    0.942,
    0.695,
    0.796335,
    0.596588,
    0.644889,
    1.015406,
    0.735408,
    0.752832,
    0.670771,
    0.74821,
    0.583,
    0.750114,
    0.549,
    0.77063,
    0.652,
    0.618819,
    0.935619,
    0.892796,
    0.977,
    0.549553,
    0.980123,
    0.545516,
    0.920894,
    0.779618,
    0.785781,
    0.607154,
    0.584805,
    0.696822,
    0.579945,
    0.529123,
    0.6496,
    0.808434,
    0.632217,
    0.525453,
    0.817801,
    0.76,
    0.770805,
    1.054269,
    0.714463,
    0.814605,
    0.903925,
    0.827866,
    0.712826,
    0.628806,
    0.822111,
    0.680134,
    0.545679,
    0.644876,
    0.8895,
    0.868184,
    0.761096,
    1.039582,
    0.707316,
    0.574698,
    0.774091,
    0.649528,
    0.851358,
    0.7103,
    0.81771,
    0.801,
    0.710009,
    0.52566,
    0.782931,
    0.891707,
    0.770838,
    0.614,
    1.046471,
    0.930623,
    0.755361,
    0.594682,
    0.96,
    0.71935,
    0.555002,
    0.724,
    0.890042,
    0.546387,
    1.186309,
    0.691,
    0.858,
    0.824287,
    0.522946,
    0.896467,
    0.678047,
    0.982503,
    0.926866,
    0.585,
    0.624788,
    0.82,
    0.694899,
    0.836086,
    0.543228,
    0.510534,
    0.616281,
    0.965133,
    0.59944,
    0.692377,
    0.80123,
    0.604078,
    0.761083,
    0.616723,
    0.637813,
    0.753,
    0.719059,
    0.901085,
    0.550475,
    0.617059,
    0.589,
    0.94,
    0.784991,
    0.563673,
    0.511307,
    0.795163,
    0.854,
    0.702,
    0.766172,
    0.614316,
    0.969,
    0.637195,
    0.583055,
    0.706475,
    0.967666,
    0.920696,
    0.821443,
    0.759678,
    0.869019,
    0.589256,
    0.666,
    0.681492,
    0.798993,
    0.622,
    0.786883,
    0.79035,
    0.655837,
    0.753517,
    0.787658,
    0.728335,
    0.981205,
    0.67708,
    0.866899,
    0.722707,
    0.865272,
    0.632712,
    0.676313,
    0.699897,
    0.561124,
    0.986092,
    0.839631,
    0.809271,
    0.640328,
    0.787272,
    0.769803,
    0.766328,
    0.973033,
    0.878092,
    0.650195,
    0.691,
    0.927358
  ],
  "5242880": [
    0.706477,
    0.798897,
    0.640207,
    0.965614,
    0.687343,
    0.56214,
    0.935159,
    0.844911,
    0.650379,
    0.661251,
    1.001631,
    0.925073,
    0.762169,
    0.766,
    0.687164,
    0.955921,
    0.597913,
    0.62028,
    0.875638,
    0.642251,
    0.604726,
    0.517103,
    0.685124,
    0.912125,
    0.791438,
    0.625966,
    0.599,
    0.915193,
    0.805635,
    1.333673,
    0.917164,
    0.863847,
    0.633433,
    0.856,
    0.499,
    0.642031,
    0.947583,
    1.281,
    0.967276,
    0.724139,
    0.670104,
    0.75499,
    0.763742,
    0.55,
    0.787721,
    0.729941,
    0.525012,
    0.663417,
    0.672097,
    0.907798,
    0.553317,
    0.716363,
    0.724171,
    0.72678,
    0.611549,
    1.067544,
    0.7944,
    0.790336,
    0.651,
    0.790197
  ],
  "ALL": [
    0.654929,
    0.794069,
    0.877516,
    0.766672,
    1.194,
    0.718973,
    0.738431,
    0.651774,
    0.598324,
    0.836569,
    0.915691,
    0.977988,
    0.638469,
    0.633034,
    0.7,
    0.882609,
    0.717647,
    0.96395,
    0.706477,
    0.798897,
    0.74032,
    0.79,
    0.680876,
    0.948143,
    0.629665,
    0.583079,
    0.611953,
    0.631955,
    0.771929,
    0.681083,
    0.758103,
    0.701969,
    0.640207,
    0.73462,
    1.002075,
    0.858225,
    1.048,
    0.812806,
    0.815889,
    0.614787,
    0.810539,
    0.757932,
    0.850425,
    0.625779,
    0.586,
    0.682778,
    0.965614,
    0.698371,
    0.799815,
    0.816327,
    0.88128,
    1.072232,
    0.805407,
    0.779918,
    0.69133,
    1.07935,
    0.710272,
    0.7591,
    0.696,
    0.954994,
    0.72,
    0.885433,
    0.646217,
    0.844,
    0.681139,
    0.872,
    0.549487,
    0.880281,
    0.870897,
    0.852325,
    0.528,
    0.550271,
    0.687,
    0.577111,
    0.887,
    0.497262,
    1.113176,
    1.005014,
    0.734,
    0.640588,
    0.801748,
    0.785963,
    0.687343,
    0.56214,
    1.089784,
    0.609003,
    0.722388,
    0.534903,
    0.857774,
    0.51491,
    0.622529,
    0.735889,
    0.748139,
    0.697508,
    0.606027,
    0.622272,
    0.935159,
    0.844911,
    0.650379,
    0.585452,
    0.657158,
    0.695008,
    0.93035,
    0.536,
    0.853934,
    0.773696,
    0.613754,
    0.695403,
    0.547673,
    0.661251,
    1.001631,
    0.925073,
    0.749582,
    0.875,
    0.746313,
    0.917608,
    0.951501,
    0.961197,
    0.838476,
    0.920925,
    0.974065,
    0.71978,
    0.762169,
    0.826224,
    0.517718,
    0.67769,
    0.840567,
    0.616561,
    0.644008,
    0.854,
    0.863206,
    0.811752,
    0.617249,
    0.826317,
    0.851591,
    0.82886,
    0.766,
    0.826597,
    0.996,
    0.599,
    0.561496,
    0.960338,
    0.563095,
    0.711449,
    0.761438,
    0.810314,
    0.921047,
    0.804942,
    0.752281,
    0.687164,
    0.870183,
    0.798,
    0.911078,
    0.626004,
    0.754204,
    0.859639,
    0.914933,
    0.955921,
    0.965387,
    0.748021,
    0.791,
    0.648,
    0.53795,
    0.598831,
    0.727264,
    0.974629,
    0.773474,
    0.662008,
    0.780255,
    0.93685,
    0.753937,
    0.67351,
    0.597913,
    0.919624,
    0.74,
    0.7429,
    0.541273,
    0.879471,
    0.566,
    0.68073,
    1.115371,
    0.922005,
    0.721472,
    0.62028,
    0.83958,
    0.901671,
    0.796471,
    0.743541,
    0.597778,
    0.698667,
    0.586651,
    0.875638,
    0.642251,
    0.604726,
    0.628,
    0.887661,
    0.955746,
    0.688914,
    0.559579,
    0.565688,
    0.867666,
    0.517103,
    0.688156,
    0.905066,
    0.653084,
    0.700237,
    0.801,
    0.91044,
    0.627,
    0.886887,
    0.797493,
    0.761077,
    0.620811,
    0.685124,
    0.771074,
    0.688574,
    0.954233,
    0.82606,
    0.605014,
    0.904753,
    0.972103,
    0.626823,
    0.775747,
    0.612413,
    0.666518,
    0.622841,
    0.64956,
    0.673,
    0.845193,
    0.753959,
    0.804139,
    1.187346,
    0.838888,
    0.912125,
    0.791438,
    0.534102,
    0.675848,
    0.57216,
    0.637129,
    0.95,
    0.463332,
    0.531476,
    0.868816,
    0.634014,
    0.660065,
    0.555463,
    0.632046,
    0.623794,
    0.645,
    0.644637,
    0.720804,
    0.760248,
    0.650307,
    0.756129,
    0.60876,
    0.827984,
    0.654752,
    0.724002,
    0.802567,
    0.623023,
    0.796889,
    0.835474,
    0.707,
    0.817,
    0.625966,
    0.599,
    1.03233,
    0.842996,
    0.630908,
    0.905476,
    0.687209,
    0.849626,
    0.798136,
    0.88664,
    1.089486,
    0.829522,
    0.674867,
    0.657976,
    0.672505,
    0.640916,
    0.696533,
    0.582619,
    0.548,
    1.055107,
    1.279682,
    0.689322,
    0.851416,
    0.726664,
    0.640531,
    0.571988,
    0.748051,
    0.561528,
    0.639575,
    0.810703,
    0.974018,
    1.092111,
    0.986028,
    0.844103,
    0.832686,
    0.915193,
    0.805635,
    1.333673,
    0.917164,
    0.805365,
    0.62814,
    0.681881,
    0.629386,
    0.922368,
    0.626384,
    0.646996,
    1.009106,
    0.872504,
    0.547408,
    0.62,
    0.529009,
    0.863847,
    0.649,
    0.587476,
    0.781897,
    0.612802,
    0.76,
    0.856637,
    1.109764,
    0.700715,
    0.643806,
    0.777182,
    0.563786,
    0.931053,
    0.487601,
    0.583675,
    0.738,
    0.891,
    1.07,
    0.538,
    0.933,
    0.906958,
    0.433738,
    0.633433,
    0.856,
    0.634724,
    0.68599,
    0.760538,
    0.659287,
    0.638021,
    0.988357,
    0.916148,
    0.626609,
    0.868656,
    0.714086,
    0.631641,
    0.581556,
    0.760591,
    0.564,
    0.841897,
    0.874449,
    0.79647,
    0.544586,
    0.634536,
    0.650216,
    0.594201,
    0.568084,
    0.72263,
    0.73792,
    0.499,
    0.677983,
    0.621716,
    0.760406,
    0.665116,
    0.900721,
    0.711809,
    0.993595,
    0.958974,
    1.007797,
    0.856048,
    0.642031,
    0.597,
    0.729,
    0.591457,
    0.634,
    1.117,
    0.601058,
    0.947583,
    1.281,
    0.967276,
    0.821843,
    0.648452,
    0.540704,
    0.574821,
    0.567623,
    0.75388,
    0.558,
    0.767138,
    0.617111,
    0.717,
    0.844396,
    0.724139,
    0.610028,
    0.942,
    0.695,
    0.796335,
    0.596588,
    0.644889,
    1.015406,
    0.735408,
    0.752832,
    0.670771,
    0.74821,
    0.583,
    0.670104,
    0.75499,
    0.750114,
    0.549,
    0.77063,
    0.652,
    0.618819,
    0.935619,
    0.892796,
    0.977,
    0.549553,
    0.980123,
    0.545516,
    0.920894,
    0.779618,
    0.697349,
    0.785781,
    0.607154,
    0.584805,
    0.696822,
    0.579945,
    0.529123,
    0.6496,
    0.808434,
    0.632217,
    0.525453,
    0.817801,
    0.76,
    0.770805,
    0.763742,
    1.054269,
    0.714463,
    0.814605,
    0.903925,
    0.827866,
    0.712826,
    0.628806,
    0.702,
    0.795846,
    0.918149,
    0.583,
    0.998454,
    0.55,
    0.822111,
    0.680134,
    0.545679,
    0.644876,
    0.8895,
    0.868184,
    0.699189,
    0.678383,
    0.787721,
    0.761096,
    1.039582,
    0.707316,
    0.574698,
    0.774091,
    0.649528,
    0.851358,
    0.7103,
    0.789945,
    0.729941,
    0.81771,
    0.801,
    0.710009,
    0.52566,
    0.782931,
    0.891707,
    0.770838,
    0.614,
    1.046471,
    0.930623,
    0.755361,
    0.594682,
    0.96,
    0.71935,
    0.555002,
    0.724,
    0.890042,
    0.546387,
    1.186309,
    0.691,
    0.858,
    0.525012,
    0.663417,
    0.672097,
    0.824287,
    0.522946,
    0.896467,
    0.678047,
    0.982503,
    0.926866,
    0.585,
    0.624788,
    0.82,
    0.694899,
    0.836086,
    0.543228,
    0.510534,
    0.907798,
    0.616281,
    0.965133,
    0.59944,
    0.692377,
    0.80123,
    0.604078,
    0.761083,
    0.616723,
    0.637813,
    0.808442,
    0.611,
    0.528354,
    0.553317,
    0.753,
    0.719059,
    0.901085,
    0.550475,
    0.617059,
    0.589,
    0.94,
    0.784991,
    0.563673,
    0.511307,
    0.795163,
    0.854,
    0.702,
    0.766172,
    0.614316,
    0.969,
    0.571718,
    0.554191,
    0.874637,
    0.716363,
    0.637195,
    0.583055,
    0.706475,
    0.967666,
    0.920696,
    0.821443,
    0.759678,
    0.869019,
    0.589256,
    0.691861,
    0.843675,
    0.724171,
    0.666,
    0.681492,
    0.798993,
    0.622,
    0.786883,
    0.79035,
    0.655837,
    0.806,
    0.887,
    0.94902,
    0.72678,
    0.611549,
    0.753517,
    0.787658,
    0.728335,
    0.981205,
    0.67708,
    0.866899,
    0.722707,
    0.878589,
    1.067544,
    0.865272,
    0.632712,
    0.676313,
    0.699897,
    0.561124,
    0.986092,
    0.839631,
    0.809271,
    0.635322,
    0.582285,
    0.7944,
    0.790336,
    0.640328,
    0.787272,
    0.769803,
    0.766328,
    0.973033,
    0.878092,
    0.650195,
    0.691,
    0.927358,
    1.038064,
    0.881705,
    0.651,
    0.790197
  ]
}