
Network statistics for circuits >= 4MB xmit:
  Stats for phase post-4mb:
    BWE: Min: 2.0/1183.7+539.1/5843.0, Avg: 10.5/1625.8+602.4/7319.2, Dev: 195.2, Max: 11.0/1953.6+737.8/9453.0
    CWND: Min: 188.0/621.1+159.1/1924.0, Avg: 201.0/641.7+155.1/1949.8, Dev: 11.5, Max: 201.0/657.2+156.5/2274.0
    QUSE: Min: 1.0/30.1+49.6/309.0, Avg: 1.0/33527591475560.7+3987589088819038.5/878416384462359552.0, Dev: 228539801141145.6, Max: 1.0/1742676572676090.2+179286563405538496.0/18446744073709551616.0
    final CWND: 189.0/631.7+156.8/1969.0
    final QUSE: 0.0/134.1+89.6/309.0
    RTTFactor: Min: 1.0/1.1+0.4/102.3, Avg: 1.0/1.3+0.7/120.6, Dev: 0.2, Max: 1.0/2.0+2.9/472.4
    init minRTTFactor: 1.0/1.0+0.1/10.0
    phase minRTTFactor: 1.0/1.0+0.1/7.1
    Total circs: 179961
  Stats for phase slow start:
    BWE: Min: 1.0/1382.1+575.4/6975.0, Avg: 3.0/1388.7+571.3/6975.0, Dev: 5.6, Max: 3.0/1396.2+577.8/6975.0
    CWND: Min: 186.0/650.2+161.5/1886.0, Avg: 187.0/652.0+160.1/1886.0, Dev: 1.5, Max: 187.0/653.9+161.5/2262.0
    QUSE: Min: 186.0/186.0+0.0/186.0, Avg: 186.0/186.0+0.0/186.0, Dev: 0.0, Max: 186.0/186.0+0.0/186.0
    final CWND: 187.0/652.0+160.9/1923.0
    final QUSE: 186.0/186.0+0.0/186.0
    RTTFactor: Min: 1.0/1.5+0.7/231.9, Avg: 1.0/1.5+0.7/231.9, Dev: 0.0, Max: 1.0/1.5+1.0/247.1
    init minRTTFactor: 1.0/1.0+0.1/20.7
    phase minRTTFactor: 1.0/1.0+0.1/20.7
    Total circs: 179961
  Stats for phase post-slow start:
    BWE: Min: 1.0/1062.4+496.3/5488.0, Avg: 68.7/1631.3+591.1/7304.4, Dev: 233.6, Max: 124.0/2033.4+748.0/9453.0
    CWND: Min: 186.0/616.7+161.4/1886.0, Avg: 217.4/644.3+154.8/1897.4, Dev: 16.0, Max: 231.0/667.0+155.7/2274.0
    QUSE: Min: 1.0/14.0+22.3/186.0, Avg: 12.7/91341925678016.2+6497821437426534.0/1152921504606846976.0, Dev: 652892091175896.4, Max: 186.0/5227710158085292.0+310494609332004544.0/18446744073709551616.0
    final CWND: 189.0/631.7+156.8/1969.0
    final QUSE: 1.0/134.1+89.6/309.0
    RTTFactor: Min: 1.0/1.0+0.0/3.7, Avg: 1.0/1.3+0.4/54.7, Dev: 0.3, Max: 1.0/2.2+7.2/2740.2
    init minRTTFactor: 1.0/1.0+0.1/20.7
    phase minRTTFactor: 1.0/1.0+0.0/1.0
    Total circs: 179961
  Stats for phase lifetime:
    BWE: Min: 1.0/1062.4+496.3/5488.0, Avg: 71.1/1629.0+590.5/7297.2, Dev: 235.0, Max: 124.0/2033.4+748.0/9453.0
    CWND: Min: 186.0/616.7+161.4/1886.0, Avg: 217.1/644.3+154.8/1897.0, Dev: 16.1, Max: 231.0/667.0+155.7/2274.0
    QUSE: Min: 1.0/14.0+22.3/186.0, Avg: 13.3/88192670176070.9+6227626749923031.0/1129392494308748032.0, Dev: 642739954459551.2, Max: 186.0/5227710158085292.0+310494609332004544.0/18446744073709551616.0
    final CWND: 189.0/631.7+156.8/1969.0
    final QUSE: 1.0/134.1+89.6/309.0
    RTTFactor: Min: 1.0/1.0+0.0/3.7, Avg: 1.0/1.3+0.4/55.1, Dev: 0.3, Max: 1.0/2.2+7.2/2740.2
    init minRTTFactor: 1.0/1.0+0.1/20.7
    phase minRTTFactor: 1.0/1.0+0.0/1.0
    Total circs: 179961
  Total circs: 179961
  Circs still in SS: 0

Network statistics for all circuits:
  Stats for phase post-4mb:
    BWE: Min: 2.0/1183.7+539.1/5843.0, Avg: 10.5/1625.8+602.4/7319.2, Dev: 195.2, Max: 11.0/1953.6+737.8/9453.0
    CWND: Min: 188.0/621.1+159.1/1924.0, Avg: 201.0/641.7+155.1/1949.8, Dev: 11.5, Max: 201.0/657.2+156.5/2274.0
    QUSE: Min: 1.0/30.1+49.6/309.0, Avg: 1.0/33527591475560.7+3987589088819038.5/878416384462359552.0, Dev: 228539801141145.6, Max: 1.0/1742676572676090.2+179286563405538496.0/18446744073709551616.0
    final CWND: 189.0/631.7+156.8/1969.0
    final QUSE: 0.0/134.1+89.6/309.0
    RTTFactor: Min: 1.0/1.1+0.4/102.3, Avg: 1.0/1.3+0.7/120.6, Dev: 0.2, Max: 1.0/2.0+2.9/472.4
    init minRTTFactor: 1.0/1.0+0.1/10.0
    phase minRTTFactor: 1.0/1.0+0.1/7.1
    Total circs: 179961
  Stats for phase slow start:
    BWE: Min: 1.0/1283.0+570.8/8077.0, Avg: 2.0/1287.5+568.5/8077.0, Dev: 3.9, Max: 2.0/1292.6+573.4/8077.0
    CWND: Min: 186.0/619.3+160.8/2455.0, Avg: 187.0/620.5+160.0/2455.0, Dev: 1.0, Max: 187.0/621.8+160.9/2455.0
    QUSE: Min: 186.0/186.0+0.0/186.0, Avg: 186.0/186.0+0.0/186.0, Dev: 0.0, Max: 186.0/186.0+0.0/186.0
    final CWND: 187.0/620.5+160.5/2455.0
    final QUSE: 186.0/186.0+0.0/186.0
    RTTFactor: Min: 1.0/1.6+1.0/231.9, Avg: 1.0/1.6+1.4/577.5, Dev: 0.0, Max: 1.0/1.6+3.1/1728.8
    init minRTTFactor: 1.0/1.0+0.1/20.7
    phase minRTTFactor: 1.0/1.0+0.1/20.7
    Total circs: 364263
  Stats for phase post-slow start:
    BWE: Min: 1.0/1048.7+504.2/7902.0, Avg: 2.0/1453.9+621.4/8470.6, Dev: 188.4, Max: 2.0/1765.2+782.3/9453.0
    CWND: Min: 186.0/598.3+158.4/2455.0, Avg: 187.0/615.2+156.2/2455.0, Dev: 9.9, Max: 187.0/628.8+159.0/2455.0
    QUSE: Min: 1.0/58.2+70.7/186.0, Avg: 12.7/101074109766458.6+11213401364873876.0/3689348814741910528.0, Dev: 516199992750960.5, Max: 186.0/3392965667494476.0+250155265991209728.0/18446744073709551616.0
    final CWND: 187.0/606.5+156.6/2455.0
    final QUSE: 1.0/149.7+88.4/309.0
    RTTFactor: Min: 1.0/1.2+0.7/139.4, Avg: 1.0/1.5+1.3/228.2, Dev: 0.3, Max: 1.0/2.2+6.7/2740.2
    init minRTTFactor: 1.0/1.0+0.1/20.7
    phase minRTTFactor: 1.0/1.0+0.0/1.0
    Total circs: 364263
  Stats for phase lifetime:
    BWE: Min: 1.0/1048.7+504.2/7902.0, Avg: 2.0/1451.4+619.2/8442.5, Dev: 190.3, Max: 2.0/1765.2+782.3/9453.0
    CWND: Min: 186.0/598.3+158.4/2455.0, Avg: 187.0/615.3+156.2/2455.0, Dev: 10.0, Max: 187.0/628.8+159.0/2455.0
    QUSE: Min: 1.0/58.2+70.7/186.0, Avg: 13.3/95452407687972.6+10428372893990142.0/3458764513820540928.0, Dev: 505096364710208.2, Max: 186.0/3392965667494476.0+250155265991209728.0/18446744073709551616.0
    final CWND: 187.0/606.5+156.6/2455.0
    final QUSE: 1.0/149.7+88.4/309.0
    RTTFactor: Min: 1.0/1.2+0.7/139.4, Avg: 1.0/1.5+1.2/208.8, Dev: 0.3, Max: 1.0/2.2+6.7/2740.2
    init minRTTFactor: 1.0/1.0+0.1/20.7
    phase minRTTFactor: 1.0/1.0+0.0/1.0
    Total circs: 364263
  Total circs: 364263
  Circs still in SS: 0

Network statistics for circuits never exiting slow start:
  No circuits

Network statistics for circuits that hit min cwnd:
  No circuits
TLS overhead in /shadow/prop340-asan/137935/462140/tornet/1/heartbeat-nonexit.log min/avg+dev/max: 0.68/3.35+7.2/66.77
TLS overhead in /shadow/prop340-asan/137935/462140/tornet/1/heartbeat-exit.log min/avg+dev/max: 0.68/2.25+2.4/66.58
