{
  "ALL": [
    [
      12.5,
      6.25
    ],
    [
      12.5,
      6.25
    ],
    [
      31.25,
      6.25
    ],
    [
      31.25,
      6.25
    ],
    [
      37.5,
      6.25
    ],
    [
      37.5,
      6.25
    ],
    [
      50.0,
      6.25
    ],
    [
      50.0,
      6.25
    ],
    [
      37.5,
      6.25
    ],
    [
      37.5,
      6.25
    ],
    [
      18.75,
      6.25
    ],
    [
      18.75,
      6.25
    ],
    [
      43.75,
      6.25
    ],
    [
      43.75,
      6.25
    ],
    [
      25.0,
      6.25
    ],
    [
      25.0,
      6.25
    ],
    [
      31.25,
      6.25
    ],
    [
      31.25,
      6.25
    ],
    [
      25.0,
      6.25
    ],
    [
      25.0,
      6.25
    ],
    [
      43.75,
      6.25
    ],
    [
      43.75,
      6.25
    ],
    [
      31.25,
      6.25
    ],
    [
      31.25,
      6.25
    ],
    [
      18.75,
      6.25
    ],
    [
      18.75,
      6.25
    ],
    [
      50.0,
      6.25
    ],
    [
      50.0,
      6.25
    ],
    [
      25.0,
      6.25
    ],
    [
      25.0,
      6.25
    ],
    [
      18.75,
      6.25
    ],
    [
      18.75,
      6.25
    ],
    [
      12.5,
      6.25
    ],
    [
      12.5,
      6.25
    ],
    [
      18.75,
      6.25
    ],
    [
      18.75,
      6.25
    ],
    [
      25.0,
      6.25
    ],
    [
      25.0,
      6.25
    ],
    [
      25.0,
      6.25
    ],
    [
      25.0,
      6.25
    ],
    [
      12.5,
      6.25
    ],
    [
      12.5,
      6.25
    ],
    [
      25.0,
      6.25
    ],
    [
      25.0,
      6.25
    ],
    [
      31.25,
      6.25
    ],
    [
      31.25,
      6.25
    ],
    [
      25.0,
      6.25
    ],
    [
      25.0,
      6.25
    ],
    [
      31.25,
      6.25
    ],
    [
      31.25,
      6.25
    ],
    [
      37.5,
      6.25
    ],
    [
      37.5,
      6.25
    ],
    [
      12.5,
      6.25
    ],
    [
      12.5,
      6.25
    ],
    [
      18.75,
      6.25
    ],
    [
      18.75,
      6.25
    ],
    [
      31.25,
      6.25
    ],
    [
      31.25,
      6.25
    ],
    [
      12.5,
      6.25
    ],
    [
      12.5,
      6.25
    ],
    [
      60.0,
      6.666666666666667
    ],
    [
      60.0,
      6.666666666666667
    ],
    [
      18.75,
      6.25
    ],
    [
      18.75,
      6.25
    ],
    [
      18.75,
      6.25
    ],
    [
      18.75,
      6.25
    ],
    [
      31.25,
      6.25
    ],
    [
      31.25,
      6.25
    ],
    [
      50.0,
      6.25
    ],
    [
      50.0,
      6.25
    ],
    [
      18.75,
      6.25
    ],
    [
      18.75,
      6.25
    ],
    [
      18.75,
      6.25
    ],
    [
      18.75,
      6.25
    ],
    [
      56.25,
      6.25
    ],
    [
      56.25,
      6.25
    ],
    [
      25.0,
      6.25
    ],
    [
      25.0,
      6.25
    ],
    [
      37.5,
      6.25
    ],
    [
      37.5,
      6.25
    ],
    [
      37.5,
      6.25
    ],
    [
      37.5,
      6.25
    ],
    [
      25.0,
      6.25
    ],
    [
      25.0,
      6.25
    ],
    [
      31.25,
      6.25
    ],
    [
      31.25,
      6.25
    ],
    [
      18.75,
      6.25
    ],
    [
      18.75,
      6.25
    ],
    [
      25.0,
      6.25
    ],
    [
      25.0,
      6.25
    ],
    [
      31.25,
      6.25
    ],
    [
      31.25,
      6.25
    ],
    [
      31.25,
      6.25
    ],
    [
      31.25,
      6.25
    ],
    [
      25.0,
      6.25
    ],
    [
      25.0,
      6.25
    ],
    [
      37.5,
      6.25
    ],
    [
      37.5,
      6.25
    ],
    [
      37.5,
      6.25
    ],
    [
      37.5,
      6.25
    ],
    [
      37.5,
      6.25
    ],
    [
      37.5,
      6.25
    ],
    [
      37.5,
      6.25
    ],
    [
      37.5,
      6.25
    ],
    [
      31.25,
      6.25
    ],
    [
      31.25,
      6.25
    ],
    [
      12.5,
      6.25
    ],
    [
      12.5,
      6.25
    ],
    [
      31.25,
      6.25
    ],
    [
      31.25,
      6.25
    ],
    [
      25.0,
      6.25
    ],
    [
      25.0,
      6.25
    ],
    [
      56.25,
      6.25
    ],
    [
      56.25,
      6.25
    ],
    [
      25.0,
      6.25
    ],
    [
      25.0,
      6.25
    ],
    [
      25.0,
      6.25
    ],
    [
      25.0,
      6.25
    ],
    [
      43.75,
      6.25
    ],
    [
      43.75,
      6.25
    ],
    [
      43.75,
      6.25
    ],
    [
      43.75,
      6.25
    ],
    [
      12.5,
      6.25
    ],
    [
      12.5,
      6.25
    ],
    [
      43.75,
      6.25
    ],
    [
      43.75,
      6.25
    ],
    [
      12.5,
      6.25
    ],
    [
      12.5,
      6.25
    ],
    [
      18.75,
      6.25
    ],
    [
      18.75,
      6.25
    ],
    [
      25.0,
      6.25
    ],
    [
      25.0,
      6.25
    ],
    [
      43.75,
      6.25
    ],
    [
      43.75,
      6.25
    ],
    [
      40.0,
      6.666666666666667
    ],
    [
      40.0,
      6.666666666666667
    ],
    [
      31.25,
      6.25
    ],
    [
      31.25,
      6.25
    ],
    [
      50.0,
      6.25
    ],
    [
      50.0,
      6.25
    ],
    [
      25.0,
      6.25
    ],
    [
      25.0,
      6.25
    ],
    [
      43.75,
      6.25
    ],
    [
      43.75,
      6.25
    ],
    [
      18.75,
      6.25
    ],
    [
      18.75,
      6.25
    ],
    [
      12.5,
      6.25
    ],
    [
      12.5,
      6.25
    ],
    [
      25.0,
      6.25
    ],
    [
      25.0,
      6.25
    ],
    [
      50.0,
      6.25
    ],
    [
      50.0,
      6.25
    ],
    [
      37.5,
      6.25
    ],
    [
      37.5,
      6.25
    ],
    [
      56.25,
      6.25
    ],
    [
      56.25,
      6.25
    ],
    [
      25.0,
      6.25
    ],
    [
      25.0,
      6.25
    ],
    [
      50.0,
      6.25
    ],
    [
      50.0,
      6.25
    ],
    [
      25.0,
      6.25
    ],
    [
      25.0,
      6.25
    ],
    [
      50.0,
      6.25
    ],
    [
      50.0,
      6.25
    ],
    [
      25.0,
      6.25
    ],
    [
      25.0,
      6.25
    ],
    [
      50.0,
      6.25
    ],
    [
      50.0,
      6.25
    ],
    [
      37.5,
      6.25
    ],
    [
      37.5,
      6.25
    ],
    [
      6.25,
      6.25
    ],
    [
      6.25,
      6.25
    ],
    [
      25.0,
      6.25
    ],
    [
      25.0,
      6.25
    ],
    [
      25.0,
      6.25
    ],
    [
      25.0,
      6.25
    ],
    [
      31.25,
      6.25
    ],
    [
      31.25,
      6.25
    ],
    [
      37.5,
      6.25
    ],
    [
      37.5,
      6.25
    ],
    [
      31.25,
      6.25
    ],
    [
      31.25,
      6.25
    ],
    [
      25.0,
      6.25
    ],
    [
      25.0,
      6.25
    ],
    [
      40.0,
      6.666666666666667
    ],
    [
      40.0,
      6.666666666666667
    ],
    [
      18.75,
      6.25
    ],
    [
      18.75,
      6.25
    ],
    [
      43.75,
      6.25
    ],
    [
      43.75,
      6.25
    ],
    [
      37.5,
      6.25
    ],
    [
      37.5,
      6.25
    ],
    [
      26.666666666666668,
      6.666666666666667
    ],
    [
      26.666666666666668,
      6.666666666666667
    ],
    [
      31.25,
      6.25
    ],
    [
      31.25,
      6.25
    ],
    [
      31.25,
      6.25
    ],
    [
      31.25,
      6.25
    ],
    [
      18.75,
      6.25
    ],
    [
      18.75,
      6.25
    ]
  ],
  "PROXY-STATUS": [
    [
      6.25,
      6.25
    ],
    [
      12.5,
      6.25
    ],
    [
      12.5,
      6.25
    ],
    [
      12.5,
      6.25
    ],
    [
      6.25,
      6.25
    ],
    [
      6.25,
      6.25
    ],
    [
      12.5,
      6.25
    ],
    [
      6.25,
      6.25
    ],
    [
      6.25,
      6.25
    ],
    [
      6.25,
      6.25
    ],
    [
      18.75,
      6.25
    ],
    [
      12.5,
      6.25
    ],
    [
      12.5,
      6.25
    ],
    [
      6.25,
      6.25
    ],
    [
      12.5,
      6.25
    ],
    [
      12.5,
      6.25
    ],
    [
      6.25,
      6.25
    ],
    [
      6.25,
      6.25
    ],
    [
      6.25,
      6.25
    ],
    [
      6.25,
      6.25
    ],
    [
      12.5,
      6.25
    ],
    [
      6.25,
      6.25
    ],
    [
      6.25,
      6.25
    ],
    [
      6.25,
      6.25
    ],
    [
      12.5,
      6.25
    ],
    [
      12.5,
      6.25
    ],
    [
      6.25,
      6.25
    ],
    [
      12.5,
      6.25
    ],
    [
      6.25,
      6.25
    ],
    [
      12.5,
      6.25
    ],
    [
      18.75,
      6.25
    ],
    [
      12.5,
      6.25
    ],
    [
      12.5,
      6.25
    ],
    [
      6.25,
      6.25
    ],
    [
      6.25,
      6.25
    ],
    [
      6.25,
      6.25
    ],
    [
      6.25,
      6.25
    ],
    [
      6.666666666666667,
      6.666666666666667
    ],
    [
      6.25,
      6.25
    ],
    [
      12.5,
      6.25
    ],
    [
      6.25,
      6.25
    ],
    [
      18.75,
      6.25
    ],
    [
      31.25,
      6.25
    ],
    [
      6.25,
      6.25
    ],
    [
      6.25,
      6.25
    ],
    [
      6.25,
      6.25
    ],
    [
      25.0,
      6.25
    ],
    [
      12.5,
      6.25
    ],
    [
      12.5,
      6.25
    ]
  ],
  "READEOF": [
    [
      6.666666666666667,
      6.666666666666667
    ]
  ],
  "TIMEOUT": [
    [
      6.25,
      6.25
    ],
    [
      31.25,
      6.25
    ],
    [
      25.0,
      6.25
    ],
    [
      37.5,
      6.25
    ],
    [
      25.0,
      6.25
    ],
    [
      12.5,
      6.25
    ],
    [
      43.75,
      6.25
    ],
    [
      18.75,
      6.25
    ],
    [
      18.75,
      6.25
    ],
    [
      18.75,
      6.25
    ],
    [
      37.5,
      6.25
    ],
    [
      25.0,
      6.25
    ],
    [
      18.75,
      6.25
    ],
    [
      50.0,
      6.25
    ],
    [
      6.25,
      6.25
    ],
    [
      18.75,
      6.25
    ],
    [
      18.75,
      6.25
    ],
    [
      25.0,
      6.25
    ],
    [
      12.5,
      6.25
    ],
    [
      6.25,
      6.25
    ],
    [
      12.5,
      6.25
    ],
    [
      18.75,
      6.25
    ],
    [
      25.0,
      6.25
    ],
    [
      25.0,
      6.25
    ],
    [
      37.5,
      6.25
    ],
    [
      12.5,
      6.25
    ],
    [
      12.5,
      6.25
    ],
    [
      25.0,
      6.25
    ],
    [
      6.25,
      6.25
    ],
    [
      53.333333333333336,
      6.666666666666667
    ],
    [
      6.25,
      6.25
    ],
    [
      12.5,
      6.25
    ],
    [
      31.25,
      6.25
    ],
    [
      50.0,
      6.25
    ],
    [
      18.75,
      6.25
    ],
    [
      12.5,
      6.25
    ],
    [
      50.0,
      6.25
    ],
    [
      25.0,
      6.25
    ],
    [
      25.0,
      6.25
    ],
    [
      37.5,
      6.25
    ],
    [
      25.0,
      6.25
    ],
    [
      18.75,
      6.25
    ],
    [
      18.75,
      6.25
    ],
    [
      18.75,
      6.25
    ],
    [
      18.75,
      6.25
    ],
    [
      31.25,
      6.25
    ],
    [
      18.75,
      6.25
    ],
    [
      37.5,
      6.25
    ],
    [
      37.5,
      6.25
    ],
    [
      25.0,
      6.25
    ],
    [
      37.5,
      6.25
    ],
    [
      12.5,
      6.25
    ],
    [
      12.5,
      6.25
    ],
    [
      31.25,
      6.25
    ],
    [
      25.0,
      6.25
    ],
    [
      56.25,
      6.25
    ],
    [
      12.5,
      6.25
    ],
    [
      12.5,
      6.25
    ],
    [
      37.5,
      6.25
    ],
    [
      37.5,
      6.25
    ],
    [
      12.5,
      6.25
    ],
    [
      43.75,
      6.25
    ],
    [
      6.25,
      6.25
    ],
    [
      18.75,
      6.25
    ],
    [
      25.0,
      6.25
    ],
    [
      37.5,
      6.25
    ],
    [
      33.333333333333336,
      6.666666666666667
    ],
    [
      25.0,
      6.25
    ],
    [
      50.0,
      6.25
    ],
    [
      12.5,
      6.25
    ],
    [
      43.75,
      6.25
    ],
    [
      18.75,
      6.25
    ],
    [
      12.5,
      6.25
    ],
    [
      25.0,
      6.25
    ],
    [
      50.0,
      6.25
    ],
    [
      37.5,
      6.25
    ],
    [
      56.25,
      6.25
    ],
    [
      18.75,
      6.25
    ],
    [
      50.0,
      6.25
    ],
    [
      25.0,
      6.25
    ],
    [
      31.25,
      6.25
    ],
    [
      25.0,
      6.25
    ],
    [
      50.0,
      6.25
    ],
    [
      6.25,
      6.25
    ],
    [
      6.25,
      6.25
    ],
    [
      18.75,
      6.25
    ],
    [
      18.75,
      6.25
    ],
    [
      31.25,
      6.25
    ],
    [
      31.25,
      6.25
    ],
    [
      31.25,
      6.25
    ],
    [
      25.0,
      6.25
    ],
    [
      40.0,
      6.666666666666667
    ],
    [
      18.75,
      6.25
    ],
    [
      18.75,
      6.25
    ],
    [
      25.0,
      6.25
    ],
    [
      26.666666666666668,
      6.666666666666667
    ],
    [
      31.25,
      6.25
    ],
    [
      31.25,
      6.25
    ],
    [
      6.25,
      6.25
    ]
  ]
}