{
  "ram": {
    "bytes_used_max": 174163488768,
    "gib_used_max": 162.20238876342773,
    "gib_used_per_minute": {
      "0": 1.7653926849365233,
      "1": 3.474663988749186,
      "2": 4.482564417521159,
      "3": 5.386193656921387,
      "4": 7.688970986059156,
      "5": 10.77518933614095,
      "6": 12.66215534210205,
      "7": 14.603726132710774,
      "8": 15.89315039424573,
      "9": 17.443109130859376,
      "10": 19.10590877532959,
      "11": 20.556188033798993,
      "12": 21.885160446166992,
      "13": 23.11571305592855,
      "14": 24.274527740478515,
      "15": 25.44920827574649,
      "16": 26.45923614501953,
      "17": 27.397585741678874,
      "18": 28.294468053181966,
      "19": 29.108184038582493,
      "20": 29.899143155415853,
      "21": 30.632866287231444,
      "22": 31.320161565144858,
      "23": 31.96401641328456,
      "24": 32.65343348185221,
      "25": 33.30998554229736,
      "26": 34.04430726369222,
      "27": 34.748412180755096,
      "28": 35.314024988810225,
      "29": 35.88610452016194,
      "30": 36.449177952136026,
      "31": 37.08633257548014,
      "32": 37.57404034932454,
      "33": 38.13611857096354,
      "34": 38.677971920724644,
      "35": 39.16242764790853,
      "36": 39.729482905069986,
      "37": 40.17369562784831,
      "38": 40.593862889176705,
      "39": 41.0741335550944,
      "40": 41.5010950088501,
      "41": 41.97390104929606,
      "42": 42.37672488972292,
      "43": 42.806587028503415,
      "44": 43.28044611612956,
      "45": 43.73782206389863,
      "46": 44.06892770131429,
      "47": 44.47918160756429,
      "48": 44.920162455240884,
      "49": 45.28085210767843,
      "50": 45.68391081492106,
      "51": 46.07503039042155,
      "52": 46.507605425516765,
      "53": 46.845546787067995,
      "54": 47.17948900858561,
      "55": 47.539083035786945,
      "56": 47.91903889973958,
      "57": 48.314569053003346,
      "58": 48.57852439880371,
      "59": 48.88503074645996,
      "60": 49.21180667877197,
      "61": 49.55625372417902,
      "62": 49.88236700693766,
      "63": 50.20476442972819,
      "64": 50.54207026163737,
      "65": 50.957660739704714,
      "66": 51.2433552424113,
      "67": 51.55629011789958,
      "68": 52.03473727985964,
      "69": 52.421984608968096,
      "70": 52.915344047546384,
      "71": 53.18582871754964,
      "72": 53.485293372202726,
      "73": 53.70717277526855,
      "74": 54.10046195983887,
      "75": 54.61730982462565,
      "76": 55.02904251874504,
      "77": 54.731577491760255,
      "78": 55.07921187082926,
      "79": 55.094177957308496,
      "80": 55.35679791768392,
      "81": 55.61061954498291,
      "82": 55.80345128377279,
      "83": 56.05733231366691,
      "84": 56.27266419728597,
      "85": 56.59024620056152,
      "86": 56.86986787440413,
      "87": 57.125627517700195,
      "88": 57.361831219991046,
      "89": 57.59456164042155,
      "90": 57.87179306806144,
      "91": 58.10296128590902,
      "92": 58.40017375946045,
      "93": 58.60724436442057,
      "94": 58.86837432344081,
      "95": 59.12852452596029,
      "96": 59.367430750528975,
      "97": 59.65226542154948,
      "98": 60.06869157694154,
      "99": 60.20840994517008,
      "100": 60.447997156778975,
      "101": 60.793767674764,
      "102": 61.06432995553744,
      "103": 61.368903986612956,
      "104": 61.685216967264815,
      "105": 61.92659436242055,
      "106": 62.339410336812335,
      "107": 62.49794807434082,
      "108": 62.79591261545817,
      "109": 63.04045770936093,
      "110": 63.294595909118655,
      "111": 63.58449408213298,
      "112": 63.87757345835368,
      "113": 64.21398389137397,
      "114": 64.53982295989991,
      "115": 64.83224035898844,
      "116": 65.15024375915527,
      "117": 65.41373204376738,
      "118": 65.71432024637858,
      "119": 66.03335056304931,
      "120": 66.41766706563659,
      "121": 66.77586688995362,
      "122": 67.04138120015462,
      "123": 67.29812939961751,
      "124": 67.54800046500513,
      "125": 67.88616339365642,
      "126": 68.21565666198731,
      "127": 68.51947110493978,
      "128": 68.85351452584995,
      "129": 69.1305331548055,
      "130": 69.4413444519043,
      "131": 69.76173252170369,
      "132": 70.12961864471436,
      "133": 70.45266297658284,
      "134": 70.74032592773438,
      "135": 71.05079243546825,
      "136": 71.35395215352376,
      "137": 71.68989289601645,
      "138": 72.03937409718831,
      "139": 72.37428897922322,
      "140": 72.72827536265055,
      "141": 73.02569020589193,
      "142": 73.31469881736626,
      "143": 73.60714047749838,
      "144": 73.88474470774332,
      "145": 74.22491391499837,
      "146": 74.53298646312649,
      "147": 74.80354493459066,
      "148": 75.16044623057047,
      "149": 76.32909552256267,
      "150": 76.34450556868214,
      "151": 76.263818359375,
      "152": 76.5279780069987,
      "153": 76.7843763060489,
      "154": 77.03221530914307,
      "155": 77.37093696594238,
      "156": 77.6426794052124,
      "157": 78.26238554615085,
      "158": 78.35556278228759,
      "159": 78.68150400711318,
      "160": 79.1907205581665,
      "161": 79.33173402150472,
      "162": 79.6001604715983,
      "163": 80.38068021354029,
      "164": 80.41724643707275,
      "165": 80.56510626475016,
      "166": 80.89247622732388,
      "167": 81.47157936096191,
      "168": 81.67554175059,
      "169": 82.79669506266966,
      "170": 84.63857896449203,
      "171": 82.70632057189941,
      "172": 82.99333629608154,
      "173": 83.30174674987794,
      "174": 83.60909232446703,
      "175": 83.91026045481364,
      "176": 84.22814013163249,
      "177": 84.44714342753092,
      "178": 84.90769492973716,
      "179": 85.2494436899821,
      "180": 85.68211574554444,
      "181": 86.24523111979167,
      "182": 87.00223534794178,
      "183": 87.10208403269449,
      "184": 87.59742126464843,
      "185": 87.40539020602986,
      "186": 87.5209368387858,
      "187": 88.55208721160889,
      "188": 88.70515429178873,
      "189": 90.79946840220484,
      "190": 91.37572298211566,
      "191": 89.42469685872396,
      "192": 89.59695641469148,
      "193": 89.9804703394572,
      "194": 90.36933739980061,
      "195": 90.57702827453613,
      "196": 91.00410306251655,
      "197": 91.33811181386312,
      "198": 91.63752074160818,
      "199": 91.98275756835938,
      "200": 92.21864229838053,
      "201": 92.29685084025066,
      "202": 92.54414859060513,
      "203": 92.83444366455078,
      "204": 93.15663096110026,
      "205": 93.5000202814738,
      "206": 93.80889394727804,
      "207": 94.13406829833984,
      "208": 94.53093318939209,
      "209": 94.75348784128825,
      "210": 95.08385493391651,
      "211": 95.35719623565674,
      "212": 95.67557067871094,
      "213": 95.97358231625314,
      "214": 96.30370114644369,
      "215": 96.6665184656779,
      "216": 96.98243598937988,
      "217": 97.33503904181012,
      "218": 97.81935056050618,
      "219": 98.0154354095459,
      "220": 98.27230383555094,
      "221": 98.59708184711003,
      "222": 98.91592839558919,
      "223": 99.33850072224935,
      "224": 99.67681192947646,
      "225": 99.93565082550049,
      "226": 100.28140296936036,
      "227": 100.69606825510661,
      "228": 100.99042840731346,
      "229": 101.26061382293702,
      "230": 101.62576065063476,
      "231": 102.03262170155843,
      "232": 102.3780362403999,
      "233": 102.75159397125245,
      "234": 103.03017965952556,
      "235": 103.34658133188883,
      "236": 103.73989816439354,
      "237": 104.05217463175455,
      "238": 104.42787895202636,
      "239": 104.72500419616699,
      "240": 105.07366574820826,
      "241": 105.40951493581136,
      "242": 105.75448627471924,
      "243": 106.01758982340495,
      "244": 106.3536390530861,
      "245": 106.69691727956136,
      "246": 106.98729991912842,
      "247": 107.38184026082357,
      "248": 107.89083603681144,
      "249": 108.15713585029214,
      "250": 108.63185539245606,
      "251": 109.07916742960612,
      "252": 109.42654664637679,
      "253": 109.79023259480795,
      "254": 110.17468357086182,
      "255": 110.67966334025066,
      "256": 111.06297108278436,
      "257": 110.79983973099013,
      "258": 111.29956906636556,
      "259": 111.2818120320638,
      "260": 111.60102747254453,
      "261": 111.87734654744466,
      "262": 112.19677359263102,
      "263": 112.55787207285563,
      "264": 112.91155003693144,
      "265": 113.2694034576416,
      "266": 113.58031539916992,
      "267": 113.96917349497477,
      "268": 114.30931595624503,
      "269": 114.50556462605795,
      "270": 114.82125320434571,
      "271": 115.11417718661033,
      "272": 115.43838589986166,
      "273": 115.85311431884766,
      "274": 116.19337514241536,
      "275": 116.51503553228864,
      "276": 116.81541080474854,
      "277": 117.16451911926269,
      "278": 117.82228024800618,
      "279": 118.07424881498693,
      "280": 118.32281430562337,
      "281": 118.98340460459391,
      "282": 119.61721737101927,
      "283": 123.41730809615831,
      "284": 119.98181762695313,
      "285": 119.80758374532064,
      "286": 120.56882108268091,
      "287": 121.2146987915039,
      "288": 139.08083925408832,
      "289": 148.85216270058842,
      "290": 123.08607263080144,
      "291": 124.57331808682146,
      "292": 124.0046973546346,
      "293": 122.85011552174886,
      "294": 123.11426308949788,
      "295": 121.96020520743677,
      "296": 122.29160016377767,
      "297": 122.35689525604248,
      "298": 122.2220482260494,
      "299": 122.85627689361573,
      "300": 123.32921600341797,
      "301": 122.30745098508638,
      "302": 121.32826665242513,
      "303": 121.31696009231825,
      "304": 121.34617830912272,
      "305": 121.30687624613444,
      "306": 121.23200499216715,
      "307": 121.22115946624238,
      "308": 121.2058120727539,
      "309": 121.23295758565267,
      "310": 121.22027606964112,
      "311": 121.25579840449963,
      "312": 121.2909548441569,
      "313": 121.35301653544109,
      "314": 121.35068861643474,
      "315": 121.3505520578158,
      "316": 121.40177001953126,
      "317": 121.43220647176106,
      "318": 121.52321357727051,
      "319": 121.58257132061458,
      "320": 121.61340427398682,
      "321": 91.19506409962972,
      "322": 50.41514169602167
    }
  },
  "run_time": {
    "hours": 5.351278265833334,
    "human": "5:21:04.601757",
    "minutes": 321.07669595,
    "real_seconds_per_sim_second": {
      "2.0": 31.089257,
      "3.002334": 33.050002,
      "4.004612": 36.86597,
      "5.006118": 40.082825,
      "6.00614": 43.057629,
      "7.007951": 45.354493,
      "8.008538": 45.78259,
      "9.010108": 45.945901,
      "10.010615": 46.043032,
      "11.012393": 46.124569,
      "12.012394": 46.204482,
      "13.012645": 46.378558,
      "14.014682": 46.447018,
      "15.014776": 46.509882,
      "16.016054": 46.571489,
      "17.016523": 46.633184,
      "18.016846": 46.694879,
      "19.018642": 46.755712,
      "20.018743": 46.810286,
      "21.018802": 46.862451,
      "22.019051": 46.91594,
      "23.020887": 47.033509,
      "24.023011": 47.084978,
      "25.024746": 47.134363,
      "26.026607": 47.181025,
      "27.028653": 47.228382,
      "28.029014": 47.273769,
      "29.030879": 47.316149,
      "30.032601": 47.361057,
      "31.033084": 47.406792,
      "32.033356": 47.44725,
      "33.034582": 47.556991,
      "34.035838": 47.607825,
      "35.038": 47.650362,
      "36.038225": 47.693563,
      "37.040218": 47.732179,
      "38.042092": 47.769922,
      "39.043432": 47.81046,
      "40.044942": 47.850114,
      "41.046436": 47.887638,
      "42.047966": 47.930238,
      "43.048718": 48.058818,
      "44.050386": 48.099607,
      "45.052157": 48.137852,
      "46.052497": 48.175463,
      "47.053921": 48.212604,
      "48.055646": 48.250829,
      "49.055648": 48.286054,
      "50.057307": 48.321135,
      "51.057658": 48.361645,
      "52.058511": 48.414671,
      "53.060901": 48.488468,
      "54.062412": 48.525244,
      "55.064564": 48.558061,
      "56.065606": 48.595498,
      "57.067629": 48.628921,
      "58.06823": 48.659547,
      "59.070514": 48.687139,
      "60.071928": 48.719697,
      "61.074112": 48.750947,
      "62.074662": 48.805203,
      "63.075568": 48.971079,
      "64.077548": 49.178543,
      "65.078602": 49.441234,
      "66.078857": 50.112322,
      "67.079144": 50.631711,
      "68.080126": 50.674181,
      "69.082372": 50.706463,
      "70.083359": 50.737935,
      "71.085524": 50.768099,
      "72.086911": 50.824283,
      "73.088496": 50.941495,
      "74.089151": 50.987174,
      "75.092504": 51.017917,
      "76.095423": 51.045175,
      "77.097793": 51.07476,
      "78.097852": 51.104046,
      "79.0995": 51.136812,
      "80.100979": 51.164669,
      "81.103056": 51.193054,
      "82.103693": 51.236185,
      "83.103889": 51.32804,
      "84.106892": 51.359065,
      "85.1092": 51.387317,
      "86.110868": 51.412411,
      "87.114756": 51.438211,
      "88.117092": 51.469038,
      "89.118586": 51.498683,
      "90.120066": 51.529201,
      "91.120338": 51.558335,
      "92.12037": 51.608319,
      "93.120502": 51.70384,
      "94.120508": 51.734529,
      "95.12215": 51.76321,
      "96.122447": 51.788901,
      "97.123753": 51.813447,
      "98.125845": 51.842627,
      "99.127401": 51.870556,
      "100.12946": 51.899154,
      "101.133332": 51.927767,
      "102.136254": 51.978069,
      "103.139253": 52.053627,
      "104.141344": 52.087178,
      "105.142808": 52.118572,
      "106.145302": 52.146627,
      "107.146516": 52.174072,
      "108.150136": 52.197397,
      "109.15027": 52.223068,
      "110.152349": 52.378419,
      "111.152786": 52.483922,
      "112.155826": 52.533613,
      "113.158435": 52.581295,
      "114.162942": 52.608663,
      "115.164208": 52.633772,
      "116.16675": 52.661962,
      "117.169124": 52.689356,
      "118.169704": 52.717748,
      "119.16995": 52.745153,
      "120.170728": 52.772869,
      "121.171991": 52.799486,
      "122.172403": 52.860238,
      "123.174164": 52.90176,
      "124.175378": 52.935928,
      "125.181361": 52.96332,
      "126.184334": 52.988562,
      "127.18651": 53.014102,
      "128.189231": 53.038863,
      "129.201221": 53.0646,
      "130.204552": 53.177598,
      "131.206202": 53.203988,
      "132.209306": 53.265217,
      "133.211144": 53.299125,
      "134.212927": 53.321074,
      "135.213308": 53.346033,
      "136.213678": 53.369033,
      "137.214699": 53.393901,
      "138.225948": 53.419358,
      "139.22804": 53.444795,
      "140.230182": 53.469845,
      "141.231776": 53.496206,
      "142.233822": 53.556833,
      "143.239032": 53.608164,
      "144.255072": 53.632465,
      "145.255616": 53.658514,
      "146.263874": 53.681567,
      "147.264724": 53.705747,
      "148.264966": 53.730809,
      "149.268948": 53.757111,
      "150.271608": 54.273737,
      "151.27201": 55.922484,
      "152.272888": 57.898119,
      "153.274522": 60.30536,
      "154.27497": 63.862742,
      "155.275757": 67.237223,
      "156.277035": 72.08785,
      "157.27876": 76.941522,
      "158.279422": 80.856988,
      "159.279547": 84.115588,
      "160.280404": 87.559865,
      "161.281524": 90.761218,
      "162.281902": 93.755962,
      "163.28215": 96.814918,
      "164.282459": 101.181024,
      "165.282695": 104.360313,
      "166.284736": 108.501431,
      "167.285543": 112.638081,
      "168.285601": 115.559095,
      "169.286914": 118.618346,
      "170.287261": 121.42363,
      "171.287987": 123.541378,
      "172.289335": 125.546126,
      "173.290483": 128.257263,
      "174.290842": 131.346282,
      "175.291397": 134.191704,
      "176.292339": 137.485628,
      "177.293132": 140.450853,
      "178.294431": 142.905245,
      "179.295603": 145.294277,
      "180.297445": 147.824227,
      "181.298813": 150.306697,
      "182.300583": 152.930237,
      "183.302728": 155.323997,
      "184.304744": 157.145706,
      "185.306241": 159.452894,
      "186.306688": 162.564044,
      "187.308523": 165.613475,
      "188.309506": 168.455785,
      "189.310067": 171.737478,
      "190.310614": 174.692861,
      "191.31202": 177.102065,
      "192.313099": 179.430904,
      "193.31329": 181.235613,
      "194.314764": 182.963246,
      "195.315722": 185.511518,
      "196.315925": 188.837332,
      "197.316982": 190.839982,
      "198.318414": 192.520752,
      "199.318933": 193.909581,
      "200.320399": 195.684494,
      "201.322324": 197.67086,
      "202.323786": 199.325577,
      "203.325261": 200.673929,
      "204.326057": 202.671157,
      "205.327188": 205.289304,
      "206.327609": 208.458569,
      "207.329519": 210.074867,
      "208.330547": 211.535053,
      "209.330713": 213.056431,
      "210.331393": 214.602177,
      "211.332754": 216.424862,
      "212.33468": 217.892432,
      "213.334699": 219.55547,
      "214.336199": 221.330753,
      "215.336939": 223.237836,
      "216.337404": 225.529976,
      "217.338452": 227.561422,
      "218.339707": 229.149948,
      "219.340305": 230.704511,
      "220.34152": 232.63318,
      "221.34251": 234.358768,
      "222.343292": 235.616261,
      "223.344476": 237.012624,
      "224.346173": 238.40114,
      "225.346219": 240.614286,
      "226.346286": 243.049757,
      "227.347894": 245.368229,
      "228.349647": 246.588151,
      "229.349882": 248.102594,
      "230.350556": 249.431591,
      "231.35181": 250.556468,
      "232.351904": 252.119147,
      "233.353968": 253.512953,
      "234.354975": 255.231008,
      "235.356515": 257.073461,
      "236.35778": 258.949952,
      "237.358958": 261.075154,
      "238.359627": 262.751905,
      "239.36098": 264.603236,
      "240.36262": 267.573723,
      "241.362755": 272.262252,
      "242.364371": 279.199969,
      "243.364774": 284.929016,
      "244.366213": 289.665428,
      "245.366608": 293.164992,
      "246.36818": 297.250357,
      "247.368188": 300.74266,
      "248.36913": 303.424194,
      "249.370187": 305.010431,
      "250.371832": 306.82817,
      "251.372747": 309.982627,
      "252.37388": 313.485058,
      "253.375189": 316.355717,
      "254.377008": 318.686182,
      "255.37817": 320.604157,
      "256.378631": 322.881337,
      "257.378861": 325.056751,
      "258.38087": 326.920992,
      "259.382003": 328.21151,
      "260.383741": 329.644022,
      "261.383819": 331.759957,
      "262.384433": 334.072215,
      "263.38451": 335.751622,
      "264.385633": 337.260223,
      "265.387397": 338.821143,
      "266.388303": 340.254193,
      "267.389803": 341.725624,
      "268.391185": 343.251695,
      "269.393076": 344.747392,
      "270.394396": 346.043267,
      "271.396307": 347.506577,
      "272.397487": 349.06057,
      "273.397903": 351.187693,
      "274.398094": 352.491671,
      "275.399222": 354.182228,
      "276.40067": 356.028453,
      "277.401763": 357.404445,
      "278.402859": 358.745043,
      "279.402927": 359.862778,
      "280.404855": 361.260548,
      "281.40506": 362.335676,
      "282.406272": 363.668194,
      "283.407919": 364.821395,
      "284.408829": 365.766051,
      "285.409119": 366.963465,
      "286.410715": 368.359924,
      "287.41148": 369.55131,
      "288.411565": 370.517168,
      "289.412944": 371.724115,
      "290.41407": 373.141116,
      "291.414414": 374.05668,
      "292.416006": 374.958332,
      "293.41634": 376.525552,
      "294.418114": 377.425913,
      "295.419302": 378.53056,
      "296.419491": 379.887762,
      "297.419974": 381.05178,
      "298.42119": 382.299495,
      "299.422036": 383.394918,
      "300.422303": 387.021728,
      "301.422591": 389.595041,
      "302.424142": 392.88219,
      "303.426": 396.649872,
      "304.427": 400.48352,
      "305.428": 405.133833,
      "306.43": 409.481094,
      "307.431379": 413.713359,
      "308.432986": 417.968799,
      "309.433": 421.225485,
      "310.435": 424.470025,
      "311.437": 428.657742,
      "312.439": 431.446936,
      "313.441": 434.61989,
      "314.443": 438.133677,
      "315.445": 441.561163,
      "316.446": 445.890846,
      "317.448": 450.02743,
      "318.45": 453.222215,
      "319.452": 456.243045,
      "320.454": 459.097107,
      "321.456": 461.966032,
      "322.458": 464.746772,
      "323.46": 468.125665,
      "324.462": 471.260779,
      "325.464": 474.815521,
      "326.466": 478.990411,
      "327.468": 483.052454,
      "328.47": 486.261134,
      "329.472": 489.917645,
      "330.474": 493.423353,
      "331.476": 496.503043,
      "332.478": 499.858813,
      "333.48": 503.690876,
      "334.482": 507.561591,
      "335.484": 511.763073,
      "336.486": 515.716658,
      "337.488": 519.497405,
      "338.49": 523.703435,
      "339.492": 527.878395,
      "340.494": 531.944325,
      "341.496": 535.741289,
      "342.498": 539.387464,
      "343.5": 543.637131,
      "344.502": 547.927843,
      "345.504": 552.455972,
      "346.506": 558.252157,
      "347.508": 563.245244,
      "348.51": 568.00005,
      "349.512": 572.668509,
      "350.514": 577.585038,
      "351.516": 582.426522,
      "352.518": 588.045382,
      "353.52": 592.977743,
      "354.522": 598.149114,
      "355.524": 603.768523,
      "356.526": 609.868539,
      "357.528": 615.221325,
      "358.53": 620.301477,
      "359.532": 625.543921,
      "360.534": 631.088583,
      "361.536": 636.757489,
      "362.538": 642.616771,
      "363.54": 648.469811,
      "364.542": 654.483987,
      "365.544": 660.871594,
      "366.546": 667.83878,
      "367.548": 674.239355,
      "368.55": 680.229164,
      "369.552": 686.317497,
      "370.554": 692.261726,
      "371.556": 698.324273,
      "372.558": 704.285627,
      "373.56": 710.256267,
      "374.562": 716.274573,
      "375.564": 722.943781,
      "376.566": 729.994423,
      "377.568": 736.823049,
      "378.57": 743.346412,
      "379.572": 749.768203,
      "380.574": 756.180664,
      "381.576": 762.681958,
      "382.578": 769.251732,
      "383.58": 775.917097,
      "384.582": 782.448874,
      "385.584": 789.798603,
      "386.586": 796.787631,
      "387.588": 803.507159,
      "388.59": 810.478624,
      "389.592": 817.329372,
      "390.594": 824.099,
      "391.596": 830.913822,
      "392.598": 837.717601,
      "393.6": 844.746054,
      "394.602": 851.791376,
      "395.604": 859.18256,
      "396.606": 866.543036,
      "397.608": 873.771142,
      "398.61": 881.097699,
      "399.612": 888.369497,
      "400.614": 895.624299,
      "401.616": 902.927811,
      "402.618": 910.310845,
      "403.62": 917.863659,
      "404.622": 925.346736,
      "405.624": 933.260732,
      "406.626": 941.280653,
      "407.628": 949.357771,
      "408.63": 957.205304,
      "409.632": 964.772016,
      "410.634": 972.304652,
      "411.636": 979.981981,
      "412.638": 987.564102,
      "413.64": 995.563563,
      "414.642": 1003.328111,
      "415.644": 1011.34252,
      "416.646": 1019.453245,
      "417.648": 1027.12997,
      "418.65": 1035.00629,
      "419.652": 1042.925207,
      "420.654": 1050.896643,
      "421.656": 1058.72422,
      "422.658": 1066.38815,
      "423.66": 1074.352256,
      "424.662": 1082.269493,
      "425.664": 1090.678312,
      "426.666": 1098.994765,
      "427.668": 1107.36663,
      "428.67": 1115.701875,
      "429.672": 1123.650587,
      "430.674": 1131.699743,
      "431.676": 1139.505988,
      "432.678": 1147.720117,
      "433.68": 1155.850692,
      "434.682": 1163.751316,
      "435.684": 1172.063958,
      "436.686": 1180.056471,
      "437.688": 1187.97238,
      "438.69": 1196.017241,
      "439.692": 1204.347984,
      "440.694": 1212.585719,
      "441.696": 1220.861679,
      "442.698": 1229.068138,
      "443.7": 1237.576649,
      "444.702": 1246.18004,
      "445.704": 1254.378354,
      "446.706": 1262.960003,
      "447.708": 1271.229962,
      "448.71": 1279.567221,
      "449.712": 1287.81631,
      "450.714": 1296.193343,
      "451.716": 1304.491163,
      "452.718": 1312.954305,
      "453.72": 1321.59822,
      "454.722": 1330.345172,
      "455.724": 1338.899135,
      "456.726": 1347.631723,
      "457.728": 1356.073326,
      "458.73": 1364.83579,
      "459.732": 1373.618987,
      "460.734": 1382.285368,
      "461.736": 1390.729915,
      "462.738": 1399.337745,
      "463.74": 1407.62239,
      "464.742": 1416.208469,
      "465.744": 1424.976851,
      "466.746": 1433.377656,
      "467.748": 1441.945657,
      "468.75": 1450.832092,
      "469.752": 1459.514367,
      "470.754": 1468.374278,
      "471.756": 1477.263854,
      "472.758": 1486.273757,
      "473.76": 1494.991583,
      "474.762": 1503.879454,
      "475.764": 1512.98068,
      "476.766": 1522.213148,
      "477.768": 1531.400438,
      "478.77": 1540.54559,
      "479.772": 1549.549888,
      "480.774": 1558.770447,
      "481.776": 1568.09308,
      "482.778": 1577.56093,
      "483.78": 1586.862169,
      "484.782": 1596.324532,
      "485.784": 1605.674058,
      "486.786": 1615.1155,
      "487.788": 1624.200007,
      "488.79": 1633.393562,
      "489.792": 1643.015795,
      "490.794": 1652.425602,
      "491.796": 1661.862189,
      "492.798": 1671.442186,
      "493.8": 1680.971771,
      "494.802": 1690.028985,
      "495.804": 1699.695717,
      "496.806": 1709.694498,
      "497.808": 1719.284369,
      "498.81": 1728.949174,
      "499.812": 1738.541897,
      "500.814": 1747.943575,
      "501.816": 1757.586258,
      "502.818": 1767.241267,
      "503.82": 1776.649665,
      "504.822": 1785.948767,
      "505.824": 1795.781227,
      "506.826": 1805.465903,
      "507.828": 1815.043528,
      "508.83": 1824.709396,
      "509.832": 1834.270948,
      "510.834": 1843.981257,
      "511.836": 1853.365616,
      "512.838": 1863.093434,
      "513.84": 1872.823043,
      "514.842": 1882.50488,
      "515.844": 1892.689758,
      "516.846": 1902.963397,
      "517.848": 1913.087062,
      "518.85": 1922.972477,
      "519.852": 1932.988793,
      "520.854": 1942.945997,
      "521.856": 1952.743821,
      "522.858": 1962.429806,
      "523.86": 1972.506196,
      "524.862": 1982.128825,
      "525.864": 1992.095057,
      "526.866": 2002.474178,
      "527.868": 2012.523056,
      "528.87": 2022.782467,
      "529.872": 2033.179986,
      "530.874": 2043.412181,
      "531.876": 2053.897558,
      "532.878": 2064.053747,
      "533.88": 2074.615998,
      "534.882": 2084.493119,
      "535.884": 2095.309466,
      "536.886": 2105.6461,
      "537.888": 2115.692572,
      "538.89": 2125.690118,
      "539.892": 2135.694702,
      "540.894": 2145.948562,
      "541.896": 2156.306222,
      "542.898": 2166.839373,
      "543.9": 2177.165314,
      "544.902": 2187.43877,
      "545.904": 2197.926162,
      "546.906": 2208.397242,
      "547.908": 2218.861356,
      "548.91": 2229.159895,
      "549.912": 2239.242925,
      "550.914": 2249.200629,
      "551.916": 2259.354072,
      "552.918": 2269.509177,
      "553.92": 2280.077121,
      "554.922": 2289.977129,
      "555.924": 2299.942687,
      "556.926": 2310.177209,
      "557.928": 2320.314419,
      "558.93": 2330.574657,
      "559.932": 2340.487265,
      "560.934": 2350.798698,
      "561.936": 2360.958484,
      "562.938": 2371.254132,
      "563.94": 2382.241129,
      "564.942": 2392.671424,
      "565.944": 2403.242133,
      "566.946": 2414.424696,
      "567.948": 2424.37379,
      "568.95": 2434.790834,
      "569.952": 2444.894522,
      "570.954": 2455.07856,
      "571.956": 2464.990667,
      "572.958": 2474.891686,
      "573.96": 2485.297411,
      "574.962": 2495.586266,
      "575.964": 2506.166042,
      "576.966": 2516.398879,
      "577.968": 2526.40213,
      "578.97": 2536.504844,
      "579.972": 2546.304225,
      "580.974": 2556.397494,
      "581.976": 2566.406677,
      "582.978": 2576.79911,
      "583.98": 2587.149191,
      "584.982": 2597.725436,
      "585.984": 2608.353166,
      "586.986": 2619.038287,
      "587.988": 2629.401262,
      "588.99": 2639.552687,
      "589.992": 2649.610116,
      "590.994": 2659.849976,
      "591.996": 2670.263799,
      "592.998": 2680.69416,
      "594.0": 2691.265651,
      "595.002": 2701.706677,
      "596.004": 2712.601257,
      "597.006": 2723.258358,
      "598.008": 2733.592857,
      "599.01": 2743.389547,
      "600.012": 2753.405462,
      "601.014": 2764.691123,
      "602.016": 2776.590809,
      "603.018": 2788.433175,
      "604.02": 2800.165422,
      "605.022": 2811.513972,
      "606.024": 2822.957906,
      "607.026": 2834.28808,
      "608.028": 2845.601916,
      "609.03": 2856.917422,
      "610.032": 2867.692705,
      "611.034": 2878.600837,
      "612.036": 2889.562749,
      "613.038": 2900.466867,
      "614.04": 2911.282503,
      "615.042": 2922.389581,
      "616.044": 2933.650251,
      "617.046": 2944.624204,
      "618.048": 2955.198277,
      "619.05": 2966.07553,
      "620.052": 2976.973195,
      "621.054": 2987.503096,
      "622.056": 2997.772268,
      "623.058": 3008.463949,
      "624.06": 3019.380269,
      "625.062": 3030.34742,
      "626.064": 3041.153944,
      "627.066": 3051.760154,
      "628.068": 3062.733486,
      "629.07": 3073.909938,
      "630.072": 3085.368613,
      "631.074": 3096.7538,
      "632.076": 3107.643898,
      "633.078": 3118.788892,
      "634.08": 3129.688845,
      "635.082": 3140.562852,
      "636.084": 3151.388837,
      "637.086": 3162.785491,
      "638.088": 3173.666231,
      "639.09": 3184.508072,
      "640.092": 3195.272201,
      "641.094": 3205.631678,
      "642.096": 3216.064368,
      "643.098": 3226.881201,
      "644.1": 3237.316913,
      "645.102": 3248.169024,
      "646.104": 3260.593203,
      "647.106": 3272.717418,
      "648.108": 3283.643853,
      "649.11": 3293.960191,
      "650.112": 3304.407844,
      "651.114": 3315.193123,
      "652.116": 3325.885828,
      "653.118": 3336.710965,
      "654.12": 3347.987106,
      "655.122": 3359.296843,
      "656.124": 3370.634603,
      "657.126": 3381.817768,
      "658.128": 3392.385695,
      "659.13": 3403.155348,
      "660.132": 3413.749848,
      "661.134": 3424.326209,
      "662.136": 3435.399422,
      "663.138": 3446.285655,
      "664.14": 3457.562929,
      "665.142": 3468.61195,
      "666.144": 3480.174498,
      "667.146": 3491.538009,
      "668.148": 3502.542502,
      "669.15": 3513.671496,
      "670.152": 3524.718636,
      "671.154": 3535.755748,
      "672.156": 3547.051104,
      "673.158": 3558.052454,
      "674.16": 3568.997187,
      "675.162": 3579.793654,
      "676.164": 3591.694852,
      "677.166": 3603.339621,
      "678.168": 3614.866098,
      "679.17": 3626.103045,
      "680.172": 3637.092383,
      "681.174": 3647.816107,
      "682.176": 3659.432339,
      "683.178": 3670.499468,
      "684.18": 3682.264659,
      "685.182": 3693.828039,
      "686.184": 3705.599989,
      "687.186": 3716.954147,
      "688.188": 3728.487545,
      "689.19": 3739.952964,
      "690.192": 3750.946336,
      "691.194": 3762.039051,
      "692.196": 3773.271905,
      "693.198": 3784.380657,
      "694.2": 3795.537644,
      "695.202": 3806.604698,
      "696.204": 3818.317001,
      "697.206": 3830.379438,
      "698.208": 3842.348852,
      "699.21": 3854.123009,
      "700.212": 3865.612727,
      "701.214": 3877.182386,
      "702.216": 3888.777028,
      "703.218": 3900.354022,
      "704.22": 3912.273433,
      "705.222": 3923.581978,
      "706.224": 3936.35644,
      "707.226": 3948.710736,
      "708.228": 3960.42845,
      "709.23": 3972.06861,
      "710.232": 3983.558442,
      "711.234": 3995.16678,
      "712.236": 4006.471208,
      "713.238": 4017.720213,
      "714.24": 4029.551402,
      "715.242": 4041.00357,
      "716.244": 4053.303885,
      "717.246": 4064.845431,
      "718.248": 4076.023478,
      "719.25": 4087.88285,
      "720.252": 4100.106921,
      "721.254": 4112.738645,
      "722.256": 4124.744111,
      "723.258": 4136.289062,
      "724.26": 4148.457035,
      "725.262": 4160.417266,
      "726.264": 4173.154306,
      "727.266": 4186.212625,
      "728.268": 4197.897576,
      "729.27": 4209.67025,
      "730.272": 4221.482123,
      "731.274": 4232.783636,
      "732.276": 4244.510993,
      "733.278": 4256.09807,
      "734.28": 4267.441767,
      "735.282": 4278.448917,
      "736.284": 4290.474117,
      "737.286": 4302.63803,
      "738.288": 4314.473727,
      "739.29": 4325.723476,
      "740.292": 4337.247025,
      "741.294": 4348.527012,
      "742.296": 4359.662616,
      "743.298": 4371.873668,
      "744.3": 4383.499008,
      "745.302": 4395.352505,
      "746.304": 4407.047263,
      "747.306": 4419.008156,
      "748.308": 4430.536452,
      "749.31": 4441.753193,
      "750.312": 4453.252514,
      "751.314": 4464.991912,
      "752.316": 4476.73146,
      "753.318": 4488.051413,
      "754.32": 4499.441757,
      "755.322": 4510.999645,
      "756.324": 4523.07593,
      "757.326": 4535.317907,
      "758.328": 4547.686213,
      "759.33": 4559.22447,
      "760.332": 4570.874736,
      "761.334": 4582.771163,
      "762.336": 4594.891229,
      "763.338": 4607.13601,
      "764.34": 4618.798866,
      "765.342": 4630.943842,
      "766.344": 4643.104653,
      "767.346": 4655.598988,
      "768.348": 4667.015592,
      "769.35": 4678.618573,
      "770.352": 4689.883615,
      "771.354": 4701.219312,
      "772.356": 4712.358049,
      "773.358": 4723.440213,
      "774.36": 4734.654482,
      "775.362": 4745.765229,
      "776.364": 4757.189345,
      "777.366": 4768.451852,
      "778.368": 4779.726751,
      "779.37": 4790.864482,
      "780.372": 4801.970031,
      "781.374": 4813.277835,
      "782.376": 4824.405554,
      "783.378": 4835.305859,
      "784.38": 4846.262611,
      "785.382": 4857.687022,
      "786.384": 4869.377214,
      "787.386": 4880.344639,
      "788.388": 4891.330383,
      "789.39": 4903.274177,
      "790.392": 4914.440313,
      "791.394": 4925.572392,
      "792.396": 4936.90293,
      "793.398": 4948.354027,
      "794.4": 4959.678635,
      "795.402": 4971.22768,
      "796.404": 4982.271146,
      "797.406": 4993.266589,
      "798.408": 5004.229946,
      "799.41": 5015.163429,
      "800.412": 5026.471029,
      "801.414": 5037.409337,
      "802.416": 5048.489174,
      "803.418": 5059.272619,
      "804.42": 5070.35123,
      "805.422": 5081.769611,
      "806.424": 5093.175215,
      "807.426": 5104.080946,
      "808.428": 5115.211572,
      "809.43": 5126.398434,
      "810.432": 5137.479117,
      "811.434": 5148.824861,
      "812.436": 5160.382977,
      "813.438": 5171.531421,
      "814.44": 5182.75479,
      "815.442": 5193.828124,
      "816.444": 5205.371766,
      "817.446": 5216.936109,
      "818.448": 5228.142392,
      "819.45": 5239.274935,
      "820.452": 5250.45404,
      "821.454": 5262.347582,
      "822.456": 5273.578005,
      "823.458": 5284.727437,
      "824.46": 5295.951696,
      "825.462": 5307.393829,
      "826.464": 5318.789845,
      "827.466": 5330.017733,
      "828.468": 5341.290404,
      "829.47": 5352.644572,
      "830.472": 5363.796655,
      "831.474": 5374.858792,
      "832.476": 5385.990732,
      "833.478": 5397.514937,
      "834.48": 5408.914905,
      "835.482": 5420.074078,
      "836.484": 5431.516067,
      "837.486": 5442.93815,
      "838.488": 5454.393255,
      "839.49": 5465.725666,
      "840.492": 5477.227711,
      "841.494": 5488.559178,
      "842.496": 5499.819663,
      "843.498": 5511.304989,
      "844.5": 5522.783843,
      "845.502": 5534.224393,
      "846.504": 5545.589685,
      "847.506": 5556.802438,
      "848.508": 5568.084473,
      "849.51": 5579.099844,
      "850.512": 5590.226192,
      "851.514": 5601.495585,
      "852.516": 5613.316673,
      "853.518": 5624.97454,
      "854.52": 5636.532648,
      "855.522": 5648.104088,
      "856.524": 5659.691313,
      "857.526": 5670.827523,
      "858.528": 5682.109498,
      "859.53": 5693.413124,
      "860.532": 5704.932791,
      "861.534": 5716.41393,
      "862.536": 5727.87601,
      "863.538": 5739.190657,
      "864.54": 5750.529062,
      "865.542": 5761.754687,
      "866.544": 5773.432385,
      "867.546": 5784.624868,
      "868.548": 5795.640995,
      "869.55": 5806.801437,
      "870.552": 5817.770696,
      "871.554": 5828.969725,
      "872.556": 5840.221478,
      "873.558": 5851.541175,
      "874.56": 5862.868027,
      "875.562": 5874.875033,
      "876.564": 5887.250091,
      "877.566": 5898.726092,
      "878.568": 5910.14973,
      "879.57": 5921.479952,
      "880.572": 5932.950978,
      "881.574": 5944.69089,
      "882.576": 5956.501396,
      "883.578": 5969.170033,
      "884.58": 5981.257544,
      "885.582": 5993.421197,
      "886.584": 6005.219505,
      "887.586": 6016.786892,
      "888.588": 6028.331809,
      "889.59": 6039.659911,
      "890.592": 6051.007178,
      "891.594": 6062.290305,
      "892.596": 6073.655234,
      "893.598": 6085.236639,
      "894.6": 6096.897593,
      "895.602": 6108.227886,
      "896.604": 6119.514834,
      "897.606": 6131.06821,
      "898.608": 6142.77185,
      "899.61": 6154.083163,
      "900.612": 6166.161195,
      "901.614": 6178.390529,
      "902.616": 6190.099594,
      "903.618": 6202.031916,
      "904.62": 6214.394895,
      "905.622": 6226.277588,
      "906.624": 6238.323095,
      "907.626": 6250.173906,
      "908.628": 6261.926951,
      "909.63": 6273.817959,
      "910.632": 6285.88894,
      "911.634": 6297.760635,
      "912.636": 6309.308272,
      "913.638": 6320.95772,
      "914.64": 6333.473731,
      "915.642": 6345.668063,
      "916.644": 6357.670409,
      "917.646": 6369.758507,
      "918.648": 6381.880992,
      "919.65": 6393.920518,
      "920.652": 6406.208631,
      "921.654": 6418.282971,
      "922.656": 6430.504052,
      "923.658": 6443.258899,
      "924.66": 6455.313521,
      "925.662": 6467.716588,
      "926.664": 6479.695153,
      "927.666": 6492.067709,
      "928.668": 6504.494394,
      "929.67": 6516.823448,
      "930.672": 6530.053131,
      "931.674": 6542.154747,
      "932.676": 6554.415195,
      "933.678": 6566.713997,
      "934.68": 6578.856857,
      "935.682": 6591.358735,
      "936.684": 6603.409629,
      "937.686": 6615.178302,
      "938.688": 6626.855789,
      "939.69": 6638.963315,
      "940.692": 6651.228695,
      "941.694": 6663.284401,
      "942.696": 6675.452332,
      "943.698": 6688.390168,
      "944.7": 6700.742968,
      "945.702": 6713.415283,
      "946.704": 6725.71965,
      "947.706": 6738.071782,
      "948.708": 6750.615955,
      "949.71": 6763.214414,
      "950.712": 6775.607522,
      "951.714": 6787.886011,
      "952.716": 6799.981703,
      "953.718": 6812.356844,
      "954.72": 6825.225909,
      "955.722": 6838.118318,
      "956.724": 6850.508682,
      "957.726": 6863.103279,
      "958.728": 6875.143254,
      "959.73": 6887.193252,
      "960.732": 6899.343909,
      "961.734": 6911.665763,
      "962.736": 6923.86484,
      "963.738": 6935.904318,
      "964.74": 6947.956079,
      "965.742": 6959.846373,
      "966.744": 6972.213845,
      "967.746": 6984.354581,
      "968.748": 6996.692824,
      "969.75": 7009.23414,
      "970.752": 7021.40333,
      "971.754": 7033.484703,
      "972.756": 7046.507821,
      "973.758": 7058.823567,
      "974.76": 7070.825142,
      "975.762": 7083.320381,
      "976.764": 7095.564468,
      "977.766": 7107.643776,
      "978.768": 7119.787692,
      "979.77": 7132.100323,
      "980.772": 7144.198367,
      "981.774": 7156.336211,
      "982.776": 7168.645343,
      "983.778": 7180.950538,
      "984.78": 7193.490539,
      "985.782": 7206.173084,
      "986.784": 7218.699519,
      "987.786": 7231.523507,
      "988.788": 7244.042197,
      "989.79": 7256.28811,
      "990.792": 7268.711247,
      "991.794": 7280.766152,
      "992.796": 7293.577199,
      "993.798": 7306.114467,
      "994.8": 7318.459421,
      "995.802": 7330.77221,
      "996.804": 7342.980393,
      "997.806": 7355.292686,
      "998.808": 7367.886763,
      "999.81": 7380.404192,
      "1000.812": 7393.406014,
      "1001.814": 7406.396822,
      "1002.816": 7419.574211,
      "1003.818": 7432.606393,
      "1004.82": 7445.358334,
      "1005.822": 7457.957677,
      "1006.824": 7470.31513,
      "1007.826": 7482.605536,
      "1008.828": 7495.242606,
      "1009.83": 7507.85965,
      "1010.832": 7520.186466,
      "1011.834": 7532.803068,
      "1012.836": 7545.078479,
      "1013.838": 7557.554512,
      "1014.84": 7570.03656,
      "1015.842": 7582.462281,
      "1016.844": 7595.616951,
      "1017.846": 7608.43437,
      "1018.848": 7620.720275,
      "1019.85": 7633.298535,
      "1020.852": 7645.861991,
      "1021.854": 7658.549142,
      "1022.856": 7671.182544,
      "1023.858": 7684.097731,
      "1024.86": 7696.878344,
      "1025.862": 7709.586618,
      "1026.864": 7722.532754,
      "1027.866": 7735.278966,
      "1028.868": 7748.124154,
      "1029.87": 7761.553779,
      "1030.872": 7774.793992,
      "1031.874": 7787.68434,
      "1032.876": 7800.413742,
      "1033.878": 7812.750826,
      "1034.88": 7825.414318,
      "1035.882": 7838.448963,
      "1036.884": 7850.972072,
      "1037.886": 7863.372976,
      "1038.888": 7875.570165,
      "1039.89": 7888.090986,
      "1040.892": 7900.121364,
      "1041.894": 7912.486019,
      "1042.896": 7924.742995,
      "1043.898": 7936.927609,
      "1044.9": 7949.259404,
      "1045.902": 7962.03221,
      "1046.904": 7974.50064,
      "1047.906": 7987.134504,
      "1048.908": 7999.527724,
      "1049.91": 8011.935035,
      "1050.912": 8024.270065,
      "1051.914": 8036.852426,
      "1052.916": 8049.729276,
      "1053.918": 8062.211019,
      "1054.92": 8075.220874,
      "1055.922": 8087.997564,
      "1056.924": 8100.726722,
      "1057.926": 8114.533542,
      "1058.928": 8127.448915,
      "1059.93": 8140.509302,
      "1060.932": 8153.475639,
      "1061.934": 8166.294732,
      "1062.936": 8178.761586,
      "1063.938": 8191.399034,
      "1064.94": 8204.346824,
      "1065.942": 8217.093316,
      "1066.944": 8229.556282,
      "1067.946": 8241.957762,
      "1068.948": 8254.160566,
      "1069.95": 8266.387337,
      "1070.952": 8278.661854,
      "1071.954": 8291.121547,
      "1072.956": 8303.816185,
      "1073.958": 8316.234926,
      "1074.96": 8328.489137,
      "1075.962": 8340.678847,
      "1076.964": 8353.041918,
      "1077.966": 8365.460282,
      "1078.968": 8378.225457,
      "1079.97": 8390.861148,
      "1080.972": 8403.473733,
      "1081.974": 8416.28297,
      "1082.976": 8428.859299,
      "1083.978": 8441.451429,
      "1084.98": 8454.255535,
      "1085.982": 8467.97548,
      "1086.984": 8480.804236,
      "1087.986": 8493.715938,
      "1088.988": 8506.340475,
      "1089.99": 8519.040057,
      "1090.992": 8531.784594,
      "1091.994": 8544.572774,
      "1092.996": 8557.179593,
      "1093.998": 8569.640976,
      "1095.0": 8582.084777,
      "1096.002": 8594.597743,
      "1097.004": 8606.949688,
      "1098.006": 8619.445539,
      "1099.008": 8631.751315,
      "1100.01": 8643.906495,
      "1101.012": 8655.978387,
      "1102.014": 8668.249809,
      "1103.016": 8680.571578,
      "1104.018": 8692.740871,
      "1105.02": 8705.153837,
      "1106.022": 8717.412342,
      "1107.024": 8729.719791,
      "1108.026": 8742.099971,
      "1109.028": 8754.355549,
      "1110.03": 8767.177222,
      "1111.032": 8779.534339,
      "1112.034": 8791.811682,
      "1113.036": 8804.240797,
      "1114.038": 8816.953258,
      "1115.04": 8830.426051,
      "1116.042": 8843.166733,
      "1117.044": 8855.860513,
      "1118.046": 8868.43125,
      "1119.048": 8880.875563,
      "1120.05": 8893.546547,
      "1121.052": 8905.857015,
      "1122.054": 8918.454712,
      "1123.056": 8930.840527,
      "1124.058": 8943.258498,
      "1125.06": 8957.30012,
      "1126.062": 8972.123767,
      "1127.064": 8987.460667,
      "1128.066": 9001.298639,
      "1129.068": 9014.312568,
      "1130.07": 9027.444949,
      "1131.072": 9041.835917,
      "1132.074": 9054.932691,
      "1133.076": 9068.155905,
      "1134.078": 9081.0921,
      "1135.08": 9093.502779,
      "1136.082": 9106.027142,
      "1137.084": 9118.467874,
      "1138.086": 9130.878116,
      "1139.088": 9143.280548,
      "1140.09": 9155.571868,
      "1141.092": 9168.605499,
      "1142.094": 9181.916937,
      "1143.096": 9194.542225,
      "1144.098": 9207.156109,
      "1145.1": 9219.735865,
      "1146.102": 9232.072502,
      "1147.104": 9244.653789,
      "1148.106": 9257.188847,
      "1149.108": 9269.940298,
      "1150.11": 9282.568869,
      "1151.112": 9295.397,
      "1152.114": 9307.910894,
      "1153.116": 9320.51197,
      "1154.118": 9333.249031,
      "1155.12": 9345.884483,
      "1156.122": 9358.52578,
      "1157.124": 9371.037775,
      "1158.126": 9383.50461,
      "1159.128": 9395.801909,
      "1160.13": 9408.560429,
      "1161.132": 9421.071294,
      "1162.134": 9433.644082,
      "1163.136": 9446.155031,
      "1164.138": 9459.069398,
      "1165.14": 9473.644363,
      "1166.142": 9486.852118,
      "1167.144": 9499.494282,
      "1168.146": 9511.749792,
      "1169.148": 9524.260206,
      "1170.15": 9536.795217,
      "1171.152": 9550.77599,
      "1172.154": 9563.892177,
      "1173.156": 9576.848738,
      "1174.158": 9590.232453,
      "1175.16": 9604.647954,
      "1176.162": 9618.157803,
      "1177.164": 9631.079642,
      "1178.166": 9643.900902,
      "1179.168": 9656.867847,
      "1180.17": 9669.799096,
      "1181.172": 9682.662834,
      "1182.174": 9695.649827,
      "1183.176": 9708.699232,
      "1184.178": 9721.951401,
      "1185.18": 9734.922359,
      "1186.182": 9747.816756,
      "1187.184": 9760.888423,
      "1188.186": 9773.996282,
      "1189.188": 9786.982443,
      "1190.19": 9800.083617,
      "1191.192": 9813.861206,
      "1192.194": 9827.62924,
      "1193.196": 9840.910755,
      "1194.198": 9853.806879,
      "1195.2": 9866.464773,
      "1196.202": 9879.158749,
      "1197.204": 9891.626464,
      "1198.206": 9905.491204,
      "1199.208": 9918.281315,
      "1200.21": 9931.276492,
      "1201.212": 9944.899569,
      "1202.214": 9958.300039,
      "1203.216": 9972.185192,
      "1204.218": 9985.304836,
      "1205.22": 9998.293015,
      "1206.222": 10011.16496,
      "1207.224": 10024.196525,
      "1208.226": 10037.181808,
      "1209.228": 10050.278746,
      "1210.23": 10063.874479,
      "1211.232": 10079.029321,
      "1212.234": 10092.322202,
      "1213.236": 10105.301382,
      "1214.238": 10118.485484,
      "1215.24": 10131.517046,
      "1216.242": 10144.299209,
      "1217.244": 10157.196261,
      "1218.246": 10170.566491,
      "1219.248": 10191.706093,
      "1220.25": 10206.26673,
      "1221.252": 10220.787678,
      "1222.254": 10235.869919,
      "1223.256": 10249.964923,
      "1224.258": 10264.72754,
      "1225.26": 10278.362839,
      "1226.262": 10291.803474,
      "1227.264": 10305.546907,
      "1228.266": 10319.201015,
      "1229.268": 10332.519253,
      "1230.27": 10345.567266,
      "1231.272": 10358.580367,
      "1232.274": 10371.597045,
      "1233.276": 10384.54065,
      "1234.278": 10397.900755,
      "1235.28": 10411.099876,
      "1236.282": 10423.646874,
      "1237.284": 10436.93772,
      "1238.286": 10450.353976,
      "1239.288": 10463.660902,
      "1240.29": 10477.039145,
      "1241.292": 10490.485518,
      "1242.294": 10503.795362,
      "1243.296": 10517.282218,
      "1244.298": 10530.796303,
      "1245.3": 10543.764081,
      "1246.302": 10557.034162,
      "1247.304": 10570.621152,
      "1248.306": 10584.307337,
      "1249.308": 10597.345046,
      "1250.31": 10610.416515,
      "1251.312": 10625.288523,
      "1252.314": 10638.550893,
      "1253.316": 10651.433431,
      "1254.318": 10664.726754,
      "1255.32": 10677.943818,
      "1256.322": 10690.829195,
      "1257.324": 10704.246679,
      "1258.326": 10717.881181,
      "1259.328": 10731.300086,
      "1260.33": 10744.687532,
      "1261.332": 10758.475881,
      "1262.334": 10772.031675,
      "1263.336": 10785.532652,
      "1264.338": 10798.795247,
      "1265.34": 10812.459913,
      "1266.342": 10826.142111,
      "1267.344": 10839.70005,
      "1268.346": 10853.166309,
      "1269.348": 10866.739341,
      "1270.35": 10880.727403,
      "1271.352": 10894.140519,
      "1272.354": 10908.17993,
      "1273.356": 10922.670576,
      "1274.358": 10936.805239,
      "1275.36": 10951.150745,
      "1276.362": 10965.49161,
      "1277.364": 10980.827131,
      "1278.366": 10994.547528,
      "1279.368": 11008.184534,
      "1280.37": 11022.115708,
      "1281.372": 11039.202986,
      "1282.374": 11053.90976,
      "1283.376": 11067.802439,
      "1284.378": 11082.362441,
      "1285.38": 11097.554276,
      "1286.382": 11111.889092,
      "1287.384": 11125.442129,
      "1288.386": 11138.511882,
      "1289.388": 11151.572613,
      "1290.39": 11164.592118,
      "1291.392": 11177.6767,
      "1292.394": 11190.882125,
      "1293.396": 11203.966097,
      "1294.398": 11217.824066,
      "1295.4": 11233.505573,
      "1296.402": 11249.158713,
      "1297.404": 11263.633774,
      "1298.406": 11277.393697,
      "1299.408": 11291.968095,
      "1300.41": 11306.732388,
      "1301.412": 11321.188291,
      "1302.414": 11336.687214,
      "1303.416": 11351.09096,
      "1304.418": 11370.749811,
      "1305.42": 11396.993081,
      "1306.422": 11415.088951,
      "1307.424": 11432.555885,
      "1308.426": 11448.241998,
      "1309.428": 11462.625401,
      "1310.43": 11476.901326,
      "1311.432": 11490.741833,
      "1312.434": 11504.667402,
      "1313.436": 11518.463105,
      "1314.438": 11532.362813,
      "1315.44": 11546.321158,
      "1316.442": 11560.764352,
      "1317.444": 11574.724382,
      "1318.446": 11588.853467,
      "1319.448": 11602.93434,
      "1320.45": 11616.868275,
      "1321.452": 11631.002531,
      "1322.454": 11645.311397,
      "1323.456": 11659.221017,
      "1324.458": 11673.051429,
      "1325.46": 11687.350293,
      "1326.462": 11700.959295,
      "1327.464": 11716.868442,
      "1328.466": 11730.752938,
      "1329.468": 11744.413811,
      "1330.47": 11757.838539,
      "1331.472": 11771.254076,
      "1332.474": 11785.412082,
      "1333.476": 11799.106408,
      "1334.478": 11812.883354,
      "1335.48": 11826.152156,
      "1336.482": 11839.856332,
      "1337.484": 11853.947206,
      "1338.486": 11867.467142,
      "1339.488": 11880.965968,
      "1340.49": 11894.856523,
      "1341.492": 11908.371864,
      "1342.494": 11921.824255,
      "1343.496": 11935.485775,
      "1344.498": 11949.262346,
      "1345.5": 11962.873418,
      "1346.502": 11976.572776,
      "1347.504": 11990.15584,
      "1348.506": 12003.319956,
      "1349.508": 12016.799785,
      "1350.51": 12030.356217,
      "1351.512": 12044.267677,
      "1352.514": 12057.50031,
      "1353.516": 12072.913939,
      "1354.518": 12087.137265,
      "1355.52": 12100.85539,
      "1356.522": 12114.107554,
      "1357.524": 12127.197743,
      "1358.526": 12140.99159,
      "1359.528": 12154.243068,
      "1360.53": 12167.669023,
      "1361.532": 12181.028832,
      "1362.534": 12194.307704,
      "1363.536": 12207.605026,
      "1364.538": 12220.933472,
      "1365.54": 12234.206618,
      "1366.542": 12247.393606,
      "1367.544": 12260.51875,
      "1368.546": 12273.723456,
      "1369.548": 12286.755705,
      "1370.55": 12299.586536,
      "1371.552": 12312.464664,
      "1372.554": 12325.523808,
      "1373.556": 12338.528313,
      "1374.558": 12351.386874,
      "1375.56": 12364.064997,
      "1376.562": 12376.962084,
      "1377.564": 12389.458483,
      "1378.566": 12402.492611,
      "1379.568": 12415.611557,
      "1380.57": 12430.837704,
      "1381.572": 12443.949098,
      "1382.574": 12457.188842,
      "1383.576": 12470.381462,
      "1384.578": 12483.456684,
      "1385.58": 12496.725545,
      "1386.582": 12509.784243,
      "1387.584": 12522.962314,
      "1388.586": 12536.308325,
      "1389.588": 12549.486658,
      "1390.59": 12562.552324,
      "1391.592": 12575.569045,
      "1392.594": 12588.583444,
      "1393.596": 12601.662935,
      "1394.598": 12614.941502,
      "1395.6": 12627.761122,
      "1396.602": 12640.823557,
      "1397.604": 12654.087694,
      "1398.606": 12667.285131,
      "1399.608": 12680.214807,
      "1400.61": 12693.317377,
      "1401.612": 12706.369857,
      "1402.614": 12719.255602,
      "1403.616": 12732.311901,
      "1404.618": 12745.106128,
      "1405.62": 12757.921477,
      "1406.622": 12770.52581,
      "1407.624": 12785.255105,
      "1408.626": 12798.227595,
      "1409.628": 12811.497989,
      "1410.63": 12824.814471,
      "1411.632": 12838.033448,
      "1412.634": 12851.109235,
      "1413.636": 12863.960684,
      "1414.638": 12876.751491,
      "1415.64": 12889.86281,
      "1416.642": 12902.984887,
      "1417.644": 12916.199745,
      "1418.646": 12929.436549,
      "1419.648": 12942.918501,
      "1420.65": 12956.527823,
      "1421.652": 12969.923268,
      "1422.654": 12983.14595,
      "1423.656": 12996.247345,
      "1424.658": 13009.690145,
      "1425.66": 13022.893967,
      "1426.662": 13036.337914,
      "1427.664": 13049.461032,
      "1428.666": 13062.626695,
      "1429.668": 13075.833924,
      "1430.67": 13089.688749,
      "1431.672": 13102.998234,
      "1432.674": 13116.335283,
      "1433.676": 13129.723988,
      "1434.678": 13145.38872,
      "1435.68": 13158.687312,
      "1436.682": 13172.257868,
      "1437.684": 13185.600679,
      "1438.686": 13198.863801,
      "1439.688": 13211.886512,
      "1440.69": 13225.31017,
      "1441.692": 13238.770187,
      "1442.694": 13251.898709,
      "1443.696": 13265.13545,
      "1444.698": 13278.214885,
      "1445.7": 13291.438519,
      "1446.702": 13304.233305,
      "1447.704": 13317.405215,
      "1448.706": 13330.262491,
      "1449.708": 13343.408968,
      "1450.71": 13356.801244,
      "1451.712": 13369.800929,
      "1452.714": 13383.035033,
      "1453.716": 13395.938864,
      "1454.718": 13409.121097,
      "1455.72": 13422.535568,
      "1456.722": 13435.869318,
      "1457.724": 13448.853564,
      "1458.726": 13461.765544,
      "1459.728": 13474.815788,
      "1460.73": 13488.097386,
      "1461.732": 13502.921952,
      "1462.734": 13516.328631,
      "1463.736": 13529.357796,
      "1464.738": 13542.499087,
      "1465.74": 13555.782001,
      "1466.742": 13568.538117,
      "1467.744": 13581.372602,
      "1468.746": 13594.470748,
      "1469.748": 13607.406423,
      "1470.75": 13620.664331,
      "1471.752": 13633.903565,
      "1472.754": 13647.057014,
      "1473.756": 13660.214456,
      "1474.758": 13673.269748,
      "1475.76": 13686.198485,
      "1476.762": 13699.569832,
      "1477.764": 13712.635546,
      "1478.766": 13725.542142,
      "1479.768": 13738.642871,
      "1480.77": 13751.983025,
      "1481.772": 13765.423009,
      "1482.774": 13778.539696,
      "1483.776": 13791.696622,
      "1484.778": 13804.798124,
      "1485.78": 13818.261349,
      "1486.782": 13831.379796,
      "1487.784": 13844.402207,
      "1488.786": 13858.186001,
      "1489.788": 13872.860348,
      "1490.79": 13886.413227,
      "1491.792": 13899.764396,
      "1492.794": 13913.35392,
      "1493.796": 13926.7807,
      "1494.798": 13939.817024,
      "1495.8": 13952.98702,
      "1496.802": 13966.030442,
      "1497.804": 13979.350858,
      "1498.806": 13992.322429,
      "1499.808": 14005.348633,
      "1500.81": 14019.171846,
      "1501.812": 14033.520342,
      "1502.814": 14047.405998,
      "1503.816": 14061.435134,
      "1504.818": 14075.255437,
      "1505.82": 14088.943763,
      "1506.822": 14102.312825,
      "1507.824": 14115.830942,
      "1508.826": 14129.243506,
      "1509.828": 14142.652589,
      "1510.83": 14156.012817,
      "1511.832": 14169.526106,
      "1512.834": 14183.436287,
      "1513.836": 14196.861823,
      "1514.838": 14210.16142,
      "1515.84": 14225.324909,
      "1516.842": 14238.653423,
      "1517.844": 14252.194957,
      "1518.846": 14266.40868,
      "1519.848": 14280.788117,
      "1520.85": 14294.623107,
      "1521.852": 14308.730957,
      "1522.854": 14322.926013,
      "1523.856": 14336.927697,
      "1524.858": 14350.889057,
      "1525.86": 14364.800562,
      "1526.862": 14379.115154,
      "1527.864": 14392.769616,
      "1528.866": 14406.629674,
      "1529.868": 14420.506188,
      "1530.87": 14434.518232,
      "1531.872": 14448.379151,
      "1532.874": 14462.296935,
      "1533.876": 14476.083779,
      "1534.878": 14490.010606,
      "1535.88": 14503.684865,
      "1536.882": 14517.21952,
      "1537.884": 14531.045894,
      "1538.886": 14544.943437,
      "1539.888": 14558.554365,
      "1540.89": 14571.898653,
      "1541.892": 14588.166329,
      "1542.894": 14602.247488,
      "1543.896": 14616.796429,
      "1544.898": 14631.105223,
      "1545.9": 14644.582586,
      "1546.902": 14658.016999,
      "1547.904": 14671.413337,
      "1548.906": 14684.612723,
      "1549.908": 14697.626133,
      "1550.91": 14710.923826,
      "1551.912": 14724.444868,
      "1552.914": 14738.423568,
      "1553.916": 14752.128961,
      "1554.918": 14765.93754,
      "1555.92": 14779.379887,
      "1556.922": 14792.769668,
      "1557.924": 14806.48822,
      "1558.926": 14819.942888,
      "1559.928": 14833.593046,
      "1560.93": 14847.034431,
      "1561.932": 14860.935248,
      "1562.934": 14875.144514,
      "1563.936": 14889.198352,
      "1564.938": 14904.465775,
      "1565.94": 14918.175239,
      "1566.942": 14931.946147,
      "1567.944": 14949.640164,
      "1568.946": 14963.84119,
      "1569.948": 14977.905005,
      "1570.95": 14992.015582,
      "1571.952": 15005.188807,
      "1572.954": 15019.227198,
      "1573.956": 15033.168392,
      "1574.958": 15048.061225,
      "1575.96": 15061.922442,
      "1576.962": 15075.624155,
      "1577.964": 15089.223337,
      "1578.966": 15103.200482,
      "1579.968": 15116.952138,
      "1580.97": 15130.299521,
      "1581.972": 15143.620768,
      "1582.974": 15156.852974,
      "1583.976": 15170.404422,
      "1584.978": 15183.634693,
      "1585.98": 15197.129985,
      "1586.982": 15211.225521,
      "1587.984": 15225.3522,
      "1588.986": 15239.193927,
      "1589.988": 15252.959077,
      "1590.99": 15266.840474,
      "1591.992": 15281.113721,
      "1592.994": 15295.250041,
      "1593.996": 15310.959309,
      "1594.998": 15324.780512,
      "1596.0": 15338.805923,
      "1597.002": 15352.887385,
      "1598.004": 15366.50988,
      "1599.006": 15380.596509,
      "1600.008": 15394.25693,
      "1601.01": 15408.415436,
      "1602.012": 15422.285721,
      "1603.014": 15436.503213,
      "1604.016": 15450.266485,
      "1605.018": 15465.061578,
      "1606.02": 15479.59704,
      "1607.022": 15493.754191,
      "1608.024": 15507.361839,
      "1609.026": 15520.98676,
      "1610.028": 15535.08427,
      "1611.03": 15548.564087,
      "1612.032": 15562.163068,
      "1613.034": 15575.700284,
      "1614.036": 15589.022126,
      "1615.038": 15602.334297,
      "1616.04": 15616.055444,
      "1617.042": 15629.544701,
      "1618.044": 15643.525777,
      "1619.046": 15657.69526,
      "1620.048": 15672.755474,
      "1621.05": 15686.338079,
      "1622.052": 15699.943956,
      "1623.054": 15713.711624,
      "1624.056": 15727.473304,
      "1625.058": 15741.162107,
      "1626.06": 15754.755222,
      "1627.062": 15768.467971,
      "1628.064": 15781.875503,
      "1629.066": 15795.875302,
      "1630.068": 15809.788004,
      "1631.07": 15823.594323,
      "1632.072": 15837.132551,
      "1633.074": 15850.804256,
      "1634.076": 15864.390569,
      "1635.078": 15878.276599,
      "1636.08": 15891.840723,
      "1637.082": 15906.296831,
      "1638.084": 15920.011111,
      "1639.086": 15934.015818,
      "1640.088": 15947.760922,
      "1641.09": 15961.995746,
      "1642.092": 15975.420419,
      "1643.094": 15988.514041,
      "1644.096": 16002.183525,
      "1645.098": 16016.179999,
      "1646.1": 16032.258843,
      "1647.102": 16046.365172,
      "1648.104": 16060.060503,
      "1649.106": 16074.234161,
      "1650.108": 16088.321024,
      "1651.11": 16102.006355,
      "1652.112": 16115.769123,
      "1653.114": 16129.577099,
      "1654.116": 16143.344349,
      "1655.118": 16157.060405,
      "1656.12": 16170.86564,
      "1657.122": 16184.491793,
      "1658.124": 16197.828143,
      "1659.126": 16211.222422,
      "1660.128": 16224.584321,
      "1661.13": 16238.042232,
      "1662.132": 16251.82686,
      "1663.134": 16265.667462,
      "1664.136": 16279.052525,
      "1665.138": 16292.991641,
      "1666.14": 16306.847478,
      "1667.142": 16320.582382,
      "1668.144": 16335.236317,
      "1669.146": 16348.846358,
      "1670.148": 16362.344063,
      "1671.15": 16375.90173,
      "1672.152": 16392.433979,
      "1673.154": 16406.122582,
      "1674.156": 16420.126462,
      "1675.158": 16434.011784,
      "1676.16": 16447.79434,
      "1677.162": 16461.360561,
      "1678.164": 16475.042833,
      "1679.166": 16488.534896,
      "1680.168": 16502.244382,
      "1681.17": 16515.821147,
      "1682.172": 16529.390225,
      "1683.174": 16542.944115,
      "1684.176": 16556.376665,
      "1685.178": 16569.734458,
      "1686.18": 16583.087741,
      "1687.182": 16596.76336,
      "1688.184": 16610.360906,
      "1689.186": 16623.883839,
      "1690.188": 16637.539208,
      "1691.19": 16651.212553,
      "1692.192": 16664.962835,
      "1693.194": 16679.438088,
      "1694.196": 16693.936195,
      "1695.198": 16708.434507,
      "1696.2": 16722.76117,
      "1697.202": 16736.384946,
      "1698.204": 16754.194526,
      "1699.206": 16769.145733,
      "1700.208": 16783.280084,
      "1701.21": 16797.397232,
      "1702.212": 16811.659456,
      "1703.214": 16825.819795,
      "1704.216": 16840.063253,
      "1705.218": 16854.60148,
      "1706.22": 16869.841632,
      "1707.222": 16885.636307,
      "1708.224": 16901.65014,
      "1709.226": 16917.43932,
      "1710.228": 16933.293554,
      "1711.23": 16948.728086,
      "1712.232": 16972.791255,
      "1713.234": 17032.407739,
      "1714.236": 17048.866925,
      "1715.238": 17064.180723,
      "1716.24": 17078.793179,
      "1717.242": 17093.70546,
      "1718.244": 17111.032714,
      "1719.246": 17125.928483,
      "1720.248": 17140.969911,
      "1721.25": 17155.869409,
      "1722.252": 17170.312971,
      "1723.254": 17184.660606,
      "1724.256": 17212.196301,
      "1725.258": 17229.057141,
      "1726.26": 17250.982903,
      "1727.262": 17283.393995,
      "1728.264": 17345.741979,
      "1729.266": 17396.402927,
      "1730.268": 17414.84818,
      "1731.27": 17434.226525,
      "1732.272": 17471.64161,
      "1733.274": 17494.567484,
      "1734.276": 17510.420835,
      "1735.278": 17528.450144,
      "1736.28": 17545.518684,
      "1737.282": 17559.528746,
      "1738.284": 17574.587761,
      "1739.286": 17588.295757,
      "1740.288": 17601.992239,
      "1741.29": 17616.092782,
      "1742.292": 17630.005347,
      "1743.294": 17643.787407,
      "1744.296": 17657.745287,
      "1745.298": 17676.231184,
      "1746.3": 17691.875587,
      "1747.302": 17705.782136,
      "1748.304": 17719.248193,
      "1749.306": 17732.813578,
      "1750.308": 17746.608652,
      "1751.31": 17760.382126,
      "1752.312": 17779.143607,
      "1753.314": 17793.26694,
      "1754.316": 17807.124682,
      "1755.318": 17820.648423,
      "1756.32": 17834.133419,
      "1757.322": 17849.452305,
      "1758.324": 17863.893876,
      "1759.326": 17882.04296,
      "1760.328": 17896.730326,
      "1761.33": 17911.338996,
      "1762.332": 17924.539127,
      "1763.334": 17937.91839,
      "1764.336": 17952.928032,
      "1765.338": 17966.770591,
      "1766.34": 17980.378645,
      "1767.342": 17993.709253,
      "1768.344": 18007.283105,
      "1769.346": 18020.829341,
      "1770.348": 18034.871102,
      "1771.35": 18048.585946,
      "1772.352": 18064.09995,
      "1773.354": 18081.799812,
      "1774.356": 18095.490109,
      "1775.358": 18108.883077,
      "1776.36": 18122.212345,
      "1777.362": 18135.431859,
      "1778.364": 18148.726548,
      "1779.366": 18162.477486,
      "1780.368": 18176.023022,
      "1781.37": 18189.631421,
      "1782.372": 18202.733766,
      "1783.374": 18218.161865,
      "1784.376": 18231.804294,
      "1785.378": 18245.985154,
      "1786.38": 18259.450624,
      "1787.382": 18272.600874,
      "1788.384": 18286.231015,
      "1789.386": 18299.955582,
      "1790.388": 18313.847588,
      "1791.39": 18327.227867,
      "1792.392": 18341.094899,
      "1793.394": 18354.305141,
      "1794.396": 18367.670063,
      "1795.398": 18381.042702,
      "1796.4": 18394.21208,
      "1797.402": 18407.619731,
      "1798.404": 18420.792489,
      "1799.406": 18434.073029,
      "1800.408": 18447.589277,
      "1801.41": 18461.646449,
      "1802.412": 18475.418225,
      "1803.414": 18489.109747,
      "1804.416": 18502.675356,
      "1805.418": 18516.370092,
      "1806.42": 18530.069349,
      "1807.422": 18543.478606,
      "1808.424": 18556.550117,
      "1809.426": 18572.498264,
      "1810.428": 18586.245975,
      "1811.43": 18599.958739,
      "1812.432": 18613.72781,
      "1813.434": 18627.066698,
      "1814.436": 18640.792223,
      "1815.438": 18654.091796,
      "1816.44": 18667.691794,
      "1817.442": 18681.455171,
      "1818.444": 18695.107009,
      "1819.446": 18708.975941,
      "1820.448": 18722.684238,
      "1821.45": 18736.310163,
      "1822.452": 18750.598525,
      "1823.454": 18764.493684,
      "1824.456": 18778.638427,
      "1825.458": 18792.722053,
      "1826.46": 18806.45993,
      "1827.462": 18820.614737,
      "1828.464": 18834.877768,
      "1829.466": 18848.516481,
      "1830.468": 18862.339587,
      "1831.47": 18876.039184,
      "1832.472": 18889.70582,
      "1833.474": 18903.369981,
      "1834.476": 18917.061657,
      "1835.478": 18932.541431,
      "1836.48": 18946.977284,
      "1837.482": 18961.321456,
      "1838.484": 18974.992824,
      "1839.486": 18988.338721,
      "1840.488": 19002.360934,
      "1841.49": 19016.114745,
      "1842.492": 19029.861469,
      "1843.494": 19043.631244,
      "1844.496": 19057.085868,
      "1845.498": 19070.458467,
      "1846.5": 19084.722761,
      "1847.502": 19098.479153,
      "1848.504": 19112.211142,
      "1849.506": 19125.938477,
      "1850.508": 19139.69048,
      "1851.51": 19153.400675,
      "1852.512": 19167.371311,
      "1853.514": 19181.150031,
      "1854.516": 19194.954717,
      "1855.518": 19208.378832,
      "1856.52": 19222.270972,
      "1857.522": 19236.445718,
      "1858.524": 19250.587725,
      "1859.526": 19264.601757
    },
    "seconds": 19264.601757
  }
}