[
  0.240359,
  0.147406,
  0.172966,
  0.182757,
  0.187672,
  0.40245,
  0.22,
  0.201,
  0.151917,
  0.317686,
  0.224,
  0.177,
  0.283,
  0.176,
  0.412783,
  0.164609,
  0.135874,
  0.427158,
  0.156724,
  0.288,
  0.299,
  0.310181,
  0.336559,
  0.154,
  0.141,
  0.240846,
  0.148839,
  0.208728,
  0.329,
  0.38,
  0.238908,
  0.241,
  0.510602,
  0.471897,
  0.536943,
  0.597407,
  0.463767,
  0.475288,
  0.401873,
  0.519,
  0.422855,
  0.636791,
  0.418414,
  0.439885,
  0.691575,
  0.627837,
  0.73879,
  0.653855,
  0.403,
  0.448411,
  0.42584,
  0.372748,
  0.44787,
  0.489162,
  0.352,
  0.393214,
  0.602104,
  0.676194,
  0.525527,
  0.641274,
  0.49579,
  0.56,
  0.577318,
  0.489,
  0.380107,
  0.485536,
  0.605957,
  0.505961,
  0.632,
  0.439918,
  0.715072,
  0.518,
  0.634,
  0.651675,
  0.439334,
  0.427,
  0.389039,
  0.469929,
  0.543014,
  0.656652,
  0.698442,
  0.57354,
  0.620437,
  0.519389,
  0.413325,
  0.50561,
  0.408,
  0.496465,
  0.458955,
  0.401114,
  0.421833,
  0.524756,
  0.650889,
  0.384,
  0.588,
  0.453593,
  0.538127,
  0.353698,
  0.343542,
  0.368028,
  0.248214,
  0.215999,
  0.334,
  0.392,
  0.551727,
  0.457306,
  0.526012,
  0.222571,
  0.528841,
  0.413288,
  0.309637,
  0.604163,
  0.280563,
  0.475724,
  0.272964,
  0.46861,
  0.497,
  0.416393,
  0.615733,
  0.195441,
  0.221,
  0.446513,
  0.221307,
  0.294209,
  0.386075,
  0.281273,
  0.461206,
  0.224649,
  0.215167,
  0.413411,
  0.277333,
  0.181492,
  0.244,
  0.249,
  0.178266,
  0.40441,
  0.442855,
  0.313,
  0.283,
  0.194249,
  0.206888,
  0.209,
  0.20854,
  0.238382,
  0.79303,
  0.410897,
  0.781184,
  0.635755,
  0.603,
  0.604223,
  0.456864,
  0.662996,
  0.525,
  0.407387,
  0.513,
  0.634021,
  0.478,
  0.596667,
  0.38273,
  0.429897,
  0.522069,
  0.138,
  0.198,
  0.44,
  0.196004,
  0.36,
  0.238241,
  0.2,
  0.422,
  0.185627,
  0.435,
  0.329185,
  0.142,
  0.511,
  0.572,
  0.284103,
  0.499227,
  0.375,
  0.48101,
  0.424773,
  0.498,
  0.423,
  0.581256,
  0.633,
  0.381499,
  0.465,
  0.498,
  0.678,
  0.622849,
  0.411325,
  0.428,
  0.594,
  0.262111,
  0.154,
  0.276342,
  0.404865,
  0.142,
  0.201601,
  0.480897,
  0.311,
  0.377,
  0.184591,
  0.219,
  0.188,
  0.439643,
  0.18846,
  0.371674,
  0.313,
  0.293484,
  0.124,
  0.596486,
  0.31,
  0.49652,
  0.179131,
  0.151559,
  0.296353,
  0.425158,
  0.287,
  0.128732,
  0.173403,
  0.150135,
  0.378999,
  0.205935,
  0.174606,
  0.471618,
  0.171146,
  0.151506,
  0.250635,
  0.128,
  0.261551,
  0.317901,
  0.352048,
  0.43546,
  0.454309,
  0.321884,
  0.397505,
  0.345492,
  0.362511,
  0.323235,
  0.202546,
  0.388579,
  0.395,
  0.508848,
  0.195766,
  0.482874,
  0.155746,
  0.225,
  0.2903,
  0.4,
  0.170103,
  0.211,
  0.334,
  0.43608,
  0.200391,
  0.223286,
  0.398,
  0.579159,
  0.403585,
  0.409897,
  0.800033,
  0.37761,
  0.715897,
  0.598175,
  0.445414,
  0.772036,
  0.416377,
  0.446,
  0.419196,
  0.391812,
  0.65,
  0.404417,
  0.511248,
  0.281232,
  0.213595,
  0.205095,
  0.358798,
  0.469944,
  0.443755,
  0.199749,
  0.565361,
  0.233875,
  0.361462,
  0.172377,
  0.364362,
  0.413711,
  0.434,
  0.190371,
  0.49167,
  0.174728,
  0.337,
  0.194932,
  0.268676,
  0.323855,
  0.292633,
  0.162666,
  0.270255,
  0.36056,
  0.159644,
  0.201633,
  0.362,
  0.328103,
  0.237239,
  0.266562,
  0.40691,
  0.426,
  0.56,
  0.730983,
  0.467715,
  0.391,
  0.564781,
  0.568,
  0.333,
  0.391171,
  0.332,
  0.415269,
  0.588469,
  0.643,
  0.329,
  0.635,
  0.431,
  0.218114,
  0.333601,
  0.272596,
  0.178861,
  0.178,
  0.440357,
  0.522224,
  0.222,
  0.398,
  0.230985,
  0.657039,
  0.18976,
  0.272459,
  0.332187,
  0.394,
  0.177305,
  0.2,
  0.169284,
  0.415366,
  0.39792,
  0.203,
  0.261,
  0.448,
  0.23,
  0.559,
  0.375,
  0.119753,
  0.15,
  0.356,
  0.20257,
  0.487,
  0.19,
  0.361333,
  0.302,
  0.431029,
  0.1683,
  0.185156,
  0.35821,
  0.205983,
  0.285,
  0.371848,
  0.420055,
  0.190483,
  0.177855,
  0.335183,
  0.274658,
  0.378478,
  0.422,
  0.657771,
  0.435409,
  0.483801,
  0.388,
  0.42942,
  0.47603,
  0.609467,
  0.342811,
  0.532344,
  0.38368,
  0.512762,
  0.434032,
  0.383,
  0.483051,
  0.335552,
  0.412991,
  0.664819,
  0.704987,
  0.444136,
  0.560627,
  0.533716,
  0.582,
  0.50962,
  0.674461,
  0.643,
  0.437744,
  0.471,
  0.56,
  0.639308,
  0.747322,
  0.45221,
  0.649697,
  0.239,
  0.494,
  0.200056,
  0.229597,
  0.284105,
  0.399,
  0.299149,
  0.194162,
  0.557,
  0.426,
  0.368,
  0.151322,
  0.361,
  0.469,
  0.145653,
  0.299066,
  0.553446,
  0.586015,
  0.619685,
  0.388,
  0.55304,
  0.401588,
  0.697063,
  0.454964,
  0.382794,
  0.658763,
  0.526944,
  0.662064,
  0.595139,
  0.415287,
  0.53995,
  0.429,
  0.428133,
  0.472734,
  0.410461,
  0.45027,
  0.393,
  0.375,
  0.405801,
  0.412814,
  0.695408,
  0.423558,
  0.465906,
  0.473954,
  0.396811,
  0.512761,
  0.614726,
  0.45028,
  0.434958,
  0.463931,
  0.342168,
  0.381562,
  0.350334,
  0.618047,
  0.390544,
  0.648931,
  0.327175,
  0.661406,
  0.52073,
  0.405574,
  0.418664,
  0.415,
  0.371112,
  0.411645,
  0.507043,
  0.462,
  0.525544,
  0.588947,
  0.647284,
  0.454,
  0.597,
  0.578097,
  0.58877,
  0.38125,
  0.517718,
  0.334,
  0.453,
  0.39889,
  0.407,
  0.559,
  0.48972,
  0.126402,
  0.374097,
  0.296522,
  0.146684,
  0.258951,
  0.187065,
  0.189959,
  0.148897,
  0.26484,
  0.28972,
  0.404038,
  0.2142,
  0.346453,
  0.403884,
  0.219507,
  0.154934,
  0.218085,
  0.158,
  0.210892,
  0.170228,
  0.21743,
  0.200934,
  0.20321,
  0.479,
  0.18,
  0.286365,
  0.18,
  0.178592,
  0.367785,
  0.292,
  0.509029,
  0.503,
  0.779719,
  0.465848,
  0.419177,
  0.391894,
  0.442775,
  0.734382,
  0.40224,
  0.410284,
  0.413677,
  0.632836,
  0.456683,
  0.480032,
  0.410613,
  0.624487,
  0.591,
  0.513333,
  0.525295,
  0.556206,
  0.559,
  0.538,
  0.523,
  0.475932,
  0.433,
  0.50205,
  0.447989,
  0.426975,
  0.59246,
  0.758252,
  0.515,
  0.462346,
  0.497,
  0.387764,
  0.152,
  0.336,
  0.287393,
  0.440912,
  0.297,
  0.386863,
  0.404657,
  0.137268,
  0.329,
  0.38144,
  0.222815,
  0.180399,
  0.158233,
  0.289,
  0.347843,
  0.602234,
  0.482033,
  0.480866,
  0.609968,
  0.459,
  0.693308,
  0.700577,
  0.568456,
  0.407,
  0.453,
  0.442784,
  0.417345,
  0.640216,
  0.49,
  0.414,
  0.573,
  0.413214,
  0.554897,
  0.42659,
  0.507,
  0.41496,
  0.377116,
  0.491313,
  0.684616,
  0.678744,
  0.53,
  0.542523,
  0.635464,
  0.407364,
  0.416015,
  0.435,
  0.494555,
  0.487645,
  0.511219,
  0.449081,
  0.413013,
  0.645795,
  0.515434,
  0.534,
  0.612051,
  0.439735,
  0.471974,
  0.404969,
  0.753032,
  0.643103,
  0.527937,
  0.383365,
  0.483,
  0.422856,
  0.508169,
  0.533689,
  0.478309,
  0.659856,
  0.398489,
  0.513,
  0.602,
  0.669,
  0.543,
  0.569,
  0.674617,
  0.429,
  0.411216,
  0.478091,
  0.431,
  0.380524,
  0.161869,
  0.371623,
  0.367,
  0.435,
  0.276131,
  0.233013,
  0.411,
  0.399434,
  0.179468,
  0.284257,
  0.184566,
  0.317182,
  0.491015,
  0.203508,
  0.419877,
  0.246,
  0.509897,
  0.282797,
  0.296,
  0.420058,
  0.168638,
  0.314,
  0.172,
  0.317,
  0.372,
  0.175069,
  0.288763,
  0.34693,
  0.354166,
  0.279242,
  0.267678,
  0.444275,
  0.385743,
  0.311986,
  0.566731,
  0.47,
  0.467473,
  0.394676,
  0.486515,
  0.488885,
  0.55294,
  0.441808,
  0.403241,
  0.63,
  0.598945,
  0.397794,
  0.525635,
  0.451988,
  0.182889,
  0.641886,
  0.187499,
  0.203948,
  0.196111,
  0.168,
  0.183851,
  0.185359,
  0.409,
  0.216336,
  0.264222,
  0.350889,
  0.37067,
  0.235,
  0.263,
  0.207473,
  0.347686,
  0.181,
  0.206794,
  0.368912,
  0.416,
  0.272712,
  0.258348,
  0.146347,
  0.15733,
  0.388733,
  0.190461,
  0.169,
  0.325407,
  0.398625,
  0.229,
  0.368502,
  0.384169,
  0.323371,
  0.255101,
  0.319,
  0.446168,
  0.207079,
  0.37208,
  0.192484,
  0.25,
  0.214836,
  0.32735,
  0.304392,
  0.314741,
  0.254675,
  0.404,
  0.619607,
  0.23125,
  0.442983,
  0.269143,
  0.15265,
  0.388737,
  0.285351,
  0.539703,
  0.253629,
  0.358736,
  0.177111,
  0.262227,
  0.363658,
  0.228746,
  0.339,
  0.139485,
  0.390333,
  0.403403,
  0.182451,
  0.309831,
  0.450777,
  0.258587,
  0.279,
  0.181471,
  0.195427,
  0.14417,
  0.383045,
  0.441819,
  0.312056,
  0.210098,
  0.24873,
  0.449499,
  0.251904,
  0.524738,
  0.18514,
  0.21,
  0.256335,
  0.528072,
  0.416677,
  0.218,
  0.198752,
  0.515,
  0.387135,
  0.309539,
  0.242638,
  0.177,
  0.23076,
  0.111907,
  0.657745,
  0.632786,
  0.44,
  0.607891,
  0.483756,
  0.321036,
  0.419,
  0.596831,
  0.523847,
  0.52,
  0.446591,
  0.40673,
  0.436061,
  0.505287,
  0.71789,
  0.44799,
  0.594,
  0.462778,
  0.431493,
  0.531043,
  0.508159,
  0.416702,
  0.590833,
  0.514533,
  0.532052,
  0.449698,
  0.765521,
  0.6429,
  0.412568,
  0.686149,
  0.496,
  0.455184,
  0.189677,
  0.279266,
  0.438919,
  0.317542,
  0.195488,
  0.277,
  0.401248,
  0.229514,
  0.277996,
  0.413587,
  0.256782,
  0.421093,
  0.367897,
  0.412889,
  0.482757,
  0.147,
  0.421133,
  0.396343,
  0.375,
  0.442094,
  0.454508,
  0.397,
  0.436994,
  0.448845,
  0.39426,
  0.35125,
  0.655407,
  0.424456,
  0.547,
  0.551195,
  0.597,
  0.451207,
  0.246857,
  0.189,
  0.361242,
  0.185,
  0.205,
  0.407547,
  0.442,
  0.239,
  0.17,
  0.378862,
  0.281,
  0.258711,
  0.297,
  0.271,
  0.209,
  0.219703,
  0.374,
  0.671771,
  0.64,
  0.488,
  0.539,
  0.647966,
  0.533,
  0.536,
  0.672828,
  0.444451,
  0.429,
  0.505,
  0.491,
  0.381,
  0.555,
  0.461,
  0.155,
  0.163162,
  0.416,
  0.28348,
  0.307713,
  0.223658,
  0.352,
  0.314,
  0.371,
  0.488,
  0.151615,
  0.26,
  0.266,
  0.423,
  0.388,
  0.14017,
  0.343664,
  0.360767,
  0.345,
  0.141606,
  0.374,
  0.376,
  0.218,
  0.391,
  0.222,
  0.212,
  0.180873,
  0.148653,
  0.283676,
  0.221666,
  0.118379,
  0.414393,
  0.45686,
  0.63068,
  0.610856,
  0.42151,
  0.667,
  0.513081,
  0.513543,
  0.626102,
  0.382,
  0.653103,
  0.654454,
  0.534,
  0.379,
  0.755792,
  0.372,
  0.633206,
  0.217742,
  0.532107,
  0.280482,
  0.155,
  0.358752,
  0.17,
  0.166,
  0.381,
  0.202,
  0.565,
  0.461441,
  0.451758,
  0.158,
  0.157,
  0.161,
  0.38,
  0.652894,
  0.532254,
  0.468624,
  0.75815,
  0.447537,
  0.545119,
  0.378,
  0.409,
  0.423192,
  0.419931,
  0.363981,
  0.642025,
  0.460722,
  0.39256,
  0.417202,
  0.546024,
  0.350174,
  0.4084,
  0.600296,
  0.494969,
  0.630938,
  0.382445,
  0.426527,
  0.604,
  0.638775,
  0.570585,
  0.434734,
  0.56671,
  0.517454,
  0.678033,
  0.419248,
  0.381751,
  0.44,
  0.271904,
  0.188,
  0.536124,
  0.228,
  0.212748,
  0.26,
  0.186,
  0.2,
  0.275648,
  0.185,
  0.342353,
  0.141,
  0.188,
  0.313,
  0.435498,
  0.656,
  0.609358,
  0.379867,
  0.404144,
  0.686224,
  0.583614,
  0.463748,
  0.462,
  0.497265,
  0.367525,
  0.395479,
  0.369589,
  0.479151,
  0.632206,
  0.563229,
  0.546007,
  0.425232,
  0.335,
  0.491,
  0.81215,
  0.461,
  0.51,
  0.318,
  0.357,
  0.371,
  0.489,
  0.378,
  0.567,
  0.563,
  0.409811,
  0.532461,
  0.333,
  0.527672,
  0.708,
  0.410101,
  0.437302,
  0.59925,
  0.624,
  0.471901,
  0.466,
  0.546744,
  0.40746,
  0.334402,
  0.455302,
  0.404245,
  0.68365,
  0.656124,
  0.379,
  0.337769,
  0.323,
  0.442814,
  0.247963,
  0.427068,
  0.250942,
  0.162,
  0.447334,
  0.308724,
  0.688714,
  0.404183,
  0.398,
  0.201,
  0.392587,
  0.46987,
  0.386092,
  0.557226,
  0.44317,
  0.479187,
  0.541719,
  0.442633,
  0.665,
  0.497,
  0.640086,
  0.47574,
  0.490115,
  0.520686,
  0.602,
  0.380202,
  0.389498,
  0.706,
  0.640645,
  0.475453,
  0.339,
  0.484,
  0.788234,
  0.403295,
  0.432,
  0.376,
  0.386,
  0.422471,
  0.503527,
  0.631897,
  0.355,
  0.397315,
  0.384,
  0.426541,
  0.541673,
  0.44453,
  0.402251,
  0.480286,
  0.368397,
  0.341339,
  0.864,
  0.301,
  0.437595,
  0.635596,
  0.553,
  0.41674,
  0.422127,
  0.375,
  0.364376,
  0.589292,
  0.434,
  0.545978,
  0.328385,
  0.353526,
  0.333167,
  0.312,
  0.395844,
  0.607,
  0.586877,
  0.636,
  0.519611,
  0.339,
  0.473434,
  0.39721,
  0.562789,
  0.399636,
  0.495296,
  0.490674,
  0.492233,
  0.439039,
  0.415,
  0.603944,
  0.473801,
  0.525698,
  0.634,
  0.618103,
  0.805462,
  0.452,
  0.483228,
  0.363209,
  0.422904,
  0.619807,
  0.599558,
  0.395612,
  0.273784,
  0.645175,
  0.846536,
  0.63917,
  0.546,
  0.391111,
  0.375338,
  0.32158,
  0.564,
  0.585309,
  0.56,
  0.299,
  0.468206,
  0.411094,
  0.703017,
  0.225,
  0.186319,
  0.547,
  0.45227,
  0.415181,
  0.406,
  0.183,
  0.312,
  0.33409,
  0.216,
  0.175754,
  0.356,
  0.90469,
  0.441988,
  0.328,
  0.383,
  0.291386,
  0.21318,
  0.140141,
  0.158399,
  0.260348,
  0.286875,
  0.356,
  0.150369,
  0.271752,
  0.227103,
  0.1609,
  0.374247,
  0.207794,
  0.21044,
  0.213709,
  0.371897,
  0.561575,
  0.375,
  0.277736,
  0.493,
  0.404143,
  0.367,
  0.39,
  0.331704,
  0.399,
  0.43123,
  0.454007,
  0.4051,
  0.569576,
  0.430741,
  0.383874,
  0.416049,
  0.617768,
  0.599516,
  0.672889,
  0.475,
  0.727536,
  0.527698,
  0.485,
  0.651,
  0.408,
  0.654034,
  0.581262,
  0.596993,
  0.694018,
  0.533845,
  0.398969,
  0.62,
  0.533009,
  0.511245,
  0.718933,
  0.367308,
  0.372626,
  0.469,
  0.487943,
  0.38238,
  0.422298,
  0.664777,
  0.409273,
  0.424778,
  0.406,
  0.559372,
  0.404223,
  0.657588,
  0.317346,
  0.283511,
  0.139318,
  0.413,
  0.382,
  0.465774,
  0.468768,
  0.347,
  0.204,
  0.248,
  0.289,
  0.167379,
  0.282,
  0.325252,
  0.239,
  0.397777,
  0.459867,
  0.63269,
  0.484857,
  0.575819,
  0.51758,
  0.449781,
  0.528536,
  0.408129,
  0.488814,
  0.461494,
  0.574976,
  0.513041,
  0.55946,
  0.505262,
  0.52627,
  0.608006,
  0.636786,
  0.679,
  0.794361,
  0.386656,
  0.41,
  0.606,
  0.632,
  0.350734,
  0.473,
  0.656,
  0.407768,
  0.521,
  0.377,
  0.360574,
  0.408478,
  0.483,
  0.198582,
  0.227881,
  0.462499,
  0.239582,
  0.208103,
  0.213604,
  0.147,
  0.248264,
  0.370482,
  0.154633,
  0.291,
  0.226,
  0.208227,
  0.184,
  0.188,
  0.173618,
  0.351,
  0.171928,
  0.202535,
  0.269868,
  0.42862,
  0.378355,
  0.409096,
  0.332212,
  0.272223,
  0.472,
  0.442144,
  0.102242,
  0.191698,
  0.147857,
  0.284078,
  0.38157,
  0.671301,
  0.621693,
  0.49,
  0.554934,
  0.665544,
  0.457525,
  0.467111,
  0.639532,
  0.477111,
  0.665803,
  0.512,
  0.618289,
  0.508,
  0.703381,
  0.553832,
  0.661316,
  0.393155,
  0.418897,
  0.656948,
  0.439844,
  0.434707,
  0.564206,
  0.72783,
  0.359561,
  0.405,
  0.393335,
  0.508574,
  0.415349,
  0.529612,
  0.718103,
  0.707597,
  0.641172,
  0.380309,
  0.377572,
  0.578332,
  0.597756,
  0.545223,
  0.374044,
  0.536,
  0.704348,
  0.467,
  0.664681,
  0.638318,
  0.640868,
  0.432681,
  0.460823,
  0.621,
  0.700713,
  0.479198,
  0.461396,
  0.662,
  0.452827,
  0.457,
  0.481272,
  0.627819,
  0.624044,
  0.551378,
  0.672,
  0.542,
  0.64864,
  0.69728,
  0.472642,
  0.479,
  0.668733,
  0.272758,
  0.469137,
  0.44839,
  0.511688,
  0.514903,
  0.15764,
  0.178286,
  0.441,
  0.15752,
  0.417474,
  0.174397,
  0.170116,
  0.422346,
  0.453429,
  0.345222,
  0.395697,
  0.710486,
  0.448287,
  0.450066,
  0.647,
  0.706,
  0.709897,
  0.534537,
  0.483752,
  0.479557,
  0.490897,
  0.577103,
  0.615,
  0.472102,
  0.459,
  0.483103,
  0.549864,
  0.563473,
  0.53643,
  0.499903,
  0.442,
  0.65,
  0.60591,
  0.580897,
  0.653,
  0.430428,
  0.513,
  0.791983,
  0.436868,
  0.393,
  0.668,
  0.42,
  0.612714,
  0.344451,
  0.191,
  0.364007,
  0.517948,
  0.192784,
  0.323,
  0.166671,
  0.332897,
  0.151,
  0.129069,
  0.348,
  0.19,
  0.313095,
  0.254606,
  0.370404,
  0.135613,
  0.390889,
  0.400392,
  0.212897,
  0.433565,
  0.179428,
  0.211897,
  0.514585,
  0.308844,
  0.168288,
  0.389508,
  0.220058,
  0.52705,
  0.310145,
  0.345948,
  0.311451,
  0.413103,
  0.151236,
  0.489878,
  0.324453,
  0.212932,
  0.412862,
  0.497841,
  0.396655,
  0.357895,
  0.204103,
  0.392581,
  0.521407,
  0.405067,
  0.182988,
  0.204162,
  0.333,
  0.364,
  0.316517,
  0.193,
  0.169,
  0.173,
  0.201771,
  0.15692,
  0.138,
  0.190965,
  0.390903,
  0.130354,
  0.189,
  0.180624,
  0.142735,
  0.328366,
  0.117,
  0.122708,
  0.231423,
  0.203693,
  0.391757,
  0.211507,
  0.122,
  0.244777,
  0.168,
  0.406459,
  0.194103,
  0.151124,
  0.264255,
  0.172,
  0.170302,
  0.168,
  0.23565,
  0.180703,
  0.528538,
  0.529,
  0.521,
  0.728,
  0.4,
  0.451015,
  0.544337,
  0.644,
  0.334303,
  0.598,
  0.450104,
  0.407232,
  0.329,
  0.354,
  0.492146,
  0.458881,
  0.616378,
  0.648774,
  0.687974,
  0.544,
  0.403103,
  0.428,
  0.677,
  0.502,
  0.53,
  0.549559,
  0.609408,
  0.522112,
  0.54,
  0.458903,
  0.431,
  0.501876,
  0.531994,
  0.198,
  0.328,
  0.412,
  0.252,
  0.416,
  0.131,
  0.253,
  0.151715,
  0.207,
  0.422,
  0.475015,
  0.228,
  0.48113,
  0.312,
  0.394,
  0.45,
  0.578425,
  0.465074,
  0.588132,
  0.440471,
  0.496356,
  0.454676,
  0.629556,
  0.37621,
  0.427565,
  0.49762,
  0.42054,
  0.423193,
  0.35081,
  0.513211,
  0.720575,
  0.683442,
  0.209,
  0.176967,
  0.156539,
  0.265103,
  0.238773,
  0.200257,
  0.37939,
  0.191,
  0.251604,
  0.424225,
  0.164299,
  0.124,
  0.332103,
  0.158708,
  0.250512,
  0.607594,
  0.514806,
  0.61699,
  0.62246,
  0.46,
  0.602,
  0.467567,
  0.491634,
  0.386,
  0.528576,
  0.40068,
  0.440889,
  0.440119,
  0.579144,
  0.356,
  0.378341,
  0.558894,
  0.313523,
  0.437,
  0.34863,
  0.403292,
  0.463805,
  0.565931,
  0.428591,
  0.600971,
  0.528193,
  0.542107,
  0.37486,
  0.381794,
  0.446298,
  0.398939,
  0.37162
]