[
  0.833289,
  0.549,
  0.769,
  0.374,
  0.617,
  0.509,
  0.540745,
  0.574,
  0.57027,
  0.47852,
  0.491716,
  0.458,
  0.745,
  0.781531,
  0.713,
  0.480897,
  0.58822,
  0.44,
  0.480704,
  0.608,
  0.525,
  0.520152,
  0.383787,
  0.353,
  0.364141,
  0.650476,
  0.792038,
  0.504,
  0.553701,
  0.591507,
  0.458251,
  0.544941,
  0.485897,
  0.373634,
  0.463952,
  0.888194,
  1.333944,
  0.725922,
  0.64384,
  0.990576,
  0.931579,
  0.713079,
  0.57565,
  0.643642,
  0.600223,
  0.756522,
  0.74616,
  0.969,
  0.77635,
  0.754218,
  0.814878,
  0.740794,
  1.373264,
  0.569918,
  0.935507,
  0.400857,
  0.587941,
  0.481142,
  0.801,
  0.357333,
  0.508356,
  0.525111,
  0.407063,
  0.783889,
  0.331823,
  0.519073,
  0.586208,
  0.566314,
  1.070017,
  0.708,
  0.80636,
  0.953515,
  0.909231,
  0.774536,
  1.036935,
  0.824726,
  0.522,
  0.775187,
  0.576188,
  0.587743,
  0.833209,
  0.644114,
  0.51182,
  0.775843,
  0.614002,
  0.77951,
  0.635167,
  0.587401,
  0.524562,
  0.299206,
  0.365245,
  0.612963,
  0.779014,
  0.362416,
  0.387,
  0.610026,
  0.62,
  0.552225,
  0.902797,
  0.743484,
  0.816897,
  0.738548,
  0.661652,
  0.998958,
  0.876244,
  0.251432,
  0.635819,
  0.466968,
  0.475,
  0.470438,
  0.389,
  0.433,
  0.384,
  0.279607,
  0.558353,
  0.622443,
  0.404,
  0.773766,
  0.421,
  0.933953,
  0.759611,
  1.201098,
  0.723,
  0.28773,
  1.254988,
  0.371322,
  0.93182,
  0.278298,
  0.352897,
  0.680083,
  0.778759,
  0.817449,
  0.88269,
  0.97621,
  0.847978,
  0.783448,
  0.641746,
  0.591547,
  1.056197,
  0.65134,
  0.989478,
  1.268217,
  1.394328,
  0.877403,
  1.142415,
  1.032374,
  0.914528,
  0.626,
  0.87341,
  0.733719,
  0.961673,
  0.586,
  0.380975,
  0.953629,
  0.91,
  0.653086,
  0.479115,
  0.287347,
  0.567933,
  0.398091,
  0.40153,
  0.642,
  0.323269,
  0.331269,
  0.759,
  0.515672,
  0.441837,
  0.312669,
  0.847258,
  0.45,
  0.454247,
  0.911871,
  0.511,
  0.449364,
  0.408328,
  0.853497,
  0.983417,
  0.356,
  0.763864,
  0.509,
  0.378763,
  0.624,
  0.392336,
  0.629701,
  0.392421,
  0.817861,
  1.182862,
  0.526,
  0.553,
  0.795,
  0.730442,
  0.770043,
  0.684587,
  0.730583,
  1.107401,
  0.774498,
  0.974946,
  0.870688,
  0.96993,
  0.982095,
  0.631,
  0.819192,
  0.703466,
  0.80127,
  0.595544,
  0.543951,
  0.576481,
  0.358754,
  0.75335,
  0.615648,
  0.804817,
  0.349663,
  0.752909,
  0.354916,
  0.459045,
  0.348264,
  0.556434,
  0.292361,
  1.265,
  0.688681,
  0.352,
  0.740895,
  0.788385,
  0.477,
  0.313,
  0.735,
  0.6729,
  0.662143,
  0.528,
  0.732312,
  0.654381,
  0.847908,
  0.871403,
  1.659,
  1.315336,
  1.092897,
  0.788,
  0.763465,
  0.889472,
  0.772353,
  0.547009,
  0.702,
  0.718,
  0.766,
  0.787904,
  0.637342,
  0.68454,
  0.897,
  0.469111,
  0.564364,
  0.472295,
  0.902978,
  0.581492,
  0.508555,
  0.47,
  0.374941,
  0.648574,
  0.405743,
  0.414395,
  0.465292,
  0.433251,
  0.398797,
  0.398943,
  0.625844,
  0.686897,
  0.862777,
  0.69088,
  0.954,
  0.716,
  0.876,
  0.705484,
  0.989539,
  1.046,
  0.863667,
  0.719192,
  0.915897,
  0.711179,
  0.689118,
  0.337,
  0.696,
  0.654,
  0.531318,
  0.755056,
  0.514111,
  0.618429,
  0.579844,
  1.117491,
  0.548,
  0.595199,
  1.232369,
  0.724148,
  0.659,
  0.584,
  1.080337,
  0.777359,
  1.409327,
  1.060111,
  0.942499,
  0.714,
  1.106834,
  0.952534,
  0.982298,
  0.979124,
  0.848639,
  1.01142,
  0.778,
  0.576316,
  0.905342,
  0.56,
  0.53211,
  0.905278,
  0.375602,
  0.768551,
  0.618,
  0.767662,
  0.785677,
  0.484,
  0.886501,
  0.277133,
  0.546602,
  0.606614,
  0.957,
  0.661553,
  0.484,
  0.311118,
  0.611843,
  0.812878,
  0.586668,
  0.542437,
  0.615257,
  0.589216,
  0.686123,
  0.316,
  0.523,
  0.398,
  0.423514,
  0.373549,
  2.266,
  0.378,
  0.545404,
  0.352596,
  0.521301,
  0.518267,
  0.807086,
  0.357146,
  0.585625,
  0.419442,
  0.243,
  0.488722,
  1.141356,
  0.67327,
  1.016628,
  0.763,
  1.034722,
  0.93,
  0.865724,
  0.33,
  0.382834,
  0.548257,
  0.515067,
  0.678746,
  0.716775,
  0.415615,
  0.532508,
  0.963212,
  0.436,
  0.698144,
  0.572617,
  0.360516,
  0.879,
  0.605,
  0.47209,
  0.578,
  0.507638,
  0.92366,
  2.38205,
  0.251,
  0.823223,
  0.545467,
  0.311223,
  0.586998,
  1.169403,
  0.59184,
  0.749236,
  0.675135,
  0.643876,
  0.656707,
  0.654334,
  0.609619,
  0.992071,
  0.772338,
  0.959285,
  1.072906,
  0.747,
  0.641,
  0.974528,
  0.86,
  1.452,
  0.76162,
  1.058,
  0.429854,
  0.623794,
  0.730259,
  0.913823,
  0.652,
  0.547162,
  0.604,
  0.913694,
  0.541391,
  0.903226,
  0.869322,
  0.890416,
  0.784476,
  0.59388,
  0.71,
  0.506038,
  0.707074,
  0.837651,
  0.877175,
  0.457541,
  0.730018,
  1.003971,
  0.481234,
  0.883263,
  0.503011,
  0.490769,
  0.754671,
  1.033,
  0.914285,
  0.867176,
  1.177037,
  0.975961,
  1.124841,
  0.754,
  0.584259,
  1.395,
  0.823897,
  0.771807,
  1.43968,
  0.776641,
  0.889097,
  1.035047,
  0.957,
  0.993,
  0.55061,
  0.562248,
  0.409,
  0.313852,
  0.451015,
  0.492653,
  0.603,
  0.316,
  0.372701,
  0.404,
  0.475,
  0.774,
  1.116989,
  0.772,
  1.002,
  0.96,
  0.865452,
  1.013438,
  0.860796,
  0.669709,
  0.834903,
  0.911819,
  1.024089,
  0.829232,
  0.690247,
  1.278097,
  1.025707,
  0.635702,
  0.838301,
  0.753343,
  0.802516,
  0.757555,
  0.700227,
  0.500037,
  0.469919,
  0.49966,
  0.365,
  0.79908,
  0.39111,
  1.045197,
  0.692897,
  0.470779,
  0.971426,
  0.685701,
  0.894528,
  0.651939,
  0.705185,
  0.758861,
  0.604,
  0.762,
  0.88,
  0.495208,
  0.562,
  0.618018,
  0.922,
  0.648761,
  0.873966,
  0.740727,
  0.56409,
  0.439,
  0.389028,
  0.752312,
  0.726,
  0.767013,
  0.501222,
  0.526119,
  0.689608,
  0.63245,
  0.597432,
  0.396865,
  0.506097,
  0.462049,
  0.531119,
  0.606004,
  0.74851,
  0.620045,
  0.507361,
  0.794917,
  0.545038,
  1.342,
  0.826227,
  0.757553,
  0.705991,
  0.68677,
  0.770218,
  0.709624,
  0.555037,
  0.918876,
  0.801876,
  0.797349,
  0.974266,
  0.660689,
  0.713111,
  0.698482,
  0.490223,
  0.343498,
  0.34843,
  0.307,
  0.611024,
  0.690041,
  0.332554,
  0.727298,
  0.419647,
  0.579455,
  0.931648,
  0.87583,
  0.801611,
  0.894458,
  0.561111,
  0.770621,
  0.725458,
  0.724985,
  0.79365,
  0.754272,
  0.563869,
  0.685459,
  0.882617,
  0.714364,
  0.686377,
  1.268447,
  0.764607,
  1.193778,
  0.528098,
  0.756522,
  0.945,
  0.729816,
  0.671024,
  1.083284,
  0.946439,
  0.471776,
  0.58492,
  0.391024,
  0.875,
  0.965292,
  1.103793,
  1.232725,
  0.713,
  0.757468,
  0.794,
  1.148553,
  1.087078,
  0.863,
  1.036934,
  0.953394,
  0.642506,
  0.392931,
  0.39886,
  0.521745,
  0.829067,
  0.477189,
  0.427788,
  0.614973,
  0.390911,
  0.734301,
  0.375227,
  0.633979,
  0.554985,
  0.626141,
  0.566279,
  0.779514,
  0.815285,
  0.449515,
  0.586,
  0.623802,
  0.642559,
  0.458103,
  0.815086,
  0.447239,
  1.125548,
  0.615047,
  0.86776,
  1.137294,
  0.594569,
  0.987897,
  0.719,
  0.636001,
  0.595,
  0.801,
  0.722206,
  0.481754,
  1.089034,
  0.865434,
  0.768977,
  0.635587,
  0.481387,
  0.355,
  0.610659,
  0.762111,
  0.473468,
  0.746623,
  0.343822,
  1.459075,
  1.195,
  0.999687,
  0.935573,
  0.768,
  0.974787,
  1.295308,
  0.68347,
  0.542501,
  0.871,
  0.660201,
  0.624716,
  0.89105,
  0.84549,
  0.622007,
  0.861572,
  0.633111,
  0.644859,
  0.522731,
  0.965651,
  0.900289,
  0.662996,
  0.722854,
  0.765027,
  0.724061,
  0.296537,
  0.446338,
  0.416,
  0.706796,
  0.424848,
  1.036534,
  0.769103,
  0.703058,
  0.492356,
  0.824094,
  0.57,
  0.784698,
  0.390942,
  0.701396,
  0.561296,
  1.110612,
  0.947658,
  0.919,
  0.852655,
  0.581467,
  0.84173,
  0.844996,
  0.896943,
  0.892288,
  0.679822,
  0.389354,
  0.765129,
  0.655619,
  0.654746,
  0.48696,
  0.512205,
  0.782,
  0.881538,
  0.41577,
  1.099,
  0.29864,
  0.641842,
  0.329,
  0.645831,
  0.851133,
  0.870415,
  0.918256,
  1.029897,
  0.675,
  1.04161,
  1.194,
  1.084909,
  0.796315,
  0.493461,
  0.565624,
  0.7576,
  0.343921,
  0.592562,
  0.406467,
  0.626,
  0.560318,
  0.64199,
  0.794,
  0.97206,
  0.469028,
  0.705,
  0.702,
  0.668,
  1.058707,
  1.193,
  0.770217,
  1.008168,
  0.59,
  0.897622,
  0.655076,
  0.570902,
  1.335144,
  0.880122,
  0.603,
  0.756103,
  0.996,
  0.85014,
  0.601144,
  0.774129,
  0.439097,
  0.775,
  0.741222,
  0.666,
  0.623752,
  0.574347,
  0.820021,
  0.465,
  0.851,
  1.044,
  0.596,
  0.639388,
  1.187539,
  0.737155,
  0.992,
  0.804193,
  1.129411,
  1.114221,
  0.642914,
  0.770682,
  0.713914,
  0.745794,
  0.923865,
  0.986876,
  0.756976,
  0.89,
  1.302,
  0.914,
  0.735,
  0.971612,
  1.055421,
  0.552661,
  0.579,
  0.63,
  0.837,
  0.625,
  0.737995,
  0.886,
  1.058,
  0.994,
  0.605,
  0.573,
  0.648309,
  1.292,
  0.32599,
  0.449,
  0.540436,
  0.502182,
  0.37307,
  0.699916,
  0.393977,
  0.560713,
  0.47385,
  0.443397,
  0.375264,
  0.297,
  0.789688,
  1.055,
  1.102759,
  0.936989,
  1.017111,
  0.756608,
  1.112212,
  0.740914,
  0.580196,
  0.506362,
  0.250765,
  0.785051,
  0.8,
  0.512452,
  0.428698,
  0.77873,
  0.455016,
  0.582,
  0.403044,
  0.767291,
  0.775787,
  0.498,
  1.005354,
  0.270693,
  0.78085,
  0.420825,
  0.680103,
  0.431325,
  0.398539,
  0.745539,
  0.53793,
  0.779,
  0.966155,
  0.402,
  0.433,
  0.527,
  0.580115,
  0.595921,
  0.732618,
  0.691052,
  0.455441,
  0.808341,
  1.036291,
  0.682485,
  0.706637,
  0.772015,
  0.885855,
  0.722627,
  0.733336,
  0.776772,
  0.973475,
  1.073177,
  0.939664,
  0.853011,
  0.690206,
  0.841975,
  0.570498,
  0.655164,
  0.954537,
  0.778533,
  1.022097,
  0.799,
  0.716758,
  0.863588,
  0.991854,
  0.820703,
  0.84,
  0.755,
  0.950816,
  0.971,
  1.153,
  0.602259,
  0.731,
  0.674929,
  0.634165,
  0.511498,
  0.375208,
  0.464897,
  0.698,
  0.408095,
  0.446585,
  0.712659,
  0.578,
  0.853013,
  0.378357,
  1.066,
  0.811195,
  0.77,
  0.741,
  0.958,
  0.908923,
  0.695651,
  1.028235,
  0.639974,
  0.846356,
  0.883057,
  1.158343,
  0.849,
  0.765276,
  1.164128,
  0.673214,
  1.218,
  0.978189,
  0.717608,
  1.21,
  0.513192,
  0.741068,
  0.619388,
  0.749,
  0.559,
  0.970472,
  0.324,
  0.442,
  0.989,
  0.893,
  0.749464,
  0.825,
  0.698,
  0.816229,
  0.591,
  0.701,
  0.787102,
  0.688,
  0.939473,
  1.012414,
  0.848373,
  0.783818,
  0.567937,
  1.01937,
  0.802,
  0.994214,
  0.701954,
  0.677847,
  0.962429,
  0.474271,
  0.421361,
  0.588,
  0.316885,
  0.594989,
  0.575179,
  0.596478,
  0.545773,
  0.587693,
  0.90834,
  0.793,
  0.795,
  0.299633,
  0.723621,
  0.457,
  2.231,
  0.753,
  0.901,
  0.792,
  0.483,
  0.682,
  0.383,
  0.419,
  0.502,
  0.521456,
  0.734,
  0.75699,
  0.264403,
  0.325,
  0.375917,
  0.478656,
  0.597969,
  0.726302,
  0.472469,
  0.44319,
  0.34945,
  0.298,
  0.541,
  0.569358,
  0.596,
  0.458223,
  0.422309,
  0.86376,
  0.570368,
  0.605806,
  0.50559,
  0.419463,
  0.743133,
  0.842907,
  0.607186,
  0.955329,
  0.814268,
  0.571561,
  0.58523,
  1.164897,
  0.989,
  1.028,
  0.537818,
  1.425979,
  1.002396,
  0.913966,
  0.895335,
  0.853,
  0.962029,
  0.674778,
  1.053321,
  0.83215,
  1.075264,
  0.814903,
  0.869362,
  0.582,
  0.562947,
  0.964126,
  0.993809,
  0.526613,
  0.59589,
  0.685984,
  0.714529,
  0.994537,
  0.934441,
  0.506467,
  0.284222,
  0.425265,
  0.324568,
  0.393488,
  0.358,
  0.260607,
  0.84,
  0.596894,
  0.478751,
  0.616299,
  0.389161,
  1.018901,
  0.584227,
  0.955839,
  1.066717,
  0.748405,
  1.019039,
  0.743086,
  0.792349,
  0.691686,
  0.799,
  0.539446,
  0.573,
  0.452103,
  0.53,
  0.760349,
  0.82148,
  0.571817,
  0.388854,
  0.819885,
  0.896038,
  0.407597,
  0.540817,
  0.687343,
  0.66381,
  0.439235,
  0.805,
  1.065243,
  0.514576,
  0.702016,
  0.750302,
  0.505656,
  0.694573,
  0.335,
  6.198457,
  0.290187,
  1.334886,
  0.881461,
  0.461494,
  1.162563,
  0.959065,
  0.451758,
  0.86143,
  0.427,
  0.626,
  0.645,
  0.279437,
  0.387,
  0.568,
  0.275557,
  0.47,
  0.298766,
  0.542,
  1.433362,
  0.900194,
  0.620125,
  0.82747,
  0.772465,
  0.572814,
  0.652751,
  0.583417,
  0.925,
  0.798754,
  0.589028,
  1.085688,
  1.01095,
  0.943,
  1.058868,
  0.934589,
  1.143572,
  0.593915,
  0.606522,
  0.824608,
  0.649545,
  0.741754,
  0.64954,
  0.795331,
  0.477138,
  0.460361,
  0.840687,
  0.505206,
  0.556,
  0.911199,
  0.728889,
  0.388,
  0.690895,
  0.57652,
  0.858341
]