[
  0.476587,
  0.30193,
  0.278605,
  0.384,
  0.516942,
  0.266442,
  0.152,
  0.237197,
  0.399,
  0.16032,
  0.144026,
  0.33757,
  0.275383,
  0.14561,
  0.190145,
  0.491897,
  0.672,
  0.357571,
  0.371342,
  0.583,
  0.634981,
  0.565284,
  0.406525,
  0.494,
  0.425224,
  0.432,
  0.466613,
  0.500985,
  0.369434,
  0.597999,
  0.351,
  0.465,
  0.263889,
  0.166514,
  0.212371,
  0.299766,
  0.333872,
  0.340587,
  0.349,
  0.158546,
  0.702746,
  0.590292,
  0.215,
  0.21831,
  0.333615,
  0.305776,
  0.246052,
  0.191,
  0.622484,
  0.497,
  0.715897,
  0.414,
  0.536962,
  0.488763,
  0.454903,
  0.454743,
  0.611207,
  0.527854,
  0.656103,
  0.423359,
  0.603085,
  0.658679,
  0.431,
  0.557,
  0.373607,
  0.285527,
  0.200949,
  0.328986,
  0.326,
  0.352796,
  0.373372,
  0.338361,
  0.516109,
  0.275475,
  0.377763,
  0.337565,
  0.205226,
  0.71031,
  0.36,
  0.371925,
  0.528,
  0.637,
  0.670722,
  0.396196,
  0.527966,
  0.416676,
  0.482097,
  0.45135,
  0.641939,
  0.483,
  0.909,
  0.438,
  0.432522,
  0.393,
  0.406114,
  0.580157,
  0.564278,
  0.449103,
  0.501897,
  0.656994,
  0.416051,
  0.639,
  0.390403,
  0.393,
  0.535,
  0.660059,
  0.580175,
  0.408645,
  0.658116,
  0.42688,
  0.496386,
  0.632938,
  0.476503,
  0.66464,
  0.665392,
  0.465,
  0.409,
  0.434524,
  0.635,
  0.416123,
  0.547,
  0.53,
  0.638797,
  0.441,
  0.44387,
  0.453212,
  0.352182,
  0.359,
  0.523,
  0.504,
  0.455457,
  0.365361,
  0.497,
  0.534841,
  0.623758,
  0.729575,
  0.652778,
  0.498,
  0.6276,
  0.596,
  0.398839,
  0.563,
  0.592692,
  0.402,
  0.478521,
  0.595874,
  0.335569,
  0.646209,
  0.366003,
  0.5129,
  0.339215,
  0.490758,
  0.506613,
  0.449561,
  0.710096,
  0.505055,
  0.572595,
  0.392823,
  0.540935,
  0.380661,
  0.254409,
  0.33235,
  0.153952,
  0.225,
  0.276674,
  0.474519,
  0.168201,
  0.381103,
  0.371,
  0.209086,
  0.138593,
  0.388897,
  0.134742,
  0.297971,
  0.309,
  0.375007,
  0.597613,
  0.745537,
  0.392118,
  0.490223,
  0.426,
  0.384321,
  0.622228,
  0.35395,
  0.567581,
  0.638908,
  0.534468,
  0.330207,
  0.563305,
  0.423,
  0.368923,
  0.597467,
  0.441705,
  0.408256,
  0.453748,
  0.148087,
  0.310814,
  0.184662,
  0.506812,
  0.106594,
  0.363694,
  0.191652,
  0.188391,
  0.471809,
  0.187309,
  0.372628,
  0.338302,
  0.584302,
  0.492619,
  0.539,
  0.37983,
  0.63335,
  0.765427,
  0.542103,
  0.404,
  0.591,
  0.418,
  0.377509,
  0.469365,
  0.454,
  0.524,
  0.375953,
  0.613,
  0.6578,
  0.371577,
  0.364872,
  0.437,
  0.635883,
  0.566533,
  0.64017,
  0.390417,
  0.521341,
  0.64166,
  0.374,
  0.453436,
  0.622241,
  0.351934,
  0.587178,
  0.938,
  0.421,
  0.644875,
  0.463322,
  0.752,
  0.717,
  0.387,
  0.556876,
  0.584202,
  0.489435,
  0.522018,
  0.490108,
  0.588,
  0.535,
  0.436796,
  0.504955,
  0.46019,
  0.64,
  0.26047,
  0.267671,
  0.091209,
  0.396006,
  0.123638,
  0.342,
  0.148,
  0.501138,
  0.377302,
  0.176,
  0.14432,
  0.152419,
  0.684,
  0.344,
  0.132185,
  0.445528,
  0.409,
  0.393723,
  0.443,
  0.718557,
  0.395108,
  0.543976,
  0.457,
  0.422,
  0.570508,
  0.483844,
  0.411,
  0.387532,
  0.573,
  0.425849,
  0.712897,
  0.597167,
  0.117716,
  0.328266,
  0.192,
  0.343,
  0.252206,
  0.424,
  0.339282,
  0.522,
  0.277,
  0.569,
  0.596562,
  0.24093,
  0.392,
  0.208,
  0.383248,
  0.196404,
  0.340543,
  0.457568,
  0.633412,
  0.619534,
  0.330226,
  0.32915,
  0.447,
  0.317,
  0.639015,
  0.509784,
  0.346673,
  0.366042,
  0.282114,
  0.568194,
  0.37,
  0.596156,
  0.423818,
  0.402,
  0.676,
  0.585516,
  0.632462,
  0.614,
  0.498594,
  0.38516,
  0.423931,
  0.610445,
  0.687905,
  0.421846,
  0.579338,
  0.378206,
  0.451017,
  0.342545,
  0.647956,
  0.388717,
  0.429,
  0.452,
  0.410657,
  0.429835,
  0.658,
  0.481299,
  0.430142,
  0.475216,
  0.566967,
  0.548187,
  0.356234,
  0.553909,
  0.667,
  0.496078,
  0.399069,
  0.397999,
  0.711838,
  0.451,
  0.542091,
  0.414,
  0.716347,
  0.606,
  0.432193,
  0.628,
  1.002097,
  0.51906,
  0.49,
  0.633809,
  0.727787,
  0.35108,
  0.748971,
  0.588636,
  0.362819,
  0.528209,
  0.618912,
  0.54065,
  0.414,
  0.415,
  0.344272,
  0.627742,
  0.420493,
  0.344876,
  0.627,
  0.748867,
  0.678235,
  0.739761,
  0.343739,
  0.292536,
  0.204132,
  0.124656,
  0.398804,
  0.213612,
  0.25351,
  0.337,
  0.21,
  0.362666,
  0.259,
  0.502999,
  0.324298,
  0.194025,
  0.438926,
  0.182,
  0.615907,
  0.593979,
  0.528,
  0.730688,
  0.643934,
  0.360652,
  0.494489,
  0.727011,
  0.683,
  0.469111,
  0.454,
  0.541739,
  0.377197,
  0.467118,
  0.478,
  0.67639,
  0.705886,
  0.399506,
  0.267,
  0.418,
  0.396111,
  0.342,
  0.167,
  0.454518,
  0.161119,
  0.203486,
  0.146026,
  0.373,
  0.400988,
  0.43023,
  0.466,
  0.391,
  0.161665,
  0.160794,
  0.444263,
  0.465609,
  0.338261,
  0.40882,
  0.462794,
  0.163577,
  0.160479,
  0.40547,
  0.327091,
  0.505903,
  0.479529,
  0.15,
  0.282816,
  0.376192,
  0.409117,
  0.345,
  0.383631,
  0.258379,
  0.313057,
  0.279649,
  0.421257,
  0.246379,
  0.297606,
  0.357,
  0.356874,
  0.194978,
  0.167,
  0.519,
  0.416127,
  0.14,
  0.288084,
  0.200362,
  0.120411,
  0.38218,
  0.159313,
  0.136663,
  0.302,
  0.321,
  0.280139,
  0.159163,
  0.205,
  0.149505,
  0.118455,
  0.249,
  0.156403,
  0.17,
  0.331,
  0.921988,
  0.583535,
  0.494,
  0.567338,
  0.771979,
  0.332515,
  0.620817,
  0.421385,
  0.368319,
  0.489202,
  0.409007,
  0.488,
  0.525523,
  0.386906,
  0.636478,
  0.538985,
  0.445958,
  0.451252,
  0.656408,
  0.464128,
  0.627777,
  0.594127,
  0.677,
  0.614784,
  0.695,
  0.623745,
  0.516,
  0.529146,
  0.405554,
  0.623687,
  0.547737,
  0.423846,
  0.51922,
  0.758471,
  0.705267,
  0.542037,
  0.482494,
  0.549691,
  0.420781,
  0.603,
  0.435904,
  0.321687,
  0.61,
  0.496,
  0.669814,
  0.629331,
  0.549914,
  0.281756,
  0.219873,
  0.387163,
  0.411294,
  0.58,
  0.428903,
  0.281,
  0.152,
  0.342,
  0.24,
  0.20156,
  0.318034,
  0.467,
  0.343,
  0.325248,
  0.563346,
  0.267551,
  0.285378,
  0.227,
  0.475021,
  0.140305,
  0.670555,
  0.244102,
  0.134389,
  0.336,
  0.436023,
  0.279,
  0.395291,
  0.209096,
  0.275,
  0.241776,
  0.379477,
  0.296225,
  0.287854,
  0.377731,
  0.38981,
  0.665437,
  0.443931,
  0.374983,
  0.469736,
  0.448028,
  0.293079,
  0.554846,
  0.344141,
  0.342676,
  0.437461,
  0.365987,
  0.331681,
  0.427591,
  0.411909,
  0.421499,
  0.380563,
  0.65,
  0.589,
  0.725897,
  0.613,
  0.628677,
  0.519076,
  0.690648,
  0.763,
  0.516555,
  0.492,
  0.821848,
  0.710792,
  0.472622,
  0.374416,
  0.404615,
  0.634673,
  0.609,
  0.406,
  0.449,
  0.297,
  0.473211,
  0.594,
  0.396,
  0.537,
  0.489864,
  0.572737,
  0.339648,
  0.506,
  0.373222,
  0.137,
  0.318,
  0.338498,
  0.201388,
  0.467608,
  0.16365,
  0.232,
  0.242278,
  0.219403,
  0.279111,
  0.199905,
  0.423069,
  0.215494,
  0.243128,
  0.865,
  0.422456,
  0.145049,
  0.236,
  0.340063,
  0.282,
  0.383,
  0.262,
  0.304994,
  0.280296,
  0.278977,
  0.241,
  0.412,
  0.493564,
  0.272,
  0.41,
  0.200274,
  0.311349,
  0.135,
  0.344874,
  0.306,
  0.577622,
  0.294951,
  0.209097,
  0.225,
  0.440066,
  0.303997,
  0.210103,
  0.132032,
  0.307,
  0.200086,
  0.173042,
  0.465953,
  0.517401,
  0.396,
  0.421812,
  0.517658,
  0.618266,
  0.579124,
  0.485606,
  0.569216,
  0.783709,
  0.498,
  0.711199,
  0.368,
  0.552132,
  0.377253,
  0.572,
  0.63808,
  0.364962,
  0.360385,
  0.535374,
  0.65321,
  0.662,
  0.39136,
  0.481428,
  0.643619,
  0.382261,
  0.424618,
  0.473,
  0.465696,
  0.455442,
  0.54,
  0.658,
  0.6179,
  0.510761,
  0.634719,
  0.414888,
  0.533148,
  0.501729,
  0.467802,
  0.4332,
  0.436375,
  0.629472,
  0.487064,
  0.423109,
  1.01394,
  0.605952,
  0.598066,
  0.603153,
  0.453616,
  0.16,
  0.271,
  0.395692,
  0.169022,
  0.175939,
  0.336751,
  0.477943,
  0.206698,
  0.318,
  0.199234,
  0.142609,
  0.319,
  0.199,
  0.206166,
  0.174648,
  0.216905,
  0.68212,
  0.609,
  0.619449,
  0.444813,
  0.617488,
  0.558066,
  0.388153,
  0.575,
  0.639,
  0.553137,
  0.371887,
  0.543224,
  0.675383,
  0.373819,
  0.945,
  0.473402,
  0.405477,
  0.411,
  0.186584,
  0.276,
  0.292763,
  0.587167,
  0.309,
  0.161386,
  0.211,
  0.205066,
  0.274,
  0.455745,
  0.335788,
  0.43,
  0.167334,
  0.178435,
  0.44046,
  0.179897,
  0.521491,
  0.383,
  0.413803,
  0.31877,
  0.164544,
  0.202092,
  0.292077,
  0.294998,
  0.157027,
  0.487,
  0.388,
  0.191,
  0.413066,
  0.785281,
  0.618529,
  0.638,
  0.476331,
  0.718699,
  0.684018,
  0.617,
  0.561167,
  0.427,
  0.577,
  0.696568,
  0.427922,
  0.598,
  0.526,
  0.598568,
  0.385,
  0.459204,
  0.538777,
  0.645218,
  0.665226,
  0.427103,
  0.515545,
  0.507934,
  0.519012,
  0.394567,
  0.595092,
  0.410619,
  1.069,
  0.51964,
  0.483672,
  0.6,
  0.368934,
  0.661481,
  0.355007,
  0.33965,
  0.647687,
  0.386769,
  0.583502,
  0.539266,
  0.796651,
  0.707381,
  0.45881,
  1.004941,
  0.548876,
  0.552247,
  0.475548,
  0.405,
  0.618275,
  0.5171,
  0.432103,
  0.973929,
  0.345936,
  0.623897,
  0.369157,
  0.529324,
  0.545733,
  0.507787,
  0.384994,
  0.374682,
  0.365897,
  0.394042,
  0.390862,
  0.327328,
  0.47562,
  0.657677,
  0.545483,
  0.604525,
  0.586138,
  0.522735,
  0.685,
  0.499,
  0.499084,
  0.607903,
  0.713202,
  0.759,
  1.133903,
  0.657607,
  0.432053,
  0.507826,
  0.602387,
  0.47508,
  0.465665,
  0.49636,
  0.298121,
  0.379108,
  0.491937,
  0.610497,
  0.653308,
  0.521651,
  0.575,
  0.394184,
  0.594384,
  0.540121,
  0.575434,
  0.449337,
  0.405794,
  0.436864,
  0.410268,
  0.459775,
  0.399151,
  0.437617,
  0.75221,
  0.379188,
  0.520112,
  0.614561,
  0.553121,
  0.412,
  0.427461,
  0.39,
  0.540536,
  0.522111,
  0.486441,
  0.650653,
  0.175031,
  0.43512,
  0.366889,
  0.534808,
  0.177943,
  0.247466,
  0.446,
  0.596227,
  0.143897,
  0.286783,
  0.159,
  0.482629,
  0.245647,
  0.35764,
  0.273026,
  0.37666,
  0.600847,
  0.494033,
  0.6138,
  0.483381,
  0.462212,
  0.408303,
  0.563683,
  0.496,
  0.425013,
  0.395,
  0.405437,
  0.519686,
  0.71486,
  0.747282,
  0.677,
  0.665,
  0.15703,
  0.164172,
  0.130805,
  0.195,
  0.275522,
  0.344,
  0.175875,
  0.39969,
  0.36783,
  0.191038,
  0.28229,
  0.259557,
  0.216,
  0.426,
  0.323068,
  0.338,
  0.345572,
  0.195206,
  0.489,
  0.20125,
  0.406,
  0.354049,
  0.337082,
  0.270116,
  0.457061,
  0.162941,
  0.407801,
  0.155803,
  0.507376,
  0.184,
  0.176226,
  0.21466,
  0.298978,
  0.231571,
  0.195491,
  0.207688,
  0.146878,
  0.321762,
  0.186329,
  0.256551,
  0.326325,
  0.336,
  0.691517,
  0.140377,
  0.174828,
  0.143,
  0.381922,
  0.320244,
  0.426866,
  0.159502,
  0.268004,
  0.199091,
  0.264104,
  0.203089,
  0.40444,
  0.21147,
  0.35363,
  0.342075,
  0.405596,
  0.387255,
  0.531818,
  0.157,
  0.433695,
  0.407878,
  0.193089,
  0.164251,
  0.225,
  0.228295,
  0.395,
  0.387784,
  0.195,
  0.391141,
  0.402537,
  0.239173,
  0.273674,
  0.325451,
  0.374797,
  0.311,
  0.205,
  0.354,
  0.552739,
  0.430463,
  0.706,
  0.605161,
  0.564705,
  0.737,
  0.409,
  0.395472,
  0.461388,
  0.650122,
  0.543941,
  0.648069,
  0.550066,
  0.6083,
  0.590049,
  0.501897,
  0.368768,
  0.587956,
  0.501483,
  0.64074,
  0.429294,
  0.400282,
  0.317884,
  0.56924,
  0.280236,
  0.301173,
  0.31524,
  0.622335,
  0.667693,
  0.611388,
  0.471216,
  0.487785,
  0.333607,
  0.127,
  0.16,
  0.386256,
  0.187388,
  0.462386,
  0.366,
  0.457228,
  0.340647,
  0.37282,
  0.283204,
  0.20653,
  0.163213,
  0.147084,
  0.23,
  0.399,
  0.125508,
  0.128,
  0.322097,
  0.213777,
  0.344993,
  0.174,
  0.181418,
  0.238897,
  0.435103,
  0.266444,
  0.516223,
  0.378281,
  0.133792,
  0.286736,
  0.556,
  0.267897,
  0.933206,
  0.504,
  0.387,
  0.607172,
  0.472244,
  0.538307,
  0.570897,
  0.405573,
  0.714,
  0.558909,
  0.489122,
  0.638712,
  0.398805,
  0.451,
  0.395001,
  0.359,
  0.495,
  0.444788,
  0.761705,
  0.681388,
  0.454006,
  0.618786,
  0.421103,
  0.681398,
  0.530498,
  0.68,
  0.634581,
  0.439641,
  0.749152,
  0.475,
  0.59528,
  0.386,
  0.194476,
  0.218091,
  0.468,
  0.141103,
  0.369101,
  0.413794,
  0.160244,
  0.413851,
  0.362,
  0.230445,
  0.273,
  0.177,
  0.167619,
  0.104464,
  0.423,
  0.17,
  0.523626,
  0.416989,
  0.373331,
  0.43374,
  0.438,
  0.399667,
  0.595698,
  0.45,
  0.488006,
  0.402,
  0.476,
  0.628,
  0.528889,
  0.519,
  0.544,
  0.558,
  0.63815,
  0.545818,
  0.677551,
  0.471,
  0.502052,
  0.725393,
  0.390401,
  0.582,
  0.413109,
  0.410004,
  0.403715,
  0.351556,
  0.418741,
  0.516405,
  0.631714,
  0.594432,
  0.685,
  0.711328,
  0.481342,
  0.635858,
  0.424043,
  0.655733,
  0.53639,
  0.703,
  0.657379,
  0.459245,
  0.571,
  0.722005,
  0.408001,
  0.373206,
  0.650767,
  0.472178,
  0.112412,
  0.366,
  0.272391,
  0.26814,
  0.232408,
  0.455746,
  0.289095,
  0.291055,
  0.236,
  0.373644,
  0.4042,
  0.321,
  0.21,
  0.22137,
  0.314469,
  0.3302,
  0.607401,
  0.351342,
  0.473807,
  0.360907,
  0.457128,
  0.509449,
  0.437853,
  0.381005,
  0.349348,
  0.418,
  0.623469,
  0.539868,
  0.41407,
  0.400604,
  0.473851,
  0.446498,
  0.379714,
  0.641158,
  0.428174,
  0.665,
  0.431838,
  0.628,
  0.401853,
  0.353035,
  0.401294,
  0.335305,
  0.636,
  0.436777,
  0.404852,
  0.422363,
  0.581301,
  0.362356,
  0.161936,
  0.28002,
  0.499,
  0.44819,
  0.465,
  0.497694,
  0.346,
  0.296979,
  0.303478,
  0.44545,
  0.197,
  0.48444,
  0.252581,
  0.475448,
  0.497,
  0.246196,
  0.223,
  0.337355,
  0.412,
  0.256,
  0.183501,
  0.305977,
  0.516021,
  0.214,
  0.163686,
  0.256,
  0.295114,
  0.197938,
  0.16668,
  0.319,
  0.382659,
  0.326,
  0.190279,
  0.31,
  0.218096,
  0.195,
  0.48381,
  0.135173,
  0.213344,
  0.16133,
  0.150925,
  0.141302,
  0.374,
  0.263956,
  0.315543,
  0.164954,
  0.132433,
  0.233382,
  0.407731,
  0.412184,
  0.671787,
  0.489652,
  0.606776,
  0.676,
  0.585763,
  0.639656,
  0.470674,
  0.640126,
  0.453368,
  0.381532,
  0.562338,
  0.437933,
  0.391396,
  0.663332,
  0.530264,
  0.443364,
  0.419986,
  0.713832,
  0.537575,
  0.67193,
  0.568387,
  0.440001,
  0.36662,
  0.377629,
  0.560505,
  0.390868,
  0.593274,
  0.588438,
  0.520431,
  0.383821,
  0.505173,
  0.56554,
  0.587677,
  0.522854,
  0.5427,
  0.609441,
  0.473845,
  0.409,
  0.47767,
  0.490332,
  0.618797,
  0.46,
  0.389251,
  0.649638,
  0.362388,
  0.456872,
  0.215583,
  0.526097,
  0.726851,
  0.291733,
  0.409059,
  0.346236,
  0.459655,
  0.184097,
  0.476,
  0.227,
  0.410875,
  0.195897,
  0.759,
  0.154826,
  0.436897,
  0.231,
  0.504242,
  0.544883,
  0.35,
  0.548,
  0.584622,
  0.417475,
  0.412061,
  0.378196,
  0.470897,
  0.383589,
  0.440471,
  0.517009,
  0.584,
  0.386,
  0.44,
  0.360113,
  0.457986,
  0.234,
  0.473146,
  0.533853,
  0.463272,
  0.469589,
  0.316768,
  0.184,
  0.403898,
  0.24902,
  0.522102,
  0.19821,
  0.334841,
  0.402662,
  0.345347,
  0.353561,
  0.572285,
  0.453,
  0.296434,
  0.711404,
  0.578908,
  0.607,
  0.371883,
  0.605607,
  0.48699,
  0.411,
  0.366,
  0.635146,
  0.444,
  0.477167,
  0.734,
  0.394,
  0.585186,
  0.654,
  0.412017,
  0.345,
  0.484,
  0.326302,
  0.449907,
  0.32819,
  0.387635,
  0.386004,
  0.439384,
  0.561121,
  0.35955,
  0.588868,
  0.600701,
  0.386796,
  0.153443,
  0.373306,
  0.32,
  0.126735,
  0.331,
  0.136564,
  0.108,
  0.403952,
  0.344851,
  0.263433,
  0.208216,
  0.270483,
  0.156179,
  0.341823,
  0.229578,
  0.342,
  0.255536,
  0.567092,
  0.383158,
  0.29832,
  0.274301,
  0.21564,
  0.217624,
  0.425477,
  0.370956,
  0.318459,
  0.244997,
  0.318751,
  0.39,
  0.242827,
  0.227,
  0.338778,
  0.240121,
  0.162355,
  0.337662,
  0.263698,
  0.262006,
  0.07374,
  0.138524,
  0.531108,
  0.232103,
  0.408179,
  0.203,
  0.392022,
  0.234,
  0.170897,
  0.140245,
  0.184244,
  0.44985,
  0.501946,
  0.422178,
  0.489,
  0.595831,
  0.751838,
  0.61192,
  0.758,
  0.672979,
  0.602782,
  0.361567,
  0.423,
  0.493,
  0.555529,
  0.645168,
  0.627968,
  0.440912,
  0.642,
  0.451218,
  0.712,
  0.70859,
  0.427,
  0.475364,
  0.416,
  0.616098,
  0.433,
  0.541368,
  0.663172,
  0.645809,
  0.752042,
  0.503656,
  0.480324,
  0.407798,
  0.418587,
  0.380445,
  0.155539,
  0.508331,
  0.156447,
  0.414111,
  0.364,
  0.446895,
  0.189103,
  0.326473,
  0.419103,
  0.158496,
  0.208,
  0.482333,
  0.496,
  0.3494,
  0.189,
  0.135,
  0.188947,
  0.725,
  0.157928,
  0.285584,
  0.327257,
  0.268,
  0.09293,
  0.184552,
  0.217505,
  0.334344,
  0.113135,
  0.325844,
  0.323,
  0.432,
  0.205,
  0.450675,
  0.520602,
  0.304839,
  0.334897,
  0.347,
  0.427,
  0.329643,
  0.159,
  0.111,
  0.457,
  0.43582,
  0.386444,
  0.33485,
  0.213719,
  0.519417,
  0.787273,
  0.754181,
  0.432286,
  0.36734,
  0.519,
  0.394,
  0.399469,
  0.49,
  0.669874,
  0.597215,
  0.42,
  0.707,
  0.440501,
  0.475434,
  0.431592,
  0.417211,
  0.297322,
  0.384444,
  0.44178,
  0.353678,
  0.340878,
  0.466908,
  0.512,
  0.292349,
  0.474983,
  0.378,
  0.599818,
  0.428,
  0.465119,
  0.631946,
  0.60227,
  0.276,
  0.123449,
  0.23472,
  0.211491,
  0.286614,
  0.415978,
  0.101877,
  0.14141,
  0.403256,
  0.237,
  0.26,
  0.181559,
  0.356956,
  0.263,
  0.322,
  0.153455,
  0.603347,
  0.503662,
  0.518265,
  0.74,
  0.639,
  0.411,
  0.677,
  0.489636,
  0.526773,
  0.594832,
  0.64,
  0.581978,
  0.556858,
  0.55846,
  0.654787,
  0.582,
  0.454898,
  0.314219,
  0.523603,
  0.2217,
  0.501888,
  0.348982,
  0.350834,
  0.348105,
  0.372989,
  0.364686,
  0.21579,
  0.186,
  0.395092,
  0.23,
  0.196739,
  0.227761,
  0.693451,
  0.396726,
  0.571611,
  0.374043,
  0.405992,
  0.486516,
  0.591386,
  0.403703,
  0.32782,
  0.531129,
  0.478973,
  0.329853,
  0.638,
  0.520819,
  0.503535,
  0.466
]